/* XPM */ 
static const char * logo_xpm[] = {
"64 64 719 2",
"  	c None",
"! 	c white",
"# 	c #FEFEFE",
"$ 	c #FFFFFD",
"% 	c #FFFFFB",
"& 	c #FEFEFC",
"' 	c #FFFEFF",
"( 	c #FEFFFF",
") 	c #FEFCFF",
"* 	c #FEFFFD",
"+ 	c #FBFDFC",
", 	c #BCC2CE",
"- 	c #F8F9FB",
". 	c #FDFDFD",
"0 	c #A7ADBB",
"1 	c #545D7C",
"2 	c #CBD2D8",
"3 	c #4B5676",
"4 	c #4B5A7B",
"5 	c #FDFFFC",
"6 	c #D7DAE1",
"7 	c #8893A7",
"8 	c #28385C",
"9 	c #64708A",
": 	c #DADBE0",
"; 	c #A6ACB8",
"< 	c #5C6783",
"= 	c #223256",
"> 	c #818DA3",
"? 	c #DADAE2",
"@ 	c #A8ABBA",
"A 	c #818CA2",
"B 	c #303C62",
"C 	c #3A4A6B",
"D 	c #8A97AA",
"E 	c #D8DBE4",
"F 	c #A6ABBE",
"G 	c #8A92A7",
"H 	c #4B587A",
"I 	c #23305A",
"J 	c #4E5F7D",
"K 	c #8C97AB",
"L 	c #FFFDFE",
"M 	c #D8DBE2",
"N 	c #A7ADBD",
"O 	c #8991A8",
"P 	c #586381",
"Q 	c #24335C",
"R 	c #2B3A61",
"S 	c #566582",
"T 	c #8D98AC",
"U 	c #DBDBE3",
"V 	c #8890A5",
"W 	c #2E3C63",
"X 	c #162550",
"Y 	c #334365",
"Z 	c #8E99AD",
"[ 	c #A6ADBD",
"] 	c #2F3B63",
"^ 	c #182752",
"_ 	c #12234E",
"` 	c #364668",
"a 	c #556483",
"b 	c #DADDE4",
"c 	c #A5ACBC",
"d 	c #8692AA",
"e 	c #566383",
"f 	c #2F3D62",
"g 	c #192851",
"h 	c #0F204C",
"i 	c #142550",
"j 	c #354567",
"k 	c #566584",
"l 	c #FDFFFE",
"m 	c #D9DCE3",
"n 	c #8691A7",
"o 	c #596484",
"p 	c #303D67",
"q 	c #192754",
"r 	c #0F224D",
"s 	c #0D204B",
"t 	c #142551",
"u 	c #36466A",
"v 	c #A5AEBF",
"w 	c #8890A7",
"x 	c #596482",
"y 	c #2F3D60",
"z 	c #182750",
"{ 	c #10214D",
"| 	c #12204D",
"} 	c #11204B",
"~ 	c #8792A8",
" !	c #2E3D66",
"!!	c #192A55",
"#!	c #D8DBE0",
"$!	c #8990AA",
"%!	c #5A6585",
"&!	c #303F68",
"'!	c #192C57",
"(!	c #132450",
")!	c #0E1F4B",
"*!	c #13254D",
"+!	c #FDFDFF",
",!	c #A7AEBE",
"-!	c #8993AC",
".!	c #5A6787",
"0!	c #34436C",
"1!	c #1E2F5D",
"2!	c #1A2B57",
"3!	c #182954",
"4!	c #172A55",
"5!	c #172854",
"6!	c #13244F",
"7!	c #10214C",
"8!	c #8D98AE",
"9!	c #A8AFBF",
":!	c #5B688A",
";!	c #38486C",
"<!	c #233661",
"=!	c #1E315C",
">!	c #1D305B",
"?!	c #1D2E5A",
"@!	c #1B2C58",
"A!	c #162850",
"B!	c #D9DBE7",
"C!	c #A8AFC1",
"D!	c #8B95AE",
"E!	c #5F6C8E",
"F!	c #394B71",
"G!	c #293C67",
"H!	c #243762",
"I!	c #213862",
"J!	c #223962",
"K!	c #233660",
"L!	c #22335E",
"M!	c #1E2F5A",
"N!	c #1C2F59",
"O!	c #182957",
"P!	c #182A52",
"Q!	c #D9DDE8",
"R!	c #8C97AD",
"S!	c #5F6E8D",
"T!	c #3D4F77",
"U!	c #2D3F6D",
"V!	c #273E68",
"W!	c #293E69",
"X!	c #293F68",
"Y!	c #283E67",
"Z!	c #263B66",
"[!	c #223861",
"]!	c #1F3358",
"^!	c #1A2D57",
"_!	c #1B2D53",
"`!	c #38486A",
"a!	c #556481",
"b!	c #A9B0C2",
"c!	c #8D97B0",
"d!	c #637291",
"e!	c #3F5376",
"f!	c #2F446F",
"g!	c #2C436D",
"h!	c #2E456F",
"i!	c #314770",
"j!	c #2F466F",
"k!	c #2D446D",
"l!	c #2B416A",
"m!	c #293C64",
"n!	c #253860",
"o!	c #1F3159",
"p!	c #1F325A",
"q!	c #3A4A6C",
"r!	c #FDFDFB",
"s!	c #A8AEBE",
"t!	c #8E99AF",
"u!	c #657292",
"v!	c #42567B",
"w!	c #334A74",
"x!	c #334972",
"y!	c #344B74",
"z!	c #364D79",
"{!	c #374F75",
"|!	c #375078",
"}!	c #364F77",
"~!	c #344C72",
" #	c #2F496E",
"!#	c #2B4369",
"##	c #20365D",
"$#	c #20335B",
"%#	c #3B4B6D",
"&#	c #576683",
"'#	c #AAB0C0",
"(#	c #8D99AF",
")#	c #637490",
"*#	c #44577F",
"+#	c #374D76",
",#	c #364D77",
"-#	c #395177",
".#	c #39557C",
"0#	c #3E577F",
"1#	c #3F597E",
"2#	c #3C587D",
"3#	c #3C567B",
"4#	c #395378",
"5#	c #354F74",
"6#	c #31496F",
"7#	c #2B4168",
"8#	c #22385F",
"9#	c #23365E",
":#	c #3D4D6F",
";#	c #FEFEFF",
"<#	c #D9DCE5",
"=#	c #ABB0C3",
">#	c #667690",
"?#	c #435A7C",
"@#	c #385179",
"A#	c #3D567E",
"B#	c #3E5A81",
"C#	c #435F86",
"D#	c #455F84",
"E#	c #445E83",
"F#	c #425C81",
"G#	c #3B5379",
"H#	c #354D73",
"I#	c #2E466C",
"J#	c #273D66",
"K#	c #263961",
"L#	c #3F4F71",
"M#	c #586784",
"N#	c #FBFFFE",
"O#	c #A7AFBC",
"P#	c #8E9BAE",
"Q#	c #667793",
"R#	c #485A80",
"S#	c #3B547C",
"T#	c #3D5981",
"U#	c #48648B",
"V#	c #49658A",
"W#	c #4A668B",
"X#	c #4A6489",
"Y#	c #476186",
"Z#	c #445E81",
"[#	c #3F577B",
"]#	c #2A4067",
"^#	c #405072",
"_#	c #596885",
"`#	c #D7D9E5",
"a#	c #AAAFC2",
"b#	c #9098AF",
"c#	c #657493",
"d#	c #465A7F",
"e#	c #39507A",
"f#	c #405C83",
"g#	c #46628A",
"h#	c #4B678C",
"i#	c #4D6990",
"j#	c #4E6C90",
"k#	c #506D8F",
"l#	c #506C91",
"m#	c #4D698E",
"n#	c #496688",
"o#	c #476184",
"p#	c #425C7F",
"q#	c #3C5478",
"r#	c #354B72",
"s#	c #2A4268",
"t#	c #2A3D65",
"u#	c #415173",
"v#	c #5A6986",
"w#	c #DADAE4",
"x#	c #8F97AE",
"y#	c #45597E",
"z#	c #3B4E78",
"{#	c #3B527B",
"|#	c #3F5B82",
"}#	c #47638A",
"~#	c #4C6A8E",
" $	c #516F91",
"!$	c #527094",
"#$	c #547296",
"$$	c #537090",
"%$	c #4F6D8F",
"&$	c #4D6A8A",
"'$	c #486587",
"($	c #425F81",
")$	c #3C5679",
"*$	c #DADAE6",
"+$	c #A8ADC1",
",$	c #62728C",
"-$	c #354E77",
".$	c #395079",
"0$	c #3D5B7F",
"1$	c #466287",
"2$	c #4E678F",
"3$	c #506E92",
"4$	c #567498",
"5$	c #57759B",
"6$	c #567496",
"7$	c #547294",
"8$	c #526F91",
"9$	c #4F6C8C",
":$	c #496686",
";$	c #455F82",
"<$	c #3E587D",
"=$	c #2D456B",
">$	c #D8DAE6",
"?$	c #8B96AA",
"@$	c #606F8C",
"A$	c #405278",
"B$	c #344A71",
"C$	c #354E76",
"D$	c #446085",
"E$	c #577599",
"F$	c #597799",
"G$	c #5A789A",
"H$	c #587698",
"I$	c #537092",
"J$	c #4A6787",
"K$	c #3E587B",
"L$	c #365075",
"M$	c #2C446A",
"N$	c #DBDBE7",
"O$	c #A9AFBF",
"P$	c #8994AA",
"Q$	c #5F6D8A",
"R$	c #3D4F75",
"S$	c #30466F",
"T$	c #324973",
"U$	c #39527B",
"V$	c #425B83",
"W$	c #476388",
"X$	c #4E6A8F",
"Y$	c #536F94",
"Z$	c #5A7998",
"[$	c #597897",
"]$	c #4F6C8E",
"^$	c #4A6789",
"_$	c #3D577A",
"`$	c #2C4269",
"a$	c #A7ACBF",
"b$	c #8691A5",
"c$	c #5D6A8A",
"d$	c #3C4C70",
"e$	c #2C426B",
"f$	c #3C557D",
"g$	c #48668A",
"h$	c #577597",
"i$	c #577899",
"j$	c #587998",
"k$	c #577897",
"l$	c #435D7E",
"m$	c #3B5578",
"n$	c #334B71",
"o$	c #2A4069",
"p$	c #283B63",
"q$	c #596784",
"r$	c #D6DBDF",
"s$	c #596887",
"t$	c #37466D",
"u$	c #293C66",
"v$	c #273E67",
"w$	c #2D466E",
"x$	c #3D5980",
"y$	c #466085",
"z$	c #4B678E",
"{$	c #516E90",
"|$	c #537291",
"}$	c #537193",
"~$	c #4C698B",
" %	c #466385",
"!%	c #405A7B",
"#%	c #395175",
"$%	c #31476E",
"%%	c #2A3D67",
"&%	c #3E4E70",
"'%	c #586683",
"(%	c #344468",
")%	c #23345F",
"*%	c #243761",
"+%	c #304770",
",%	c #446183",
"-%	c #4A688C",
".%	c #527190",
"0%	c #557397",
"1%	c #577695",
"2%	c #567594",
"3%	c #4E6B8D",
"4%	c #3D577C",
"5%	c #364E74",
"6%	c #2D436A",
"7%	c #3C4C6E",
"8%	c #576582",
"9%	c #586383",
":%	c #324065",
";%	c #213059",
"<%	c #20335D",
"=%	c #253862",
">%	c #324871",
"?%	c #394F76",
"@%	c #4B6588",
"A%	c #547193",
"B%	c #506A8D",
"C%	c #466083",
"D%	c #405A7D",
"E%	c #324A70",
"F%	c #24375F",
"G%	c #21335B",
"H%	c #3C4A6D",
"I%	c #A6ACBC",
"J%	c #888FA9",
"K%	c #1F325D",
"L%	c #314671",
"M%	c #435D82",
"N%	c #4B688A",
"O%	c #4D6A8C",
"P%	c #415B7E",
"Q%	c #3B5377",
"R%	c #344C70",
"S%	c #273A64",
"T%	c #1F325C",
"U%	c #1D2F57",
"V%	c #3A486B",
"W%	c #A5ADBA",
"X%	c #8890A3",
"Y%	c #5A6382",
"Z%	c #122550",
"[%	c #1E315B",
"]%	c #273F65",
"^%	c #3A5479",
"_%	c #405A7F",
"`%	c #456284",
"a%	c #476486",
"b%	c #445E7F",
"c%	c #3F597C",
"d%	c #283E65",
"e%	c #1B2E58",
"f%	c #1A2C54",
"g%	c #374568",
"h%	c #8C99AC",
"i%	c #FCFEFD",
"j%	c #A8ABBC",
"k%	c #56647F",
"l%	c #2D3D61",
"m%	c #12244C",
"n%	c #182955",
"o%	c #1D2E59",
"p%	c #22355F",
"q%	c #263C63",
"r%	c #2E4169",
"s%	c #364E72",
"t%	c #435D80",
"u%	c #435F84",
"v%	c #415B80",
"w%	c #40587C",
"x%	c #293F66",
"y%	c #1F305B",
"z%	c #172853",
"{%	c #D7DADF",
"|%	c #878FA6",
"}%	c #2E3C61",
"~%	c #12214C",
" &	c #11224D",
"!&	c #162752",
"#&	c #1A2B56",
"$&	c #263E64",
"%&	c #2E446B",
"&&	c #324A6E",
"'&	c #3A5276",
"(&	c #3E567A",
")&	c #41597D",
"*&	c #3D5579",
"+&	c #3A5278",
",&	c #374D74",
"-&	c #32486F",
".&	c #888EA4",
"0&	c #576280",
"1&	c #17294F",
"2&	c #0E1F4A",
"3&	c #0F204B",
"4&	c #1D305A",
"5&	c #22345C",
"6&	c #233960",
"7&	c #2F476B",
"8&	c #384E73",
"9&	c #374E77",
":&	c #334D72",
";&	c #324972",
"<&	c #294167",
"=&	c #213760",
">&	c #344466",
"?&	c #D6D9E0",
"@&	c #A4ABBB",
"A&	c #8B92A5",
"B&	c #152651",
"C&	c #253B64",
"D&	c #2F456A",
"E&	c #2F456C",
"F&	c #20315D",
"G&	c #1C2D59",
"H&	c #101E4B",
"I&	c #838EA2",
"J&	c #505B79",
"K&	c #27365D",
"L&	c #162451",
"M&	c #13214E",
"N&	c #11234B",
"O&	c #14234E",
"P&	c #13224B",
"Q&	c #25375F",
"R&	c #1B2C57",
"S&	c #FDFBFC",
"T&	c #CED1DA",
"U&	c #8A92A5",
"V&	c #5C6A84",
"W&	c #303E63",
"X&	c #2E3E62",
"Y&	c #314061",
"Z&	c #324162",
"[&	c #304062",
"]&	c #314162",
"^&	c #313F66",
"_&	c #314163",
"`&	c #324264",
"a&	c #354366",
"b&	c #344768",
"c&	c #3A4D6E",
"d&	c #3B4E6E",
"e&	c #3D4F73",
"f&	c #3C4F70",
"g&	c #3C4F6F",
"h&	c #3B4E6F",
"i&	c #384869",
"j&	c #324063",
"k&	c #313F62",
"l&	c #51607F",
"m&	c #64748E",
"n&	c #ACB2C2",
"o&	c #4E5979",
"p&	c #2D3B62",
"q&	c #26355C",
"r&	c #3D4E6C",
"s&	c #526180",
"t&	c #596983",
"u&	c #5A6885",
"v&	c #586786",
"w&	c #596A86",
"x&	c #5B6A87",
"y&	c #5C6B88",
"z&	c #5D6C89",
"{&	c #5E6D8A",
"|&	c #5C6A87",
"}&	c #5B6986",
"~&	c #576884",
" '	c #6B7993",
"!'	c #66768F",
"#'	c #99A1B4",
"$'	c #2A3A5C",
"%'	c #2F4165",
"&'	c #4E5D7C",
"''	c #6F7B95",
"('	c #78849C",
")'	c #76859A",
"*'	c #75839D",
"+'	c #74849D",
",'	c #76859C",
"-'	c #77869D",
".'	c #76849E",
"0'	c #74849B",
"1'	c #77839B",
"2'	c #75849B",
"3'	c #78879E",
"4'	c #707F96",
"5'	c #939EB0",
"6'	c #EDEEF0",
"7'	c #EEEFF1",
"8'	c #F7F7F9",
"9'	c #FAFCFB",
":'	c #F8FAF9",
";'	c #F8F8FA",
"<'	c #F7F8FA",
"='	c #F6F8F7",
">'	c #F6F7F9",
"?'	c #F8F8F8",
"@'	c #F9F9F9",
"A'	c #D6D6D6",
"B'	c #949695",
"C'	c #909193",
"D'	c #929395",
"E'	c #939395",
"F'	c #8F9092",
"G'	c #9A9899",
"H'	c #DCDCDC",
"I'	c #DADADA",
"J'	c #9E9E9E",
"K'	c #CCCCCC",
"L'	c #828483",
"M'	c #A5A5A5",
"N'	c #DDDDDD",
"O'	c #868686",
"P'	c #9C9C9C",
"Q'	c #E7E7E7",
"R'	c #989898",
"S'	c #F0F0F0",
"T'	c #FCFCFC",
"U'	c #D4D4D4",
"V'	c #B9B9B9",
"W'	c #BABABA",
"X'	c #939393",
"Y'	c #909291",
"Z'	c #919392",
"['	c #8C8E8D",
"]'	c #A3A5A4",
"^'	c #EEEEEE",
"_'	c #7F7F7F",
"`'	c #AEAEAE",
"a'	c #E9E9E9",
"b'	c #E1E1E1",
"c'	c #E6E8E7",
"d'	c #A09E9F",
"e'	c #7A7A7A",
"f'	c #D3D3D3",
"g'	c #7C7C7C",
"h'	c #B7B7B7",
"i'	c #808281",
"j'	c #797979",
"k'	c #C3C3C3",
"l'	c #878787",
"m'	c #838383",
"n'	c #818181",
"o'	c #DFDFDF",
"p'	c #717171",
"q'	c #B2B2B2",
"r'	c #727272",
"s'	c #DEDEDE",
"t'	c #E8EAE9",
"u'	c #E6E6E6",
"v'	c #ECECEC",
"w'	c #898989",
"x'	c #969696",
"y'	c #EBEBEB",
"z'	c #7D7D7D",
"{'	c #E8E8E8",
"|'	c #F1F1F1",
"}'	c #D2D2D2",
"~'	c #B6B8B7",
" (	c #9A9C9B",
"!(	c #CECECE",
"#(	c #737373",
"$(	c #B8B8B8",
"%(	c #828282",
"&(	c #EFEFEF",
"'(	c #676767",
"((	c #C5C5C5",
")(	c #787878",
"*(	c #F3F3F3",
"+(	c #F6F6F6",
",(	c #E2E2E2",
"-(	c #E3E3E3",
".(	c #E3E3E5",
"0(	c #7B7C7E",
"1(	c #E5E5E7",
"2(	c #CCCECD",
"3(	c #989A99",
"4(	c #AAAAAA",
"5(	c #B7B9B8",
"6(	c #929292",
"7(	c #707070",
"8(	c #D8D8D8",
"9(	c #7B7B7B",
":(	c #E0E0E0",
";(	c #7E7E7E",
"<(	c #6D6D6D",
"=(	c #B0B0B0",
">(	c #9D9D9D",
"?(	c #8E8E8E",
"@(	c #888A89",
"A(	c #7C7E7D",
"B(	c #C0C2C1",
"C(	c #D8DAD9",
"D(	c #E5E5E5",
"E(	c #B6B6B8",
"F(	c #717173",
"G(	c #FCFCFE",
"H(	c #D5D5D7",
"I(	c #838385",
"J(	c #B8B9BB",
"K(	c #EDEDED",
"L(	c #777777",
"M(	c #B4B4B4",
"N(	c #C8C8C8",
"O(	c #BEBEBE",
"P(	c #9E9FA1",
"Q(	c #D6D7D9",
"R(	c #D8D9DB",
"S(	c #DCDEDD",
"T(	c #DFE1E0",
"U(	c #B3B5B4",
"V(	c #8A8C8B",
"W(	c #BBBBBB",
"X(	c #626262",
"Y(	c #757575",
"Z(	c #6C6C6C",
"[(	c #666666",
"](	c #B5B5B5",
"^(	c #D4D6D5",
"_(	c #9B9B9B",
"`(	c #8C8C8C",
"a(	c #A5A7A6",
"b(	c #999B9A",
"c(	c #9A9A9A",
"d(	c #A7A7A7",
"e(	c #B3B3B3",
"f(	c #A4A4A4",
"g(	c #C7C7C7",
"h(	c #F4F4F4",
"i(	c #D9D9D9",
"j(	c #CBCBCB",
"k(	c #D0D0D0",
"l(	c #CDCDCD",
"m(	c #ABABAB",
"! ! ! ! ! ! ! ! ! ! ! ! ! ! ! ! ! ! ! ! ! ! ! ! ! ! ! ! ! ! ! ! ! ! ! ! ! ! ! ! ! ! ! ! ! ! ! ! ! ! ! # ! $ % ! ! ! ! ! ! ! ! ! ",
"! ! ! ! ! ! ! ! ! ! ! ! ! ! ! ! ! ! ! ! ! ! ! ! ! ! ! ! ! ! ! ! ! ! ! ! ! ! ! ! ! ! ! ! ! ! ! ! ! ! $ ! ! & ' # ! ! ! ! ! ! ! ! ",
"! ! ! ! ! ! ! ! ! ! ! ! ! ! ! ! ! ! ! ! ! ! ! ! ! ! ! ! ! ! ! ! ! ! ! ! ! ! ! ! ! ! ! ! ! ! ! ! ! ( $ ' ! ! ! ! ! ! ! ! ! ! ! ! ",
"! ! ! ! ! ! ! ! ! ! ! ! ! ! ! ! ! ! ! ! ! ! ! ! ! ! ! ! ! ! ! ! ! ! ! ! ! ! ! ! ! ! ! ! ! ! ! ! ! ! ! ) ! ! ( $ ! ! ! ! ! ! ! ! ",
"! ! ! ! ! ! ! ! ! ! ! ! ! ! ! ! ! ! ! ! ! ! ! ! ! ! ! ! ! ! ! ! ! ! ! ! ! ! ! ! ! ! ! ! ! ! ! ! $ ' # $ ! * ! ! ! ! ! ! ! ! ! ! ",
"! ! ! ! ! ! ! ! ! ! ! ! ! ! ! ! ! ! ! ! ! ! ! ! ! ! ! ! ! ! ! ! ! ! ! ! ! ! ! ! ! ! ! ! ! ! ! ! & ' + , - ! # ! ! ! ! ! ! ! ! ! ",
"! ! ! ! ! ! ! ! ! ! ! ! ! ! ! ! ! ! ! ! ! ! ! ! ! ! ! ! ! ! ! ! ! ! ! ! ! ! ! ! ! ! ! ! ! ! ! ! . ( 0 1 . ! # $ ! ! ! ! ! ! ! ! ",
"! ! ! ! ! ! ! ! ! ! ! ! ! ! ! ! ! ! ! ! ! ! ! ! ! ! ! ! ! ! ! ! ! ! ! ! ! ! ! ! ! ! ! ! ! ! ! ! ! 2 3 4 ' # 5 ' ! ! ! ! ! ! ! ! ",
"! ! ! ! ! ! ! ! ! ! ! ! ! ! ! ! ! ! ! ! ! ! ! ! ! ! ! ! ! ! ! ! ! ! ! ! ! ! ! ! ( ! ! ! ( ! # ( 6 7 8 9 # # & ! ! ! ! ! ! ! ! ! ",
"! ! ! ! ! ! ! ! ! ! ! ! ! ! ! ! ! ! ! ! ! ! ! ! ! ! ! ! ! ! ! ! ! ! ! ! ! ! ! ! ! ! ! $ $ & ! : ; < = > ! . ! ! ! ! ! ! ! ! ! ! ",
"! ! ! ! ! ! ! ! ! ! ! ! ! ! ! ! ! ! ! ! ! ! ! ! ! ! ! ! ! ! ! ! ! ! ! ! ! ! ! ! ! $ $ # # ! ? @ A B C D ! # ! ! ! ! ! ! ! ! ! ! ",
"! ! ! ! ! ! ! ! ! ! ! ! ! ! ! ! ! ! ! ! ! ! ! ! ! ! ! ! ! ! ! ! ! ! ! ! ! ! ! ! ! $ ! # ( E F G H I J K # ( ! ! ! ! ! ! ! ! ! ! ",
"! ! ! ! ! ! ! ! ! ! ! ! ! ! ! ! ! ! ! ! ! ! ! ! ! ! ! ! ! ! ! ! ! ! ! ! ! ! ! ! ! ! L ! M N O P Q R S T ! ( $ ! ! ! ! ! ! ! ! ! ",
"! ! ! ! ! ! ! ! ! ! ! ! ! ! ! ! ! ! ! ! ! ! ! ! ! ! ! ! ! ! ! ! ! ! ! ! ! ! ! ! ! # ! U 0 V P W X Y S Z ! ! $ ! ! ! ! ! ! ! ! ! ",
"! ! ! ! ! ! ! ! ! ! ! ! ! ! ! ! ! ! ! ! ! ! ! ! ! ! ! ! ! ! ! ! ! ! ! ! ! ! ! ! ! ( M [ O P ] ^ _ ` a T ! ! ! ! ! ! ! ! ! ! ! ! ",
"! ! ! ! ! ! ! ! ! ! ! ! ! ! ! ! ! ! ! ! ! ! ! ! ! ! ! ! ! ! ! ! ! ! ! ! ! ! ! ! ! b c d e f g h i j k Z ! $ ' ! ! ! ! ! ! ! ! ! ",
"! ! ! ! ! ! ! ! ! ! ! ! ! ! ! ! ! ! ! ! ! ! ! ! ! ! ! ! ! ! ! ! ! ! ( ! ! ! l $ m [ n o p q r s t u a T ! ! ! ! ! ! ! ! ! ! ! ! ",
"! ! ! ! ! ! ! ! ! ! ! ! ! ! ! ! ! ! ! ! ! ! ! ! ! ! ! ! ! ! ! ! $ ! ! $ $ L ! M v w x y z { | } i u S T ! ! ! ! ! ! ! ! ! ! ! ! ",
"! ! ! ! ! ! ! ! ! ! ! ! ! ! ! ! ! ! ! ! ! ! ! ! ! ! ! ! ! ! ! ! ! ! % . L ! E 0 ~ e  !!!{ { h } i ` S T ! ! ! ! ! ! ! ! ! ! ! ! ",
"! ! ! ! ! ! ! ! ! ! ! ! ! ! ! ! ! ! ! ! ! ! ! ! ! ! ! ! ! ! ! ! ! ! ( ! ! #![ $!%!&!'!(!(!{ { )!*!j S T ! ! ! ! ! ! ! ! ! ! ! ! ",
"! ! ! ! ! ! ! ! ! ! ! ! ! ! ! ! ! ! ! ! ! ! ! ! ! ! ! ! ! ! ! ! ! ( +!! #!,!-!.!0!1!2!3!4!5!6!7!i j k 8!! ! ! ! ! ! ! ! ! ! ! ! ",
"! ! ! ! ! ! ! ! ! ! ! ! ! ! ! ! ! ! ! ! ! ! ! ! ! ! ! ! ! ! ! ! & L ! m 9!-!:!;!<!=!>!>!?!@!3!i A!` a 8!! ! ! ! ! ! ! ! ! ! ! ! ",
"! ! ! ! ! ! ! ! ! ! ! ! ! ! ! ! ! ! ! ! ! ! ! ! ! ! ! ! ! ! # # # # B!C!D!E!F!G!H!I!J!K!L!M!N!O!P!` a 8!! ! ! ! ! ! ! ! ! ! ! ! ",
"! ! ! ! ! ! ! ! ! ! ! ! ! ! ! ! ! ! ! ! ! ! ! ! ! ! ! ! ! ! # # ! Q!C!R!S!T!U!V!W!W!X!Y!Z![!]!^!_!`!a!T ! ! ! ! ! ! ! ! ! ! ! ! ",
"! ! ! ! ! ! ! ! ! ! ! ! ! ! ! ! ! ! ! ! ! ! ! ! ! ! ( ! ' $ l ! m b!c!d!e!f!g!h!i!i!j!k!l!m!n!o!p!q!S T ! ! ! ! ! ! ! ! ! ! ! ! ",
"! ! ! ! ! ! ! ! ! ! ! ! ! ! ! ! ! ! ! ! ! ! ! ! ! ( ! ! ( r!$ E s!t!u!v!w!x!y!z!{!|!}!~! #!#m!##$#%#&#T ! ! ! ! ! ! ! ! ! ! ! ! ",
"! ! ! ! ! ! ! ! ! ! ! ! ! ! ! ! ! ! ! ! ! ! ! ! ' $ % $ # ( M '#(#)#*#+#,#-#.#0#1#2#3#4#5#6#7#8#9#:#&#T ! ! ! ! ! ! ! ! ! ! ! ! ",
"! ! ! ! ! ! ! ! ! ! ! ! ! ! ! ! ! ! ! ! ! ! ! ! ! ! # # ;#<#=#t!>#?#|!@#A#B#C#D#D#E#F#1#G#H#I#J#K#L#M#T ! ! ! ! ! ! ! ! ! ! ! ! ",
"! ! ! ! ! ! ! ! ! ! ! ! ! ! ! ! ! ! ! ! ! ! ! ! ! N#* ' M O#P#Q#R#-#S#T#C#U#V#W#W#X#Y#Z#[#-#6#]#m!^#_#T ! ! ! ! ! ! ! ! ! ! ! ! ",
"! ! ! ! ! ! ! ! ! ! ! ! ! ! ! ! ! ! ! ! ! ! ! ! ! $ ! `#a#b#c#d#e#A#f#g#h#i#j#k#l#m#n#o#p#q#r#s#t#u#v#T ! ! ! ! ! ! ! ! ! ! ! ! ",
"! ! ! ! ! ! ! ! ! ! ! ! ! ! ! ! ! ! ! ! ! ! ! ! # $ w#C!x#u!y#z#{#|#}#~# $!$#$$$!$%$&$'$($)${!I#t#u#v#T ! ! ! ! ! ! ! ! ! ! ! ! ",
"! ! ! ! ! ! ! ! ! ! ! ! ! ! ! ! ! ! ! ! ! ! ! ! ! *$+$R!,$v!-$.$0$1$2$3$#$4$5$6$7$8$9$:$;$<${!=$t#u#v#T ! ! ! ! ! ! ! ! ! ! ! ! ",
"! ! ! ! ! ! ! ! ! ! ! ! ! ! ! ! ! ! * ! ! ( ! ! >$,!?$@$A$B$C$A#D$W#l##$E$F$G$H$6$I$9$J$;$K$L$M$t#u#v#T ! ! ! ! ! ! ! ! ! ! ! ! ",
"! ! ! ! ! ! ! ! ! ! ! ! ! ! ! ! ! $ ! $ # ;#! N$O$P$Q$R$S$T$U$V$W$X$Y$4$H$F$Z$[$6$I$]$^$Z#_$H#`$m!u#_#T ! ! ! ! ! ! ! ! ! ! ! ! ",
"! ! ! ! ! ! ! ! ! ! ! ! ! ! ! ! ! ' & ;#L ! w#a$b$c$d$e$g!y!f$E#g$3$7$h$i$j$j$k$6$I$]$n#l$m$n$o$p$^#q$T ! ! ! ! ! ! ! ! ! ! ! ! ",
"! ! ! ! ! ! ! ! ! ! ! ! ! ! ! ! ! # l # ! r$N $!s$t$u$v$w$}!x$y$z${$|$E$F$[$[$h$}$k#~$ %!%#%$%%%n!&%'%K ! ! ! # ! ! ! ! ! ! ! ! ",
"! ! ! ! ! ! ! ! ! ! ! ! ! ! ! ! ! ! # ! M [ 7 o (%)%*%o$+%{!1#,%-%%$.%0%E$1%2%#$8$3%n#Z#4%5%6%K#9#7%8%T ! ! ! ! ! ! ! ! ! ! ! ! ",
"! ! ! ! ! ! ! ! ! ! ! ! ! ! ! ! $ ' ! 6 a$~ 9%:%;%<%=%]#>%?%<$Z#@%3%{$I$A%A%I${$B%n#C%D%4#E%]#F%G%H%S T ! ! ! ! ! ! ! ! ! ! ! ! ",
"! ! ! ! ! ! ! ! ! ! ! ! ! ! ! ! # ;#6 I%J%9%W !!!!K%=%o$L%+#A#M% %N%3%k#k#{$]$O%@%C%P%Q%R%6%S%T%U%V%S T ! ! ! ! ! ! ! ! ! ! ! ! ",
"! ! ! ! ! ! ! ! ! ! ! ! ! ! ! ! $ 6 W%X%Y%f g Z%3![%F%]%I#H#^%_%Z#`%n#N%^$N%n#a%b%c%G#H#I#d%K!e%f%g%a!h%! ! ! ! ! ! ! ! ! ! ! ! ",
"! ! ! ! ! ! ! ! ( $ ! ! ! $ i%! M j%w k%l%5!h m%n%o%p%q%r%E%s%q#!%t%u%`%`%D$M%v%w%#%~!I#x%F%y%z%g g%8%T ! ! ! ' ! ! ! ! ! ! ! ! ",
"! ! ! ! ! ! ! ! ' ! ( 5 ( . ! {%I%|%x }%^ ~%}  &!&#&$#n!$&%&&&s%'&(&w%)&w%[#*&+&,&-&6%d%*%[%#&6!*!g%S T ! ! ! ! ! ! ! ! ! ! ! ! ",
"! ! ! ! ! ! ! ! ( $ $ ! L ! 6 I%.&0&}%1&7!2&3&3&i 3!4&5&6&x%`$7&y!5#8&{!9&H#:&;&I#<&q%=&4&#&i ~%i >&S Z ! ! # ! ! ! ! ! ! ! ! ! ",
"! ! ! ! ! ! ! ! $ ! ;#! ! ?&@&A&x }%^ { )! &2&2& &B&!!N!<%[!C&x%`$=$D&E&E&%&!#d%S%*%F&G&n%(!| H&_ j a!D ! ! ! ! ! ! ! ! ! ! ! ! ",
"! ! ! ! ! ! ! ! ! l +!! {%c I&J&K&L&M&N&m%~%O&P&_ i 3!e%M!T%K!=%p$m!d%x%x%q%K#Q&5&o!R&3!B&_  & &A!`!&#K ! # ! ! ! ! ! ! ! ! ! ! ",
"! ! ! ! ! ! ! ! ! S&! T&U&V&W&;%Q&X&Y&Z&[&]&[&^&_&[&`&a&b&`!q!c&d&L#e&f&g&h&7%q!i&j >&j&j&j&k&k&j l&m&Z ! ! ! ! ! ! ! ! ! ! ! ! ",
"! ! ! ! ! ! ! ! $ $ n&o&p&q&r&s&t&u&u&q$v&s$_#v#u&s$v&q$w&x&y&z&Q$Q$Q$Q${&z&|&|&}&u&M#M#_#_#w&~&y& '!'K ! ! ! ! ! ! ! ! ! ! ! ! ",
"! ! ! ! ! ! ! ! ! #'$'%'&'''(')'*'*'+','*'*'-'*'*'*'.'0'1'2',','.'-'('('.'-'0'2'2'2'-','.'*'*'*'.'3'4'5'! ! ! ! ! ! ! ! ! ! ! ! ",
"! ! ! ! ! ! ! # ! 6'7'8'9':';'<'8'8'<'<'<';'<'<'8';';';';';'8'8'8';'<'8';';';'<'=':':'- <'>'8'8'<'>'='?'! ! ! ! ! ! ! ! ! ! ! ! ",
"! ! ! ! ! ! ! ! ! ! ! ! l ! ! ( ! ! # ! ! ! ! ( ! ! ! ! ! # ! ! ! ! ! ! ! ! # ! ! ! # @'! ! ! ! # ! # ! ! ! # ! ! ! ! ! ! ! ! ! ",
"! ! ! ! ! ! ! ! l ( A'B'C'D'E'F'G'H'! I'J'! K'L'M'. # # . ! N'O'P'# Q'R'S'! ! ! T'! U'V'! W'X'Y'Z'[']'^'! . # ! ! ! ! ! ! ! ! ! ",
"! ! ! ! ! ! ! ! # ! _'`'a'b'b'c'd'e'# f'g'! h'i'j'k'! T'! . l'm'n'T'o'j'^'# # T'! o'p'q'U'r's't'u'v'w'x'! . ! ! ! ! ! ! ! ! ! ! ",
"! ! ! ! ! ! ! # ! y'z'{'! # # ! |'}'! f'm'! ~' (!(#(^'! # $(%(A'n'. b'_'&(! T'! s'z''(W'(()(y'S'*(+(,(-(! ! ! # ! ! ! ! ! ! ! ! ",
"! ! ! ! ! ! ! # ! .(0(1(! 2(3(J'J'4(! U'%(! 5(Y'# 6(x'# a'7(8(N'9(. :(;(^'! # s'e'r'<(=(! >(;(?(Z'@(A(B(! . ! ! ! ! ! ! ! ! ! ! ",
"! ! ! ! ! ! ! # ! a'g'u'! ^'C(D(E(F(G(H(I(! J(C'! {'7(}'R'X'! U';(# b'_'K(! s'e'p'L(<(M(,(N(! # # # O(g'. ! ! ! ! ! ! ! ! ! ! ! ",
"! ! ! ! ! ! ! ! ( ! L'P(Q(R(S(T(>(w'! }'9(! U(V(! ! W(X(g'a'! }'L(. o'Y(|'N'Y(Z(p'#([(](!([(!(A'^(8(_(`(! ! . ! ! ! ! ! ! ! ! ! ",
"! ! ! ! ! ! ! ! # ! S(a( (b(_(c(M':(! s'd(! !(e(! ! @'f(g(! ! D(M'# v'd(h(i(j(}'k(k(l(D(. $(R'P'_(>(m(Q'! # ! ! ! ! ! ! ! ! ! ! ",
"! ! ! ! ! ! ! ! ! ! ! ! ! ! ! ! # ! ! # ! # ! ! ! ! # ! ! ! ! # ! ! ! ! # ! ! # ! ! ! ! ! # ! ! ! # ! ! ! ! ! ! ! ! ! ! ! ! ! ! ",
"! ! ! ! ! ! ! ! ! # # T'! ! ! # . . ! ! ! ! ! # ! ! ! # # # ! ! # ! ! # ! # T'. T'. . # ! . ! ! ! # T'# ! ! ! ! ! ! ! ! ! ! ! ! ",
"! ! ! ! ! ! ! ! ! ! ! # ! # ! ! ! ! ! ! ! ! ! # ! ! ! ! # ! ! ! ! ! ! ! ! ! ! # ! ! ! ! ! ! ! ! ! ! ! ! ! ! # ! ! ! ! ! ! ! ! ! ",
"! ! ! ! ! ! ! ! # ! # ! ! ! # ! ! ! ! ! ! ! ! # ! # ! ! ! ! ! ! ! ! ! ! ! ! ! ! ! ! ! # ! # ! # ! ! ! ! ! ! ! ! ! ! ! ! ! ! ! ! ",
"! ! ! ! ! ! ! ! ! ! ! ! ! ! ! ! ! ! # ! ! ! ! ! ! ! # # ! ! # ! ! ! ! ! ! ! ! # # ! ! ! # ! ! ! ! ! ! ! # ! ! ! ! ! ! ! ! ! ! ! ",
"! ! ! ! ! ! ! ! ! ! ! ! ! ! ! ! ! ! ! ! # ! ! ! ! ! # ! ! ! ! ! ! # ! ! # ! ! ! ! ! ! ! ! ! ! ! ! ! ! ! ! # ! ! ! ! ! ! ! ! ! ! ",
"! ! ! ! ! ! ! ! ! ! ! ! ! ! ! ! ! ! ! ! ! ! ! ! ! ! ! ! # ! ! ! ! ! ! ! ! # ! ! ! ! ! # ! ! # ! ! ! ! ! ! ! # ! ! ! ! ! ! ! ! ! "};