digraph "Modules/BaseLib/libmodules/blUtilitiesVTK/include/blBinaryImageToVTKPolyLine.h"
{
  edge [fontname="Helvetica",fontsize="10",labelfontname="Helvetica",labelfontsize="10"];
  node [fontname="Helvetica",fontsize="10",shape=record];
  Node1 [label="Modules/BaseLib/libmodules\l/blUtilitiesVTK/include\l/blBinaryImageToVTKPolyLine.h",height=0.2,width=0.4,color="black", fillcolor="grey75", style="filled", fontcolor="black"];
  Node1 -> Node2 [dir="back",color="midnightblue",fontsize="10",style="solid",fontname="Helvetica"];
  Node2 [label="Modules/BaseLib/libmodules\l/blUtilitiesVTK/src/blBinaryImage\lToVTKPolyLine.cxx",height=0.2,width=0.4,color="black", fillcolor="white", style="filled",URL="$blBinaryImageToVTKPolyLine_8cxx.html"];
  Node1 -> Node3 [dir="back",color="midnightblue",fontsize="10",style="solid",fontname="Helvetica"];
  Node3 [label="Modules/MeshLib/libmodules\l/meTools/src/meVTKSkeleton.cpp",height=0.2,width=0.4,color="black", fillcolor="white", style="filled",URL="$meVTKSkeleton_8cpp.html"];
}
