digraph "Modules/BaseLib/libmodules/blUtilitiesITK/src/blConnectedThresholdImageFilter.cpp"
{
  edge [fontname="Helvetica",fontsize="10",labelfontname="Helvetica",labelfontsize="10"];
  node [fontname="Helvetica",fontsize="10",shape=record];
  Node1 [label="Modules/BaseLib/libmodules\l/blUtilitiesITK/src/blConnected\lThresholdImageFilter.cpp",height=0.2,width=0.4,color="black", fillcolor="grey75", style="filled", fontcolor="black"];
  Node1 -> Node2 [color="midnightblue",fontsize="10",style="solid",fontname="Helvetica"];
  Node2 [label="blConnectedThresholdImage\lFilter.h",height=0.2,width=0.4,color="black", fillcolor="white", style="filled",URL="$blConnectedThresholdImageFilter_8h.html"];
  Node2 -> Node3 [color="midnightblue",fontsize="10",style="solid",fontname="Helvetica"];
  Node3 [label="time.h",height=0.2,width=0.4,color="grey75", fillcolor="white", style="filled"];
  Node2 -> Node4 [color="midnightblue",fontsize="10",style="solid",fontname="Helvetica"];
  Node4 [label="itkConnectedThresholdImage\lFilter.h",height=0.2,width=0.4,color="grey75", fillcolor="white", style="filled"];
  Node1 -> Node5 [color="midnightblue",fontsize="10",style="solid",fontname="Helvetica"];
  Node5 [label="itkCurvatureAnisotropicDiffusion\lImageFilter.h",height=0.2,width=0.4,color="grey75", fillcolor="white", style="filled"];
}
