digraph "Modules/BaseLib/libmodules/blUtilitiesVTK/include/blDataWrappers.h"
{
  edge [fontname="Helvetica",fontsize="10",labelfontname="Helvetica",labelfontsize="10"];
  node [fontname="Helvetica",fontsize="10",shape=record];
  Node1 [label="Modules/BaseLib/libmodules\l/blUtilitiesVTK/include\l/blDataWrappers.h",height=0.2,width=0.4,color="black", fillcolor="grey75", style="filled", fontcolor="black"];
  Node1 -> Node2 [dir="back",color="midnightblue",fontsize="10",style="solid",fontname="Helvetica"];
  Node2 [label="Modules/BaseLib/libmodules\l/blUtilitiesVTK/include\l/blStrainComputationFilter.h",height=0.2,width=0.4,color="black", fillcolor="white", style="filled",URL="$blStrainComputationFilter_8h.html"];
  Node2 -> Node3 [dir="back",color="midnightblue",fontsize="10",style="solid",fontname="Helvetica"];
  Node3 [label="Modules/BaseLib/libmodules\l/blUtilitiesVTK/src/blStrainComputation\lFilter.cxx",height=0.2,width=0.4,color="black", fillcolor="white", style="filled",URL="$blStrainComputationFilter_8cxx.html"];
}
