digraph "Modules/BaseLib/libmodules/blImageUtilities/include/blIASampler.h"
{
  edge [fontname="Helvetica",fontsize="10",labelfontname="Helvetica",labelfontsize="10"];
  node [fontname="Helvetica",fontsize="10",shape=record];
  Node1 [label="Modules/BaseLib/libmodules\l/blImageUtilities/include\l/blIASampler.h",height=0.2,width=0.4,color="black", fillcolor="grey75", style="filled", fontcolor="black"];
  Node1 -> Node2 [dir="back",color="midnightblue",fontsize="10",style="solid",fontname="Helvetica"];
  Node2 [label="Modules/BaseLib/libmodules\l/blImageUtilities/include\l/blIACircularSampler.h",height=0.2,width=0.4,color="black", fillcolor="white", style="filled",URL="$blIACircularSampler_8h.html"];
  Node2 -> Node3 [dir="back",color="midnightblue",fontsize="10",style="solid",fontname="Helvetica"];
  Node3 [label="Modules/BaseLib/libmodules\l/blImageUtilities/src/blIACircular\lSampler.cpp",height=0.2,width=0.4,color="black", fillcolor="white", style="filled",URL="$blIACircularSampler_8cpp.html"];
  Node1 -> Node4 [dir="back",color="midnightblue",fontsize="10",style="solid",fontname="Helvetica"];
  Node4 [label="Modules/BaseLib/libmodules\l/blImageUtilities/include\l/blIALinearSampler.h",height=0.2,width=0.4,color="black", fillcolor="white", style="filled",URL="$blIALinearSampler_8h.html"];
  Node4 -> Node2 [dir="back",color="midnightblue",fontsize="10",style="solid",fontname="Helvetica"];
  Node4 -> Node5 [dir="back",color="midnightblue",fontsize="10",style="solid",fontname="Helvetica"];
  Node5 [label="Modules/BaseLib/libmodules\l/blImageUtilities/include\l/blIASquareSampler.h",height=0.2,width=0.4,color="black", fillcolor="white", style="filled",URL="$blIASquareSampler_8h.html"];
  Node4 -> Node3 [dir="back",color="midnightblue",fontsize="10",style="solid",fontname="Helvetica"];
  Node1 -> Node5 [dir="back",color="midnightblue",fontsize="10",style="solid",fontname="Helvetica"];
}
