digraph "Modules/BaseLib/libmodules/blPDShape/include/blLandmarkGroup.h"
{
  edge [fontname="Helvetica",fontsize="10",labelfontname="Helvetica",labelfontsize="10"];
  node [fontname="Helvetica",fontsize="10",shape=record];
  Node1 [label="Modules/BaseLib/libmodules\l/blPDShape/include/blLandmarkGroup.h",height=0.2,width=0.4,color="black", fillcolor="grey75", style="filled", fontcolor="black"];
  Node1 -> Node2 [dir="back",color="midnightblue",fontsize="10",style="solid",fontname="Helvetica"];
  Node2 [label="Modules/BaseLib/libmodules\l/blPDShape/include/blPDShape.h",height=0.2,width=0.4,color="black", fillcolor="white", style="filled",URL="$blPDShape_8h.html"];
  Node2 -> Node3 [dir="back",color="midnightblue",fontsize="10",style="solid",fontname="Helvetica"];
  Node3 [label="Modules/BaseLib/baseLibVTKPCH.h",height=0.2,width=0.4,color="black", fillcolor="white", style="filled",URL="$baseLibVTKPCH_8h.html"];
  Node2 -> Node4 [dir="back",color="midnightblue",fontsize="10",style="solid",fontname="Helvetica"];
  Node4 [label="Modules/BaseLib/libmodules\l/blImageProperties/include\l/blIAPrecomputation.h",height=0.2,width=0.4,color="black", fillcolor="white", style="filled",URL="$blIAPrecomputation_8h.html"];
  Node4 -> Node5 [dir="back",color="midnightblue",fontsize="10",style="solid",fontname="Helvetica"];
  Node5 [label="Modules/BaseLib/libmodules\l/blImageProperties/src/blIAPrecomputation.cpp",height=0.2,width=0.4,color="black", fillcolor="white", style="filled",URL="$blIAPrecomputation_8cpp.html"];
  Node2 -> Node6 [dir="back",color="midnightblue",fontsize="10",style="solid",fontname="Helvetica"];
  Node6 [label="Modules/BaseLib/libmodules\l/blImageUtilities/include\l/bliaTriangularSampler.h",height=0.2,width=0.4,color="black", fillcolor="white", style="filled",URL="$bliaTriangularSampler_8h.html"];
  Node6 -> Node7 [dir="back",color="midnightblue",fontsize="10",style="solid",fontname="Helvetica"];
  Node7 [label="Modules/BaseLib/libmodules\l/blImageUtilities/include\l/blIAWarp2DFilter.h",height=0.2,width=0.4,color="red", fillcolor="white", style="filled",URL="$blIAWarp2DFilter_8h.html"];
  Node2 -> Node8 [dir="back",color="midnightblue",fontsize="10",style="solid",fontname="Helvetica"];
  Node8 [label="Modules/BaseLib/libmodules\l/blPDShape/include/blPDShape2D.h",height=0.2,width=0.4,color="black", fillcolor="white", style="filled",URL="$blPDShape2D_8h.html"];
  Node8 -> Node7 [dir="back",color="midnightblue",fontsize="10",style="solid",fontname="Helvetica"];
  Node8 -> Node9 [dir="back",color="midnightblue",fontsize="10",style="solid",fontname="Helvetica"];
  Node9 [label="Modules/BaseLib/libmodules\l/blPDShape/include/blDelaunay2D.h",height=0.2,width=0.4,color="red", fillcolor="white", style="filled",URL="$blDelaunay2D_8h.html"];
  Node9 -> Node6 [dir="back",color="midnightblue",fontsize="10",style="solid",fontname="Helvetica"];
  Node9 -> Node10 [dir="back",color="midnightblue",fontsize="10",style="solid",fontname="Helvetica"];
  Node10 [label="Modules/BaseLib/libmodules\l/blPDShape/src/blPDShape2D.cpp",height=0.2,width=0.4,color="black", fillcolor="white", style="filled",URL="$blPDShape2D_8cpp.html"];
  Node8 -> Node11 [dir="back",color="midnightblue",fontsize="10",style="solid",fontname="Helvetica"];
  Node11 [label="Modules/BaseLib/libmodules\l/blPDShape/include/blPDShapeReader.h",height=0.2,width=0.4,color="red", fillcolor="white", style="filled",URL="$blPDShapeReader_8h.html"];
  Node11 -> Node12 [dir="back",color="midnightblue",fontsize="10",style="solid",fontname="Helvetica"];
  Node12 [label="Modules/BaseLib/libmodules\l/blUtilitiesITK/include\l/blImageShapeWriter.h",height=0.2,width=0.4,color="black", fillcolor="white", style="filled",URL="$blImageShapeWriter_8h.html"];
  Node12 -> Node13 [dir="back",color="midnightblue",fontsize="10",style="solid",fontname="Helvetica"];
  Node13 [label="Modules/BaseLib/libmodules\l/blUtilitiesITK/src/blImageShape\lWriter.cpp",height=0.2,width=0.4,color="black", fillcolor="white", style="filled",URL="$blImageShapeWriter_8cpp.html"];
  Node8 -> Node10 [dir="back",color="midnightblue",fontsize="10",style="solid",fontname="Helvetica"];
  Node2 -> Node14 [dir="back",color="midnightblue",fontsize="10",style="solid",fontname="Helvetica"];
  Node14 [label="Modules/BaseLib/libmodules\l/blPDShape/include/blPDShape3D.h",height=0.2,width=0.4,color="black", fillcolor="white", style="filled",URL="$blPDShape3D_8h.html"];
  Node14 -> Node11 [dir="back",color="midnightblue",fontsize="10",style="solid",fontname="Helvetica"];
  Node14 -> Node15 [dir="back",color="midnightblue",fontsize="10",style="solid",fontname="Helvetica"];
  Node15 [label="Modules/BaseLib/libmodules\l/blPDShape/src/blPDShape3D.cpp",height=0.2,width=0.4,color="black", fillcolor="white", style="filled",URL="$blPDShape3D_8cpp.html"];
  Node2 -> Node16 [dir="back",color="midnightblue",fontsize="10",style="solid",fontname="Helvetica"];
  Node16 [label="Modules/BaseLib/libmodules\l/blPDShape/src/blPDShape.cpp",height=0.2,width=0.4,color="black", fillcolor="white", style="filled",URL="$blPDShape_8cpp.html"];
  Node2 -> Node12 [dir="back",color="midnightblue",fontsize="10",style="solid",fontname="Helvetica"];
  Node2 -> Node17 [dir="back",color="midnightblue",fontsize="10",style="solid",fontname="Helvetica"];
  Node17 [label="Modules/BaseLib/libmodules\l/blUtilitiesVTK/include\l/blShapeUtils.h",height=0.2,width=0.4,color="red", fillcolor="white", style="filled",URL="$blShapeUtils_8h.html"];
  Node17 -> Node18 [dir="back",color="midnightblue",fontsize="10",style="solid",fontname="Helvetica"];
  Node18 [label="Apps/Plugins/GenericSegmentation\lPlugin/processors/gspPropagateLandmarks\lProcessor.cpp",height=0.2,width=0.4,color="black", fillcolor="white", style="filled",URL="$gspPropagateLandmarksProcessor_8cpp.html"];
  Node17 -> Node19 [dir="back",color="midnightblue",fontsize="10",style="solid",fontname="Helvetica"];
  Node19 [label="Apps/Plugins/GenericSegmentation\lPlugin/processors/msMitkSurfaceDeformation\lInteractor3D.h",height=0.2,width=0.4,color="red", fillcolor="white", style="filled",URL="$msMitkSurfaceDeformationInteractor3D_8h.html"];
  Node19 -> Node20 [dir="back",color="midnightblue",fontsize="10",style="solid",fontname="Helvetica"];
  Node20 [label="Apps/Plugins/GenericSegmentation\lPlugin/processors/msMitkSurfaceDeformation\lInteractor3D.cxx",height=0.2,width=0.4,color="black", fillcolor="white", style="filled",URL="$msMitkSurfaceDeformationInteractor3D_8cxx.html"];
  Node17 -> Node20 [dir="back",color="midnightblue",fontsize="10",style="solid",fontname="Helvetica"];
  Node17 -> Node21 [dir="back",color="midnightblue",fontsize="10",style="solid",fontname="Helvetica"];
  Node21 [label="Apps/Plugins/GenericSegmentation\lPlugin/processors/ThresholdPhilips\lProcessor.cxx",height=0.2,width=0.4,color="black", fillcolor="white", style="filled",URL="$ThresholdPhilipsProcessor_8cxx.html"];
  Node17 -> Node22 [dir="back",color="midnightblue",fontsize="10",style="solid",fontname="Helvetica"];
  Node22 [label="Apps/Plugins/MeshEditorPlugin\l/MeshEditorPluginPCH.h",height=0.2,width=0.4,color="black", fillcolor="white", style="filled",URL="$MeshEditorPluginPCH_8h.html"];
  Node17 -> Node23 [dir="back",color="midnightblue",fontsize="10",style="solid",fontname="Helvetica"];
  Node23 [label="Apps/Plugins/MeshEditorPlugin\l/processors/coreCloseHolesProcessor.cxx",height=0.2,width=0.4,color="black", fillcolor="white", style="filled",URL="$coreCloseHolesProcessor_8cxx.html"];
  Node17 -> Node24 [dir="back",color="midnightblue",fontsize="10",style="solid",fontname="Helvetica"];
  Node24 [label="Apps/Plugins/MeshEditorPlugin\l/processors/coreDirectionalPlane.cxx",height=0.2,width=0.4,color="black", fillcolor="white", style="filled",URL="$coreDirectionalPlane_8cxx.html"];
  Node17 -> Node25 [dir="back",color="midnightblue",fontsize="10",style="solid",fontname="Helvetica"];
  Node25 [label="Apps/Plugins/MeshEditorPlugin\l/processors/coreExtractSurfacesProcessor.cxx",height=0.2,width=0.4,color="black", fillcolor="white", style="filled",URL="$coreExtractSurfacesProcessor_8cxx.html"];
  Node17 -> Node26 [dir="back",color="midnightblue",fontsize="10",style="solid",fontname="Helvetica"];
  Node26 [label="Apps/Plugins/MeshEditorPlugin\l/processors/coreManualNeckCutting\lProcessor.cxx",height=0.2,width=0.4,color="black", fillcolor="white", style="filled",URL="$coreManualNeckCuttingProcessor_8cxx.html"];
  Node17 -> Node27 [dir="back",color="midnightblue",fontsize="10",style="solid",fontname="Helvetica"];
  Node27 [label="Apps/Plugins/MeshEditorPlugin\l/processors/coreRingCutProcessor.cxx",height=0.2,width=0.4,color="black", fillcolor="white", style="filled",URL="$coreRingCutProcessor_8cxx.html"];
  Node17 -> Node28 [dir="back",color="midnightblue",fontsize="10",style="solid",fontname="Helvetica"];
  Node28 [label="Apps/Plugins/MeshEditorPlugin\l/processors/coreSurfaceInteractor\lProcessor.cxx",height=0.2,width=0.4,color="black", fillcolor="white", style="filled",URL="$coreSurfaceInteractorProcessor_8cxx.html"];
  Node17 -> Node29 [dir="back",color="midnightblue",fontsize="10",style="solid",fontname="Helvetica"];
  Node29 [label="Apps/Plugins/MeshEditorPlugin\l/processors/ReplaceScalarProcessor.h",height=0.2,width=0.4,color="red", fillcolor="white", style="filled",URL="$ReplaceScalarProcessor_8h.html"];
  Node17 -> Node30 [dir="back",color="midnightblue",fontsize="10",style="solid",fontname="Helvetica"];
  Node30 [label="Apps/Plugins/MeshEditorPlugin\l/widgets/ThresholdWidget\l/ptThresholdPanelWidget.cpp",height=0.2,width=0.4,color="black", fillcolor="white", style="filled",URL="$ThresholdWidget_2ptThresholdPanelWidget_8cpp.html"];
  Node17 -> Node31 [dir="back",color="midnightblue",fontsize="10",style="solid",fontname="Helvetica"];
  Node31 [label="Apps/Plugins/MeshEditorPlugin\l/widgets/ToolsProcessorWidget\l/ptThresholdPanelWidget.cpp",height=0.2,width=0.4,color="black", fillcolor="white", style="filled",URL="$ToolsProcessorWidget_2ptThresholdPanelWidget_8cpp.html"];
  Node17 -> Node32 [dir="back",color="midnightblue",fontsize="10",style="solid",fontname="Helvetica"];
  Node32 [label="Apps/Plugins/MITKPlugin\l/MITKPluginPCH.h",height=0.2,width=0.4,color="black", fillcolor="white", style="filled",URL="$MITKPluginPCH_8h.html"];
  Node17 -> Node33 [dir="back",color="midnightblue",fontsize="10",style="solid",fontname="Helvetica"];
  Node33 [label="Apps/Plugins/MITKPlugin\l/processors/CgnsFile/coreCgns\lFileReader.cxx",height=0.2,width=0.4,color="black", fillcolor="white", style="filled",URL="$coreCgnsFileReader_8cxx.html"];
  Node17 -> Node34 [dir="back",color="midnightblue",fontsize="10",style="solid",fontname="Helvetica"];
  Node34 [label="Apps/Plugins/MITKPlugin\l/processors/CgnsFile/coreCgns\lFileWriter.cxx",height=0.2,width=0.4,color="black", fillcolor="white", style="filled",URL="$coreCgnsFileWriter_8cxx.html"];
  Node17 -> Node35 [dir="back",color="midnightblue",fontsize="10",style="solid",fontname="Helvetica"];
  Node35 [label="Apps/Plugins/MITKPlugin\l/processors/VTKPolyData\l/coreVTKPolyDataReader.cxx",height=0.2,width=0.4,color="black", fillcolor="white", style="filled",URL="$coreVTKPolyDataReader_8cxx.html"];
  Node17 -> Node36 [dir="back",color="midnightblue",fontsize="10",style="solid",fontname="Helvetica"];
  Node36 [label="Apps/Plugins/MITKPlugin\l/processors/VTKPolyData\l/coreVTKPolyDataWriter.cxx",height=0.2,width=0.4,color="black", fillcolor="white", style="filled",URL="$coreVTKPolyDataWriter_8cxx.html"];
  Node17 -> Node37 [dir="back",color="midnightblue",fontsize="10",style="solid",fontname="Helvetica"];
  Node37 [label="Apps/Plugins/MITKPlugin\l/processors/VTKUnstructuredGrid\l/coreVTKUnstructuredGridWriter.cxx",height=0.2,width=0.4,color="black", fillcolor="white", style="filled",URL="$coreVTKUnstructuredGridWriter_8cxx.html"];
  Node17 -> Node38 [dir="back",color="midnightblue",fontsize="10",style="solid",fontname="Helvetica"];
  Node38 [label="Apps/Plugins/MITKPlugin\l/processors/VTKVRML/coreVTKVRMLWriter.cxx",height=0.2,width=0.4,color="black", fillcolor="white", style="filled",URL="$coreVTKVRMLWriter_8cxx.html"];
  Node17 -> Node39 [dir="back",color="midnightblue",fontsize="10",style="solid",fontname="Helvetica"];
  Node39 [label="Apps/Plugins/MITKPlugin\l/tests/coreDataEntityTest.cpp",height=0.2,width=0.4,color="black", fillcolor="white", style="filled",URL="$coreDataEntityTest_8cpp.html"];
  Node17 -> Node40 [dir="back",color="midnightblue",fontsize="10",style="solid",fontname="Helvetica"];
  Node40 [label="Apps/Plugins/MITKPlugin\l/tests/coreTestDataEntity.cpp",height=0.2,width=0.4,color="black", fillcolor="white", style="filled",URL="$coreTestDataEntity_8cpp.html"];
  Node17 -> Node41 [dir="back",color="midnightblue",fontsize="10",style="solid",fontname="Helvetica"];
  Node41 [label="Modules/BaseLib/applications\l/CleanPolydataAdvanced/CleanPolydata\lAdvanced.cxx",height=0.2,width=0.4,color="black", fillcolor="white", style="filled",URL="$CleanPolydataAdvanced_8cxx.html"];
  Node17 -> Node42 [dir="back",color="midnightblue",fontsize="10",style="solid",fontname="Helvetica"];
  Node42 [label="Modules/BaseLib/libmodules\l/blCardioModel/src/blCardiacShape.cpp",height=0.2,width=0.4,color="black", fillcolor="white", style="filled",URL="$blCardiacShape_8cpp.html"];
  Node17 -> Node43 [dir="back",color="midnightblue",fontsize="10",style="solid",fontname="Helvetica"];
  Node43 [label="Modules/BaseLib/libmodules\l/blUtilitiesVTK/src/blShapeUtils.cpp",height=0.2,width=0.4,color="black", fillcolor="white", style="filled",URL="$blShapeUtils_8cpp.html"];
  Node17 -> Node44 [dir="back",color="midnightblue",fontsize="10",style="solid",fontname="Helvetica"];
  Node44 [label="Modules/BaseLib/libmodules\l/blUtilitiesVTK/src/blStrainComputation\lFilter.cxx",height=0.2,width=0.4,color="black", fillcolor="white", style="filled",URL="$blStrainComputationFilter_8cxx.html"];
  Node1 -> Node45 [dir="back",color="midnightblue",fontsize="10",style="solid",fontname="Helvetica"];
  Node45 [label="Modules/BaseLib/libmodules\l/blPDShape/include/blPDShapeInterface.h",height=0.2,width=0.4,color="black", fillcolor="white", style="filled",URL="$blPDShapeInterface_8h.html"];
  Node45 -> Node2 [dir="back",color="midnightblue",fontsize="10",style="solid",fontname="Helvetica"];
  Node45 -> Node46 [dir="back",color="midnightblue",fontsize="10",style="solid",fontname="Helvetica"];
  Node46 [label="Modules/BaseLib/libmodules\l/blPDShape/include/blPDSet.h",height=0.2,width=0.4,color="red", fillcolor="white", style="filled",URL="$blPDSet_8h.html"];
  Node45 -> Node47 [dir="back",color="midnightblue",fontsize="10",style="solid",fontname="Helvetica"];
  Node47 [label="Modules/BaseLib/libmodules\l/blPDShape/include/blPDSet\l_templ.h",height=0.2,width=0.4,color="red", fillcolor="white", style="filled",URL="$blPDSet__templ_8h.html"];
  Node45 -> Node48 [dir="back",color="midnightblue",fontsize="10",style="solid",fontname="Helvetica"];
  Node48 [label="Modules/BaseLib/libmodules\l/blPDShape/include/blPDShapeWriter.h",height=0.2,width=0.4,color="red", fillcolor="white", style="filled",URL="$blPDShapeWriter_8h.html"];
  Node45 -> Node49 [dir="back",color="midnightblue",fontsize="10",style="solid",fontname="Helvetica"];
  Node49 [label="Modules/BaseLib/libmodules\l/blPDShape/src/blPDShapeInterface.cpp",height=0.2,width=0.4,color="black", fillcolor="white", style="filled",URL="$blPDShapeInterface_8cpp.html"];
  Node1 -> Node50 [dir="back",color="midnightblue",fontsize="10",style="solid",fontname="Helvetica"];
  Node50 [label="Modules/BaseLib/libmodules\l/blPDShape/src/blLandmarkGroup.cpp",height=0.2,width=0.4,color="black", fillcolor="white", style="filled",URL="$blLandmarkGroup_8cpp.html"];
}
