digraph "Modules/BaseLib/libmodules/blPDShape/src/blLandmarkGroup.cpp"
{
  edge [fontname="Helvetica",fontsize="10",labelfontname="Helvetica",labelfontsize="10"];
  node [fontname="Helvetica",fontsize="10",shape=record];
  Node1 [label="Modules/BaseLib/libmodules\l/blPDShape/src/blLandmarkGroup.cpp",height=0.2,width=0.4,color="black", fillcolor="grey75", style="filled", fontcolor="black"];
  Node1 -> Node2 [color="midnightblue",fontsize="10",style="solid",fontname="Helvetica"];
  Node2 [label="blLandmarkGroup.h",height=0.2,width=0.4,color="black", fillcolor="white", style="filled",URL="$blLandmarkGroup_8h.html"];
}
