digraph "Modules/BaseLib/tests/blLinearAlgebraOperationsTest/blLinearAlgebraOperationsTest.h"
{
  edge [fontname="Helvetica",fontsize="10",labelfontname="Helvetica",labelfontsize="10"];
  node [fontname="Helvetica",fontsize="10",shape=record];
  Node1 [label="Modules/BaseLib/tests\l/blLinearAlgebraOperationsTest\l/blLinearAlgebraOperationsTest.h",height=0.2,width=0.4,color="black", fillcolor="grey75", style="filled", fontcolor="black"];
  Node1 -> Node2 [color="midnightblue",fontsize="10",style="solid",fontname="Helvetica"];
  Node2 [label="cxxtest/TestSuite.h",height=0.2,width=0.4,color="grey75", fillcolor="white", style="filled"];
  Node1 -> Node3 [color="midnightblue",fontsize="10",style="solid",fontname="Helvetica"];
  Node3 [label="blLinearAlgebraOperations.h",height=0.2,width=0.4,color="black", fillcolor="white", style="filled",URL="$blLinearAlgebraOperations_8h.html"];
  Node3 -> Node4 [color="midnightblue",fontsize="10",style="solid",fontname="Helvetica"];
  Node4 [label="CILabNamespaceMacros.h",height=0.2,width=0.4,color="black", fillcolor="white", style="filled",URL="$CILabNamespaceMacros_8h.html"];
  Node3 -> Node5 [color="midnightblue",fontsize="10",style="solid",fontname="Helvetica"];
  Node5 [label="blLinearAlgebraOperations\lUblas.h",height=0.2,width=0.4,color="black", fillcolor="white", style="filled",URL="$blLinearAlgebraOperationsUblas_8h.html"];
  Node5 -> Node3 [color="midnightblue",fontsize="10",style="solid",fontname="Helvetica"];
  Node5 -> Node6 [color="midnightblue",fontsize="10",style="solid",fontname="Helvetica"];
  Node6 [label="blUblasMatrixNamespace.h",height=0.2,width=0.4,color="black", fillcolor="white", style="filled",URL="$blUblasMatrixNamespace_8h.html"];
  Node6 -> Node7 [color="midnightblue",fontsize="10",style="solid",fontname="Helvetica"];
  Node7 [label="boost/shared_ptr.hpp",height=0.2,width=0.4,color="grey75", fillcolor="white", style="filled"];
  Node6 -> Node8 [color="midnightblue",fontsize="10",style="solid",fontname="Helvetica"];
  Node8 [label="blUblasMatrix.h",height=0.2,width=0.4,color="black", fillcolor="white", style="filled",URL="$blUblasMatrix_8h.html"];
  Node8 -> Node9 [color="midnightblue",fontsize="10",style="solid",fontname="Helvetica"];
  Node9 [label="boost/numeric/ublas\l/vector.hpp",height=0.2,width=0.4,color="grey75", fillcolor="white", style="filled"];
  Node8 -> Node10 [color="midnightblue",fontsize="10",style="solid",fontname="Helvetica"];
  Node10 [label="boost/numeric/ublas\l/matrix_expression.hpp",height=0.2,width=0.4,color="grey75", fillcolor="white", style="filled"];
  Node8 -> Node11 [color="midnightblue",fontsize="10",style="solid",fontname="Helvetica"];
  Node11 [label="boost/numeric/ublas\l/detail/matrix_assign.hpp",height=0.2,width=0.4,color="grey75", fillcolor="white", style="filled"];
  Node8 -> Node12 [color="midnightblue",fontsize="10",style="solid",fontname="Helvetica"];
  Node12 [label="blStoragePolicy.h",height=0.2,width=0.4,color="black", fillcolor="white", style="filled",URL="$blStoragePolicy_8h.html"];
  Node12 -> Node13 [color="midnightblue",fontsize="10",style="solid",fontname="Helvetica"];
  Node13 [label="boost/numeric/ublas\l/storage.hpp",height=0.2,width=0.4,color="grey75", fillcolor="white", style="filled"];
  Node12 -> Node14 [color="midnightblue",fontsize="10",style="solid",fontname="Helvetica"];
  Node14 [label="boost/numeric/ublas\l/functional.hpp",height=0.2,width=0.4,color="grey75", fillcolor="white", style="filled"];
  Node12 -> Node15 [color="midnightblue",fontsize="10",style="solid",fontname="Helvetica"];
  Node15 [label="boost/filesystem.hpp",height=0.2,width=0.4,color="grey75", fillcolor="white", style="filled"];
  Node12 -> Node16 [color="midnightblue",fontsize="10",style="solid",fontname="Helvetica"];
  Node16 [label="boost/iterator/iterator\l_facade.hpp",height=0.2,width=0.4,color="grey75", fillcolor="white", style="filled"];
  Node12 -> Node17 [color="midnightblue",fontsize="10",style="solid",fontname="Helvetica"];
  Node17 [label="blSingleton.h",height=0.2,width=0.4,color="black", fillcolor="white", style="filled",URL="$blSingleton_8h.html"];
  Node12 -> Node18 [color="midnightblue",fontsize="10",style="solid",fontname="Helvetica"];
  Node18 [label="CILabExceptionMacros.h",height=0.2,width=0.4,color="black", fillcolor="white", style="filled",URL="$CILabExceptionMacros_8h.html"];
  Node18 -> Node19 [color="midnightblue",fontsize="10",style="solid",fontname="Helvetica"];
  Node19 [label="exception",height=0.2,width=0.4,color="grey75", fillcolor="white", style="filled"];
  Node18 -> Node20 [color="midnightblue",fontsize="10",style="solid",fontname="Helvetica"];
  Node20 [label="string",height=0.2,width=0.4,color="grey75", fillcolor="white", style="filled"];
  Node12 -> Node4 [color="midnightblue",fontsize="10",style="solid",fontname="Helvetica"];
  Node12 -> Node21 [color="midnightblue",fontsize="10",style="solid",fontname="Helvetica"];
  Node21 [label="CILabBoostMacros.h",height=0.2,width=0.4,color="black", fillcolor="white", style="filled",URL="$CILabBoostMacros_8h.html"];
  Node21 -> Node22 [color="midnightblue",fontsize="10",style="solid",fontname="Helvetica"];
  Node22 [label="boost/format.hpp",height=0.2,width=0.4,color="grey75", fillcolor="white", style="filled"];
  Node12 -> Node19 [color="midnightblue",fontsize="10",style="solid",fontname="Helvetica"];
  Node12 -> Node23 [color="midnightblue",fontsize="10",style="solid",fontname="Helvetica"];
  Node23 [label="string.h",height=0.2,width=0.4,color="grey75", fillcolor="white", style="filled"];
  Node12 -> Node24 [color="midnightblue",fontsize="10",style="solid",fontname="Helvetica"];
  Node24 [label="blStoragePolicy.txx",height=0.2,width=0.4,color="grey75", fillcolor="white", style="filled"];
  Node6 -> Node25 [color="midnightblue",fontsize="10",style="solid",fontname="Helvetica"];
  Node25 [label="CILabAssertMacros.h",height=0.2,width=0.4,color="black", fillcolor="white", style="filled",URL="$CILabAssertMacros_8h.html"];
  Node25 -> Node26 [color="midnightblue",fontsize="10",style="solid",fontname="Helvetica"];
  Node26 [label="assert.h",height=0.2,width=0.4,color="grey75", fillcolor="white", style="filled"];
  Node6 -> Node9 [color="midnightblue",fontsize="10",style="solid",fontname="Helvetica"];
  Node5 -> Node27 [color="midnightblue",fontsize="10",style="solid",fontname="Helvetica"];
  Node27 [label="blUblasConvertibleArray.h",height=0.2,width=0.4,color="black", fillcolor="white", style="filled",URL="$blUblasConvertibleArray_8h.html"];
  Node27 -> Node13 [color="midnightblue",fontsize="10",style="solid",fontname="Helvetica"];
  Node5 -> Node25 [color="midnightblue",fontsize="10",style="solid",fontname="Helvetica"];
  Node5 -> Node28 [color="midnightblue",fontsize="10",style="solid",fontname="Helvetica"];
  Node28 [label="algorithm",height=0.2,width=0.4,color="grey75", fillcolor="white", style="filled"];
  Node5 -> Node29 [color="midnightblue",fontsize="10",style="solid",fontname="Helvetica"];
  Node29 [label="blLinearAlgebraTypes.h",height=0.2,width=0.4,color="black", fillcolor="white", style="filled",URL="$blLinearAlgebraTypes_8h.html"];
  Node29 -> Node4 [color="midnightblue",fontsize="10",style="solid",fontname="Helvetica"];
  Node29 -> Node27 [color="midnightblue",fontsize="10",style="solid",fontname="Helvetica"];
  Node29 -> Node30 [color="midnightblue",fontsize="10",style="solid",fontname="Helvetica"];
  Node30 [label="vnl/vnl_matrix.h",height=0.2,width=0.4,color="grey75", fillcolor="white", style="filled"];
  Node29 -> Node31 [color="midnightblue",fontsize="10",style="solid",fontname="Helvetica"];
  Node31 [label="vnl/vnl_vector.h",height=0.2,width=0.4,color="grey75", fillcolor="white", style="filled"];
  Node29 -> Node32 [color="midnightblue",fontsize="10",style="solid",fontname="Helvetica"];
  Node32 [label="vnl/vnl_vector_ref.h",height=0.2,width=0.4,color="grey75", fillcolor="white", style="filled"];
  Node29 -> Node8 [color="midnightblue",fontsize="10",style="solid",fontname="Helvetica"];
  Node29 -> Node9 [color="midnightblue",fontsize="10",style="solid",fontname="Helvetica"];
  Node29 -> Node7 [color="midnightblue",fontsize="10",style="solid",fontname="Helvetica"];
  Node29 -> Node12 [color="midnightblue",fontsize="10",style="solid",fontname="Helvetica"];
  Node5 -> Node7 [color="midnightblue",fontsize="10",style="solid",fontname="Helvetica"];
  Node5 -> Node33 [color="midnightblue",fontsize="10",style="solid",fontname="Helvetica"];
  Node33 [label="blLinearAlgebraOperations\lVnl.h",height=0.2,width=0.4,color="black", fillcolor="white", style="filled",URL="$blLinearAlgebraOperationsVnl_8h.html"];
  Node33 -> Node3 [color="midnightblue",fontsize="10",style="solid",fontname="Helvetica"];
  Node33 -> Node34 [color="midnightblue",fontsize="10",style="solid",fontname="Helvetica"];
  Node34 [label="blMatrix.h",height=0.2,width=0.4,color="black", fillcolor="white", style="filled",URL="$blMatrix_8h.html"];
  Node34 -> Node35 [color="midnightblue",fontsize="10",style="solid",fontname="Helvetica"];
  Node35 [label="blSmartPointer.h",height=0.2,width=0.4,color="black", fillcolor="white", style="filled",URL="$blSmartPointer_8h.html"];
  Node34 -> Node36 [color="midnightblue",fontsize="10",style="solid",fontname="Helvetica"];
  Node36 [label="blLightObject.h",height=0.2,width=0.4,color="black", fillcolor="white", style="filled",URL="$blLightObject_8h.html"];
  Node36 -> Node37 [color="midnightblue",fontsize="10",style="solid",fontname="Helvetica"];
  Node37 [label="blMacro.h",height=0.2,width=0.4,color="black", fillcolor="white", style="filled",URL="$blMacro_8h.html"];
  Node36 -> Node35 [color="midnightblue",fontsize="10",style="solid",fontname="Helvetica"];
  Node36 -> Node38 [color="midnightblue",fontsize="10",style="solid",fontname="Helvetica"];
  Node38 [label="BaseLibWin32Header.h",height=0.2,width=0.4,color="grey75", fillcolor="white", style="filled"];
  Node34 -> Node29 [color="midnightblue",fontsize="10",style="solid",fontname="Helvetica"];
  Node34 -> Node25 [color="midnightblue",fontsize="10",style="solid",fontname="Helvetica"];
  Node34 -> Node30 [color="midnightblue",fontsize="10",style="solid",fontname="Helvetica"];
  Node34 -> Node39 [color="midnightblue",fontsize="10",style="solid",fontname="Helvetica"];
  Node39 [label="vnl/algo/vnl_svd.h",height=0.2,width=0.4,color="grey75", fillcolor="white", style="filled"];
  Node34 -> Node40 [color="midnightblue",fontsize="10",style="solid",fontname="Helvetica"];
  Node40 [label="iostream",height=0.2,width=0.4,color="grey75", fillcolor="white", style="filled"];
  Node34 -> Node41 [color="midnightblue",fontsize="10",style="solid",fontname="Helvetica"];
  Node41 [label="blMatrix.txx",height=0.2,width=0.4,color="grey75", fillcolor="white", style="filled"];
  Node33 -> Node42 [color="midnightblue",fontsize="10",style="solid",fontname="Helvetica"];
  Node42 [label="blVector.h",height=0.2,width=0.4,color="black", fillcolor="white", style="filled",URL="$blVector_8h.html"];
  Node42 -> Node35 [color="midnightblue",fontsize="10",style="solid",fontname="Helvetica"];
  Node42 -> Node7 [color="midnightblue",fontsize="10",style="solid",fontname="Helvetica"];
  Node42 -> Node36 [color="midnightblue",fontsize="10",style="solid",fontname="Helvetica"];
  Node42 -> Node31 [color="midnightblue",fontsize="10",style="solid",fontname="Helvetica"];
  Node33 -> Node7 [color="midnightblue",fontsize="10",style="solid",fontname="Helvetica"];
  Node33 -> Node30 [color="midnightblue",fontsize="10",style="solid",fontname="Helvetica"];
  Node33 -> Node32 [color="midnightblue",fontsize="10",style="solid",fontname="Helvetica"];
  Node33 -> Node43 [color="midnightblue",fontsize="10",style="solid",fontname="Helvetica"];
  Node43 [label="vnl/vnl_fastops.h",height=0.2,width=0.4,color="grey75", fillcolor="white", style="filled"];
  Node33 -> Node8 [color="midnightblue",fontsize="10",style="solid",fontname="Helvetica"];
  Node33 -> Node9 [color="midnightblue",fontsize="10",style="solid",fontname="Helvetica"];
  Node33 -> Node28 [color="midnightblue",fontsize="10",style="solid",fontname="Helvetica"];
  Node3 -> Node33 [color="midnightblue",fontsize="10",style="solid",fontname="Helvetica"];
}
