digraph "Modules/BaseLib/tests/blCommon/blLoggerTest.h"
{
  edge [fontname="Helvetica",fontsize="10",labelfontname="Helvetica",labelfontsize="10"];
  node [fontname="Helvetica",fontsize="10",shape=record];
  Node1 [label="Modules/BaseLib/tests\l/blCommon/blLoggerTest.h",height=0.2,width=0.4,color="black", fillcolor="grey75", style="filled", fontcolor="black"];
  Node1 -> Node2 [color="midnightblue",fontsize="10",style="solid",fontname="Helvetica"];
  Node2 [label="cppunit/extensions\l/HelperMacros.h",height=0.2,width=0.4,color="grey75", fillcolor="white", style="filled"];
}
