digraph "Modules/TpExtLib/libmodules/tpExtMITK/src/blMITKUtils.h"
{
  edge [fontname="Helvetica",fontsize="10",labelfontname="Helvetica",labelfontsize="10"];
  node [fontname="Helvetica",fontsize="10",shape=record];
  Node1 [label="Modules/TpExtLib/libmodules\l/tpExtMITK/src/blMITKUtils.h",height=0.2,width=0.4,color="black", fillcolor="grey75", style="filled", fontcolor="black"];
  Node1 -> Node2 [dir="back",color="midnightblue",fontsize="10",style="solid",fontname="Helvetica"];
  Node2 [label="Apps/Plugins/GenericSegmentation\lPlugin/processors/msMitkSurfaceDeformation\lInteractor3D.cxx",height=0.2,width=0.4,color="black", fillcolor="white", style="filled",URL="$msMitkSurfaceDeformationInteractor3D_8cxx.html"];
  Node1 -> Node3 [dir="back",color="midnightblue",fontsize="10",style="solid",fontname="Helvetica"];
  Node3 [label="Apps/Plugins/GenericSegmentation\lPlugin/widgets/Generate3DRoiPanelWidget\l/SurfaceDeformationPanelWidget.h",height=0.2,width=0.4,color="black", fillcolor="white", style="filled",URL="$SurfaceDeformationPanelWidget_8h.html"];
  Node3 -> Node4 [dir="back",color="midnightblue",fontsize="10",style="solid",fontname="Helvetica"];
  Node4 [label="Apps/Plugins/GenericSegmentation\lPlugin/GenericSegmentationPluginWidget\lCollective.cxx",height=0.2,width=0.4,color="black", fillcolor="white", style="filled",URL="$GenericSegmentationPluginWidgetCollective_8cxx.html"];
  Node3 -> Node5 [dir="back",color="midnightblue",fontsize="10",style="solid",fontname="Helvetica"];
  Node5 [label="Apps/Plugins/GenericSegmentation\lPlugin/widgets/Generate3DRoiPanelWidget\l/SurfaceDeformationPanelWidget.cpp",height=0.2,width=0.4,color="black", fillcolor="white", style="filled",URL="$SurfaceDeformationPanelWidget_8cpp.html"];
  Node1 -> Node6 [dir="back",color="midnightblue",fontsize="10",style="solid",fontname="Helvetica"];
  Node6 [label="Apps/Plugins/GenericSegmentation\lPlugin/widgets/Generate3DRoiPanelWidget\l/SurfDeformInteractorHelper.cpp",height=0.2,width=0.4,color="black", fillcolor="white", style="filled",URL="$SurfDeformInteractorHelper_8cpp.html"];
  Node1 -> Node7 [dir="back",color="midnightblue",fontsize="10",style="solid",fontname="Helvetica"];
  Node7 [label="Apps/Plugins/GenericSegmentation\lPlugin/widgets/MoveDataPanelWidget\l/MoveDataPanelWidget.h",height=0.2,width=0.4,color="black", fillcolor="white", style="filled",URL="$MoveDataPanelWidget_8h.html"];
  Node7 -> Node4 [dir="back",color="midnightblue",fontsize="10",style="solid",fontname="Helvetica"];
  Node7 -> Node8 [dir="back",color="midnightblue",fontsize="10",style="solid",fontname="Helvetica"];
  Node8 [label="Apps/Plugins/GenericSegmentation\lPlugin/widgets/MoveDataPanelWidget\l/MoveDataPanelWidget.cpp",height=0.2,width=0.4,color="black", fillcolor="white", style="filled",URL="$MoveDataPanelWidget_8cpp.html"];
  Node1 -> Node9 [dir="back",color="midnightblue",fontsize="10",style="solid",fontname="Helvetica"];
  Node9 [label="Apps/Plugins/GenericSegmentation\lPlugin/widgets/MoveDataPanelWidget\l/MoveImageAndMeshInteractorHelper.cpp",height=0.2,width=0.4,color="black", fillcolor="white", style="filled",URL="$MoveImageAndMeshInteractorHelper_8cpp.html"];
  Node1 -> Node10 [dir="back",color="midnightblue",fontsize="10",style="solid",fontname="Helvetica"];
  Node10 [label="Apps/Plugins/ImageToolsPlugin\l/widgets/ImageContrastWidget\l/coreImageContrastWidget.cxx",height=0.2,width=0.4,color="black", fillcolor="white", style="filled",URL="$coreImageContrastWidget_8cxx.html"];
  Node1 -> Node11 [dir="back",color="midnightblue",fontsize="10",style="solid",fontname="Helvetica"];
  Node11 [label="Apps/Plugins/ManualSegmentation\lPlugin/ManualSegmentationPluginPCH.h",height=0.2,width=0.4,color="black", fillcolor="white", style="filled",URL="$ManualSegmentationPluginPCH_8h.html"];
  Node1 -> Node12 [dir="back",color="midnightblue",fontsize="10",style="solid",fontname="Helvetica"];
  Node12 [label="Apps/Plugins/ManualSegmentation\lPlugin/processors/coreContourInteractor.cxx",height=0.2,width=0.4,color="black", fillcolor="white", style="filled",URL="$coreContourInteractor_8cxx.html"];
  Node1 -> Node13 [dir="back",color="midnightblue",fontsize="10",style="solid",fontname="Helvetica"];
  Node13 [label="Apps/Plugins/ManualSegmentation\lPlugin/processors/InteractiveSegmInteractor.cxx",height=0.2,width=0.4,color="black", fillcolor="white", style="filled",URL="$InteractiveSegmInteractor_8cxx.html"];
  Node1 -> Node14 [dir="back",color="midnightblue",fontsize="10",style="solid",fontname="Helvetica"];
  Node14 [label="Apps/Plugins/ManualSegmentation\lPlugin/processors/msPolygonTool.cxx",height=0.2,width=0.4,color="black", fillcolor="white", style="filled",URL="$msPolygonTool_8cxx.html"];
  Node1 -> Node15 [dir="back",color="midnightblue",fontsize="10",style="solid",fontname="Helvetica"];
  Node15 [label="Apps/Plugins/ManualSegmentation\lPlugin/widgets/InteractiveSegmPanel\lWidget/InteractiveSegmPanelWidget.h",height=0.2,width=0.4,color="black", fillcolor="white", style="filled",URL="$InteractiveSegmPanelWidget_8h.html"];
  Node15 -> Node16 [dir="back",color="midnightblue",fontsize="10",style="solid",fontname="Helvetica"];
  Node16 [label="Apps/Plugins/ManualSegmentation\lPlugin/msWidgetCollective.cxx",height=0.2,width=0.4,color="black", fillcolor="white", style="filled",URL="$msWidgetCollective_8cxx.html"];
  Node15 -> Node17 [dir="back",color="midnightblue",fontsize="10",style="solid",fontname="Helvetica"];
  Node17 [label="Apps/Plugins/ManualSegmentation\lPlugin/widgets/InteractiveSegmPanel\lWidget/InteractiveSegmPanelWidget.cpp",height=0.2,width=0.4,color="black", fillcolor="white", style="filled",URL="$InteractiveSegmPanelWidget_8cpp.html"];
  Node1 -> Node18 [dir="back",color="midnightblue",fontsize="10",style="solid",fontname="Helvetica"];
  Node18 [label="Apps/Plugins/ManualSegmentation\lPlugin/widgets/ManualSegmentationWidget\l/ManualSegmentationPanelWidget.h",height=0.2,width=0.4,color="black", fillcolor="white", style="filled",URL="$ManualSegmentationPanelWidget_8h.html"];
  Node18 -> Node16 [dir="back",color="midnightblue",fontsize="10",style="solid",fontname="Helvetica"];
  Node18 -> Node19 [dir="back",color="midnightblue",fontsize="10",style="solid",fontname="Helvetica"];
  Node19 [label="Apps/Plugins/ManualSegmentation\lPlugin/widgets/ManualSegmentationWidget\l/ManualSegmentationPanelWidget.cpp",height=0.2,width=0.4,color="black", fillcolor="white", style="filled",URL="$ManualSegmentationPanelWidget_8cpp.html"];
  Node1 -> Node20 [dir="back",color="midnightblue",fontsize="10",style="solid",fontname="Helvetica"];
  Node20 [label="Apps/Plugins/MeshEditorPlugin\l/widgets/SurfaceSelectorWidget\l/coreSurfaceSelectorWidget.cxx",height=0.2,width=0.4,color="black", fillcolor="white", style="filled",URL="$coreSurfaceSelectorWidget_8cxx.html"];
  Node1 -> Node21 [dir="back",color="midnightblue",fontsize="10",style="solid",fontname="Helvetica"];
  Node21 [label="Apps/Plugins/MITKPlugin\l/MITKPluginPCH.h",height=0.2,width=0.4,color="black", fillcolor="white", style="filled",URL="$MITKPluginPCH_8h.html"];
  Node1 -> Node22 [dir="back",color="midnightblue",fontsize="10",style="solid",fontname="Helvetica"];
  Node22 [label="Apps/Plugins/MITKPlugin\l/widgets/RenderingTree\l/coreDataTreeMITKHelper.h",height=0.2,width=0.4,color="red", fillcolor="white", style="filled",URL="$coreDataTreeMITKHelper_8h.html"];
  Node22 -> Node23 [dir="back",color="midnightblue",fontsize="10",style="solid",fontname="Helvetica"];
  Node23 [label="Apps/Plugins/GenericSegmentation\lPlugin/widgets/ConnectedThresholdWidget\l/ConnectedThresholdWidget.cpp",height=0.2,width=0.4,color="black", fillcolor="white", style="filled",URL="$ConnectedThresholdWidget_8cpp.html"];
  Node22 -> Node24 [dir="back",color="midnightblue",fontsize="10",style="solid",fontname="Helvetica"];
  Node24 [label="Apps/Plugins/GenericSegmentation\lPlugin/widgets/RegionGrowWidget\l/RegionGrowWidget.cpp",height=0.2,width=0.4,color="black", fillcolor="white", style="filled",URL="$RegionGrowWidget_8cpp.html"];
  Node22 -> Node25 [dir="back",color="midnightblue",fontsize="10",style="solid",fontname="Helvetica"];
  Node25 [label="Apps/Plugins/GenericSegmentation\lPlugin/widgets/VtkConnectedThreshold\lWidget/VtkConnectedThresholdPanelWidget.cpp",height=0.2,width=0.4,color="black", fillcolor="white", style="filled",URL="$VtkConnectedThresholdPanelWidget_8cpp.html"];
  Node22 -> Node26 [dir="back",color="midnightblue",fontsize="10",style="solid",fontname="Helvetica"];
  Node26 [label="Apps/Plugins/MeshEditorPlugin\l/processors/coreSurfaceInteractor.cxx",height=0.2,width=0.4,color="black", fillcolor="white", style="filled",URL="$coreSurfaceInteractor_8cxx.html"];
  Node22 -> Node27 [dir="back",color="midnightblue",fontsize="10",style="solid",fontname="Helvetica"];
  Node27 [label="Apps/Plugins/MeshEditorPlugin\l/processors/coreSurfaceInteractor\lBrushSelect.cxx",height=0.2,width=0.4,color="black", fillcolor="white", style="filled",URL="$coreSurfaceInteractorBrushSelect_8cxx.html"];
  Node22 -> Node28 [dir="back",color="midnightblue",fontsize="10",style="solid",fontname="Helvetica"];
  Node28 [label="Apps/Plugins/MeshEditorPlugin\l/processors/coreSurfaceInteractor\lSphereSelect.cxx",height=0.2,width=0.4,color="black", fillcolor="white", style="filled",URL="$coreSurfaceInteractorSphereSelect_8cxx.html"];
  Node22 -> Node29 [dir="back",color="midnightblue",fontsize="10",style="solid",fontname="Helvetica"];
  Node29 [label="Apps/Plugins/MeshEditorPlugin\l/processors/coreSurfaceInteractor\lTriangleSelect.cxx",height=0.2,width=0.4,color="black", fillcolor="white", style="filled",URL="$coreSurfaceInteractorTriangleSelect_8cxx.html"];
  Node22 -> Node30 [dir="back",color="midnightblue",fontsize="10",style="solid",fontname="Helvetica"];
  Node30 [label="Apps/Plugins/MeshEditorPlugin\l/widgets/BooleanOperationsWidget\l/BooleanOperationsPanelWidget.cpp",height=0.2,width=0.4,color="black", fillcolor="white", style="filled",URL="$BooleanOperationsPanelWidget_8cpp.html"];
  Node22 -> Node31 [dir="back",color="midnightblue",fontsize="10",style="solid",fontname="Helvetica"];
  Node31 [label="Apps/Plugins/MeshEditorPlugin\l/widgets/ManualNeckCuttingWidget\l/ManualNeckCuttingPanelWidget.cpp",height=0.2,width=0.4,color="black", fillcolor="white", style="filled",URL="$ManualNeckCuttingPanelWidget_8cpp.html"];
  Node22 -> Node32 [dir="back",color="midnightblue",fontsize="10",style="solid",fontname="Helvetica"];
  Node32 [label="Apps/Plugins/MeshEditorPlugin\l/widgets/RingCutWidget/ptRingCut\lPanelWidget.cpp",height=0.2,width=0.4,color="black", fillcolor="white", style="filled",URL="$RingCutWidget_2ptRingCutPanelWidget_8cpp.html"];
  Node22 -> Node20 [dir="back",color="midnightblue",fontsize="10",style="solid",fontname="Helvetica"];
  Node22 -> Node33 [dir="back",color="midnightblue",fontsize="10",style="solid",fontname="Helvetica"];
  Node33 [label="Apps/Plugins/MeshEditorPlugin\l/widgets/ToolsProcessorWidget\l/ptExtractScalarWidget.cpp",height=0.2,width=0.4,color="black", fillcolor="white", style="filled",URL="$ToolsProcessorWidget_2ptExtractScalarWidget_8cpp.html"];
  Node22 -> Node34 [dir="back",color="midnightblue",fontsize="10",style="solid",fontname="Helvetica"];
  Node34 [label="Apps/Plugins/MeshEditorPlugin\l/widgets/ToolsProcessorWidget\l/ptRingCutPanelWidget.cpp",height=0.2,width=0.4,color="black", fillcolor="white", style="filled",URL="$ToolsProcessorWidget_2ptRingCutPanelWidget_8cpp.html"];
  Node22 -> Node35 [dir="back",color="midnightblue",fontsize="10",style="solid",fontname="Helvetica"];
  Node35 [label="Apps/Plugins/MeshEditorPlugin\l/widgets/ToolsProcessorWidget\l/ptVolumeClosingPanelWidget.cpp",height=0.2,width=0.4,color="black", fillcolor="white", style="filled",URL="$ptVolumeClosingPanelWidget_8cpp.html"];
  Node22 -> Node36 [dir="back",color="midnightblue",fontsize="10",style="solid",fontname="Helvetica"];
  Node36 [label="Apps/Plugins/MITKPlugin\l/widgets/RenderingTree\l/coreDataTreeMITKHelper.cxx",height=0.2,width=0.4,color="black", fillcolor="white", style="filled",URL="$coreDataTreeMITKHelper_8cxx.html"];
  Node22 -> Node37 [dir="back",color="midnightblue",fontsize="10",style="solid",fontname="Helvetica"];
  Node37 [label="Apps/Plugins/MITKPlugin\l/widgets/RenderWindow\l/coreRenderingTreeMITK.cxx",height=0.2,width=0.4,color="black", fillcolor="white", style="filled",URL="$coreRenderingTreeMITK_8cxx.html"];
  Node1 -> Node36 [dir="back",color="midnightblue",fontsize="10",style="solid",fontname="Helvetica"];
  Node1 -> Node38 [dir="back",color="midnightblue",fontsize="10",style="solid",fontname="Helvetica"];
  Node38 [label="Apps/Plugins/MITKPlugin\l/widgets/RenderWindow\l/coreRenderingTreeMITK.h",height=0.2,width=0.4,color="red", fillcolor="white", style="filled",URL="$coreRenderingTreeMITK_8h.html"];
  Node38 -> Node6 [dir="back",color="midnightblue",fontsize="10",style="solid",fontname="Helvetica"];
  Node38 -> Node9 [dir="back",color="midnightblue",fontsize="10",style="solid",fontname="Helvetica"];
  Node38 -> Node12 [dir="back",color="midnightblue",fontsize="10",style="solid",fontname="Helvetica"];
  Node38 -> Node13 [dir="back",color="midnightblue",fontsize="10",style="solid",fontname="Helvetica"];
  Node38 -> Node36 [dir="back",color="midnightblue",fontsize="10",style="solid",fontname="Helvetica"];
  Node38 -> Node37 [dir="back",color="midnightblue",fontsize="10",style="solid",fontname="Helvetica"];
  Node1 -> Node39 [dir="back",color="midnightblue",fontsize="10",style="solid",fontname="Helvetica"];
  Node39 [label="Apps/Plugins/MITKPlugin\l/widgets/RenderWindow\l/coreMultiRenderWindowFocus.cxx",height=0.2,width=0.4,color="black", fillcolor="white", style="filled",URL="$coreMultiRenderWindowFocus_8cxx.html"];
  Node1 -> Node37 [dir="back",color="midnightblue",fontsize="10",style="solid",fontname="Helvetica"];
  Node1 -> Node40 [dir="back",color="midnightblue",fontsize="10",style="solid",fontname="Helvetica"];
  Node40 [label="Modules/TpExtLib/libmodules\l/tpExtMITK/src/blMitkLineBoundPoint\lInteractor.cpp",height=0.2,width=0.4,color="black", fillcolor="white", style="filled",URL="$blMitkLineBoundPointInteractor_8cpp.html"];
  Node1 -> Node41 [dir="back",color="midnightblue",fontsize="10",style="solid",fontname="Helvetica"];
  Node41 [label="Modules/TpExtLib/libmodules\l/tpExtMITK/src/blMitkPointSelect\lInteractor.cpp",height=0.2,width=0.4,color="black", fillcolor="white", style="filled",URL="$blMitkPointSelectInteractor_8cpp.html"];
  Node1 -> Node42 [dir="back",color="midnightblue",fontsize="10",style="solid",fontname="Helvetica"];
  Node42 [label="Modules/TpExtLib/libmodules\l/tpExtMITK/src/blMitkPointSetInteractor.cpp",height=0.2,width=0.4,color="black", fillcolor="white", style="filled",URL="$blMitkPointSetInteractor_8cpp.html"];
  Node1 -> Node43 [dir="back",color="midnightblue",fontsize="10",style="solid",fontname="Helvetica"];
  Node43 [label="Modules/TpExtLib/libmodules\l/tpExtMITK/src/blMitkSurfaceSelect\lInteractor.cpp",height=0.2,width=0.4,color="black", fillcolor="white", style="filled",URL="$blMitkSurfaceSelectInteractor_8cpp.html"];
  Node1 -> Node44 [dir="back",color="midnightblue",fontsize="10",style="solid",fontname="Helvetica"];
  Node44 [label="Modules/TpExtLib/libmodules\l/tpExtMITK/src/blMitkTriangleSelect\lInteractor.cpp",height=0.2,width=0.4,color="black", fillcolor="white", style="filled",URL="$blMitkTriangleSelectInteractor_8cpp.html"];
  Node1 -> Node45 [dir="back",color="midnightblue",fontsize="10",style="solid",fontname="Helvetica"];
  Node45 [label="Modules/TpExtLib/libmodules\l/tpExtMITK/src/blMITKUtils.cpp",height=0.2,width=0.4,color="black", fillcolor="white", style="filled",URL="$blMITKUtils_8cpp.html"];
  Node1 -> Node46 [dir="back",color="midnightblue",fontsize="10",style="solid",fontname="Helvetica"];
  Node46 [label="Modules/wxMitk/libmodules\l/wxMitkWidgets/src/wxMitkImage\lPropertiesWidget.cxx",height=0.2,width=0.4,color="black", fillcolor="white", style="filled",URL="$wxMitkImagePropertiesWidget_8cxx.html"];
  Node1 -> Node47 [dir="back",color="midnightblue",fontsize="10",style="solid",fontname="Helvetica"];
  Node47 [label="Modules/wxMitk/libmodules\l/wxMitkWidgets/src/wxMitkLookup\lTableWidget.cxx",height=0.2,width=0.4,color="black", fillcolor="white", style="filled",URL="$wxMitkLookupTableWidget_8cxx.html"];
  Node1 -> Node48 [dir="back",color="midnightblue",fontsize="10",style="solid",fontname="Helvetica"];
  Node48 [label="Modules/wxMitk/libmodules\l/wxMitkWidgets/src/wxMitkMaterial\lEditorWidget.cpp",height=0.2,width=0.4,color="black", fillcolor="white", style="filled",URL="$wxMitkMaterialEditorWidget_8cpp.html"];
  Node1 -> Node49 [dir="back",color="midnightblue",fontsize="10",style="solid",fontname="Helvetica"];
  Node49 [label="Modules/wxMitk/libmodules\l/wxMitkWidgets/src/wxMitkScalars\lArrayControl.cxx",height=0.2,width=0.4,color="black", fillcolor="white", style="filled",URL="$wxMitkScalarsArrayControl_8cxx.html"];
  Node1 -> Node50 [dir="back",color="midnightblue",fontsize="10",style="solid",fontname="Helvetica"];
  Node50 [label="Modules/wxMitk/libmodules\l/wxMitkWidgets/src/wxMitkTransfer\lFunctionWidget.cxx",height=0.2,width=0.4,color="black", fillcolor="white", style="filled",URL="$wxMitkTransferFunctionWidget_8cxx.html"];
}
