digraph "Modules/BaseLib/libmodules/blCommon/include/blObject.h"
{
  edge [fontname="Helvetica",fontsize="10",labelfontname="Helvetica",labelfontsize="10"];
  node [fontname="Helvetica",fontsize="10",shape=record];
  Node1 [label="Modules/BaseLib/libmodules\l/blCommon/include/blObject.h",height=0.2,width=0.4,color="black", fillcolor="grey75", style="filled", fontcolor="black"];
  Node1 -> Node2 [dir="back",color="midnightblue",fontsize="10",style="solid",fontname="Helvetica"];
  Node2 [label="Modules/BaseLib/libmodules\l/blCommon/src/blObject.cpp",height=0.2,width=0.4,color="black", fillcolor="white", style="filled",URL="$blObject_8cpp.html"];
  Node1 -> Node3 [dir="back",color="midnightblue",fontsize="10",style="solid",fontname="Helvetica"];
  Node3 [label="Modules/BaseLib/libmodules\l/blSignal/include/blSignalCollective.h",height=0.2,width=0.4,color="black", fillcolor="white", style="filled",URL="$blSignalCollective_8h.html"];
  Node3 -> Node4 [dir="back",color="midnightblue",fontsize="10",style="solid",fontname="Helvetica"];
  Node4 [label="Apps/Plugins/DicomPlugin\l/DicomPluginTypes.h",height=0.2,width=0.4,color="black", fillcolor="white", style="filled",URL="$DicomPluginTypes_8h.html"];
  Node4 -> Node5 [dir="back",color="midnightblue",fontsize="10",style="solid",fontname="Helvetica"];
  Node5 [label="Apps/Plugins/DicomPlugin\l/widgets/DicomWorkingAreaWidget\l/DicomWorkingAreaPanelWidget.h",height=0.2,width=0.4,color="red", fillcolor="white", style="filled",URL="$DicomWorkingAreaPanelWidget_8h.html"];
  Node3 -> Node5 [dir="back",color="midnightblue",fontsize="10",style="solid",fontname="Helvetica"];
  Node3 -> Node6 [dir="back",color="midnightblue",fontsize="10",style="solid",fontname="Helvetica"];
  Node6 [label="Apps/Plugins/ManualSegmentation\lPlugin/processors/mlrProcessor.cxx",height=0.2,width=0.4,color="black", fillcolor="white", style="filled",URL="$mlrProcessor_8cxx.html"];
  Node3 -> Node7 [dir="back",color="midnightblue",fontsize="10",style="solid",fontname="Helvetica"];
  Node7 [label="Apps/Plugins/MeshEditorPlugin\l/processors/coreMeshStatisticsProcessor.h",height=0.2,width=0.4,color="red", fillcolor="white", style="filled",URL="$coreMeshStatisticsProcessor_8h.html"];
  Node3 -> Node8 [dir="back",color="midnightblue",fontsize="10",style="solid",fontname="Helvetica"];
  Node8 [label="Apps/Plugins/MITKPlugin\l/MITKPluginPCH.h",height=0.2,width=0.4,color="black", fillcolor="white", style="filled",URL="$MITKPluginPCH_8h.html"];
  Node3 -> Node9 [dir="back",color="midnightblue",fontsize="10",style="solid",fontname="Helvetica"];
  Node9 [label="Apps/Plugins/MITKPlugin\l/processors/coreSignalImpl.h",height=0.2,width=0.4,color="red", fillcolor="white", style="filled",URL="$coreSignalImpl_8h.html"];
  Node3 -> Node10 [dir="back",color="midnightblue",fontsize="10",style="solid",fontname="Helvetica"];
  Node10 [label="Apps/Plugins/MITKPlugin\l/processors/DICOMFile\l/coreDICOMFileReader.cxx",height=0.2,width=0.4,color="black", fillcolor="white", style="filled",URL="$coreDICOMFileReader_8cxx.html"];
  Node3 -> Node11 [dir="back",color="midnightblue",fontsize="10",style="solid",fontname="Helvetica"];
  Node11 [label="Apps/Plugins/MITKPlugin\l/widgets/LandmarkSelectorWidget\l/coreLandmarkSelectorWidget.cxx",height=0.2,width=0.4,color="black", fillcolor="white", style="filled",URL="$coreLandmarkSelectorWidget_8cxx.html"];
  Node3 -> Node12 [dir="back",color="midnightblue",fontsize="10",style="solid",fontname="Helvetica"];
  Node12 [label="Apps/Plugins/SignalViewer\lPlugin/processors/coreLandmark\lSelectorProcessor.cxx",height=0.2,width=0.4,color="black", fillcolor="white", style="filled",URL="$coreLandmarkSelectorProcessor_8cxx.html"];
  Node3 -> Node13 [dir="back",color="midnightblue",fontsize="10",style="solid",fontname="Helvetica"];
  Node13 [label="Apps/Plugins/SignalViewer\lPlugin/processors/coreSignalESEDPropagation\lProcessor.cxx",height=0.2,width=0.4,color="black", fillcolor="white", style="filled",URL="$coreSignalESEDPropagationProcessor_8cxx.html"];
  Node3 -> Node14 [dir="back",color="midnightblue",fontsize="10",style="solid",fontname="Helvetica"];
  Node14 [label="Apps/Plugins/SignalViewer\lPlugin/processors/coreSignalTime\lPropagationProcessor.cxx",height=0.2,width=0.4,color="black", fillcolor="white", style="filled",URL="$coreSignalTimePropagationProcessor_8cxx.html"];
  Node3 -> Node15 [dir="back",color="midnightblue",fontsize="10",style="solid",fontname="Helvetica"];
  Node15 [label="Apps/Plugins/SignalViewer\lPlugin/processors/coreSignalWriter.cxx",height=0.2,width=0.4,color="black", fillcolor="white", style="filled",URL="$coreSignalWriter_8cxx.html"];
  Node3 -> Node16 [dir="back",color="midnightblue",fontsize="10",style="solid",fontname="Helvetica"];
  Node16 [label="Apps/Plugins/SignalViewer\lPlugin/widgets/PlotWidget\l/svConfigurationWidget.h",height=0.2,width=0.4,color="red", fillcolor="white", style="filled",URL="$svConfigurationWidget_8h.html"];
  Node3 -> Node17 [dir="back",color="midnightblue",fontsize="10",style="solid",fontname="Helvetica"];
  Node17 [label="Apps/Plugins/SignalViewer\lPlugin/widgets/PlotWidget\l/svSignalPlotAnnotationsWidget.h",height=0.2,width=0.4,color="red", fillcolor="white", style="filled",URL="$svSignalPlotAnnotationsWidget_8h.html"];
  Node3 -> Node18 [dir="back",color="midnightblue",fontsize="10",style="solid",fontname="Helvetica"];
  Node18 [label="Apps/Plugins/SignalViewer\lPlugin/widgets/PlotWidget\l/svSignalAnnotationListBox.cxx",height=0.2,width=0.4,color="black", fillcolor="white", style="filled",URL="$svSignalAnnotationListBox_8cxx.html"];
  Node3 -> Node19 [dir="back",color="midnightblue",fontsize="10",style="solid",fontname="Helvetica"];
  Node19 [label="Apps/Plugins/SignalViewer\lPlugin/widgets/PlotWidget\l/svSignalNotebookPage.cxx",height=0.2,width=0.4,color="black", fillcolor="white", style="filled",URL="$svSignalNotebookPage_8cxx.html"];
  Node3 -> Node20 [dir="back",color="midnightblue",fontsize="10",style="solid",fontname="Helvetica"];
  Node20 [label="Apps/Plugins/SignalViewer\lPlugin/widgets/PlotWidget\l/svSignalPlotMapper.cxx",height=0.2,width=0.4,color="black", fillcolor="white", style="filled",URL="$svSignalPlotMapper_8cxx.html"];
  Node3 -> Node21 [dir="back",color="midnightblue",fontsize="10",style="solid",fontname="Helvetica"];
  Node21 [label="Apps/Plugins/SignalViewer\lPlugin/widgets/PlotWidget\l/svSignalPlotWindow.cxx",height=0.2,width=0.4,color="black", fillcolor="white", style="filled",URL="$svSignalPlotWindow_8cxx.html"];
  Node3 -> Node22 [dir="back",color="midnightblue",fontsize="10",style="solid",fontname="Helvetica"];
  Node22 [label="Modules/BaseLib/applications\l/blAppGdfReader/blAppGdfReader.cxx",height=0.2,width=0.4,color="black", fillcolor="white", style="filled",URL="$blAppGdfReader_8cxx.html"];
  Node3 -> Node23 [dir="back",color="midnightblue",fontsize="10",style="solid",fontname="Helvetica"];
  Node23 [label="Modules/BaseLib/libmodules\l/blSignal/include/blArithmeticFilter.h",height=0.2,width=0.4,color="red", fillcolor="white", style="filled",URL="$blArithmeticFilter_8h.html"];
  Node3 -> Node24 [dir="back",color="midnightblue",fontsize="10",style="solid",fontname="Helvetica"];
  Node24 [label="Modules/BaseLib/libmodules\l/blSignal/include/blBVFileReader.h",height=0.2,width=0.4,color="red", fillcolor="white", style="filled",URL="$blBVFileReader_8h.html"];
  Node3 -> Node25 [dir="back",color="midnightblue",fontsize="10",style="solid",fontname="Helvetica"];
  Node25 [label="Modules/BaseLib/libmodules\l/blSignal/include/blGDFUtils.h",height=0.2,width=0.4,color="red", fillcolor="white", style="filled",URL="$blGDFUtils_8h.html"];
  Node25 -> Node24 [dir="back",color="midnightblue",fontsize="10",style="solid",fontname="Helvetica"];
  Node25 -> Node26 [dir="back",color="midnightblue",fontsize="10",style="solid",fontname="Helvetica"];
  Node26 [label="Modules/BaseLib/libmodules\l/blSignal/include/blGDFFileReader.h",height=0.2,width=0.4,color="red", fillcolor="white", style="filled",URL="$blGDFFileReader_8h.html"];
  Node26 -> Node22 [dir="back",color="midnightblue",fontsize="10",style="solid",fontname="Helvetica"];
  Node3 -> Node27 [dir="back",color="midnightblue",fontsize="10",style="solid",fontname="Helvetica"];
  Node27 [label="Modules/BaseLib/libmodules\l/blSignal/include/blCSVSignalReader.h",height=0.2,width=0.4,color="red", fillcolor="white", style="filled",URL="$blCSVSignalReader_8h.html"];
  Node3 -> Node28 [dir="back",color="midnightblue",fontsize="10",style="solid",fontname="Helvetica"];
  Node28 [label="Modules/BaseLib/libmodules\l/blSignal/include/blCSVSignalWriter.h",height=0.2,width=0.4,color="red", fillcolor="white", style="filled",URL="$blCSVSignalWriter_8h.html"];
  Node3 -> Node26 [dir="back",color="midnightblue",fontsize="10",style="solid",fontname="Helvetica"];
  Node3 -> Node29 [dir="back",color="midnightblue",fontsize="10",style="solid",fontname="Helvetica"];
  Node29 [label="Modules/BaseLib/libmodules\l/blSignal/include/blGDFFileWriter.h",height=0.2,width=0.4,color="red", fillcolor="white", style="filled",URL="$blGDFFileWriter_8h.html"];
  Node29 -> Node22 [dir="back",color="midnightblue",fontsize="10",style="solid",fontname="Helvetica"];
  Node3 -> Node30 [dir="back",color="midnightblue",fontsize="10",style="solid",fontname="Helvetica"];
  Node30 [label="Modules/BaseLib/libmodules\l/blSignal/include/blSignalCompare.h",height=0.2,width=0.4,color="black", fillcolor="white", style="filled",URL="$blSignalCompare_8h.html"];
  Node30 -> Node31 [dir="back",color="midnightblue",fontsize="10",style="solid",fontname="Helvetica"];
  Node31 [label="Modules/BaseLib/libmodules\l/blSignal/src/blSignalCompare.cpp",height=0.2,width=0.4,color="black", fillcolor="white", style="filled",URL="$blSignalCompare_8cpp.html"];
  Node3 -> Node32 [dir="back",color="midnightblue",fontsize="10",style="solid",fontname="Helvetica"];
  Node32 [label="Modules/BaseLib/libmodules\l/blSignal/include/blSignalReader.h",height=0.2,width=0.4,color="red", fillcolor="white", style="filled",URL="$blSignalReader_8h.html"];
  Node32 -> Node31 [dir="back",color="midnightblue",fontsize="10",style="solid",fontname="Helvetica"];
  Node3 -> Node33 [dir="back",color="midnightblue",fontsize="10",style="solid",fontname="Helvetica"];
  Node33 [label="Modules/BaseLib/libmodules\l/blSignal/include/blSignalWriter.h",height=0.2,width=0.4,color="red", fillcolor="white", style="filled",URL="$blSignalWriter_8h.html"];
  Node33 -> Node15 [dir="back",color="midnightblue",fontsize="10",style="solid",fontname="Helvetica"];
  Node33 -> Node22 [dir="back",color="midnightblue",fontsize="10",style="solid",fontname="Helvetica"];
  Node33 -> Node34 [dir="back",color="midnightblue",fontsize="10",style="solid",fontname="Helvetica"];
  Node34 [label="Modules/TpExtLib/Applications\l/PixelIntensity/PixelIntensity.cxx",height=0.2,width=0.4,color="black", fillcolor="white", style="filled",URL="$PixelIntensity_8cxx.html"];
  Node33 -> Node35 [dir="back",color="midnightblue",fontsize="10",style="solid",fontname="Helvetica"];
  Node35 [label="Modules/TpExtLib/Applications\l/VolumetricMeshScalarValue\l/VolumetricMeshScalarValue.cxx",height=0.2,width=0.4,color="black", fillcolor="white", style="filled",URL="$VolumetricMeshScalarValue_8cxx.html"];
  Node3 -> Node36 [dir="back",color="midnightblue",fontsize="10",style="solid",fontname="Helvetica"];
  Node36 [label="Modules/BaseLib/libmodules\l/blSignal/src/blSignalCollective.cpp",height=0.2,width=0.4,color="black", fillcolor="white", style="filled",URL="$blSignalCollective_8cpp.html"];
  Node3 -> Node31 [dir="back",color="midnightblue",fontsize="10",style="solid",fontname="Helvetica"];
  Node3 -> Node37 [dir="back",color="midnightblue",fontsize="10",style="solid",fontname="Helvetica"];
  Node37 [label="Modules/DcmAPI/DcmIOPCH.h",height=0.2,width=0.4,color="black", fillcolor="white", style="filled",URL="$DcmIOPCH_8h.html"];
  Node3 -> Node38 [dir="back",color="midnightblue",fontsize="10",style="solid",fontname="Helvetica"];
  Node38 [label="Modules/DcmAPI/libmodules\l/dcmIO/src/dcmMultiSliceReader.h",height=0.2,width=0.4,color="red", fillcolor="white", style="filled",URL="$dcmMultiSliceReader_8h.html"];
  Node3 -> Node34 [dir="back",color="midnightblue",fontsize="10",style="solid",fontname="Helvetica"];
  Node3 -> Node35 [dir="back",color="midnightblue",fontsize="10",style="solid",fontname="Helvetica"];
  Node3 -> Node39 [dir="back",color="midnightblue",fontsize="10",style="solid",fontname="Helvetica"];
  Node39 [label="Modules/TpExtLib/libmodules\l/tpExtMITK/src/blMitkSignal.h",height=0.2,width=0.4,color="red", fillcolor="white", style="filled",URL="$blMitkSignal_8h.html"];
  Node39 -> Node8 [dir="back",color="midnightblue",fontsize="10",style="solid",fontname="Helvetica"];
  Node1 -> Node40 [dir="back",color="midnightblue",fontsize="10",style="solid",fontname="Helvetica"];
  Node40 [label="Modules/BaseLib/libmodules\l/blSignal/include/blSignal.h",height=0.2,width=0.4,color="red", fillcolor="white", style="filled",URL="$blSignal_8h.html"];
  Node40 -> Node41 [dir="back",color="midnightblue",fontsize="10",style="solid",fontname="Helvetica"];
  Node41 [label="Apps/Plugins/ManualSegmentation\lPlugin/processors/mlrProcessor.h",height=0.2,width=0.4,color="red", fillcolor="white", style="filled",URL="$mlrProcessor_8h.html"];
  Node41 -> Node6 [dir="back",color="midnightblue",fontsize="10",style="solid",fontname="Helvetica"];
  Node40 -> Node7 [dir="back",color="midnightblue",fontsize="10",style="solid",fontname="Helvetica"];
  Node40 -> Node8 [dir="back",color="midnightblue",fontsize="10",style="solid",fontname="Helvetica"];
  Node40 -> Node42 [dir="back",color="midnightblue",fontsize="10",style="solid",fontname="Helvetica"];
  Node42 [label="Apps/Plugins/MITKPlugin\l/widgets/LandmarkSelectorWidget\l/coreLandmarkSelectorWidget.h",height=0.2,width=0.4,color="red", fillcolor="white", style="filled",URL="$coreLandmarkSelectorWidget_8h.html"];
  Node42 -> Node11 [dir="back",color="midnightblue",fontsize="10",style="solid",fontname="Helvetica"];
  Node40 -> Node43 [dir="back",color="midnightblue",fontsize="10",style="solid",fontname="Helvetica"];
  Node43 [label="Apps/Plugins/SignalViewer\lPlugin/processors/coreLandmark\lSelectorProcessor.h",height=0.2,width=0.4,color="black", fillcolor="white", style="filled",URL="$coreLandmarkSelectorProcessor_8h.html"];
  Node43 -> Node12 [dir="back",color="midnightblue",fontsize="10",style="solid",fontname="Helvetica"];
  Node40 -> Node44 [dir="back",color="midnightblue",fontsize="10",style="solid",fontname="Helvetica"];
  Node44 [label="Apps/Plugins/SignalViewer\lPlugin/widgets/PlotWidget\l/svSignalPlotWindow.h",height=0.2,width=0.4,color="red", fillcolor="white", style="filled",URL="$svSignalPlotWindow_8h.html"];
  Node44 -> Node45 [dir="back",color="midnightblue",fontsize="10",style="solid",fontname="Helvetica"];
  Node45 [label="Apps/Plugins/SignalViewer\lPlugin/widgets/PlotWidget\l/svSignalAnnotationsLayer.h",height=0.2,width=0.4,color="red", fillcolor="white", style="filled",URL="$svSignalAnnotationsLayer_8h.html"];
  Node45 -> Node20 [dir="back",color="midnightblue",fontsize="10",style="solid",fontname="Helvetica"];
  Node45 -> Node21 [dir="back",color="midnightblue",fontsize="10",style="solid",fontname="Helvetica"];
  Node44 -> Node20 [dir="back",color="midnightblue",fontsize="10",style="solid",fontname="Helvetica"];
  Node44 -> Node21 [dir="back",color="midnightblue",fontsize="10",style="solid",fontname="Helvetica"];
  Node40 -> Node46 [dir="back",color="midnightblue",fontsize="10",style="solid",fontname="Helvetica"];
  Node46 [label="Apps/Plugins/SignalViewer\lPlugin/widgets/PlotWidget\l/svSignalLayer.h",height=0.2,width=0.4,color="red", fillcolor="white", style="filled",URL="$svSignalLayer_8h.html"];
  Node46 -> Node44 [dir="back",color="midnightblue",fontsize="10",style="solid",fontname="Helvetica"];
  Node40 -> Node45 [dir="back",color="midnightblue",fontsize="10",style="solid",fontname="Helvetica"];
  Node40 -> Node47 [dir="back",color="midnightblue",fontsize="10",style="solid",fontname="Helvetica"];
  Node47 [label="Apps/Plugins/SignalViewer\lPlugin/widgets/PlotWidget\l/svSignalDataLayer.h",height=0.2,width=0.4,color="red", fillcolor="white", style="filled",URL="$svSignalDataLayer_8h.html"];
  Node47 -> Node21 [dir="back",color="midnightblue",fontsize="10",style="solid",fontname="Helvetica"];
  Node40 -> Node3 [dir="back",color="midnightblue",fontsize="10",style="solid",fontname="Helvetica"];
  Node40 -> Node24 [dir="back",color="midnightblue",fontsize="10",style="solid",fontname="Helvetica"];
  Node40 -> Node25 [dir="back",color="midnightblue",fontsize="10",style="solid",fontname="Helvetica"];
  Node40 -> Node26 [dir="back",color="midnightblue",fontsize="10",style="solid",fontname="Helvetica"];
  Node40 -> Node29 [dir="back",color="midnightblue",fontsize="10",style="solid",fontname="Helvetica"];
  Node40 -> Node48 [dir="back",color="midnightblue",fontsize="10",style="solid",fontname="Helvetica"];
  Node48 [label="Modules/BaseLib/libmodules\l/blSignal/src/blSignal.cpp",height=0.2,width=0.4,color="black", fillcolor="white", style="filled",URL="$blSignal_8cpp.html"];
  Node40 -> Node49 [dir="back",color="midnightblue",fontsize="10",style="solid",fontname="Helvetica"];
  Node49 [label="Modules/MeshLib/libmodules\l/meTools/include/meMeshStatistics.h",height=0.2,width=0.4,color="red", fillcolor="white", style="filled",URL="$meMeshStatistics_8h.html"];
  Node49 -> Node7 [dir="back",color="midnightblue",fontsize="10",style="solid",fontname="Helvetica"];
  Node1 -> Node50 [dir="back",color="midnightblue",fontsize="10",style="solid",fontname="Helvetica"];
  Node50 [label="Modules/BaseLib/libmodules\l/blSignal/include/blSignalAnnotation.h",height=0.2,width=0.4,color="red", fillcolor="white", style="filled",URL="$blSignalAnnotation_8h.html"];
  Node50 -> Node16 [dir="back",color="midnightblue",fontsize="10",style="solid",fontname="Helvetica"];
  Node50 -> Node17 [dir="back",color="midnightblue",fontsize="10",style="solid",fontname="Helvetica"];
  Node50 -> Node40 [dir="back",color="midnightblue",fontsize="10",style="solid",fontname="Helvetica"];
}
