digraph "Modules/BaseLib/libmodules/blUtilitiesITK/include/blOrth.h"
{
  edge [fontname="Helvetica",fontsize="10",labelfontname="Helvetica",labelfontsize="10"];
  node [fontname="Helvetica",fontsize="10",shape=record];
  Node1 [label="Modules/BaseLib/libmodules\l/blUtilitiesITK/include\l/blOrth.h",height=0.2,width=0.4,color="black", fillcolor="grey75", style="filled", fontcolor="black"];
  Node1 -> Node2 [dir="back",color="midnightblue",fontsize="10",style="solid",fontname="Helvetica"];
  Node2 [label="Modules/BaseLib/libmodules\l/blUtilitiesITK/src/blOrth.cpp",height=0.2,width=0.4,color="black", fillcolor="white", style="filled",URL="$blOrth_8cpp.html"];
}
