digraph "Modules/BaseLib/libmodules/blPDShape/include/blPDShapeWriter.h"
{
  edge [fontname="Helvetica",fontsize="10",labelfontname="Helvetica",labelfontsize="10"];
  node [fontname="Helvetica",fontsize="10",shape=record];
  Node1 [label="Modules/BaseLib/libmodules\l/blPDShape/include/blPDShapeWriter.h",height=0.2,width=0.4,color="black", fillcolor="grey75", style="filled", fontcolor="black"];
  Node1 -> Node2 [color="midnightblue",fontsize="10",style="solid",fontname="Helvetica"];
  Node2 [label="itkSmartPointer.h",height=0.2,width=0.4,color="grey75", fillcolor="white", style="filled"];
  Node1 -> Node3 [color="midnightblue",fontsize="10",style="solid",fontname="Helvetica"];
  Node3 [label="blPDShapeInterface.h",height=0.2,width=0.4,color="black", fillcolor="white", style="filled",URL="$blPDShapeInterface_8h.html"];
  Node3 -> Node4 [color="midnightblue",fontsize="10",style="solid",fontname="Helvetica"];
  Node4 [label="vnl/vnl_vector.h",height=0.2,width=0.4,color="grey75", fillcolor="white", style="filled"];
  Node3 -> Node5 [color="midnightblue",fontsize="10",style="solid",fontname="Helvetica"];
  Node5 [label="vector",height=0.2,width=0.4,color="grey75", fillcolor="white", style="filled"];
  Node3 -> Node6 [color="midnightblue",fontsize="10",style="solid",fontname="Helvetica"];
  Node6 [label="blLandmarkGroup.h",height=0.2,width=0.4,color="black", fillcolor="white", style="filled",URL="$blLandmarkGroup_8h.html"];
  Node3 -> Node7 [color="midnightblue",fontsize="10",style="solid",fontname="Helvetica"];
  Node7 [label="blLightObject.h",height=0.2,width=0.4,color="black", fillcolor="white", style="filled",URL="$blLightObject_8h.html"];
  Node7 -> Node8 [color="midnightblue",fontsize="10",style="solid",fontname="Helvetica"];
  Node8 [label="blMacro.h",height=0.2,width=0.4,color="black", fillcolor="white", style="filled",URL="$blMacro_8h.html"];
  Node7 -> Node9 [color="midnightblue",fontsize="10",style="solid",fontname="Helvetica"];
  Node9 [label="blSmartPointer.h",height=0.2,width=0.4,color="black", fillcolor="white", style="filled",URL="$blSmartPointer_8h.html"];
  Node7 -> Node10 [color="midnightblue",fontsize="10",style="solid",fontname="Helvetica"];
  Node10 [label="BaseLibWin32Header.h",height=0.2,width=0.4,color="grey75", fillcolor="white", style="filled"];
  Node3 -> Node9 [color="midnightblue",fontsize="10",style="solid",fontname="Helvetica"];
  Node3 -> Node8 [color="midnightblue",fontsize="10",style="solid",fontname="Helvetica"];
  Node1 -> Node11 [color="midnightblue",fontsize="10",style="solid",fontname="Helvetica"];
  Node11 [label="blXMLWriter.h",height=0.2,width=0.4,color="black", fillcolor="white", style="filled",URL="$blXMLWriter_8h.html"];
  Node11 -> Node4 [color="midnightblue",fontsize="10",style="solid",fontname="Helvetica"];
  Node11 -> Node12 [color="midnightblue",fontsize="10",style="solid",fontname="Helvetica"];
  Node12 [label="vnl/vnl_matrix.h",height=0.2,width=0.4,color="grey75", fillcolor="white", style="filled"];
  Node11 -> Node13 [color="midnightblue",fontsize="10",style="solid",fontname="Helvetica"];
  Node13 [label="itkXMLFile.h",height=0.2,width=0.4,color="grey75", fillcolor="white", style="filled"];
  Node11 -> Node7 [color="midnightblue",fontsize="10",style="solid",fontname="Helvetica"];
  Node11 -> Node9 [color="midnightblue",fontsize="10",style="solid",fontname="Helvetica"];
  Node11 -> Node8 [color="midnightblue",fontsize="10",style="solid",fontname="Helvetica"];
  Node11 -> Node14 [color="midnightblue",fontsize="10",style="solid",fontname="Helvetica"];
  Node14 [label="blLinearAlgebraOperations.h",height=0.2,width=0.4,color="black", fillcolor="white", style="filled",URL="$blLinearAlgebraOperations_8h.html"];
  Node14 -> Node15 [color="midnightblue",fontsize="10",style="solid",fontname="Helvetica"];
  Node15 [label="CILabNamespaceMacros.h",height=0.2,width=0.4,color="black", fillcolor="white", style="filled",URL="$CILabNamespaceMacros_8h.html"];
  Node14 -> Node16 [color="midnightblue",fontsize="10",style="solid",fontname="Helvetica"];
  Node16 [label="blLinearAlgebraOperations\lUblas.h",height=0.2,width=0.4,color="black", fillcolor="white", style="filled",URL="$blLinearAlgebraOperationsUblas_8h.html"];
  Node16 -> Node14 [color="midnightblue",fontsize="10",style="solid",fontname="Helvetica"];
  Node16 -> Node17 [color="midnightblue",fontsize="10",style="solid",fontname="Helvetica"];
  Node17 [label="blUblasMatrixNamespace.h",height=0.2,width=0.4,color="black", fillcolor="white", style="filled",URL="$blUblasMatrixNamespace_8h.html"];
  Node17 -> Node18 [color="midnightblue",fontsize="10",style="solid",fontname="Helvetica"];
  Node18 [label="boost/shared_ptr.hpp",height=0.2,width=0.4,color="grey75", fillcolor="white", style="filled"];
  Node17 -> Node19 [color="midnightblue",fontsize="10",style="solid",fontname="Helvetica"];
  Node19 [label="blUblasMatrix.h",height=0.2,width=0.4,color="black", fillcolor="white", style="filled",URL="$blUblasMatrix_8h.html"];
  Node19 -> Node20 [color="midnightblue",fontsize="10",style="solid",fontname="Helvetica"];
  Node20 [label="boost/numeric/ublas\l/vector.hpp",height=0.2,width=0.4,color="grey75", fillcolor="white", style="filled"];
  Node19 -> Node21 [color="midnightblue",fontsize="10",style="solid",fontname="Helvetica"];
  Node21 [label="boost/numeric/ublas\l/matrix_expression.hpp",height=0.2,width=0.4,color="grey75", fillcolor="white", style="filled"];
  Node19 -> Node22 [color="midnightblue",fontsize="10",style="solid",fontname="Helvetica"];
  Node22 [label="boost/numeric/ublas\l/detail/matrix_assign.hpp",height=0.2,width=0.4,color="grey75", fillcolor="white", style="filled"];
  Node19 -> Node23 [color="midnightblue",fontsize="10",style="solid",fontname="Helvetica"];
  Node23 [label="blStoragePolicy.h",height=0.2,width=0.4,color="black", fillcolor="white", style="filled",URL="$blStoragePolicy_8h.html"];
  Node23 -> Node24 [color="midnightblue",fontsize="10",style="solid",fontname="Helvetica"];
  Node24 [label="boost/numeric/ublas\l/storage.hpp",height=0.2,width=0.4,color="grey75", fillcolor="white", style="filled"];
  Node23 -> Node25 [color="midnightblue",fontsize="10",style="solid",fontname="Helvetica"];
  Node25 [label="boost/numeric/ublas\l/functional.hpp",height=0.2,width=0.4,color="grey75", fillcolor="white", style="filled"];
  Node23 -> Node26 [color="midnightblue",fontsize="10",style="solid",fontname="Helvetica"];
  Node26 [label="boost/filesystem.hpp",height=0.2,width=0.4,color="grey75", fillcolor="white", style="filled"];
  Node23 -> Node27 [color="midnightblue",fontsize="10",style="solid",fontname="Helvetica"];
  Node27 [label="boost/iterator/iterator\l_facade.hpp",height=0.2,width=0.4,color="grey75", fillcolor="white", style="filled"];
  Node23 -> Node28 [color="midnightblue",fontsize="10",style="solid",fontname="Helvetica"];
  Node28 [label="blSingleton.h",height=0.2,width=0.4,color="black", fillcolor="white", style="filled",URL="$blSingleton_8h.html"];
  Node23 -> Node29 [color="midnightblue",fontsize="10",style="solid",fontname="Helvetica"];
  Node29 [label="CILabExceptionMacros.h",height=0.2,width=0.4,color="black", fillcolor="white", style="filled",URL="$CILabExceptionMacros_8h.html"];
  Node29 -> Node30 [color="midnightblue",fontsize="10",style="solid",fontname="Helvetica"];
  Node30 [label="exception",height=0.2,width=0.4,color="grey75", fillcolor="white", style="filled"];
  Node29 -> Node31 [color="midnightblue",fontsize="10",style="solid",fontname="Helvetica"];
  Node31 [label="string",height=0.2,width=0.4,color="grey75", fillcolor="white", style="filled"];
  Node23 -> Node15 [color="midnightblue",fontsize="10",style="solid",fontname="Helvetica"];
  Node23 -> Node32 [color="midnightblue",fontsize="10",style="solid",fontname="Helvetica"];
  Node32 [label="CILabBoostMacros.h",height=0.2,width=0.4,color="black", fillcolor="white", style="filled",URL="$CILabBoostMacros_8h.html"];
  Node32 -> Node33 [color="midnightblue",fontsize="10",style="solid",fontname="Helvetica"];
  Node33 [label="boost/format.hpp",height=0.2,width=0.4,color="grey75", fillcolor="white", style="filled"];
  Node23 -> Node30 [color="midnightblue",fontsize="10",style="solid",fontname="Helvetica"];
  Node23 -> Node34 [color="midnightblue",fontsize="10",style="solid",fontname="Helvetica"];
  Node34 [label="string.h",height=0.2,width=0.4,color="grey75", fillcolor="white", style="filled"];
  Node23 -> Node35 [color="midnightblue",fontsize="10",style="solid",fontname="Helvetica"];
  Node35 [label="blStoragePolicy.txx",height=0.2,width=0.4,color="grey75", fillcolor="white", style="filled"];
  Node17 -> Node36 [color="midnightblue",fontsize="10",style="solid",fontname="Helvetica"];
  Node36 [label="CILabAssertMacros.h",height=0.2,width=0.4,color="black", fillcolor="white", style="filled",URL="$CILabAssertMacros_8h.html"];
  Node36 -> Node37 [color="midnightblue",fontsize="10",style="solid",fontname="Helvetica"];
  Node37 [label="assert.h",height=0.2,width=0.4,color="grey75", fillcolor="white", style="filled"];
  Node17 -> Node20 [color="midnightblue",fontsize="10",style="solid",fontname="Helvetica"];
  Node16 -> Node38 [color="midnightblue",fontsize="10",style="solid",fontname="Helvetica"];
  Node38 [label="blUblasConvertibleArray.h",height=0.2,width=0.4,color="black", fillcolor="white", style="filled",URL="$blUblasConvertibleArray_8h.html"];
  Node38 -> Node24 [color="midnightblue",fontsize="10",style="solid",fontname="Helvetica"];
  Node16 -> Node36 [color="midnightblue",fontsize="10",style="solid",fontname="Helvetica"];
  Node16 -> Node39 [color="midnightblue",fontsize="10",style="solid",fontname="Helvetica"];
  Node39 [label="algorithm",height=0.2,width=0.4,color="grey75", fillcolor="white", style="filled"];
  Node16 -> Node40 [color="midnightblue",fontsize="10",style="solid",fontname="Helvetica"];
  Node40 [label="blLinearAlgebraTypes.h",height=0.2,width=0.4,color="black", fillcolor="white", style="filled",URL="$blLinearAlgebraTypes_8h.html"];
  Node40 -> Node15 [color="midnightblue",fontsize="10",style="solid",fontname="Helvetica"];
  Node40 -> Node38 [color="midnightblue",fontsize="10",style="solid",fontname="Helvetica"];
  Node40 -> Node12 [color="midnightblue",fontsize="10",style="solid",fontname="Helvetica"];
  Node40 -> Node4 [color="midnightblue",fontsize="10",style="solid",fontname="Helvetica"];
  Node40 -> Node41 [color="midnightblue",fontsize="10",style="solid",fontname="Helvetica"];
  Node41 [label="vnl/vnl_vector_ref.h",height=0.2,width=0.4,color="grey75", fillcolor="white", style="filled"];
  Node40 -> Node19 [color="midnightblue",fontsize="10",style="solid",fontname="Helvetica"];
  Node40 -> Node20 [color="midnightblue",fontsize="10",style="solid",fontname="Helvetica"];
  Node40 -> Node18 [color="midnightblue",fontsize="10",style="solid",fontname="Helvetica"];
  Node40 -> Node23 [color="midnightblue",fontsize="10",style="solid",fontname="Helvetica"];
  Node16 -> Node18 [color="midnightblue",fontsize="10",style="solid",fontname="Helvetica"];
  Node16 -> Node42 [color="midnightblue",fontsize="10",style="solid",fontname="Helvetica"];
  Node42 [label="blLinearAlgebraOperations\lVnl.h",height=0.2,width=0.4,color="black", fillcolor="white", style="filled",URL="$blLinearAlgebraOperationsVnl_8h.html"];
  Node42 -> Node14 [color="midnightblue",fontsize="10",style="solid",fontname="Helvetica"];
  Node42 -> Node43 [color="midnightblue",fontsize="10",style="solid",fontname="Helvetica"];
  Node43 [label="blMatrix.h",height=0.2,width=0.4,color="black", fillcolor="white", style="filled",URL="$blMatrix_8h.html"];
  Node43 -> Node9 [color="midnightblue",fontsize="10",style="solid",fontname="Helvetica"];
  Node43 -> Node7 [color="midnightblue",fontsize="10",style="solid",fontname="Helvetica"];
  Node43 -> Node40 [color="midnightblue",fontsize="10",style="solid",fontname="Helvetica"];
  Node43 -> Node36 [color="midnightblue",fontsize="10",style="solid",fontname="Helvetica"];
  Node43 -> Node12 [color="midnightblue",fontsize="10",style="solid",fontname="Helvetica"];
  Node43 -> Node44 [color="midnightblue",fontsize="10",style="solid",fontname="Helvetica"];
  Node44 [label="vnl/algo/vnl_svd.h",height=0.2,width=0.4,color="grey75", fillcolor="white", style="filled"];
  Node43 -> Node45 [color="midnightblue",fontsize="10",style="solid",fontname="Helvetica"];
  Node45 [label="iostream",height=0.2,width=0.4,color="grey75", fillcolor="white", style="filled"];
  Node43 -> Node46 [color="midnightblue",fontsize="10",style="solid",fontname="Helvetica"];
  Node46 [label="blMatrix.txx",height=0.2,width=0.4,color="grey75", fillcolor="white", style="filled"];
  Node42 -> Node47 [color="midnightblue",fontsize="10",style="solid",fontname="Helvetica"];
  Node47 [label="blVector.h",height=0.2,width=0.4,color="black", fillcolor="white", style="filled",URL="$blVector_8h.html"];
  Node47 -> Node9 [color="midnightblue",fontsize="10",style="solid",fontname="Helvetica"];
  Node47 -> Node18 [color="midnightblue",fontsize="10",style="solid",fontname="Helvetica"];
  Node47 -> Node7 [color="midnightblue",fontsize="10",style="solid",fontname="Helvetica"];
  Node47 -> Node4 [color="midnightblue",fontsize="10",style="solid",fontname="Helvetica"];
  Node42 -> Node18 [color="midnightblue",fontsize="10",style="solid",fontname="Helvetica"];
  Node42 -> Node12 [color="midnightblue",fontsize="10",style="solid",fontname="Helvetica"];
  Node42 -> Node41 [color="midnightblue",fontsize="10",style="solid",fontname="Helvetica"];
  Node42 -> Node48 [color="midnightblue",fontsize="10",style="solid",fontname="Helvetica"];
  Node48 [label="vnl/vnl_fastops.h",height=0.2,width=0.4,color="grey75", fillcolor="white", style="filled"];
  Node42 -> Node19 [color="midnightblue",fontsize="10",style="solid",fontname="Helvetica"];
  Node42 -> Node20 [color="midnightblue",fontsize="10",style="solid",fontname="Helvetica"];
  Node42 -> Node39 [color="midnightblue",fontsize="10",style="solid",fontname="Helvetica"];
  Node14 -> Node42 [color="midnightblue",fontsize="10",style="solid",fontname="Helvetica"];
  Node11 -> Node49 [color="midnightblue",fontsize="10",style="solid",fontname="Helvetica"];
  Node49 [label="blXMLWriter.txx",height=0.2,width=0.4,color="grey75", fillcolor="white", style="filled"];
  Node11 -> Node11 [color="midnightblue",fontsize="10",style="solid",fontname="Helvetica"];
  Node1 -> Node7 [color="midnightblue",fontsize="10",style="solid",fontname="Helvetica"];
  Node1 -> Node9 [color="midnightblue",fontsize="10",style="solid",fontname="Helvetica"];
  Node1 -> Node8 [color="midnightblue",fontsize="10",style="solid",fontname="Helvetica"];
}
