digraph "Modules/BaseLib/libmodules/blPDShape/include/blPDShapeReader.h"
{
  edge [fontname="Helvetica",fontsize="10",labelfontname="Helvetica",labelfontsize="10"];
  node [fontname="Helvetica",fontsize="10",shape=record];
  Node1 [label="Modules/BaseLib/libmodules\l/blPDShape/include/blPDShapeReader.h",height=0.2,width=0.4,color="black", fillcolor="grey75", style="filled", fontcolor="black"];
  Node1 -> Node2 [color="midnightblue",fontsize="10",style="solid",fontname="Helvetica"];
  Node2 [label="itkXMLFile.h",height=0.2,width=0.4,color="grey75", fillcolor="white", style="filled"];
  Node1 -> Node3 [color="midnightblue",fontsize="10",style="solid",fontname="Helvetica"];
  Node3 [label="blPDShape2D.h",height=0.2,width=0.4,color="black", fillcolor="white", style="filled",URL="$blPDShape2D_8h.html"];
  Node3 -> Node4 [color="midnightblue",fontsize="10",style="solid",fontname="Helvetica"];
  Node4 [label="blPDShape.h",height=0.2,width=0.4,color="black", fillcolor="white", style="filled",URL="$blPDShape_8h.html"];
  Node4 -> Node5 [color="midnightblue",fontsize="10",style="solid",fontname="Helvetica"];
  Node5 [label="itkMesh.h",height=0.2,width=0.4,color="grey75", fillcolor="white", style="filled"];
  Node4 -> Node6 [color="midnightblue",fontsize="10",style="solid",fontname="Helvetica"];
  Node6 [label="itkCovariantVector.h",height=0.2,width=0.4,color="grey75", fillcolor="white", style="filled"];
  Node4 -> Node7 [color="midnightblue",fontsize="10",style="solid",fontname="Helvetica"];
  Node7 [label="itkSize.h",height=0.2,width=0.4,color="grey75", fillcolor="white", style="filled"];
  Node4 -> Node8 [color="midnightblue",fontsize="10",style="solid",fontname="Helvetica"];
  Node8 [label="iostream",height=0.2,width=0.4,color="grey75", fillcolor="white", style="filled"];
  Node4 -> Node9 [color="midnightblue",fontsize="10",style="solid",fontname="Helvetica"];
  Node9 [label="vector",height=0.2,width=0.4,color="grey75", fillcolor="white", style="filled"];
  Node4 -> Node10 [color="midnightblue",fontsize="10",style="solid",fontname="Helvetica"];
  Node10 [label="vnl/vnl_vector.h",height=0.2,width=0.4,color="grey75", fillcolor="white", style="filled"];
  Node4 -> Node11 [color="midnightblue",fontsize="10",style="solid",fontname="Helvetica"];
  Node11 [label="vnl/algo/vnl_determinant.h",height=0.2,width=0.4,color="grey75", fillcolor="white", style="filled"];
  Node4 -> Node12 [color="midnightblue",fontsize="10",style="solid",fontname="Helvetica"];
  Node12 [label="blLandmarkGroup.h",height=0.2,width=0.4,color="black", fillcolor="white", style="filled",URL="$blLandmarkGroup_8h.html"];
  Node4 -> Node13 [color="midnightblue",fontsize="10",style="solid",fontname="Helvetica"];
  Node13 [label="blPDShapeInterface.h",height=0.2,width=0.4,color="black", fillcolor="white", style="filled",URL="$blPDShapeInterface_8h.html"];
  Node13 -> Node10 [color="midnightblue",fontsize="10",style="solid",fontname="Helvetica"];
  Node13 -> Node9 [color="midnightblue",fontsize="10",style="solid",fontname="Helvetica"];
  Node13 -> Node12 [color="midnightblue",fontsize="10",style="solid",fontname="Helvetica"];
  Node13 -> Node14 [color="midnightblue",fontsize="10",style="solid",fontname="Helvetica"];
  Node14 [label="blLightObject.h",height=0.2,width=0.4,color="black", fillcolor="white", style="filled",URL="$blLightObject_8h.html"];
  Node14 -> Node15 [color="midnightblue",fontsize="10",style="solid",fontname="Helvetica"];
  Node15 [label="blMacro.h",height=0.2,width=0.4,color="black", fillcolor="white", style="filled",URL="$blMacro_8h.html"];
  Node14 -> Node16 [color="midnightblue",fontsize="10",style="solid",fontname="Helvetica"];
  Node16 [label="blSmartPointer.h",height=0.2,width=0.4,color="black", fillcolor="white", style="filled",URL="$blSmartPointer_8h.html"];
  Node14 -> Node17 [color="midnightblue",fontsize="10",style="solid",fontname="Helvetica"];
  Node17 [label="BaseLibWin32Header.h",height=0.2,width=0.4,color="grey75", fillcolor="white", style="filled"];
  Node13 -> Node16 [color="midnightblue",fontsize="10",style="solid",fontname="Helvetica"];
  Node13 -> Node15 [color="midnightblue",fontsize="10",style="solid",fontname="Helvetica"];
  Node4 -> Node18 [color="midnightblue",fontsize="10",style="solid",fontname="Helvetica"];
  Node18 [label="blPDShapeDefines.h",height=0.2,width=0.4,color="black", fillcolor="white", style="filled",URL="$blPDShapeDefines_8h.html"];
  Node4 -> Node14 [color="midnightblue",fontsize="10",style="solid",fontname="Helvetica"];
  Node4 -> Node16 [color="midnightblue",fontsize="10",style="solid",fontname="Helvetica"];
  Node4 -> Node15 [color="midnightblue",fontsize="10",style="solid",fontname="Helvetica"];
  Node4 -> Node19 [color="midnightblue",fontsize="10",style="solid",fontname="Helvetica"];
  Node19 [label="blVector.h",height=0.2,width=0.4,color="black", fillcolor="white", style="filled",URL="$blVector_8h.html"];
  Node19 -> Node16 [color="midnightblue",fontsize="10",style="solid",fontname="Helvetica"];
  Node19 -> Node20 [color="midnightblue",fontsize="10",style="solid",fontname="Helvetica"];
  Node20 [label="boost/shared_ptr.hpp",height=0.2,width=0.4,color="grey75", fillcolor="white", style="filled"];
  Node19 -> Node14 [color="midnightblue",fontsize="10",style="solid",fontname="Helvetica"];
  Node19 -> Node10 [color="midnightblue",fontsize="10",style="solid",fontname="Helvetica"];
  Node4 -> Node21 [color="midnightblue",fontsize="10",style="solid",fontname="Helvetica"];
  Node21 [label="blPDShape.txx",height=0.2,width=0.4,color="grey75", fillcolor="white", style="filled"];
  Node3 -> Node16 [color="midnightblue",fontsize="10",style="solid",fontname="Helvetica"];
  Node3 -> Node15 [color="midnightblue",fontsize="10",style="solid",fontname="Helvetica"];
  Node1 -> Node22 [color="midnightblue",fontsize="10",style="solid",fontname="Helvetica"];
  Node22 [label="blPDShape3D.h",height=0.2,width=0.4,color="black", fillcolor="white", style="filled",URL="$blPDShape3D_8h.html"];
  Node22 -> Node4 [color="midnightblue",fontsize="10",style="solid",fontname="Helvetica"];
  Node22 -> Node16 [color="midnightblue",fontsize="10",style="solid",fontname="Helvetica"];
  Node22 -> Node15 [color="midnightblue",fontsize="10",style="solid",fontname="Helvetica"];
  Node1 -> Node23 [color="midnightblue",fontsize="10",style="solid",fontname="Helvetica"];
  Node23 [label="blStringTokenizer.h",height=0.2,width=0.4,color="black", fillcolor="white", style="filled",URL="$blStringTokenizer_8h.html"];
  Node23 -> Node8 [color="midnightblue",fontsize="10",style="solid",fontname="Helvetica"];
  Node23 -> Node24 [color="midnightblue",fontsize="10",style="solid",fontname="Helvetica"];
  Node24 [label="string",height=0.2,width=0.4,color="grey75", fillcolor="white", style="filled"];
  Node23 -> Node9 [color="midnightblue",fontsize="10",style="solid",fontname="Helvetica"];
  Node1 -> Node14 [color="midnightblue",fontsize="10",style="solid",fontname="Helvetica"];
  Node1 -> Node16 [color="midnightblue",fontsize="10",style="solid",fontname="Helvetica"];
  Node1 -> Node15 [color="midnightblue",fontsize="10",style="solid",fontname="Helvetica"];
}
