digraph "Modules/BaseLib/libmodules/blMeshIO/include/blReaders.h"
{
  edge [fontname="Helvetica",fontsize="10",labelfontname="Helvetica",labelfontsize="10"];
  node [fontname="Helvetica",fontsize="10",shape=record];
  Node1 [label="Modules/BaseLib/libmodules\l/blMeshIO/include/blReaders.h",height=0.2,width=0.4,color="black", fillcolor="grey75", style="filled", fontcolor="black"];
  Node1 -> Node2 [dir="back",color="midnightblue",fontsize="10",style="solid",fontname="Helvetica"];
  Node2 [label="Modules/BaseLib/libmodules\l/blMeshIO/src/blReaders.cpp",height=0.2,width=0.4,color="black", fillcolor="white", style="filled",URL="$blReaders_8cpp.html"];
  Node1 -> Node3 [dir="back",color="midnightblue",fontsize="10",style="solid",fontname="Helvetica"];
  Node3 [label="Modules/BaseLib/libmodules\l/blTetgen/include/blTetgenEleFile.h",height=0.2,width=0.4,color="black", fillcolor="white", style="filled",URL="$blTetgenEleFile_8h.html"];
  Node3 -> Node4 [dir="back",color="midnightblue",fontsize="10",style="solid",fontname="Helvetica"];
  Node4 [label="Modules/BaseLib/libmodules\l/blTetgen/src/blTetgenEleFile.cpp",height=0.2,width=0.4,color="black", fillcolor="white", style="filled",URL="$blTetgenEleFile_8cpp.html"];
  Node3 -> Node5 [dir="back",color="midnightblue",fontsize="10",style="solid",fontname="Helvetica"];
  Node5 [label="Modules/MeshLib/libmodules\l/meMeshFilters/src/meVTKTetraGeneration\lFilter.cpp",height=0.2,width=0.4,color="black", fillcolor="white", style="filled",URL="$meVTKTetraGenerationFilter_8cpp.html"];
  Node1 -> Node6 [dir="back",color="midnightblue",fontsize="10",style="solid",fontname="Helvetica"];
  Node6 [label="Modules/BaseLib/libmodules\l/blTetgen/include/blTetgenNodeFile.h",height=0.2,width=0.4,color="black", fillcolor="white", style="filled",URL="$blTetgenNodeFile_8h.html"];
  Node6 -> Node7 [dir="back",color="midnightblue",fontsize="10",style="solid",fontname="Helvetica"];
  Node7 [label="Modules/BaseLib/libmodules\l/blTetgen/src/blTetgenNodeFile.cpp",height=0.2,width=0.4,color="black", fillcolor="white", style="filled",URL="$blTetgenNodeFile_8cpp.html"];
  Node6 -> Node5 [dir="back",color="midnightblue",fontsize="10",style="solid",fontname="Helvetica"];
  Node1 -> Node4 [dir="back",color="midnightblue",fontsize="10",style="solid",fontname="Helvetica"];
  Node1 -> Node7 [dir="back",color="midnightblue",fontsize="10",style="solid",fontname="Helvetica"];
  Node1 -> Node8 [dir="back",color="midnightblue",fontsize="10",style="solid",fontname="Helvetica"];
  Node8 [label="Modules/MeshLib/libmodules\l/meMeshFilters/include/meVTKTetra\lGenerationFilter.h",height=0.2,width=0.4,color="black", fillcolor="white", style="filled",URL="$meVTKTetraGenerationFilter_8h.html"];
  Node8 -> Node9 [dir="back",color="midnightblue",fontsize="10",style="solid",fontname="Helvetica"];
  Node9 [label="Apps/Plugins/GenericSegmentation\lPlugin/processors/gspPhilipsSegmented\lScarMeshProcessor.cxx",height=0.2,width=0.4,color="black", fillcolor="white", style="filled",URL="$gspPhilipsSegmentedScarMeshProcessor_8cxx.html"];
  Node8 -> Node10 [dir="back",color="midnightblue",fontsize="10",style="solid",fontname="Helvetica"];
  Node10 [label="Apps/Plugins/MeshEditorPlugin\l/MeshEditorPluginPCH.h",height=0.2,width=0.4,color="black", fillcolor="white", style="filled",URL="$MeshEditorPluginPCH_8h.html"];
  Node8 -> Node11 [dir="back",color="midnightblue",fontsize="10",style="solid",fontname="Helvetica"];
  Node11 [label="Apps/Plugins/MeshEditorPlugin\l/processors/coreTetraGenerationProcessor.h",height=0.2,width=0.4,color="black", fillcolor="white", style="filled",URL="$coreTetraGenerationProcessor_8h.html"];
  Node11 -> Node12 [dir="back",color="midnightblue",fontsize="10",style="solid",fontname="Helvetica"];
  Node12 [label="Apps/Plugins/MeshEditorPlugin\l/processors/coreTetraGenerationProcessor.cxx",height=0.2,width=0.4,color="black", fillcolor="white", style="filled",URL="$coreTetraGenerationProcessor_8cxx.html"];
  Node11 -> Node13 [dir="back",color="midnightblue",fontsize="10",style="solid",fontname="Helvetica"];
  Node13 [label="Apps/Plugins/MeshEditorPlugin\l/widgets/TetraGeneratorWidget\l/ptTetraGeneratorPanelWidget.h",height=0.2,width=0.4,color="black", fillcolor="white", style="filled",URL="$TetraGeneratorWidget_2ptTetraGeneratorPanelWidget_8h.html"];
  Node13 -> Node14 [dir="back",color="midnightblue",fontsize="10",style="solid",fontname="Helvetica"];
  Node14 [label="Apps/Plugins/MeshEditorPlugin\l/widgets/TetraGeneratorWidget\l/ptTetraGeneratorPanelWidget.cpp",height=0.2,width=0.4,color="black", fillcolor="white", style="filled",URL="$TetraGeneratorWidget_2ptTetraGeneratorPanelWidget_8cpp.html"];
  Node11 -> Node15 [dir="back",color="midnightblue",fontsize="10",style="solid",fontname="Helvetica"];
  Node15 [label="Apps/Plugins/MeshEditorPlugin\l/widgets/ToolsProcessorWidget\l/ptTetraGeneratorPanelWidget.h",height=0.2,width=0.4,color="black", fillcolor="white", style="filled",URL="$ToolsProcessorWidget_2ptTetraGeneratorPanelWidget_8h.html"];
  Node15 -> Node16 [dir="back",color="midnightblue",fontsize="10",style="solid",fontname="Helvetica"];
  Node16 [label="Apps/Plugins/MeshEditorPlugin\l/medWidgetCollective.cxx",height=0.2,width=0.4,color="black", fillcolor="white", style="filled",URL="$medWidgetCollective_8cxx.html"];
  Node15 -> Node17 [dir="back",color="midnightblue",fontsize="10",style="solid",fontname="Helvetica"];
  Node17 [label="Apps/Plugins/MeshEditorPlugin\l/widgets/ToolsProcessorWidget\l/ptTetraGeneratorPanelWidget.cpp",height=0.2,width=0.4,color="black", fillcolor="white", style="filled",URL="$ToolsProcessorWidget_2ptTetraGeneratorPanelWidget_8cpp.html"];
  Node8 -> Node5 [dir="back",color="midnightblue",fontsize="10",style="solid",fontname="Helvetica"];
  Node8 -> Node18 [dir="back",color="midnightblue",fontsize="10",style="solid",fontname="Helvetica"];
  Node18 [label="Modules/MeshLib/tests\l/meTestMeshFilters/meMeshFilters\lTest.cpp",height=0.2,width=0.4,color="black", fillcolor="white", style="filled",URL="$meMeshFiltersTest_8cpp.html"];
}
