digraph "Modules/BaseLib/libmodules/blSimplexDeformableModels/include/blSimplexTubeMesh.h"
{
  edge [fontname="Helvetica",fontsize="10",labelfontname="Helvetica",labelfontsize="10"];
  node [fontname="Helvetica",fontsize="10",shape=record];
  Node1 [label="Modules/BaseLib/libmodules\l/blSimplexDeformableModels\l/include/blSimplexTubeMesh.h",height=0.2,width=0.4,color="black", fillcolor="grey75", style="filled", fontcolor="black"];
  Node1 -> Node2 [dir="back",color="midnightblue",fontsize="10",style="solid",fontname="Helvetica"];
  Node2 [label="Modules/BaseLib/libmodules\l/blSimplexDeformableModels\l/include/blSimplexToPolyDataGenerator.h",height=0.2,width=0.4,color="black", fillcolor="white", style="filled",URL="$blSimplexToPolyDataGenerator_8h.html"];
  Node2 -> Node3 [dir="back",color="midnightblue",fontsize="10",style="solid",fontname="Helvetica"];
  Node3 [label="Modules/BaseLib/libmodules\l/blSimplexDeformableModels\l/src/blSimplexToPolyDataGenerator.cpp",height=0.2,width=0.4,color="black", fillcolor="white", style="filled",URL="$blSimplexToPolyDataGenerator_8cpp.html"];
  Node1 -> Node4 [dir="back",color="midnightblue",fontsize="10",style="solid",fontname="Helvetica"];
  Node4 [label="Modules/BaseLib/libmodules\l/blSimplexDeformableModels\l/include/blSimplexToTriangularPoly\lDataGenerator.h",height=0.2,width=0.4,color="black", fillcolor="white", style="filled",URL="$blSimplexToTriangularPolyDataGenerator_8h.html"];
  Node4 -> Node5 [dir="back",color="midnightblue",fontsize="10",style="solid",fontname="Helvetica"];
  Node5 [label="Modules/BaseLib/libmodules\l/blSimplexDeformableModels\l/src/blSimplexToTriangularPolyData\lGenerator.cxx",height=0.2,width=0.4,color="black", fillcolor="white", style="filled",URL="$blSimplexToTriangularPolyDataGenerator_8cxx.html"];
  Node1 -> Node6 [dir="back",color="midnightblue",fontsize="10",style="solid",fontname="Helvetica"];
  Node6 [label="Modules/BaseLib/libmodules\l/blSimplexDeformableModels\l/include/blSimplexTubeMeshCreator.h",height=0.2,width=0.4,color="black", fillcolor="white", style="filled",URL="$blSimplexTubeMeshCreator_8h.html"];
}
