digraph "Modules/BaseLib/libmodules/blPDAlignment/src/blSimilarity2DTransform.cpp"
{
  edge [fontname="Helvetica",fontsize="10",labelfontname="Helvetica",labelfontsize="10"];
  node [fontname="Helvetica",fontsize="10",shape=record];
  Node1 [label="Modules/BaseLib/libmodules\l/blPDAlignment/src/blSimilarity2\lDTransform.cpp",height=0.2,width=0.4,color="black", fillcolor="grey75", style="filled", fontcolor="black"];
  Node1 -> Node2 [color="midnightblue",fontsize="10",style="solid",fontname="Helvetica"];
  Node2 [label="iostream",height=0.2,width=0.4,color="grey75", fillcolor="white", style="filled"];
  Node1 -> Node3 [color="midnightblue",fontsize="10",style="solid",fontname="Helvetica"];
  Node3 [label="blSimilarity2DTransform.h",height=0.2,width=0.4,color="black", fillcolor="white", style="filled",URL="$blSimilarity2DTransform_8h.html"];
  Node3 -> Node4 [color="midnightblue",fontsize="10",style="solid",fontname="Helvetica"];
  Node4 [label="vnl/vnl_vector.h",height=0.2,width=0.4,color="grey75", fillcolor="white", style="filled"];
  Node3 -> Node5 [color="midnightblue",fontsize="10",style="solid",fontname="Helvetica"];
  Node5 [label="blLightObject.h",height=0.2,width=0.4,color="black", fillcolor="white", style="filled",URL="$blLightObject_8h.html"];
  Node5 -> Node6 [color="midnightblue",fontsize="10",style="solid",fontname="Helvetica"];
  Node6 [label="blMacro.h",height=0.2,width=0.4,color="black", fillcolor="white", style="filled",URL="$blMacro_8h.html"];
  Node5 -> Node7 [color="midnightblue",fontsize="10",style="solid",fontname="Helvetica"];
  Node7 [label="blSmartPointer.h",height=0.2,width=0.4,color="black", fillcolor="white", style="filled",URL="$blSmartPointer_8h.html"];
  Node5 -> Node8 [color="midnightblue",fontsize="10",style="solid",fontname="Helvetica"];
  Node8 [label="BaseLibWin32Header.h",height=0.2,width=0.4,color="grey75", fillcolor="white", style="filled"];
  Node3 -> Node7 [color="midnightblue",fontsize="10",style="solid",fontname="Helvetica"];
  Node3 -> Node6 [color="midnightblue",fontsize="10",style="solid",fontname="Helvetica"];
}
