digraph "Modules/BaseLib/libmodules/blCommon/include/blSystemInfo.h"
{
  edge [fontname="Helvetica",fontsize="10",labelfontname="Helvetica",labelfontsize="10"];
  node [fontname="Helvetica",fontsize="10",shape=record];
  Node1 [label="Modules/BaseLib/libmodules\l/blCommon/include/blSystemInfo.h",height=0.2,width=0.4,color="black", fillcolor="grey75", style="filled", fontcolor="black"];
  Node1 -> Node2 [dir="back",color="midnightblue",fontsize="10",style="solid",fontname="Helvetica"];
  Node2 [label="Modules/BaseLib/libmodules\l/blCommon/src/blSystemInfo.cpp",height=0.2,width=0.4,color="black", fillcolor="white", style="filled",URL="$blSystemInfo_8cpp.html"];
  Node1 -> Node3 [dir="back",color="midnightblue",fontsize="10",style="solid",fontname="Helvetica"];
  Node3 [label="Modules/TpExtLib/libmodules\l/tpExtWxWidgets/src/wxMemoryUsage\lIndicator.cxx",height=0.2,width=0.4,color="black", fillcolor="white", style="filled",URL="$wxMemoryUsageIndicator_8cxx.html"];
}
