digraph "Modules/BaseLib/libmodules/blUtilities/include/blTagMapSerializer.h"
{
  edge [fontname="Helvetica",fontsize="10",labelfontname="Helvetica",labelfontsize="10"];
  node [fontname="Helvetica",fontsize="10",shape=record];
  Node1 [label="Modules/BaseLib/libmodules\l/blUtilities/include/blTagMapSerializer.h",height=0.2,width=0.4,color="black", fillcolor="grey75", style="filled", fontcolor="black"];
  Node1 -> Node2 [color="midnightblue",fontsize="10",style="solid",fontname="Helvetica"];
  Node2 [label="blTagMap.h",height=0.2,width=0.4,color="black", fillcolor="white", style="filled",URL="$blTagMap_8h.html"];
  Node2 -> Node3 [color="midnightblue",fontsize="10",style="solid",fontname="Helvetica"];
  Node3 [label="blLightObject.h",height=0.2,width=0.4,color="black", fillcolor="white", style="filled",URL="$blLightObject_8h.html"];
  Node3 -> Node4 [color="midnightblue",fontsize="10",style="solid",fontname="Helvetica"];
  Node4 [label="blMacro.h",height=0.2,width=0.4,color="black", fillcolor="white", style="filled",URL="$blMacro_8h.html"];
  Node3 -> Node5 [color="midnightblue",fontsize="10",style="solid",fontname="Helvetica"];
  Node5 [label="blSmartPointer.h",height=0.2,width=0.4,color="black", fillcolor="white", style="filled",URL="$blSmartPointer_8h.html"];
  Node3 -> Node6 [color="midnightblue",fontsize="10",style="solid",fontname="Helvetica"];
  Node6 [label="BaseLibWin32Header.h",height=0.2,width=0.4,color="grey75", fillcolor="white", style="filled"];
  Node2 -> Node7 [color="midnightblue",fontsize="10",style="solid",fontname="Helvetica"];
  Node7 [label="blTag.h",height=0.2,width=0.4,color="black", fillcolor="white", style="filled",URL="$blTag_8h.html"];
  Node7 -> Node3 [color="midnightblue",fontsize="10",style="solid",fontname="Helvetica"];
  Node7 -> Node8 [color="midnightblue",fontsize="10",style="solid",fontname="Helvetica"];
  Node8 [label="CILabExceptionMacros.h",height=0.2,width=0.4,color="black", fillcolor="white", style="filled",URL="$CILabExceptionMacros_8h.html"];
  Node8 -> Node9 [color="midnightblue",fontsize="10",style="solid",fontname="Helvetica"];
  Node9 [label="exception",height=0.2,width=0.4,color="grey75", fillcolor="white", style="filled"];
  Node8 -> Node10 [color="midnightblue",fontsize="10",style="solid",fontname="Helvetica"];
  Node10 [label="string",height=0.2,width=0.4,color="grey75", fillcolor="white", style="filled"];
  Node7 -> Node11 [color="midnightblue",fontsize="10",style="solid",fontname="Helvetica"];
  Node11 [label="boost/any.hpp",height=0.2,width=0.4,color="grey75", fillcolor="white", style="filled"];
  Node7 -> Node10 [color="midnightblue",fontsize="10",style="solid",fontname="Helvetica"];
  Node2 -> Node8 [color="midnightblue",fontsize="10",style="solid",fontname="Helvetica"];
  Node2 -> Node12 [color="midnightblue",fontsize="10",style="solid",fontname="Helvetica"];
  Node12 [label="boost/signals.hpp",height=0.2,width=0.4,color="grey75", fillcolor="white", style="filled"];
  Node2 -> Node13 [color="midnightblue",fontsize="10",style="solid",fontname="Helvetica"];
  Node13 [label="boost/bind.hpp",height=0.2,width=0.4,color="grey75", fillcolor="white", style="filled"];
  Node2 -> Node10 [color="midnightblue",fontsize="10",style="solid",fontname="Helvetica"];
  Node2 -> Node14 [color="midnightblue",fontsize="10",style="solid",fontname="Helvetica"];
  Node14 [label="map",height=0.2,width=0.4,color="grey75", fillcolor="white", style="filled"];
  Node1 -> Node15 [color="midnightblue",fontsize="10",style="solid",fontname="Helvetica"];
  Node15 [label="boost/serialization\l/string.hpp",height=0.2,width=0.4,color="grey75", fillcolor="white", style="filled"];
  Node1 -> Node16 [color="midnightblue",fontsize="10",style="solid",fontname="Helvetica"];
  Node16 [label="boost/serialization\l/nvp.hpp",height=0.2,width=0.4,color="grey75", fillcolor="white", style="filled"];
  Node1 -> Node17 [color="midnightblue",fontsize="10",style="solid",fontname="Helvetica"];
  Node17 [label="boost/serialization\l/list.hpp",height=0.2,width=0.4,color="grey75", fillcolor="white", style="filled"];
  Node1 -> Node18 [color="midnightblue",fontsize="10",style="solid",fontname="Helvetica"];
  Node18 [label="boost/foreach.hpp",height=0.2,width=0.4,color="grey75", fillcolor="white", style="filled"];
}
