digraph "Modules/BaseLib/libmodules/blUtilities/include/blTestParams.h"
{
  edge [fontname="Helvetica",fontsize="10",labelfontname="Helvetica",labelfontsize="10"];
  node [fontname="Helvetica",fontsize="10",shape=record];
  Node1 [label="Modules/BaseLib/libmodules\l/blUtilities/include/blTestParams.h",height=0.2,width=0.4,color="black", fillcolor="grey75", style="filled", fontcolor="black"];
  Node1 -> Node2 [dir="back",color="midnightblue",fontsize="10",style="solid",fontname="Helvetica"];
  Node2 [label="Modules/BaseLib/libmodules\l/blUtilities/src/blTestParams.cpp",height=0.2,width=0.4,color="black", fillcolor="white", style="filled",URL="$blTestParams_8cpp.html"];
  Node1 -> Node3 [dir="back",color="midnightblue",fontsize="10",style="solid",fontname="Helvetica"];
  Node3 [label="Modules/MeshLib/applications\l/meAppNetgen/meAppNetgen.cc",height=0.2,width=0.4,color="black", fillcolor="white", style="filled",URL="$meAppNetgen_8cc.html"];
  Node1 -> Node4 [dir="back",color="midnightblue",fontsize="10",style="solid",fontname="Helvetica"];
  Node4 [label="Modules/MeshLib/applications\l/meAppNetgen/meAppNetgenTetra.cpp",height=0.2,width=0.4,color="black", fillcolor="white", style="filled",URL="$meAppNetgenTetra_8cpp.html"];
  Node1 -> Node5 [dir="back",color="midnightblue",fontsize="10",style="solid",fontname="Helvetica"];
  Node5 [label="Modules/MeshLib/tests\l/meTestMesh/meTestMesh.h",height=0.2,width=0.4,color="black", fillcolor="white", style="filled",URL="$meTestMesh_8h.html"];
  Node1 -> Node6 [dir="back",color="midnightblue",fontsize="10",style="solid",fontname="Helvetica"];
  Node6 [label="Modules/wxMitk/wxMitkPCH.h",height=0.2,width=0.4,color="black", fillcolor="white", style="filled",URL="$wxMitkPCH_8h.html"];
}
