digraph "Modules/BaseLib/libmodules/blCommon/src/blTextUtils.cpp"
{
  edge [fontname="Helvetica",fontsize="10",labelfontname="Helvetica",labelfontsize="10"];
  node [fontname="Helvetica",fontsize="10",shape=record];
  Node1 [label="Modules/BaseLib/libmodules\l/blCommon/src/blTextUtils.cpp",height=0.2,width=0.4,color="black", fillcolor="grey75", style="filled", fontcolor="black"];
  Node1 -> Node2 [color="midnightblue",fontsize="10",style="solid",fontname="Helvetica"];
  Node2 [label="blTextUtils.h",height=0.2,width=0.4,color="black", fillcolor="white", style="filled",URL="$blTextUtils_8h.html"];
  Node2 -> Node3 [color="midnightblue",fontsize="10",style="solid",fontname="Helvetica"];
  Node3 [label="blLightObject.h",height=0.2,width=0.4,color="black", fillcolor="white", style="filled",URL="$blLightObject_8h.html"];
  Node3 -> Node4 [color="midnightblue",fontsize="10",style="solid",fontname="Helvetica"];
  Node4 [label="blMacro.h",height=0.2,width=0.4,color="black", fillcolor="white", style="filled",URL="$blMacro_8h.html"];
  Node3 -> Node5 [color="midnightblue",fontsize="10",style="solid",fontname="Helvetica"];
  Node5 [label="blSmartPointer.h",height=0.2,width=0.4,color="black", fillcolor="white", style="filled",URL="$blSmartPointer_8h.html"];
  Node3 -> Node6 [color="midnightblue",fontsize="10",style="solid",fontname="Helvetica"];
  Node6 [label="BaseLibWin32Header.h",height=0.2,width=0.4,color="grey75", fillcolor="white", style="filled"];
  Node2 -> Node5 [color="midnightblue",fontsize="10",style="solid",fontname="Helvetica"];
  Node2 -> Node4 [color="midnightblue",fontsize="10",style="solid",fontname="Helvetica"];
  Node2 -> Node7 [color="midnightblue",fontsize="10",style="solid",fontname="Helvetica"];
  Node7 [label="iostream",height=0.2,width=0.4,color="grey75", fillcolor="white", style="filled"];
  Node2 -> Node8 [color="midnightblue",fontsize="10",style="solid",fontname="Helvetica"];
  Node8 [label="vector",height=0.2,width=0.4,color="grey75", fillcolor="white", style="filled"];
  Node2 -> Node9 [color="midnightblue",fontsize="10",style="solid",fontname="Helvetica"];
  Node9 [label="string",height=0.2,width=0.4,color="grey75", fillcolor="white", style="filled"];
  Node2 -> Node10 [color="midnightblue",fontsize="10",style="solid",fontname="Helvetica"];
  Node10 [label="list",height=0.2,width=0.4,color="grey75", fillcolor="white", style="filled"];
  Node2 -> Node11 [color="midnightblue",fontsize="10",style="solid",fontname="Helvetica"];
  Node11 [label="stdarg.h",height=0.2,width=0.4,color="grey75", fillcolor="white", style="filled"];
  Node1 -> Node12 [color="midnightblue",fontsize="10",style="solid",fontname="Helvetica"];
  Node12 [label="sstream",height=0.2,width=0.4,color="grey75", fillcolor="white", style="filled"];
  Node1 -> Node7 [color="midnightblue",fontsize="10",style="solid",fontname="Helvetica"];
  Node1 -> Node13 [color="midnightblue",fontsize="10",style="solid",fontname="Helvetica"];
  Node13 [label="iomanip",height=0.2,width=0.4,color="grey75", fillcolor="white", style="filled"];
  Node1 -> Node14 [color="midnightblue",fontsize="10",style="solid",fontname="Helvetica"];
  Node14 [label="string.h",height=0.2,width=0.4,color="grey75", fillcolor="white", style="filled"];
  Node1 -> Node15 [color="midnightblue",fontsize="10",style="solid",fontname="Helvetica"];
  Node15 [label="stdlib.h",height=0.2,width=0.4,color="grey75", fillcolor="white", style="filled"];
}
