digraph "Modules/BaseLib/tests/blUblasTest/blUblasConvertibleArrayTest.h"
{
  edge [fontname="Helvetica",fontsize="10",labelfontname="Helvetica",labelfontsize="10"];
  node [fontname="Helvetica",fontsize="10",shape=record];
  Node1 [label="Modules/BaseLib/tests\l/blUblasTest/blUblasConvertible\lArrayTest.h",height=0.2,width=0.4,color="black", fillcolor="grey75", style="filled", fontcolor="black"];
  Node1 -> Node2 [color="midnightblue",fontsize="10",style="solid",fontname="Helvetica"];
  Node2 [label="cxxtest/TestSuite.h",height=0.2,width=0.4,color="grey75", fillcolor="white", style="filled"];
  Node1 -> Node3 [color="midnightblue",fontsize="10",style="solid",fontname="Helvetica"];
  Node3 [label="blUblasConvertibleArray.h",height=0.2,width=0.4,color="black", fillcolor="white", style="filled",URL="$blUblasConvertibleArray_8h.html"];
  Node3 -> Node4 [color="midnightblue",fontsize="10",style="solid",fontname="Helvetica"];
  Node4 [label="boost/numeric/ublas\l/storage.hpp",height=0.2,width=0.4,color="grey75", fillcolor="white", style="filled"];
}
