digraph "Apps/Plugins/MeshEditorPlugin/widgets/BooleanOperationsWidget/BooleanOperationsPanelWidget.h"
{
  edge [fontname="Helvetica",fontsize="10",labelfontname="Helvetica",labelfontsize="10"];
  node [fontname="Helvetica",fontsize="10",shape=record];
  Node1 [label="Apps/Plugins/MeshEditorPlugin\l/widgets/BooleanOperationsWidget\l/BooleanOperationsPanelWidget.h",height=0.2,width=0.4,color="black", fillcolor="grey75", style="filled", fontcolor="black"];
  Node1 -> Node2 [color="midnightblue",fontsize="10",style="solid",fontname="Helvetica"];
  Node2 [label="BooleanOperationsProcessor.h",height=0.2,width=0.4,color="black", fillcolor="white", style="filled",URL="$BooleanOperationsProcessor_8h.html"];
  Node2 -> Node3 [color="midnightblue",fontsize="10",style="solid",fontname="Helvetica"];
  Node3 [label="coreBaseProcessor.h",height=0.2,width=0.4,color="black", fillcolor="white", style="filled",URL="$coreBaseProcessor_8h.html"];
  Node3 -> Node4 [color="midnightblue",fontsize="10",style="solid",fontname="Helvetica"];
  Node4 [label="gmFilteringWin32Header.h",height=0.2,width=0.4,color="grey75", fillcolor="white", style="filled"];
  Node3 -> Node5 [color="midnightblue",fontsize="10",style="solid",fontname="Helvetica"];
  Node5 [label="coreObject.h",height=0.2,width=0.4,color="black", fillcolor="white", style="filled",URL="$coreObject_8h.html"];
  Node5 -> Node6 [color="midnightblue",fontsize="10",style="solid",fontname="Helvetica"];
  Node6 [label="gmCommonObjectsWin32Header.h",height=0.2,width=0.4,color="grey75", fillcolor="white", style="filled"];
  Node5 -> Node7 [color="midnightblue",fontsize="10",style="solid",fontname="Helvetica"];
  Node7 [label="coreCommonMacros.h",height=0.2,width=0.4,color="black", fillcolor="white", style="filled",URL="$coreCommonMacros_8h.html"];
  Node5 -> Node8 [color="midnightblue",fontsize="10",style="solid",fontname="Helvetica"];
  Node8 [label="coreSmartPointerMacros.h",height=0.2,width=0.4,color="red", fillcolor="white", style="filled",URL="$coreSmartPointerMacros_8h.html"];
  Node8 -> Node7 [color="midnightblue",fontsize="10",style="solid",fontname="Helvetica"];
  Node5 -> Node9 [color="midnightblue",fontsize="10",style="solid",fontname="Helvetica"];
  Node9 [label="blTagMap.h",height=0.2,width=0.4,color="red", fillcolor="white", style="filled",URL="$blTagMap_8h.html"];
  Node9 -> Node10 [color="midnightblue",fontsize="10",style="solid",fontname="Helvetica"];
  Node10 [label="boost/signals.hpp",height=0.2,width=0.4,color="grey75", fillcolor="white", style="filled"];
  Node9 -> Node11 [color="midnightblue",fontsize="10",style="solid",fontname="Helvetica"];
  Node11 [label="boost/bind.hpp",height=0.2,width=0.4,color="grey75", fillcolor="white", style="filled"];
  Node9 -> Node12 [color="midnightblue",fontsize="10",style="solid",fontname="Helvetica"];
  Node12 [label="string",height=0.2,width=0.4,color="grey75", fillcolor="white", style="filled"];
  Node9 -> Node13 [color="midnightblue",fontsize="10",style="solid",fontname="Helvetica"];
  Node13 [label="map",height=0.2,width=0.4,color="grey75", fillcolor="white", style="filled"];
  Node5 -> Node14 [color="midnightblue",fontsize="10",style="solid",fontname="Helvetica"];
  Node14 [label="itkLightObject.h",height=0.2,width=0.4,color="grey75", fillcolor="white", style="filled"];
  Node5 -> Node15 [color="midnightblue",fontsize="10",style="solid",fontname="Helvetica"];
  Node15 [label="itkTimeStamp.h",height=0.2,width=0.4,color="grey75", fillcolor="white", style="filled"];
  Node5 -> Node10 [color="midnightblue",fontsize="10",style="solid",fontname="Helvetica"];
  Node5 -> Node11 [color="midnightblue",fontsize="10",style="solid",fontname="Helvetica"];
  Node3 -> Node16 [color="midnightblue",fontsize="10",style="solid",fontname="Helvetica"];
  Node16 [label="coreDataHolder.h",height=0.2,width=0.4,color="red", fillcolor="white", style="filled",URL="$coreDataHolder_8h.html"];
  Node16 -> Node6 [color="midnightblue",fontsize="10",style="solid",fontname="Helvetica"];
  Node16 -> Node11 [color="midnightblue",fontsize="10",style="solid",fontname="Helvetica"];
  Node16 -> Node10 [color="midnightblue",fontsize="10",style="solid",fontname="Helvetica"];
  Node16 -> Node16 [color="midnightblue",fontsize="10",style="solid",fontname="Helvetica"];
  Node3 -> Node17 [color="midnightblue",fontsize="10",style="solid",fontname="Helvetica"];
  Node17 [label="coreDataEntity.h",height=0.2,width=0.4,color="black", fillcolor="white", style="filled",URL="$coreDataEntity_8h.html"];
  Node17 -> Node18 [color="midnightblue",fontsize="10",style="solid",fontname="Helvetica"];
  Node18 [label="gmDataHandlingWin32Header.h",height=0.2,width=0.4,color="grey75", fillcolor="white", style="filled"];
  Node17 -> Node5 [color="midnightblue",fontsize="10",style="solid",fontname="Helvetica"];
  Node17 -> Node19 [color="midnightblue",fontsize="10",style="solid",fontname="Helvetica"];
  Node19 [label="coreDataEntityMetadata.h",height=0.2,width=0.4,color="black", fillcolor="white", style="filled",URL="$coreDataEntityMetadata_8h.html"];
  Node19 -> Node18 [color="midnightblue",fontsize="10",style="solid",fontname="Helvetica"];
  Node19 -> Node5 [color="midnightblue",fontsize="10",style="solid",fontname="Helvetica"];
  Node19 -> Node9 [color="midnightblue",fontsize="10",style="solid",fontname="Helvetica"];
  Node17 -> Node20 [color="midnightblue",fontsize="10",style="solid",fontname="Helvetica"];
  Node20 [label="coreDataEntityImpl.h",height=0.2,width=0.4,color="red", fillcolor="white", style="filled",URL="$coreDataEntityImpl_8h.html"];
  Node20 -> Node18 [color="midnightblue",fontsize="10",style="solid",fontname="Helvetica"];
  Node20 -> Node5 [color="midnightblue",fontsize="10",style="solid",fontname="Helvetica"];
  Node20 -> Node12 [color="midnightblue",fontsize="10",style="solid",fontname="Helvetica"];
  Node20 -> Node21 [color="midnightblue",fontsize="10",style="solid",fontname="Helvetica"];
  Node21 [label="vector",height=0.2,width=0.4,color="grey75", fillcolor="white", style="filled"];
  Node20 -> Node22 [color="midnightblue",fontsize="10",style="solid",fontname="Helvetica"];
  Node22 [label="boost/any.hpp",height=0.2,width=0.4,color="grey75", fillcolor="white", style="filled"];
  Node20 -> Node9 [color="midnightblue",fontsize="10",style="solid",fontname="Helvetica"];
  Node17 -> Node23 [color="midnightblue",fontsize="10",style="solid",fontname="Helvetica"];
  Node23 [label="coreDataEntityImplFactory.h",height=0.2,width=0.4,color="red", fillcolor="white", style="filled",URL="$coreDataEntityImplFactory_8h.html"];
  Node23 -> Node18 [color="midnightblue",fontsize="10",style="solid",fontname="Helvetica"];
  Node23 -> Node5 [color="midnightblue",fontsize="10",style="solid",fontname="Helvetica"];
  Node23 -> Node12 [color="midnightblue",fontsize="10",style="solid",fontname="Helvetica"];
  Node23 -> Node24 [color="midnightblue",fontsize="10",style="solid",fontname="Helvetica"];
  Node24 [label="typeinfo",height=0.2,width=0.4,color="grey75", fillcolor="white", style="filled"];
  Node23 -> Node21 [color="midnightblue",fontsize="10",style="solid",fontname="Helvetica"];
  Node23 -> Node22 [color="midnightblue",fontsize="10",style="solid",fontname="Helvetica"];
  Node23 -> Node9 [color="midnightblue",fontsize="10",style="solid",fontname="Helvetica"];
  Node23 -> Node20 [color="midnightblue",fontsize="10",style="solid",fontname="Helvetica"];
  Node23 -> Node25 [color="midnightblue",fontsize="10",style="solid",fontname="Helvetica"];
  Node25 [label="coreDataEntityTypes.h",height=0.2,width=0.4,color="black", fillcolor="white", style="filled",URL="$coreDataEntityTypes_8h.html"];
  Node17 -> Node25 [color="midnightblue",fontsize="10",style="solid",fontname="Helvetica"];
  Node17 -> Node26 [color="midnightblue",fontsize="10",style="solid",fontname="Helvetica"];
  Node26 [label="coreDataEntityPreview.h",height=0.2,width=0.4,color="black", fillcolor="white", style="filled",URL="$coreDataEntityPreview_8h.html"];
  Node26 -> Node18 [color="midnightblue",fontsize="10",style="solid",fontname="Helvetica"];
  Node26 -> Node5 [color="midnightblue",fontsize="10",style="solid",fontname="Helvetica"];
  Node17 -> Node12 [color="midnightblue",fontsize="10",style="solid",fontname="Helvetica"];
  Node17 -> Node21 [color="midnightblue",fontsize="10",style="solid",fontname="Helvetica"];
  Node17 -> Node24 [color="midnightblue",fontsize="10",style="solid",fontname="Helvetica"];
  Node17 -> Node10 [color="midnightblue",fontsize="10",style="solid",fontname="Helvetica"];
  Node17 -> Node22 [color="midnightblue",fontsize="10",style="solid",fontname="Helvetica"];
  Node17 -> Node27 [color="midnightblue",fontsize="10",style="solid",fontname="Helvetica"];
  Node27 [label="coreDataEntity.txx",height=0.2,width=0.4,color="grey75", fillcolor="white", style="filled"];
  Node17 -> Node28 [color="midnightblue",fontsize="10",style="solid",fontname="Helvetica"];
  Node28 [label="coreDataEntityHolder.h",height=0.2,width=0.4,color="black", fillcolor="white", style="filled",URL="$coreDataEntityHolder_8h.html"];
  Node28 -> Node18 [color="midnightblue",fontsize="10",style="solid",fontname="Helvetica"];
  Node28 -> Node17 [color="midnightblue",fontsize="10",style="solid",fontname="Helvetica"];
  Node28 -> Node16 [color="midnightblue",fontsize="10",style="solid",fontname="Helvetica"];
  Node3 -> Node29 [color="midnightblue",fontsize="10",style="solid",fontname="Helvetica"];
  Node29 [label="coreBaseFilter.h",height=0.2,width=0.4,color="red", fillcolor="white", style="filled",URL="$coreBaseFilter_8h.html"];
  Node29 -> Node5 [color="midnightblue",fontsize="10",style="solid",fontname="Helvetica"];
  Node29 -> Node16 [color="midnightblue",fontsize="10",style="solid",fontname="Helvetica"];
  Node29 -> Node17 [color="midnightblue",fontsize="10",style="solid",fontname="Helvetica"];
  Node3 -> Node30 [color="midnightblue",fontsize="10",style="solid",fontname="Helvetica"];
  Node30 [label="ModuleDescription.h",height=0.2,width=0.4,color="grey75", fillcolor="white", style="filled"];
  Node3 -> Node31 [color="midnightblue",fontsize="10",style="solid",fontname="Helvetica"];
  Node31 [label="coreBaseProcessor.txx",height=0.2,width=0.4,color="grey75", fillcolor="white", style="filled"];
  Node1 -> Node32 [color="midnightblue",fontsize="10",style="solid",fontname="Helvetica"];
  Node32 [label="BooleanOperationsPanelWidgetUI.h",height=0.2,width=0.4,color="black", fillcolor="white", style="filled",URL="$BooleanOperationsPanelWidgetUI_8h.html"];
  Node32 -> Node33 [color="midnightblue",fontsize="10",style="solid",fontname="Helvetica"];
  Node33 [label="wx/wx.h",height=0.2,width=0.4,color="grey75", fillcolor="white", style="filled"];
  Node32 -> Node34 [color="midnightblue",fontsize="10",style="solid",fontname="Helvetica"];
  Node34 [label="wx/image.h",height=0.2,width=0.4,color="grey75", fillcolor="white", style="filled"];
  Node1 -> Node35 [color="midnightblue",fontsize="10",style="solid",fontname="Helvetica"];
  Node35 [label="coreRenderingTree.h",height=0.2,width=0.4,color="black", fillcolor="white", style="filled",URL="$coreRenderingTree_8h.html"];
  Node35 -> Node36 [color="midnightblue",fontsize="10",style="solid",fontname="Helvetica"];
  Node36 [label="gmKernelWin32Header.h",height=0.2,width=0.4,color="grey75", fillcolor="white", style="filled"];
  Node35 -> Node5 [color="midnightblue",fontsize="10",style="solid",fontname="Helvetica"];
  Node35 -> Node17 [color="midnightblue",fontsize="10",style="solid",fontname="Helvetica"];
  Node35 -> Node10 [color="midnightblue",fontsize="10",style="solid",fontname="Helvetica"];
  Node35 -> Node13 [color="midnightblue",fontsize="10",style="solid",fontname="Helvetica"];
  Node35 -> Node37 [color="midnightblue",fontsize="10",style="solid",fontname="Helvetica"];
  Node37 [label="coreRenderingTree.txx",height=0.2,width=0.4,color="grey75", fillcolor="white", style="filled"];
  Node1 -> Node38 [color="midnightblue",fontsize="10",style="solid",fontname="Helvetica"];
  Node38 [label="corePointInteractorPoint\lSelect.h",height=0.2,width=0.4,color="black", fillcolor="white", style="filled",URL="$corePointInteractorPointSelect_8h.html"];
  Node38 -> Node39 [color="midnightblue",fontsize="10",style="solid",fontname="Helvetica"];
  Node39 [label="corePointInteractor.h",height=0.2,width=0.4,color="red", fillcolor="white", style="filled",URL="$corePointInteractor_8h.html"];
  Node39 -> Node40 [color="midnightblue",fontsize="10",style="solid",fontname="Helvetica"];
  Node40 [label="corePluginMacros.h",height=0.2,width=0.4,color="black", fillcolor="white", style="filled",URL="$corePluginMacros_8h.html"];
  Node39 -> Node35 [color="midnightblue",fontsize="10",style="solid",fontname="Helvetica"];
  Node39 -> Node5 [color="midnightblue",fontsize="10",style="solid",fontname="Helvetica"];
  Node39 -> Node28 [color="midnightblue",fontsize="10",style="solid",fontname="Helvetica"];
  Node39 -> Node17 [color="midnightblue",fontsize="10",style="solid",fontname="Helvetica"];
  Node39 -> Node16 [color="midnightblue",fontsize="10",style="solid",fontname="Helvetica"];
  Node38 -> Node41 [color="midnightblue",fontsize="10",style="solid",fontname="Helvetica"];
  Node41 [label="blMitkPointSelectInteractor.h",height=0.2,width=0.4,color="red", fillcolor="white", style="filled",URL="$blMitkPointSelectInteractor_8h.html"];
  Node1 -> Node42 [color="midnightblue",fontsize="10",style="solid",fontname="Helvetica"];
  Node42 [label="coreProcessingWidget.h",height=0.2,width=0.4,color="black", fillcolor="white", style="filled",URL="$coreProcessingWidget_8h.html"];
  Node42 -> Node33 [color="midnightblue",fontsize="10",style="solid",fontname="Helvetica"];
  Node42 -> Node34 [color="midnightblue",fontsize="10",style="solid",fontname="Helvetica"];
  Node42 -> Node28 [color="midnightblue",fontsize="10",style="solid",fontname="Helvetica"];
  Node42 -> Node35 [color="midnightblue",fontsize="10",style="solid",fontname="Helvetica"];
  Node42 -> Node43 [color="midnightblue",fontsize="10",style="solid",fontname="Helvetica"];
  Node43 [label="coreDataEntityListBrowser.h",height=0.2,width=0.4,color="red", fillcolor="white", style="filled",URL="$coreDataEntityListBrowser_8h.html"];
  Node43 -> Node5 [color="midnightblue",fontsize="10",style="solid",fontname="Helvetica"];
  Node43 -> Node16 [color="midnightblue",fontsize="10",style="solid",fontname="Helvetica"];
  Node43 -> Node10 [color="midnightblue",fontsize="10",style="solid",fontname="Helvetica"];
  Node43 -> Node35 [color="midnightblue",fontsize="10",style="solid",fontname="Helvetica"];
  Node43 -> Node44 [color="midnightblue",fontsize="10",style="solid",fontname="Helvetica"];
  Node44 [label="coreBaseWindow.h",height=0.2,width=0.4,color="red", fillcolor="white", style="filled",URL="$coreBaseWindow_8h.html"];
  Node44 -> Node36 [color="midnightblue",fontsize="10",style="solid",fontname="Helvetica"];
  Node44 -> Node35 [color="midnightblue",fontsize="10",style="solid",fontname="Helvetica"];
  Node44 -> Node3 [color="midnightblue",fontsize="10",style="solid",fontname="Helvetica"];
  Node44 -> Node45 [color="midnightblue",fontsize="10",style="solid",fontname="Helvetica"];
  Node45 [label="coreProcessorOutputObserver.h",height=0.2,width=0.4,color="black", fillcolor="white", style="filled",URL="$coreProcessorOutputObserver_8h.html"];
  Node45 -> Node36 [color="midnightblue",fontsize="10",style="solid",fontname="Helvetica"];
  Node45 -> Node5 [color="midnightblue",fontsize="10",style="solid",fontname="Helvetica"];
  Node45 -> Node35 [color="midnightblue",fontsize="10",style="solid",fontname="Helvetica"];
  Node44 -> Node9 [color="midnightblue",fontsize="10",style="solid",fontname="Helvetica"];
  Node42 -> Node29 [color="midnightblue",fontsize="10",style="solid",fontname="Helvetica"];
  Node42 -> Node45 [color="midnightblue",fontsize="10",style="solid",fontname="Helvetica"];
  Node42 -> Node46 [color="midnightblue",fontsize="10",style="solid",fontname="Helvetica"];
  Node46 [label="coreProcessorOutputsObserver\lBuilder.h",height=0.2,width=0.4,color="black", fillcolor="white", style="filled",URL="$coreProcessorOutputsObserverBuilder_8h.html"];
  Node46 -> Node36 [color="midnightblue",fontsize="10",style="solid",fontname="Helvetica"];
  Node46 -> Node3 [color="midnightblue",fontsize="10",style="solid",fontname="Helvetica"];
  Node46 -> Node45 [color="midnightblue",fontsize="10",style="solid",fontname="Helvetica"];
  Node46 -> Node8 [color="midnightblue",fontsize="10",style="solid",fontname="Helvetica"];
  Node46 -> Node35 [color="midnightblue",fontsize="10",style="solid",fontname="Helvetica"];
  Node46 -> Node5 [color="midnightblue",fontsize="10",style="solid",fontname="Helvetica"];
  Node42 -> Node47 [color="midnightblue",fontsize="10",style="solid",fontname="Helvetica"];
  Node47 [label="coreUserHelperWidget.h",height=0.2,width=0.4,color="red", fillcolor="white", style="filled",URL="$coreUserHelperWidget_8h.html"];
  Node47 -> Node12 [color="midnightblue",fontsize="10",style="solid",fontname="Helvetica"];
  Node47 -> Node44 [color="midnightblue",fontsize="10",style="solid",fontname="Helvetica"];
  Node42 -> Node44 [color="midnightblue",fontsize="10",style="solid",fontname="Helvetica"];
  Node42 -> Node48 [color="midnightblue",fontsize="10",style="solid",fontname="Helvetica"];
  Node48 [label="coreSelectionToolWidget.h",height=0.2,width=0.4,color="red", fillcolor="white", style="filled",URL="$coreSelectionToolWidget_8h.html"];
  Node48 -> Node44 [color="midnightblue",fontsize="10",style="solid",fontname="Helvetica"];
  Node42 -> Node49 [color="midnightblue",fontsize="10",style="solid",fontname="Helvetica"];
  Node49 [label="coreSelectionToolboxWidget.h",height=0.2,width=0.4,color="red", fillcolor="white", style="filled",URL="$coreSelectionToolboxWidget_8h.html"];
  Node49 -> Node44 [color="midnightblue",fontsize="10",style="solid",fontname="Helvetica"];
  Node49 -> Node48 [color="midnightblue",fontsize="10",style="solid",fontname="Helvetica"];
  Node42 -> Node50 [color="midnightblue",fontsize="10",style="solid",fontname="Helvetica"];
  Node50 [label="corePluginTabFactory.h",height=0.2,width=0.4,color="red", fillcolor="white", style="filled",URL="$corePluginTabFactory_8h.html"];
  Node50 -> Node5 [color="midnightblue",fontsize="10",style="solid",fontname="Helvetica"];
}
