digraph "Modules/GuiBridgeLib/libmodules/guiBridgeLib/Test/src/BridgeLibTest.h"
{
  edge [fontname="Helvetica",fontsize="10",labelfontname="Helvetica",labelfontsize="10"];
  node [fontname="Helvetica",fontsize="10",shape=record];
  Node1 [label="Modules/GuiBridgeLib\l/libmodules/guiBridgeLib\l/Test/src/BridgeLibTest.h",height=0.2,width=0.4,color="black", fillcolor="grey75", style="filled", fontcolor="black"];
  Node1 -> Node2 [dir="back",color="midnightblue",fontsize="10",style="solid",fontname="Helvetica"];
  Node2 [label="Modules/GuiBridgeLib\l/libmodules/guiBridgeLib\l/Test/src/BridgeLibTest.cpp",height=0.2,width=0.4,color="black", fillcolor="white", style="filled",URL="$BridgeLibTest_8cpp.html"];
}
