digraph "Apps/Gimias/GUI/Widgets/src/CGNSReaderWidget/CGNSFileReaderWidgetUI.h"
{
  edge [fontname="Helvetica",fontsize="10",labelfontname="Helvetica",labelfontsize="10"];
  node [fontname="Helvetica",fontsize="10",shape=record];
  Node1 [label="Apps/Gimias/GUI/Widgets\l/src/CGNSReaderWidget\l/CGNSFileReaderWidgetUI.h",height=0.2,width=0.4,color="black", fillcolor="grey75", style="filled", fontcolor="black"];
  Node1 -> Node2 [dir="back",color="midnightblue",fontsize="10",style="solid",fontname="Helvetica"];
  Node2 [label="Apps/Gimias/GUI/Widgets\l/src/CGNSReaderWidget\l/CGNSFileReaderWidget.h",height=0.2,width=0.4,color="black", fillcolor="white", style="filled",URL="$CGNSFileReaderWidget_8h.html"];
  Node2 -> Node3 [dir="back",color="midnightblue",fontsize="10",style="solid",fontname="Helvetica"];
  Node3 [label="Apps/Gimias/GUI/Widgets\l/src/CGNSReaderWidget\l/CGNSFileReaderWidget.cpp",height=0.2,width=0.4,color="black", fillcolor="white", style="filled",URL="$CGNSFileReaderWidget_8cpp.html"];
  Node2 -> Node4 [dir="back",color="midnightblue",fontsize="10",style="solid",fontname="Helvetica"];
  Node4 [label="Apps/Gimias/GUI/Widgets\l/src/PluginTab/corePluginTab\lFactory.cxx",height=0.2,width=0.4,color="black", fillcolor="white", style="filled",URL="$corePluginTabFactory_8cxx.html"];
  Node1 -> Node5 [dir="back",color="midnightblue",fontsize="10",style="solid",fontname="Helvetica"];
  Node5 [label="Apps/Gimias/GUI/Widgets\l/src/CGNSReaderWidget\l/CGNSFileReaderWidgetUI.cpp",height=0.2,width=0.4,color="black", fillcolor="white", style="filled",URL="$CGNSFileReaderWidgetUI_8cpp.html"];
}
