digraph "Core::SignalImpl"
{
  edge [fontname="Helvetica",fontsize="10",labelfontname="Helvetica",labelfontsize="10"];
  node [fontname="Helvetica",fontsize="10",shape=record];
  Node1 [label="Core::SignalImpl",height=0.2,width=0.4,color="black", fillcolor="grey75", style="filled", fontcolor="black"];
  Node2 -> Node1 [dir="back",color="midnightblue",fontsize="10",style="solid",fontname="Helvetica"];
  Node2 [label="Core::DataEntityImpl",height=0.2,width=0.4,color="black", fillcolor="white", style="filled",URL="$classCore_1_1DataEntityImpl.html"];
  Node3 -> Node2 [dir="back",color="midnightblue",fontsize="10",style="solid",fontname="Helvetica"];
  Node3 [label="Core::SmartPointerObject",height=0.2,width=0.4,color="black", fillcolor="white", style="filled",URL="$classCore_1_1SmartPointerObject.html",tooltip="Abstract class that provides base functionalities for handling objects with SmartPointers (see itk::L..."];
  Node4 -> Node3 [dir="back",color="midnightblue",fontsize="10",style="solid",fontname="Helvetica"];
  Node4 [label="LightObject",height=0.2,width=0.4,color="grey75", fillcolor="white", style="filled"];
  Node5 -> Node3 [dir="back",color="midnightblue",fontsize="10",style="solid",fontname="Helvetica"];
  Node5 [label="Core::Object",height=0.2,width=0.4,color="black", fillcolor="white", style="filled",URL="$classCore_1_1Object.html",tooltip="Abstract class that provides a common point for all the class hierarchy, because all classes in the C..."];
  Node6 -> Node5 [dir="back",color="midnightblue",fontsize="10",style="solid",fontname="Helvetica"];
  Node6 [label="boost::signals::trackable",height=0.2,width=0.4,color="grey75", fillcolor="white", style="filled"];
  Node7 -> Node5 [dir="back",color="darkorchid3",fontsize="10",style="dashed",label=" m_Properties" ,fontname="Helvetica"];
  Node7 [label="blSmartPointer\< Self \>",height=0.2,width=0.4,color="black", fillcolor="white", style="filled",URL="$classblSmartPointer.html"];
  Node8 -> Node2 [dir="back",color="darkorchid3",fontsize="10",style="dashed",label=" m_DataEntityImplMap" ,fontname="Helvetica"];
  Node8 [label="std::map\< K, T \>",height=0.2,width=0.4,color="grey75", fillcolor="white", style="filled",tooltip="STL class. "];
  Node9 -> Node8 [dir="back",color="darkorchid3",fontsize="10",style="dashed",label=" keys" ,fontname="Helvetica"];
  Node9 [label="K",height=0.2,width=0.4,color="grey75", fillcolor="white", style="filled"];
  Node10 -> Node8 [dir="back",color="darkorchid3",fontsize="10",style="dashed",label=" elements" ,fontname="Helvetica"];
  Node10 [label="T",height=0.2,width=0.4,color="grey75", fillcolor="white", style="filled"];
  Node11 -> Node2 [dir="back",color="darkorchid3",fontsize="10",style="dashed",label=" m_MemoryOwner" ,fontname="Helvetica"];
  Node11 [label="std::string",height=0.2,width=0.4,color="grey75", fillcolor="white", style="filled",tooltip="STL class. "];
  Node12 -> Node11 [dir="back",color="midnightblue",fontsize="10",style="solid",fontname="Helvetica"];
  Node12 [label="std::basic_string\<\l char \>",height=0.2,width=0.4,color="grey75", fillcolor="white", style="filled",tooltip="STL class. "];
  Node13 -> Node1 [dir="back",color="darkorchid3",fontsize="10",style="dashed",label=" m_Data" ,fontname="Helvetica"];
  Node13 [label="blSmartPointer\< ObjectType \>",height=0.2,width=0.4,color="black", fillcolor="white", style="filled",URL="$classblSmartPointer.html",tooltip="Implements transparent reference counting (copy of itk::SmartPointer).blAutoPointer implements refere..."];
  Node14 -> Node13 [dir="back",color="darkorchid3",fontsize="10",style="dashed",label=" m_Pointer" ,fontname="Helvetica"];
  Node14 [label="ObjectType",height=0.2,width=0.4,color="grey75", fillcolor="white", style="filled"];
}
