digraph "Core::BaseFilter"
{
  edge [fontname="Helvetica",fontsize="10",labelfontname="Helvetica",labelfontsize="10"];
  node [fontname="Helvetica",fontsize="10",shape=record];
  rankdir="LR";
  Node1 [label="Core::BaseFilter",height=0.2,width=0.4,color="black", fillcolor="grey75", style="filled", fontcolor="black"];
  Node2 -> Node1 [dir="back",color="midnightblue",fontsize="10",style="solid",fontname="Helvetica"];
  Node2 [label="Core::SmartPointerObject",height=0.2,width=0.4,color="black", fillcolor="white", style="filled",URL="$classCore_1_1SmartPointerObject.html",tooltip="Abstract class that provides base functionalities for handling objects with SmartPointers (see itk::L..."];
  Node3 -> Node2 [dir="back",color="midnightblue",fontsize="10",style="solid",fontname="Helvetica"];
  Node3 [label="LightObject",height=0.2,width=0.4,color="grey75", fillcolor="white", style="filled"];
  Node4 -> Node2 [dir="back",color="midnightblue",fontsize="10",style="solid",fontname="Helvetica"];
  Node4 [label="Core::Object",height=0.2,width=0.4,color="black", fillcolor="white", style="filled",URL="$classCore_1_1Object.html",tooltip="Abstract class that provides a common point for all the class hierarchy, because all classes in the C..."];
  Node5 -> Node4 [dir="back",color="midnightblue",fontsize="10",style="solid",fontname="Helvetica"];
  Node5 [label="boost::signals::trackable",height=0.2,width=0.4,color="grey75", fillcolor="white", style="filled"];
  Node1 -> Node6 [dir="back",color="midnightblue",fontsize="10",style="solid",fontname="Helvetica"];
  Node6 [label="Core::BaseProcessor",height=0.2,width=0.4,color="red", fillcolor="white", style="filled",URL="$classCore_1_1BaseProcessor.html",tooltip="Generic BaseProcessor with UpdateOutput( ) functions for different types of data. ..."];
  Node6 -> Node7 [dir="back",color="firebrick4",fontsize="10",style="solid",fontname="Helvetica"];
  Node7 [label="BaseProcessorrTest",height=0.2,width=0.4,color="black", fillcolor="white", style="filled",URL="$classBaseProcessorrTest.html"];
  Node6 -> Node8 [dir="back",color="midnightblue",fontsize="10",style="solid",fontname="Helvetica"];
  Node8 [label="BooleanOperationsProcessor",height=0.2,width=0.4,color="black", fillcolor="white", style="filled",URL="$classBooleanOperationsProcessor.html"];
  Node6 -> Node9 [dir="back",color="midnightblue",fontsize="10",style="solid",fontname="Helvetica"];
  Node9 [label="ChangeDirectionProcessor",height=0.2,width=0.4,color="black", fillcolor="white", style="filled",URL="$classChangeDirectionProcessor.html"];
  Node6 -> Node10 [dir="back",color="midnightblue",fontsize="10",style="solid",fontname="Helvetica"];
  Node10 [label="Core::BBoxProcessor",height=0.2,width=0.4,color="black", fillcolor="white", style="filled",URL="$classCore_1_1BBoxProcessor.html"];
  Node6 -> Node11 [dir="back",color="midnightblue",fontsize="10",style="solid",fontname="Helvetica"];
  Node11 [label="Core::ChangeOrientationProcessor",height=0.2,width=0.4,color="black", fillcolor="white", style="filled",URL="$classCore_1_1ChangeOrientationProcessor.html"];
  Node6 -> Node12 [dir="back",color="midnightblue",fontsize="10",style="solid",fontname="Helvetica"];
  Node12 [label="Core::CloseHolesProcessor",height=0.2,width=0.4,color="black", fillcolor="white", style="filled",URL="$classCore_1_1CloseHolesProcessor.html"];
  Node6 -> Node13 [dir="back",color="midnightblue",fontsize="10",style="solid",fontname="Helvetica"];
  Node13 [label="Core::CroppingProcessor",height=0.2,width=0.4,color="black", fillcolor="white", style="filled",URL="$classCore_1_1CroppingProcessor.html"];
  Node6 -> Node14 [dir="back",color="midnightblue",fontsize="10",style="solid",fontname="Helvetica"];
  Node14 [label="Core::DoubleBananaProcessor",height=0.2,width=0.4,color="black", fillcolor="white", style="filled",URL="$classCore_1_1DoubleBananaProcessor.html"];
  Node6 -> Node15 [dir="back",color="midnightblue",fontsize="10",style="solid",fontname="Helvetica"];
  Node15 [label="Core::DRRVisualizationProcessor",height=0.2,width=0.4,color="black", fillcolor="white", style="filled",URL="$classCore_1_1DRRVisualizationProcessor.html",tooltip="Processor class that creates an image using DRR algorithm. "];
  Node6 -> Node16 [dir="back",color="midnightblue",fontsize="10",style="solid",fontname="Helvetica"];
  Node16 [label="Core::DynProcessor",height=0.2,width=0.4,color="black", fillcolor="white", style="filled",URL="$classCore_1_1DynProcessor.html",tooltip="Use ModuleDescription to call a processing filter. "];
  Node6 -> Node17 [dir="back",color="midnightblue",fontsize="10",style="solid",fontname="Helvetica"];
  Node17 [label="Core::ExecuteCommandProcessor",height=0.2,width=0.4,color="black", fillcolor="white", style="filled",URL="$classCore_1_1ExecuteCommandProcessor.html"];
  Node6 -> Node18 [dir="back",color="midnightblue",fontsize="10",style="solid",fontname="Helvetica"];
  Node18 [label="Core::ExtractScalarProcessor",height=0.2,width=0.4,color="black", fillcolor="white", style="filled",URL="$classCore_1_1ExtractScalarProcessor.html"];
  Node6 -> Node19 [dir="back",color="midnightblue",fontsize="10",style="solid",fontname="Helvetica"];
  Node19 [label="Core::ExtractSurfacesProcessor",height=0.2,width=0.4,color="black", fillcolor="white", style="filled",URL="$classCore_1_1ExtractSurfacesProcessor.html"];
  Node6 -> Node20 [dir="back",color="midnightblue",fontsize="10",style="solid",fontname="Helvetica"];
  Node20 [label="Core::IO::BaseIO",height=0.2,width=0.4,color="red", fillcolor="white", style="filled",URL="$classCore_1_1IO_1_1BaseIO.html",tooltip="The BaseIO class is the base class for BaseDataEntityReader and BaseDataEntityWriter. "];
  Node6 -> Node21 [dir="back",color="midnightblue",fontsize="10",style="solid",fontname="Helvetica"];
  Node21 [label="Core::IO::DataEntityReader",height=0.2,width=0.4,color="black", fillcolor="white", style="filled",URL="$classCore_1_1IO_1_1DataEntityReader.html",tooltip="Reader of data entities of any type. "];
  Node6 -> Node22 [dir="back",color="midnightblue",fontsize="10",style="solid",fontname="Helvetica"];
  Node22 [label="Core::IO::DataEntityWriter",height=0.2,width=0.4,color="black", fillcolor="white", style="filled",URL="$classCore_1_1IO_1_1DataEntityWriter.html",tooltip="Writer of data entities of any type. "];
  Node6 -> Node23 [dir="back",color="midnightblue",fontsize="10",style="solid",fontname="Helvetica"];
  Node23 [label="Core::JoinImagesProcessor",height=0.2,width=0.4,color="black", fillcolor="white", style="filled",URL="$classCore_1_1JoinImagesProcessor.html"];
  Node6 -> Node24 [dir="back",color="midnightblue",fontsize="10",style="solid",fontname="Helvetica"];
  Node24 [label="Core::ManualNeckCuttingProcessor",height=0.2,width=0.4,color="black", fillcolor="white", style="filled",URL="$classCore_1_1ManualNeckCuttingProcessor.html"];
  Node6 -> Node25 [dir="back",color="midnightblue",fontsize="10",style="solid",fontname="Helvetica"];
  Node25 [label="Core::MeshCreationProcessor",height=0.2,width=0.4,color="black", fillcolor="white", style="filled",URL="$classCore_1_1MeshCreationProcessor.html",tooltip="Processor class that creates a mesh using Otsu segmentation starting from a ROI image. "];
  Node6 -> Node26 [dir="back",color="midnightblue",fontsize="10",style="solid",fontname="Helvetica"];
  Node26 [label="Core::MeshStatisticsProcessor",height=0.2,width=0.4,color="black", fillcolor="white", style="filled",URL="$classCore_1_1MeshStatisticsProcessor.html"];
  Node6 -> Node27 [dir="back",color="midnightblue",fontsize="10",style="solid",fontname="Helvetica"];
  Node27 [label="Core::NetgenProcessor",height=0.2,width=0.4,color="black", fillcolor="white", style="filled",URL="$classCore_1_1NetgenProcessor.html"];
  Node6 -> Node28 [dir="back",color="midnightblue",fontsize="10",style="solid",fontname="Helvetica"];
  Node28 [label="Core::OverlayProcessor",height=0.2,width=0.4,color="black", fillcolor="white", style="filled",URL="$classCore_1_1OverlayProcessor.html"];
  Node6 -> Node29 [dir="back",color="midnightblue",fontsize="10",style="solid",fontname="Helvetica"];
  Node29 [label="Core::RingCutProcessor",height=0.2,width=0.4,color="black", fillcolor="white", style="filled",URL="$classCore_1_1RingCutProcessor.html"];
  Node6 -> Node30 [dir="back",color="midnightblue",fontsize="10",style="solid",fontname="Helvetica"];
  Node30 [label="Core::Runtime::PluginProvider",height=0.2,width=0.4,color="red", fillcolor="white", style="filled",URL="$classCore_1_1Runtime_1_1PluginProvider.html",tooltip="Interface class for all plugin providers. A plugin provider provides plugins and loads them..."];
  Node6 -> Node31 [dir="back",color="midnightblue",fontsize="10",style="solid",fontname="Helvetica"];
  Node31 [label="Core::SetSpacingProcessor",height=0.2,width=0.4,color="black", fillcolor="white", style="filled",URL="$classCore_1_1SetSpacingProcessor.html"];
  Node6 -> Node32 [dir="back",color="midnightblue",fontsize="10",style="solid",fontname="Helvetica"];
  Node32 [label="Core::ShapeScaleProcessor",height=0.2,width=0.4,color="black", fillcolor="white", style="filled",URL="$classCore_1_1ShapeScaleProcessor.html"];
  Node6 -> Node33 [dir="back",color="midnightblue",fontsize="10",style="solid",fontname="Helvetica"];
  Node33 [label="Core::SignalESEDPropagation\lProcessor",height=0.2,width=0.4,color="black", fillcolor="white", style="filled",URL="$classCore_1_1SignalESEDPropagationProcessor.html"];
  Node6 -> Node34 [dir="back",color="midnightblue",fontsize="10",style="solid",fontname="Helvetica"];
  Node34 [label="Core::SignalTimePropagation\lProcessor",height=0.2,width=0.4,color="black", fillcolor="white", style="filled",URL="$classCore_1_1SignalTimePropagationProcessor.html"];
  Node6 -> Node35 [dir="back",color="midnightblue",fontsize="10",style="solid",fontname="Helvetica"];
  Node35 [label="Core::SkeletonCutProcessor",height=0.2,width=0.4,color="black", fillcolor="white", style="filled",URL="$classCore_1_1SkeletonCutProcessor.html"];
  Node6 -> Node36 [dir="back",color="midnightblue",fontsize="10",style="solid",fontname="Helvetica"];
  Node36 [label="Core::SurfaceInteractorProcessor",height=0.2,width=0.4,color="black", fillcolor="white", style="filled",URL="$classCore_1_1SurfaceInteractorProcessor.html"];
  Node6 -> Node37 [dir="back",color="midnightblue",fontsize="10",style="solid",fontname="Helvetica"];
  Node37 [label="Core::SurfaceMeshToRoiProcessor",height=0.2,width=0.4,color="black", fillcolor="white", style="filled",URL="$classCore_1_1SurfaceMeshToRoiProcessor.html",tooltip="Create a mask image from a surface mesh. "];
  Node6 -> Node38 [dir="back",color="midnightblue",fontsize="10",style="solid",fontname="Helvetica"];
  Node38 [label="Core::TetraGenerationProcessor",height=0.2,width=0.4,color="black", fillcolor="white", style="filled",URL="$classCore_1_1TetraGenerationProcessor.html"];
  Node6 -> Node39 [dir="back",color="midnightblue",fontsize="10",style="solid",fontname="Helvetica"];
  Node39 [label="Core::ThresholdProcessor",height=0.2,width=0.4,color="black", fillcolor="white", style="filled",URL="$classCore_1_1ThresholdProcessor.html"];
  Node6 -> Node40 [dir="back",color="midnightblue",fontsize="10",style="solid",fontname="Helvetica"];
  Node40 [label="Core::TransformSurfaceProcessor",height=0.2,width=0.4,color="black", fillcolor="white", style="filled",URL="$classCore_1_1TransformSurfaceProcessor.html",tooltip="Apply Transform input data (vtkPolyData) using vtkTransformPolyDataFilter and two input points..."];
  Node6 -> Node41 [dir="back",color="midnightblue",fontsize="10",style="solid",fontname="Helvetica"];
  Node41 [label="Core::VolumeClippingProcessor",height=0.2,width=0.4,color="black", fillcolor="white", style="filled",URL="$classCore_1_1VolumeClippingProcessor.html"];
  Node6 -> Node42 [dir="back",color="midnightblue",fontsize="10",style="solid",fontname="Helvetica"];
  Node42 [label="Core::VTKProcessor\< T \>",height=0.2,width=0.4,color="black", fillcolor="white", style="filled",URL="$classCore_1_1VTKProcessor.html"];
  Node6 -> Node43 [dir="back",color="midnightblue",fontsize="10",style="solid",fontname="Helvetica"];
  Node43 [label="Core::Widgets::DICOMWriter\lWidget::Processor",height=0.2,width=0.4,color="black", fillcolor="white", style="filled",URL="$classCore_1_1Widgets_1_1DICOMWriterWidget_1_1Processor.html"];
  Node6 -> Node44 [dir="back",color="midnightblue",fontsize="10",style="solid",fontname="Helvetica"];
  Node44 [label="Core::Widgets::GenerateSphere\lPanelWidget::Processor",height=0.2,width=0.4,color="black", fillcolor="white", style="filled",URL="$classCore_1_1Widgets_1_1GenerateSpherePanelWidget_1_1Processor.html"];
  Node6 -> Node45 [dir="back",color="midnightblue",fontsize="10",style="solid",fontname="Helvetica"];
  Node45 [label="Core::Widgets::LandmarkSelector\lWidget::Processor",height=0.2,width=0.4,color="black", fillcolor="white", style="filled",URL="$classCore_1_1Widgets_1_1LandmarkSelectorWidget_1_1Processor.html"];
  Node6 -> Node46 [dir="back",color="midnightblue",fontsize="10",style="solid",fontname="Helvetica"];
  Node46 [label="Core::Widgets::Measurement\lWidget::Processor",height=0.2,width=0.4,color="black", fillcolor="white", style="filled",URL="$classCore_1_1Widgets_1_1MeasurementWidget_1_1Processor.html"];
  Node1 -> Node47 [dir="back",color="midnightblue",fontsize="10",style="solid",fontname="Helvetica"];
  Node47 [label="Core::LandmarkSelectorProcessor",height=0.2,width=0.4,color="black", fillcolor="white", style="filled",URL="$classCore_1_1LandmarkSelectorProcessor.html",tooltip="A processor for plotting a signal containing the scalars for a given CELLID. "];
  Node1 -> Node48 [dir="back",color="midnightblue",fontsize="10",style="solid",fontname="Helvetica"];
  Node48 [label="Core::RenDataBuilder",height=0.2,width=0.4,color="red", fillcolor="white", style="filled",URL="$classCore_1_1RenDataBuilder.html",tooltip="This is a base class for the RenDataBuilder classes. The RenDataBuilder is responsible of translating..."];
  Node1 -> Node49 [dir="back",color="midnightblue",fontsize="10",style="solid",fontname="Helvetica"];
  Node49 [label="Core::RenDataFactory",height=0.2,width=0.4,color="black", fillcolor="white", style="filled",URL="$classCore_1_1RenDataFactory.html",tooltip="This is a factory for the RenDataFactory classes. "];
}
