digraph "Core::Widgets::RenderWindow"
{
  edge [fontname="Helvetica",fontsize="10",labelfontname="Helvetica",labelfontsize="10"];
  node [fontname="Helvetica",fontsize="10",shape=record];
  Node1 [label="Core::Widgets::RenderWindow",height=0.2,width=0.4,color="black", fillcolor="grey75", style="filled", fontcolor="black"];
  Node2 -> Node1 [dir="back",color="midnightblue",fontsize="10",style="solid",fontname="Helvetica"];
  Node2 [label="mitk::wxMitkSelectableGLWidget",height=0.2,width=0.4,color="black", fillcolor="white", style="filled",URL="$classmitk_1_1wxMitkSelectableGLWidget.html"];
  Node3 -> Node2 [dir="back",color="midnightblue",fontsize="10",style="solid",fontname="Helvetica"];
  Node3 [label="wxPanel",height=0.2,width=0.4,color="grey75", fillcolor="white", style="filled"];
  Node4 -> Node2 [dir="back",color="darkorchid3",fontsize="10",style="dashed",label=" m_mitkRenderWindow" ,fontname="Helvetica"];
  Node4 [label="mitk::wxMitkRenderWindow",height=0.2,width=0.4,color="black", fillcolor="white", style="filled",URL="$classmitk_1_1wxMitkRenderWindow.html"];
  Node5 -> Node4 [dir="back",color="midnightblue",fontsize="10",style="solid",fontname="Helvetica"];
  Node5 [label="mitk::wxMitkVTKWindow",height=0.2,width=0.4,color="black", fillcolor="white", style="filled",URL="$classmitk_1_1wxMitkVTKWindow.html"];
  Node6 -> Node5 [dir="back",color="midnightblue",fontsize="10",style="solid",fontname="Helvetica"];
  Node6 [label="wxWindow",height=0.2,width=0.4,color="grey75", fillcolor="white", style="filled"];
  Node7 -> Node4 [dir="back",color="darkorchid3",fontsize="10",style="dashed",label=" m_wxMitkApplicationCursor" ,fontname="Helvetica"];
  Node7 [label="mitk::wxMitkApplicationCursor\lImplementation",height=0.2,width=0.4,color="black", fillcolor="white", style="filled",URL="$classmitk_1_1wxMitkApplicationCursorImplementation.html",tooltip="Manager of the mouse cursor icon. "];
  Node8 -> Node7 [dir="back",color="midnightblue",fontsize="10",style="solid",fontname="Helvetica"];
  Node8 [label="ApplicationCursorImplementation",height=0.2,width=0.4,color="grey75", fillcolor="white", style="filled"];
  Node9 -> Node7 [dir="back",color="darkorchid3",fontsize="10",style="dashed",label=" m_CursorList" ,fontname="Helvetica"];
  Node9 [label="std::list\< wxCursor \>",height=0.2,width=0.4,color="grey75", fillcolor="white", style="filled"];
  Node10 -> Node4 [dir="back",color="darkorchid3",fontsize="10",style="dashed",label=" m_MantainedKeyList" ,fontname="Helvetica"];
  Node10 [label="std::list\< int \>",height=0.2,width=0.4,color="grey75", fillcolor="white", style="filled"];
}
