digraph "itk::NumericTraits&lt; DTITensor&lt; long double &gt; &gt;"
{
  edge [fontname="Helvetica",fontsize="10",labelfontname="Helvetica",labelfontsize="10"];
  node [fontname="Helvetica",fontsize="10",shape=record];
  Node1 [label="itk::NumericTraits\l\< DTITensor\< long double \> \>",height=0.2,width=0.4,color="black", fillcolor="grey75", style="filled", fontcolor="black"];
  Node2 -> Node1 [dir="back",color="darkorchid3",fontsize="10",style="dashed",label=" Zero" ,fontname="Helvetica"];
  Node2 [label="itk::DTITensor\< long\l double \>",height=0.2,width=0.4,color="black", fillcolor="white", style="filled",URL="$classitk_1_1DTITensor.html"];
  Node3 -> Node2 [dir="back",color="midnightblue",fontsize="10",style="solid",fontname="Helvetica"];
  Node3 [label="FixedArray\< long double, 6 \>",height=0.2,width=0.4,color="grey75", fillcolor="white", style="filled"];
}
