digraph "wflIOBase"
{
  edge [fontname="Helvetica",fontsize="10",labelfontname="Helvetica",labelfontsize="10"];
  node [fontname="Helvetica",fontsize="10",shape=record];
  Node1 [label="wflIOBase",height=0.2,width=0.4,color="black", fillcolor="grey75", style="filled", fontcolor="black"];
  Node2 -> Node1 [dir="back",color="midnightblue",fontsize="10",style="solid",fontname="Helvetica"];
  Node2 [label="blLightObject",height=0.2,width=0.4,color="black", fillcolor="white", style="filled",URL="$classblLightObject.html",tooltip="Base Class for everything. "];
  Node1 -> Node3 [dir="back",color="midnightblue",fontsize="10",style="solid",fontname="Helvetica"];
  Node3 [label="wflT2FlowReader",height=0.2,width=0.4,color="black", fillcolor="white", style="filled",URL="$classwflT2FlowReader.html"];
}
