digraph "Core::IO::MHDVectorFieldReader"
{
  edge [fontname="Helvetica",fontsize="10",labelfontname="Helvetica",labelfontsize="10"];
  node [fontname="Helvetica",fontsize="10",shape=record];
  rankdir="LR";
  Node1 [label="Core::IO::MHDVectorField\lReader",height=0.2,width=0.4,color="black", fillcolor="grey75", style="filled", fontcolor="black"];
  Node2 -> Node1 [dir="back",color="midnightblue",fontsize="10",style="solid",fontname="Helvetica"];
  Node2 [label="Core::IO::BaseDataEntity\lReader",height=0.2,width=0.4,color="black", fillcolor="white", style="filled",URL="$classCore_1_1IO_1_1BaseDataEntityReader.html",tooltip="The BaseDataEntityReader class is the base class for specialized file readers and it is responsible f..."];
  Node3 -> Node2 [dir="back",color="midnightblue",fontsize="10",style="solid",fontname="Helvetica"];
  Node3 [label="Core::IO::BaseIO",height=0.2,width=0.4,color="black", fillcolor="white", style="filled",URL="$classCore_1_1IO_1_1BaseIO.html",tooltip="The BaseIO class is the base class for BaseDataEntityReader and BaseDataEntityWriter. "];
  Node4 -> Node3 [dir="back",color="midnightblue",fontsize="10",style="solid",fontname="Helvetica"];
  Node4 [label="Core::BaseProcessor",height=0.2,width=0.4,color="black", fillcolor="white", style="filled",URL="$classCore_1_1BaseProcessor.html",tooltip="Generic BaseProcessor with UpdateOutput( ) functions for different types of data. ..."];
  Node5 -> Node4 [dir="back",color="midnightblue",fontsize="10",style="solid",fontname="Helvetica"];
  Node5 [label="Core::BaseFilter",height=0.2,width=0.4,color="black", fillcolor="white", style="filled",URL="$classCore_1_1BaseFilter.html",tooltip="Generic Filter. "];
  Node6 -> Node5 [dir="back",color="midnightblue",fontsize="10",style="solid",fontname="Helvetica"];
  Node6 [label="Core::SmartPointerObject",height=0.2,width=0.4,color="black", fillcolor="white", style="filled",URL="$classCore_1_1SmartPointerObject.html",tooltip="Abstract class that provides base functionalities for handling objects with SmartPointers (see itk::L..."];
  Node7 -> Node6 [dir="back",color="midnightblue",fontsize="10",style="solid",fontname="Helvetica"];
  Node7 [label="LightObject",height=0.2,width=0.4,color="grey75", fillcolor="white", style="filled"];
  Node8 -> Node6 [dir="back",color="midnightblue",fontsize="10",style="solid",fontname="Helvetica"];
  Node8 [label="Core::Object",height=0.2,width=0.4,color="black", fillcolor="white", style="filled",URL="$classCore_1_1Object.html",tooltip="Abstract class that provides a common point for all the class hierarchy, because all classes in the C..."];
  Node9 -> Node8 [dir="back",color="midnightblue",fontsize="10",style="solid",fontname="Helvetica"];
  Node9 [label="boost::signals::trackable",height=0.2,width=0.4,color="grey75", fillcolor="white", style="filled"];
  Node10 -> Node8 [dir="back",color="darkorchid3",fontsize="10",style="dashed",label=" m_Properties" ,fontname="Helvetica"];
  Node10 [label="blSmartPointer\< Self \>",height=0.2,width=0.4,color="black", fillcolor="white", style="filled",URL="$classblSmartPointer.html"];
  Node11 -> Node5 [dir="back",color="darkorchid3",fontsize="10",style="dashed",label=" m_Name" ,fontname="Helvetica"];
  Node11 [label="std::string",height=0.2,width=0.4,color="grey75", fillcolor="white", style="filled",tooltip="STL class. "];
  Node12 -> Node11 [dir="back",color="midnightblue",fontsize="10",style="solid",fontname="Helvetica"];
  Node12 [label="std::basic_string\<\l char \>",height=0.2,width=0.4,color="grey75", fillcolor="white", style="filled",tooltip="STL class. "];
  Node13 -> Node5 [dir="back",color="darkorchid3",fontsize="10",style="dashed",label=" m_InputPortVector" ,fontname="Helvetica"];
  Node13 [label="std::vector\< Core::\lBaseFilterInputPort\l::Pointer \>",height=0.2,width=0.4,color="grey75", fillcolor="white", style="filled"];
  Node14 -> Node5 [dir="back",color="darkorchid3",fontsize="10",style="dashed",label=" m_OutputPortVector" ,fontname="Helvetica"];
  Node14 [label="std::vector\< Core::\lBaseFilterOutputPort\l::Pointer \>",height=0.2,width=0.4,color="grey75", fillcolor="white", style="filled"];
  Node10 -> Node3 [dir="back",color="darkorchid3",fontsize="10",style="dashed",label=" m_TagMap" ,fontname="Helvetica"];
  Node15 -> Node3 [dir="back",color="darkorchid3",fontsize="10",style="dashed",label=" m_ValidTypesList" ,fontname="Helvetica"];
  Node15 [label="std::list\< DataEntityType \>",height=0.2,width=0.4,color="grey75", fillcolor="white", style="filled"];
  Node11 -> Node3 [dir="back",color="darkorchid3",fontsize="10",style="dashed",label=" m_Extension" ,fontname="Helvetica"];
  Node16 -> Node3 [dir="back",color="darkorchid3",fontsize="10",style="dashed",label=" m_Filenames" ,fontname="Helvetica"];
  Node16 [label="std::vector\< std::string \>",height=0.2,width=0.4,color="grey75", fillcolor="white", style="filled"];
  Node11 -> Node16 [dir="back",color="darkorchid3",fontsize="10",style="dashed",label=" elements" ,fontname="Helvetica"];
  Node17 -> Node3 [dir="back",color="darkorchid3",fontsize="10",style="dashed",label=" m_ValidExtensionsList" ,fontname="Helvetica"];
  Node17 [label="std::list\< std::string \>",height=0.2,width=0.4,color="grey75", fillcolor="white", style="filled"];
  Node11 -> Node17 [dir="back",color="darkorchid3",fontsize="10",style="dashed",label=" elements" ,fontname="Helvetica"];
}
