digraph "dcmapi::apps::ItkDicomSorter"
{
  edge [fontname="Helvetica",fontsize="10",labelfontname="Helvetica",labelfontsize="10"];
  node [fontname="Helvetica",fontsize="10",shape=record];
  Node1 [label="dcmapi::apps::ItkDicomSorter",height=0.2,width=0.4,color="black", fillcolor="grey75", style="filled", fontcolor="black"];
  Node2 -> Node1 [dir="back",color="midnightblue",fontsize="10",style="solid",fontname="Helvetica"];
  Node2 [label="dcmapi::apps::AbstractDicom\lSorter",height=0.2,width=0.4,color="black", fillcolor="white", style="filled",URL="$classdcmapi_1_1apps_1_1AbstractDicomSorter.html"];
}
