digraph "blSignal"
{
  edge [fontname="Helvetica",fontsize="10",labelfontname="Helvetica",labelfontsize="10"];
  node [fontname="Helvetica",fontsize="10",shape=record];
  Node1 [label="blSignal",height=0.2,width=0.4,color="black", fillcolor="grey75", style="filled", fontcolor="black"];
  Node2 -> Node1 [dir="back",color="midnightblue",fontsize="10",style="solid",fontname="Helvetica"];
  Node2 [label="blObject",height=0.2,width=0.4,color="black", fillcolor="white", style="filled",URL="$classblObject.html",tooltip="blLightObject with modification time tracking "];
  Node3 -> Node2 [dir="back",color="midnightblue",fontsize="10",style="solid",fontname="Helvetica"];
  Node3 [label="blLightObject",height=0.2,width=0.4,color="black", fillcolor="white", style="filled",URL="$classblLightObject.html",tooltip="Base Class for everything. "];
}
