digraph "wxHTTPBuilder"
{
  edge [fontname="Helvetica",fontsize="10",labelfontname="Helvetica",labelfontsize="10"];
  node [fontname="Helvetica",fontsize="10",shape=record];
  Node1 [label="wxHTTPBuilder",height=0.2,width=0.4,color="black", fillcolor="grey75", style="filled", fontcolor="black"];
  Node2 -> Node1 [dir="back",color="midnightblue",fontsize="10",style="solid",fontname="Helvetica"];
  Node2 [label="wxHTTP",height=0.2,width=0.4,color="grey75", fillcolor="white", style="filled"];
  Node3 -> Node1 [dir="back",color="darkorchid3",fontsize="10",style="dashed",label=" m_httpAuthSettings" ,fontname="Helvetica"];
  Node3 [label="wxHTTPAuthSettings",height=0.2,width=0.4,color="black", fillcolor="white", style="filled",URL="$classwxHTTPAuthSettings.html",tooltip="wxHTTPAuthSettings class, makes getting and setting HTTP auth settings easier. "];
  Node4 -> Node1 [dir="back",color="darkorchid3",fontsize="10",style="dashed",label=" m_proxySettings" ,fontname="Helvetica"];
  Node4 [label="wxProxySettings",height=0.2,width=0.4,color="black", fillcolor="white", style="filled",URL="$classwxProxySettings.html",tooltip="wxProxySettings class, makes getting and setting proxy settings easier. "];
}
