digraph "boost::numeric::ublas::matrix&lt; T, L, A &gt;::iterator1"
{
  edge [fontname="Helvetica",fontsize="10",labelfontname="Helvetica",labelfontsize="10"];
  node [fontname="Helvetica",fontsize="10",shape=record];
  rankdir="LR";
  Node1 [label="boost::numeric::ublas\l::matrix\< T, L, A \>::\literator1",height=0.2,width=0.4,color="black", fillcolor="grey75", style="filled", fontcolor="black"];
  Node2 -> Node1 [dir="back",color="midnightblue",fontsize="10",style="solid",fontname="Helvetica"];
  Node2 [label="container_reference\l\< matrix \>",height=0.2,width=0.4,color="grey75", fillcolor="white", style="filled"];
  Node3 -> Node1 [dir="back",color="midnightblue",fontsize="10",style="solid",fontname="Helvetica"];
  Node3 [label="random_access_iterator\l_base\< dense_random_access\l_iterator_tag, iterator1,\l value_type \>",height=0.2,width=0.4,color="grey75", fillcolor="white", style="filled"];
}
