digraph "dcmAPI::Series"
{
  edge [fontname="Helvetica",fontsize="10",labelfontname="Helvetica",labelfontsize="10"];
  node [fontname="Helvetica",fontsize="10",shape=record];
  Node1 [label="dcmAPI::Series",height=0.2,width=0.4,color="black", fillcolor="grey75", style="filled", fontcolor="black"];
  Node2 -> Node1 [dir="back",color="midnightblue",fontsize="10",style="solid",fontname="Helvetica"];
  Node2 [label="dcmAPI::Base",height=0.2,width=0.4,color="black", fillcolor="white", style="filled",URL="$classdcmAPI_1_1Base.html",tooltip="Base class for all DICOM structures that contains a list of tags. "];
  Node3 -> Node2 [dir="back",color="darkorchid3",fontsize="10",style="dashed",label=" m_tagsMap" ,fontname="Helvetica"];
  Node3 [label="std::map\< TagId, std\l::string \>",height=0.2,width=0.4,color="grey75", fillcolor="white", style="filled"];
  Node4 -> Node3 [dir="back",color="darkorchid3",fontsize="10",style="dashed",label=" keys" ,fontname="Helvetica"];
  Node4 [label="dcmAPI::TagId",height=0.2,width=0.4,color="black", fillcolor="white", style="filled",URL="$structdcmAPI_1_1TagId.html"];
  Node5 -> Node4 [dir="back",color="darkorchid3",fontsize="10",style="dashed",label=" m_description" ,fontname="Helvetica"];
  Node5 [label="std::string",height=0.2,width=0.4,color="grey75", fillcolor="white", style="filled",tooltip="STL class. "];
  Node6 -> Node5 [dir="back",color="midnightblue",fontsize="10",style="solid",fontname="Helvetica"];
  Node6 [label="std::basic_string\<\l char \>",height=0.2,width=0.4,color="grey75", fillcolor="white", style="filled",tooltip="STL class. "];
  Node5 -> Node3 [dir="back",color="darkorchid3",fontsize="10",style="dashed",label=" elements" ,fontname="Helvetica"];
  Node7 -> Node1 [dir="back",color="darkorchid3",fontsize="10",style="dashed",label=" m_timePoint" ,fontname="Helvetica"];
  Node7 [label="std::vector\< dcmAPI\l::TimePoint::Pointer \>",height=0.2,width=0.4,color="grey75", fillcolor="white", style="filled"];
}
