digraph "boost::numeric::ublas::zero_matrix&lt; T, ALLOC &gt;"
{
  edge [fontname="Helvetica",fontsize="10",labelfontname="Helvetica",labelfontsize="10"];
  node [fontname="Helvetica",fontsize="10",shape=record];
  Node1 [label="boost::numeric::ublas\l::zero_matrix\< T, ALLOC \>",height=0.2,width=0.4,color="black", fillcolor="grey75", style="filled", fontcolor="black"];
  Node2 -> Node1 [dir="back",color="midnightblue",fontsize="10",style="solid",fontname="Helvetica"];
  Node2 [label="matrix_container\< zero\l_matrix\< T \> \>",height=0.2,width=0.4,color="grey75", fillcolor="white", style="filled"];
}
