digraph "Core::DynDataTransferCLPShared"
{
  edge [fontname="Helvetica",fontsize="10",labelfontname="Helvetica",labelfontsize="10"];
  node [fontname="Helvetica",fontsize="10",shape=record];
  Node1 [label="Core::DynDataTransferCLPShared",height=0.2,width=0.4,color="black", fillcolor="grey75", style="filled", fontcolor="black"];
  Node2 -> Node1 [dir="back",color="midnightblue",fontsize="10",style="solid",fontname="Helvetica"];
  Node2 [label="Core::DynDataTransferCLP",height=0.2,width=0.4,color="black", fillcolor="white", style="filled",URL="$classCore_1_1DynDataTransferCLP.html",tooltip="Use ModuleDescription to call a filter of a Command Line Plugin as an executable. ..."];
  Node3 -> Node2 [dir="back",color="midnightblue",fontsize="10",style="solid",fontname="Helvetica"];
  Node3 [label="Core::DynDataTransferBase",height=0.2,width=0.4,color="black", fillcolor="white", style="filled",URL="$classCore_1_1DynDataTransferBase.html",tooltip="Base class for transfer in/out data when executing a ModuleDescription instance. "];
  Node4 -> Node3 [dir="back",color="midnightblue",fontsize="10",style="solid",fontname="Helvetica"];
  Node4 [label="Core::SmartPointerObject",height=0.2,width=0.4,color="black", fillcolor="white", style="filled",URL="$classCore_1_1SmartPointerObject.html",tooltip="Abstract class that provides base functionalities for handling objects with SmartPointers (see itk::L..."];
  Node5 -> Node4 [dir="back",color="midnightblue",fontsize="10",style="solid",fontname="Helvetica"];
  Node5 [label="LightObject",height=0.2,width=0.4,color="grey75", fillcolor="white", style="filled"];
  Node6 -> Node4 [dir="back",color="midnightblue",fontsize="10",style="solid",fontname="Helvetica"];
  Node6 [label="Core::Object",height=0.2,width=0.4,color="black", fillcolor="white", style="filled",URL="$classCore_1_1Object.html",tooltip="Abstract class that provides a common point for all the class hierarchy, because all classes in the C..."];
  Node7 -> Node6 [dir="back",color="midnightblue",fontsize="10",style="solid",fontname="Helvetica"];
  Node7 [label="boost::signals::trackable",height=0.2,width=0.4,color="grey75", fillcolor="white", style="filled"];
  Node8 -> Node6 [dir="back",color="darkorchid3",fontsize="10",style="dashed",label=" m_Properties" ,fontname="Helvetica"];
  Node8 [label="blSmartPointer\< Self \>",height=0.2,width=0.4,color="black", fillcolor="white", style="filled",URL="$classblSmartPointer.html"];
  Node9 -> Node3 [dir="back",color="darkorchid3",fontsize="10",style="dashed",label=" m_MapInitialValues" ,fontname="Helvetica"];
  Node9 [label="std::map\< std::string,\l std::string \>",height=0.2,width=0.4,color="grey75", fillcolor="white", style="filled"];
  Node10 -> Node9 [dir="back",color="darkorchid3",fontsize="10",style="dashed",label=" keys\nelements" ,fontname="Helvetica"];
  Node10 [label="std::string",height=0.2,width=0.4,color="grey75", fillcolor="white", style="filled",tooltip="STL class. "];
  Node11 -> Node10 [dir="back",color="midnightblue",fontsize="10",style="solid",fontname="Helvetica"];
  Node11 [label="std::basic_string\<\l char \>",height=0.2,width=0.4,color="grey75", fillcolor="white", style="filled",tooltip="STL class. "];
  Node10 -> Node3 [dir="back",color="darkorchid3",fontsize="10",style="dashed",label=" m_TemporaryDirectory\nm_UseCaseDirectory\nm_TemporarySubDir" ,fontname="Helvetica"];
  Node12 -> Node1 [dir="back",color="darkorchid3",fontsize="10",style="dashed",label=" m_OutputDataEntities" ,fontname="Helvetica"];
  Node12 [label="std::map\< int, Core\l::DataEntity::Pointer \>",height=0.2,width=0.4,color="grey75", fillcolor="white", style="filled"];
}
