digraph "Core::Runtime::wxMitkGraphicalInterface::Impl"
{
  edge [fontname="Helvetica",fontsize="10",labelfontname="Helvetica",labelfontsize="10"];
  node [fontname="Helvetica",fontsize="10",shape=record];
  Node1 [label="Core::Runtime::wxMitkGraphical\lInterface::Impl",height=0.2,width=0.4,color="black", fillcolor="grey75", style="filled", fontcolor="black"];
  Node2 -> Node1 [dir="back",color="darkorchid3",fontsize="10",style="dashed",label=" m_MainWindow" ,fontname="Helvetica"];
  Node2 [label="Core::Widgets::BaseMainWindow",height=0.2,width=0.4,color="black", fillcolor="white", style="filled",URL="$classCore_1_1Widgets_1_1BaseMainWindow.html",tooltip="This is an abstract class for the main window. It is created by the main app. "];
}
