digraph "coreMovieToolbarUI"
{
  edge [fontname="Helvetica",fontsize="10",labelfontname="Helvetica",labelfontsize="10"];
  node [fontname="Helvetica",fontsize="10",shape=record];
  Node1 [label="coreMovieToolbarUI",height=0.2,width=0.4,color="black", fillcolor="grey75", style="filled", fontcolor="black"];
  Node2 -> Node1 [dir="back",color="midnightblue",fontsize="10",style="solid",fontname="Helvetica"];
  Node2 [label="wxPanel",height=0.2,width=0.4,color="grey75", fillcolor="white", style="filled"];
  Node1 -> Node3 [dir="back",color="midnightblue",fontsize="10",style="solid",fontname="Helvetica"];
  Node3 [label="Core::Widgets::MovieToolbar",height=0.2,width=0.4,color="black", fillcolor="white", style="filled",URL="$classCore_1_1Widgets_1_1MovieToolbar.html",tooltip="A widget for managing 3D+t data. "];
  Node3 -> Node4 [dir="back",color="midnightblue",fontsize="10",style="solid",fontname="Helvetica"];
  Node4 [label="DicomPlugin::MovieToolbar",height=0.2,width=0.4,color="black", fillcolor="white", style="filled",URL="$classDicomPlugin_1_1MovieToolbar.html",tooltip="A widget for managing DICOM 3D+t data. "];
}
