digraph "svSignalPlotAnnotationsWidgetUI"
{
  edge [fontname="Helvetica",fontsize="10",labelfontname="Helvetica",labelfontsize="10"];
  node [fontname="Helvetica",fontsize="10",shape=record];
  Node1 [label="svSignalPlotAnnotationsWidgetUI",height=0.2,width=0.4,color="black", fillcolor="grey75", style="filled", fontcolor="black"];
  Node2 -> Node1 [dir="back",color="midnightblue",fontsize="10",style="solid",fontname="Helvetica"];
  Node2 [label="wxPanel",height=0.2,width=0.4,color="grey75", fillcolor="white", style="filled"];
  Node1 -> Node3 [dir="back",color="midnightblue",fontsize="10",style="solid",fontname="Helvetica"];
  Node3 [label="svSignalPlotAnnotationsWidget",height=0.2,width=0.4,color="black", fillcolor="white", style="filled",URL="$classsvSignalPlotAnnotationsWidget.html",tooltip="This widget displays all the data entities of type Core::SignalTypeId on the widget. "];
}
