digraph "coreWorkflowEditorWidgetUI"
{
  edge [fontname="Helvetica",fontsize="10",labelfontname="Helvetica",labelfontsize="10"];
  node [fontname="Helvetica",fontsize="10",shape=record];
  Node1 [label="coreWorkflowEditorWidgetUI",height=0.2,width=0.4,color="black", fillcolor="grey75", style="filled", fontcolor="black"];
  Node2 -> Node1 [dir="back",color="midnightblue",fontsize="10",style="solid",fontname="Helvetica"];
  Node2 [label="wxDialog",height=0.2,width=0.4,color="grey75", fillcolor="white", style="filled"];
  Node1 -> Node3 [dir="back",color="midnightblue",fontsize="10",style="solid",fontname="Helvetica"];
  Node3 [label="Core::Widgets::WorkflowEditor\lWidget",height=0.2,width=0.4,color="black", fillcolor="white", style="filled",URL="$classCore_1_1Widgets_1_1WorkflowEditorWidget.html",tooltip="Widget to edit a Workflow. "];
}
