digraph "blV3DImageFileReader"
{
  edge [fontname="Helvetica",fontsize="10",labelfontname="Helvetica",labelfontsize="10"];
  node [fontname="Helvetica",fontsize="10",shape=record];
  Node1 [label="blV3DImageFileReader",height=0.2,width=0.4,color="black", fillcolor="grey75", style="filled", fontcolor="black"];
  Node2 -> Node1 [dir="back",color="midnightblue",fontsize="10",style="solid",fontname="Helvetica"];
  Node2 [label="blImageFileReader",height=0.2,width=0.4,color="black", fillcolor="white", style="filled",URL="$classblImageFileReader.html"];
  Node3 -> Node2 [dir="back",color="midnightblue",fontsize="10",style="solid",fontname="Helvetica"];
  Node3 [label="blLightObject",height=0.2,width=0.4,color="black", fillcolor="white", style="filled",URL="$classblLightObject.html",tooltip="Base Class for everything. "];
  Node4 -> Node2 [dir="back",color="darkorchid3",fontsize="10",style="dashed",label=" fileName" ,fontname="Helvetica"];
  Node4 [label="std::string",height=0.2,width=0.4,color="grey75", fillcolor="white", style="filled",tooltip="STL class. "];
  Node5 -> Node4 [dir="back",color="midnightblue",fontsize="10",style="solid",fontname="Helvetica"];
  Node5 [label="std::basic_string\<\l char \>",height=0.2,width=0.4,color="grey75", fillcolor="white", style="filled",tooltip="STL class. "];
  Node6 -> Node1 [dir="back",color="darkorchid3",fontsize="10",style="dashed",label=" v3Dimensions\nv3Origin\nv3Spacing" ,fontname="Helvetica"];
  Node6 [label="std::vector\< double \>",height=0.2,width=0.4,color="grey75", fillcolor="white", style="filled"];
}
