digraph "dcmAPI::Base"
{
  edge [fontname="Helvetica",fontsize="10",labelfontname="Helvetica",labelfontsize="10"];
  node [fontname="Helvetica",fontsize="10",shape=record];
  rankdir="LR";
  Node1 [label="dcmAPI::Base",height=0.2,width=0.4,color="black", fillcolor="grey75", style="filled", fontcolor="black"];
  Node1 -> Node2 [dir="back",color="midnightblue",fontsize="10",style="solid",fontname="Helvetica"];
  Node2 [label="dcmAPI::ImageUtilities",height=0.2,width=0.4,color="black", fillcolor="white", style="filled",URL="$classdcmAPI_1_1ImageUtilities.html",tooltip="This class is used to read 2D and 3D standard DICOM images. "];
  Node1 -> Node3 [dir="back",color="midnightblue",fontsize="10",style="solid",fontname="Helvetica"];
  Node3 [label="dcmAPI::Patient",height=0.2,width=0.4,color="black", fillcolor="white", style="filled",URL="$classdcmAPI_1_1Patient.html",tooltip="Class that holds the structure of a DICOM Patient. "];
  Node1 -> Node4 [dir="back",color="midnightblue",fontsize="10",style="solid",fontname="Helvetica"];
  Node4 [label="dcmAPI::Series",height=0.2,width=0.4,color="black", fillcolor="white", style="filled",URL="$classdcmAPI_1_1Series.html",tooltip="Class that holds the structure of a DICOM Series. "];
  Node1 -> Node5 [dir="back",color="midnightblue",fontsize="10",style="solid",fontname="Helvetica"];
  Node5 [label="dcmAPI::Slice",height=0.2,width=0.4,color="black", fillcolor="white", style="filled",URL="$classdcmAPI_1_1Slice.html",tooltip="Class that holds the structure of a DICOM Slice. "];
  Node1 -> Node6 [dir="back",color="midnightblue",fontsize="10",style="solid",fontname="Helvetica"];
  Node6 [label="dcmAPI::Study",height=0.2,width=0.4,color="black", fillcolor="white", style="filled",URL="$classdcmAPI_1_1Study.html",tooltip="Class that holds the structure of a DICOM Study. "];
  Node1 -> Node7 [dir="back",color="midnightblue",fontsize="10",style="solid",fontname="Helvetica"];
  Node7 [label="dcmAPI::TimePoint",height=0.2,width=0.4,color="black", fillcolor="white", style="filled",URL="$classdcmAPI_1_1TimePoint.html",tooltip="Class that holds the structure of a DICOM TimePoint. "];
}
