digraph "Core::Widgets::PluginTab"
{
  edge [fontname="Helvetica",fontsize="10",labelfontname="Helvetica",labelfontsize="10"];
  node [fontname="Helvetica",fontsize="10",shape=record];
  rankdir="LR";
  Node1 [label="Core::Widgets::PluginTab",height=0.2,width=0.4,color="black", fillcolor="grey75", style="filled", fontcolor="black"];
  Node2 -> Node1 [dir="back",color="midnightblue",fontsize="10",style="solid",fontname="Helvetica"];
  Node2 [label="wxPanel",height=0.2,width=0.4,color="grey75", fillcolor="white", style="filled"];
  Node3 -> Node1 [dir="back",color="midnightblue",fontsize="10",style="solid",fontname="Helvetica"];
  Node3 [label="Core::BasePluginTab",height=0.2,width=0.4,color="black", fillcolor="white", style="filled",URL="$classCore_1_1BasePluginTab.html",tooltip="Interface for plugin tab page. "];
  Node4 -> Node3 [dir="back",color="midnightblue",fontsize="10",style="solid",fontname="Helvetica"];
  Node4 [label="Core::Object",height=0.2,width=0.4,color="black", fillcolor="white", style="filled",URL="$classCore_1_1Object.html",tooltip="Abstract class that provides a common point for all the class hierarchy, because all classes in the C..."];
  Node5 -> Node4 [dir="back",color="midnightblue",fontsize="10",style="solid",fontname="Helvetica"];
  Node5 [label="boost::signals::trackable",height=0.2,width=0.4,color="grey75", fillcolor="white", style="filled"];
  Node6 -> Node4 [dir="back",color="darkorchid3",fontsize="10",style="dashed",label=" m_Properties" ,fontname="Helvetica"];
  Node6 [label="blSmartPointer\< Self \>",height=0.2,width=0.4,color="black", fillcolor="white", style="filled",URL="$classblSmartPointer.html"];
  Node7 -> Node1 [dir="back",color="darkorchid3",fontsize="10",style="dashed",label=" m_WindowEnabled" ,fontname="Helvetica"];
  Node7 [label="std::map\< wxWindowID,\l bool \>",height=0.2,width=0.4,color="grey75", fillcolor="white", style="filled"];
  Node8 -> Node1 [dir="back",color="darkorchid3",fontsize="10",style="dashed",label=" m_BackupLayoutPerspective\nm_Caption" ,fontname="Helvetica"];
  Node8 [label="std::string",height=0.2,width=0.4,color="grey75", fillcolor="white", style="filled",tooltip="STL class. "];
  Node9 -> Node8 [dir="back",color="midnightblue",fontsize="10",style="solid",fontname="Helvetica"];
  Node9 [label="std::basic_string\<\l char \>",height=0.2,width=0.4,color="grey75", fillcolor="white", style="filled",tooltip="STL class. "];
  Node10 -> Node1 [dir="back",color="darkorchid3",fontsize="10",style="dashed",label=" m_WindowsMapHolder" ,fontname="Helvetica"];
  Node10 [label="Core::DataHolder\< Window\lMapType \>",height=0.2,width=0.4,color="black", fillcolor="white", style="filled",URL="$classCore_1_1DataHolder.html"];
  Node11 -> Node10 [dir="back",color="midnightblue",fontsize="10",style="solid",fontname="Helvetica"];
  Node11 [label="Core::DataHolderBase",height=0.2,width=0.4,color="black", fillcolor="white", style="filled",URL="$classCore_1_1DataHolderBase.html",tooltip="Base class for DataHolders. Contains the signals and observer registration part. "];
  Node12 -> Node11 [dir="back",color="midnightblue",fontsize="10",style="solid",fontname="Helvetica"];
  Node12 [label="Core::SmartPointerObject",height=0.2,width=0.4,color="black", fillcolor="white", style="filled",URL="$classCore_1_1SmartPointerObject.html",tooltip="Abstract class that provides base functionalities for handling objects with SmartPointers (see itk::L..."];
  Node13 -> Node12 [dir="back",color="midnightblue",fontsize="10",style="solid",fontname="Helvetica"];
  Node13 [label="LightObject",height=0.2,width=0.4,color="grey75", fillcolor="white", style="filled"];
  Node4 -> Node12 [dir="back",color="midnightblue",fontsize="10",style="solid",fontname="Helvetica"];
  Node8 -> Node11 [dir="back",color="darkorchid3",fontsize="10",style="dashed",label=" m_Name" ,fontname="Helvetica"];
  Node14 -> Node10 [dir="back",color="darkorchid3",fontsize="10",style="dashed",label=" m_Data" ,fontname="Helvetica"];
  Node14 [label="std::list\< T \>",height=0.2,width=0.4,color="grey75", fillcolor="white", style="filled",tooltip="STL class. "];
  Node15 -> Node14 [dir="back",color="darkorchid3",fontsize="10",style="dashed",label=" elements" ,fontname="Helvetica"];
  Node15 [label="T",height=0.2,width=0.4,color="grey75", fillcolor="white", style="filled"];
}
