digraph "mitk::wxMitkGradientOpacityControl"
{
  edge [fontname="Helvetica",fontsize="10",labelfontname="Helvetica",labelfontsize="10"];
  node [fontname="Helvetica",fontsize="10",shape=record];
  Node1 [label="mitk::wxMitkGradientOpacity\lControl",height=0.2,width=0.4,color="black", fillcolor="grey75", style="filled", fontcolor="black"];
  Node2 -> Node1 [dir="back",color="midnightblue",fontsize="10",style="solid",fontname="Helvetica"];
  Node2 [label="wxControl",height=0.2,width=0.4,color="grey75", fillcolor="white", style="filled"];
  Node3 -> Node1 [dir="back",color="midnightblue",fontsize="10",style="solid",fontname="Helvetica"];
  Node3 [label="mitk::wxMitkHistogramCanvas",height=0.2,width=0.4,color="black", fillcolor="white", style="filled",URL="$classmitk_1_1wxMitkHistogramCanvas.html"];
  Node4 -> Node3 [dir="back",color="midnightblue",fontsize="10",style="solid",fontname="Helvetica"];
  Node4 [label="mitk::wxMitkPaintableInSet\lCanvas",height=0.2,width=0.4,color="black", fillcolor="white", style="filled",URL="$classmitk_1_1wxMitkPaintableInSetCanvas.html"];
  Node5 -> Node1 [dir="back",color="midnightblue",fontsize="10",style="solid",fontname="Helvetica"];
  Node5 [label="mitk::wxMitkVtkPiecewise\lCanvas",height=0.2,width=0.4,color="black", fillcolor="white", style="filled",URL="$classmitk_1_1wxMitkVtkPiecewiseCanvas.html"];
  Node4 -> Node5 [dir="back",color="midnightblue",fontsize="10",style="solid",fontname="Helvetica"];
}
