digraph "wflProperties"
{
  edge [fontname="Helvetica",fontsize="10",labelfontname="Helvetica",labelfontsize="10"];
  node [fontname="Helvetica",fontsize="10",shape=record];
  Node1 [label="wflProperties",height=0.2,width=0.4,color="black", fillcolor="grey75", style="filled", fontcolor="black"];
  Node1 -> Node2 [dir="back",color="midnightblue",fontsize="10",style="solid",fontname="Helvetica"];
  Node2 [label="wflInputPort",height=0.2,width=0.4,color="black", fillcolor="white", style="filled",URL="$classwflInputPort.html"];
  Node1 -> Node3 [dir="back",color="midnightblue",fontsize="10",style="solid",fontname="Helvetica"];
  Node3 [label="wflOutputPort",height=0.2,width=0.4,color="black", fillcolor="white", style="filled",URL="$classwflOutputPort.html"];
  Node1 -> Node4 [dir="back",color="midnightblue",fontsize="10",style="solid",fontname="Helvetica"];
  Node4 [label="wflWorkflow",height=0.2,width=0.4,color="black", fillcolor="white", style="filled",URL="$classwflWorkflow.html"];
}
