digraph "mitk::wxMitkSliderLevelWindowControl"
{
  edge [fontname="Helvetica",fontsize="10",labelfontname="Helvetica",labelfontsize="10"];
  node [fontname="Helvetica",fontsize="10",shape=record];
  Node1 [label="mitk::wxMitkSliderLevelWindow\lControl",height=0.2,width=0.4,color="black", fillcolor="grey75", style="filled", fontcolor="black"];
  Node2 -> Node1 [dir="back",color="midnightblue",fontsize="10",style="solid",fontname="Helvetica"];
  Node2 [label="mitk::wxMitkRangeSliderControl",height=0.2,width=0.4,color="black", fillcolor="white", style="filled",URL="$classmitk_1_1wxMitkRangeSliderControl.html"];
  Node3 -> Node2 [dir="back",color="midnightblue",fontsize="10",style="solid",fontname="Helvetica"];
  Node3 [label="wxControl",height=0.2,width=0.4,color="grey75", fillcolor="white", style="filled"];
}
