digraph "wxTreeListCtrl"
{
  edge [fontname="Helvetica",fontsize="10",labelfontname="Helvetica",labelfontsize="10"];
  node [fontname="Helvetica",fontsize="10",shape=record];
  Node1 [label="wxTreeListCtrl",height=0.2,width=0.4,color="black", fillcolor="grey75", style="filled", fontcolor="black"];
  Node2 -> Node1 [dir="back",color="midnightblue",fontsize="10",style="solid",fontname="Helvetica"];
  Node2 [label="wxControl",height=0.2,width=0.4,color="grey75", fillcolor="white", style="filled"];
  Node3 -> Node1 [dir="back",color="darkorchid3",fontsize="10",style="dashed",label=" m_header_win" ,fontname="Helvetica"];
  Node3 [label="wxTreeListHeaderWindow",height=0.2,width=0.4,color="black", fillcolor="white", style="filled",URL="$classwxTreeListHeaderWindow.html"];
  Node4 -> Node3 [dir="back",color="midnightblue",fontsize="10",style="solid",fontname="Helvetica"];
  Node4 [label="wxWindow",height=0.2,width=0.4,color="grey75", fillcolor="white", style="filled"];
  Node5 -> Node3 [dir="back",color="darkorchid3",fontsize="10",style="dashed",label=" m_owner" ,fontname="Helvetica"];
  Node5 [label="wxTreeListMainWindow",height=0.2,width=0.4,color="black", fillcolor="white", style="filled",URL="$classwxTreeListMainWindow.html"];
  Node6 -> Node5 [dir="back",color="midnightblue",fontsize="10",style="solid",fontname="Helvetica"];
  Node6 [label="wxScrolledWindow",height=0.2,width=0.4,color="grey75", fillcolor="white", style="filled"];
  Node1 -> Node5 [dir="back",color="darkorchid3",fontsize="10",style="dashed",label=" m_owner" ,fontname="Helvetica"];
  Node7 -> Node5 [dir="back",color="darkorchid3",fontsize="10",style="dashed",label=" m_editControl" ,fontname="Helvetica"];
  Node7 [label="wxEditTextCtrl",height=0.2,width=0.4,color="black", fillcolor="white", style="filled",URL="$classwxEditTextCtrl.html"];
  Node8 -> Node7 [dir="back",color="midnightblue",fontsize="10",style="solid",fontname="Helvetica"];
  Node8 [label="wxTextCtrl",height=0.2,width=0.4,color="grey75", fillcolor="white", style="filled"];
  Node5 -> Node7 [dir="back",color="darkorchid3",fontsize="10",style="dashed",label=" m_owner" ,fontname="Helvetica"];
  Node9 -> Node5 [dir="back",color="darkorchid3",fontsize="10",style="dashed",label=" m_editItem\nm_selectItem\nm_rootItem\nm_dragItem\nm_shiftItem\nm_curItem\nm_toolTipItem" ,fontname="Helvetica"];
  Node9 [label="wxTreeListItem",height=0.2,width=0.4,color="black", fillcolor="white", style="filled",URL="$classwxTreeListItem.html"];
  Node5 -> Node9 [dir="back",color="darkorchid3",fontsize="10",style="dashed",label=" m_owner" ,fontname="Helvetica"];
  Node10 -> Node9 [dir="back",color="darkorchid3",fontsize="10",style="dashed",label=" m_props_row" ,fontname="Helvetica"];
  Node10 [label="wxTreeListItemCellAttr",height=0.2,width=0.4,color="black", fillcolor="white", style="filled",URL="$classwxTreeListItemCellAttr.html"];
  Node9 -> Node9 [dir="back",color="darkorchid3",fontsize="10",style="dashed",label=" m_parent" ,fontname="Helvetica"];
  Node5 -> Node1 [dir="back",color="darkorchid3",fontsize="10",style="dashed",label=" m_main_win" ,fontname="Helvetica"];
}
