digraph "Core::Widgets::VolumeImagePropertiesWidget"
{
  edge [fontname="Helvetica",fontsize="10",labelfontname="Helvetica",labelfontsize="10"];
  node [fontname="Helvetica",fontsize="10",shape=record];
  rankdir="LR";
  Node1 [label="Core::Widgets::VolumeImage\lPropertiesWidget",height=0.2,width=0.4,color="black", fillcolor="grey75", style="filled", fontcolor="black"];
  Node2 -> Node1 [dir="back",color="midnightblue",fontsize="10",style="solid",fontname="Helvetica"];
  Node2 [label="mitk::wxMitkImageProperties\lWidget",height=0.2,width=0.4,color="black", fillcolor="white", style="filled",URL="$classmitk_1_1wxMitkImagePropertiesWidget.html"];
  Node3 -> Node2 [dir="back",color="midnightblue",fontsize="10",style="solid",fontname="Helvetica"];
  Node3 [label="wxPanel",height=0.2,width=0.4,color="grey75", fillcolor="white", style="filled"];
  Node4 -> Node2 [dir="back",color="darkorchid3",fontsize="10",style="dashed",label=" m_ImageSettingsWidget" ,fontname="Helvetica"];
  Node4 [label="mitk::wxMitkImageSettings\lWidget",height=0.2,width=0.4,color="black", fillcolor="white", style="filled",URL="$classmitk_1_1wxMitkImageSettingsWidget.html"];
  Node3 -> Node4 [dir="back",color="midnightblue",fontsize="10",style="solid",fontname="Helvetica"];
  Node5 -> Node4 [dir="back",color="darkorchid3",fontsize="10",style="dashed",label=" m_renderWindow" ,fontname="Helvetica"];
  Node5 [label="mitk::wxMitkRenderWindow",height=0.2,width=0.4,color="black", fillcolor="white", style="filled",URL="$classmitk_1_1wxMitkRenderWindow.html"];
  Node6 -> Node5 [dir="back",color="midnightblue",fontsize="10",style="solid",fontname="Helvetica"];
  Node6 [label="mitk::wxMitkVTKWindow",height=0.2,width=0.4,color="black", fillcolor="white", style="filled",URL="$classmitk_1_1wxMitkVTKWindow.html"];
  Node7 -> Node6 [dir="back",color="midnightblue",fontsize="10",style="solid",fontname="Helvetica"];
  Node7 [label="wxWindow",height=0.2,width=0.4,color="grey75", fillcolor="white", style="filled"];
  Node8 -> Node5 [dir="back",color="darkorchid3",fontsize="10",style="dashed",label=" m_wxMitkApplicationCursor" ,fontname="Helvetica"];
  Node8 [label="mitk::wxMitkApplicationCursor\lImplementation",height=0.2,width=0.4,color="black", fillcolor="white", style="filled",URL="$classmitk_1_1wxMitkApplicationCursorImplementation.html",tooltip="Manager of the mouse cursor icon. "];
  Node9 -> Node8 [dir="back",color="midnightblue",fontsize="10",style="solid",fontname="Helvetica"];
  Node9 [label="ApplicationCursorImplementation",height=0.2,width=0.4,color="grey75", fillcolor="white", style="filled"];
  Node10 -> Node8 [dir="back",color="darkorchid3",fontsize="10",style="dashed",label=" m_CursorList" ,fontname="Helvetica"];
  Node10 [label="std::list\< wxCursor \>",height=0.2,width=0.4,color="grey75", fillcolor="white", style="filled"];
  Node11 -> Node5 [dir="back",color="darkorchid3",fontsize="10",style="dashed",label=" m_MantainedKeyList" ,fontname="Helvetica"];
  Node11 [label="std::list\< int \>",height=0.2,width=0.4,color="grey75", fillcolor="white", style="filled"];
  Node12 -> Node4 [dir="back",color="darkorchid3",fontsize="10",style="dashed",label=" m_LookupTableWidget" ,fontname="Helvetica"];
  Node12 [label="mitk::wxMitkLookupTableWidget",height=0.2,width=0.4,color="black", fillcolor="white", style="filled",URL="$classmitk_1_1wxMitkLookupTableWidget.html",tooltip="Select a lookup table and show or hide the legend. "];
  Node3 -> Node12 [dir="back",color="midnightblue",fontsize="10",style="solid",fontname="Helvetica"];
  Node5 -> Node12 [dir="back",color="darkorchid3",fontsize="10",style="dashed",label=" m_renderWindow" ,fontname="Helvetica"];
  Node13 -> Node12 [dir="back",color="darkorchid3",fontsize="10",style="dashed",label=" m_BackgroundColorSelector\nm_ColorSelector" ,fontname="Helvetica"];
  Node13 [label="mitk::wxMitkColorSelector\lControl",height=0.2,width=0.4,color="red", fillcolor="white", style="filled",URL="$classmitk_1_1wxMitkColorSelectorControl.html"];
  Node14 -> Node12 [dir="back",color="darkorchid3",fontsize="10",style="dashed",label=" m_selectedScalarType" ,fontname="Helvetica"];
  Node14 [label="blShapeUtils::ShapeUtils\l::VTKScalarType",height=0.2,width=0.4,color="black", fillcolor="white", style="filled",URL="$classblShapeUtils_1_1ShapeUtils_1_1VTKScalarType.html",tooltip="Class for storing the array name and mode. "];
  Node15 -> Node14 [dir="back",color="darkorchid3",fontsize="10",style="dashed",label=" name" ,fontname="Helvetica"];
  Node15 [label="std::string",height=0.2,width=0.4,color="grey75", fillcolor="white", style="filled",tooltip="STL class. "];
  Node16 -> Node15 [dir="back",color="midnightblue",fontsize="10",style="solid",fontname="Helvetica"];
  Node16 [label="std::basic_string\<\l char \>",height=0.2,width=0.4,color="grey75", fillcolor="white", style="filled",tooltip="STL class. "];
  Node17 -> Node4 [dir="back",color="darkorchid3",fontsize="10",style="dashed",label=" m_mapStereoTypes" ,fontname="Helvetica"];
  Node17 [label="std::vector\< std::pair\l\< std::string, int \> \>",height=0.2,width=0.4,color="grey75", fillcolor="white", style="filled"];
  Node5 -> Node2 [dir="back",color="darkorchid3",fontsize="10",style="dashed",label=" m_renderWindow" ,fontname="Helvetica"];
  Node18 -> Node2 [dir="back",color="darkorchid3",fontsize="10",style="dashed",label=" m_TransferFunctionWidget" ,fontname="Helvetica"];
  Node18 [label="mitk::wxMitkTransferFunction\lWidget",height=0.2,width=0.4,color="black", fillcolor="white", style="filled",URL="$classmitk_1_1wxMitkTransferFunctionWidget.html"];
  Node3 -> Node18 [dir="back",color="midnightblue",fontsize="10",style="solid",fontname="Helvetica"];
  Node19 -> Node18 [dir="back",color="darkorchid3",fontsize="10",style="dashed",label=" m_sliderCroppingRegionPlanes" ,fontname="Helvetica"];
  Node19 [label="mitk::wxMitkRangeSliderControl",height=0.2,width=0.4,color="black", fillcolor="white", style="filled",URL="$classmitk_1_1wxMitkRangeSliderControl.html"];
  Node20 -> Node19 [dir="back",color="midnightblue",fontsize="10",style="solid",fontname="Helvetica"];
  Node20 [label="wxControl",height=0.2,width=0.4,color="grey75", fillcolor="white", style="filled"];
  Node21 -> Node18 [dir="back",color="darkorchid3",fontsize="10",style="dashed",label=" m_SampleDistanceSlider\nm_ShiftSlider" ,fontname="Helvetica"];
  Node21 [label="wxSliderWithTextCtrl",height=0.2,width=0.4,color="black", fillcolor="white", style="filled",URL="$classwxSliderWithTextCtrl.html"];
  Node3 -> Node21 [dir="back",color="midnightblue",fontsize="10",style="solid",fontname="Helvetica"];
  Node22 -> Node21 [dir="back",color="darkorchid3",fontsize="10",style="dashed",label=" m_Slider" ,fontname="Helvetica"];
  Node22 [label="wxFloatSlider",height=0.2,width=0.4,color="red", fillcolor="white", style="filled",URL="$classwxFloatSlider.html"];
  Node23 -> Node18 [dir="back",color="darkorchid3",fontsize="10",style="dashed",label=" m_renCallback" ,fontname="Helvetica"];
  Node23 [label="mitk::wxMitkTransferFunction\lWidget::vtkRendererCallback",height=0.2,width=0.4,color="black", fillcolor="white", style="filled",URL="$classmitk_1_1wxMitkTransferFunctionWidget_1_1vtkRendererCallback.html"];
  Node24 -> Node23 [dir="back",color="midnightblue",fontsize="10",style="solid",fontname="Helvetica"];
  Node24 [label="vtkCommand",height=0.2,width=0.4,color="grey75", fillcolor="white", style="filled"];
  Node25 -> Node18 [dir="back",color="darkorchid3",fontsize="10",style="dashed",label=" m_opacityWidget" ,fontname="Helvetica"];
  Node25 [label="mitk::wxMitkScalarOpacity\lWidget",height=0.2,width=0.4,color="black", fillcolor="white", style="filled",URL="$classmitk_1_1wxMitkScalarOpacityWidget.html"];
  Node3 -> Node25 [dir="back",color="midnightblue",fontsize="10",style="solid",fontname="Helvetica"];
  Node26 -> Node25 [dir="back",color="darkorchid3",fontsize="10",style="dashed",label=" opacityFunctionControl" ,fontname="Helvetica"];
  Node26 [label="mitk::wxMitkScalarOpacity\lControl",height=0.2,width=0.4,color="red", fillcolor="white", style="filled",URL="$classmitk_1_1wxMitkScalarOpacityControl.html"];
  Node20 -> Node26 [dir="back",color="midnightblue",fontsize="10",style="solid",fontname="Helvetica"];
  Node27 -> Node18 [dir="back",color="darkorchid3",fontsize="10",style="dashed",label=" m_colorWidget" ,fontname="Helvetica"];
  Node27 [label="mitk::wxMitkScalarColorWidget",height=0.2,width=0.4,color="black", fillcolor="white", style="filled",URL="$classmitk_1_1wxMitkScalarColorWidget.html"];
  Node3 -> Node27 [dir="back",color="midnightblue",fontsize="10",style="solid",fontname="Helvetica"];
  Node28 -> Node27 [dir="back",color="darkorchid3",fontsize="10",style="dashed",label=" colorGradientControl" ,fontname="Helvetica"];
  Node28 [label="mitk::wxMitkColorGradient\lControl",height=0.2,width=0.4,color="red", fillcolor="white", style="filled",URL="$classmitk_1_1wxMitkColorGradientControl.html"];
  Node20 -> Node28 [dir="back",color="midnightblue",fontsize="10",style="solid",fontname="Helvetica"];
  Node29 -> Node27 [dir="back",color="darkorchid3",fontsize="10",style="dashed",label=" colorFunctionControl" ,fontname="Helvetica"];
  Node29 [label="mitk::wxMitkColorFunction\lControl",height=0.2,width=0.4,color="red", fillcolor="white", style="filled",URL="$classmitk_1_1wxMitkColorFunctionControl.html"];
  Node20 -> Node29 [dir="back",color="midnightblue",fontsize="10",style="solid",fontname="Helvetica"];
  Node5 -> Node18 [dir="back",color="darkorchid3",fontsize="10",style="dashed",label=" m_renderWindow" ,fontname="Helvetica"];
  Node15 -> Node18 [dir="back",color="darkorchid3",fontsize="10",style="dashed",label=" m_PresetsFolder" ,fontname="Helvetica"];
  Node30 -> Node18 [dir="back",color="darkorchid3",fontsize="10",style="dashed",label=" m_pMaterialSettingsWidget" ,fontname="Helvetica"];
  Node30 [label="mitk::wxMitkMaterialSettings\lPanel",height=0.2,width=0.4,color="black", fillcolor="white", style="filled",URL="$classmitk_1_1wxMitkMaterialSettingsPanel.html"];
  Node3 -> Node30 [dir="back",color="midnightblue",fontsize="10",style="solid",fontname="Helvetica"];
  Node31 -> Node30 [dir="back",color="darkorchid3",fontsize="10",style="dashed",label=" m_representation" ,fontname="Helvetica"];
  Node31 [label="mitk::wxMitkSurfaceRepresentation\lControl",height=0.2,width=0.4,color="red", fillcolor="white", style="filled",URL="$classmitk_1_1wxMitkSurfaceRepresentationControl.html"];
  Node3 -> Node31 [dir="back",color="midnightblue",fontsize="10",style="solid",fontname="Helvetica"];
  Node32 -> Node30 [dir="back",color="darkorchid3",fontsize="10",style="dashed",label=" m_lighting" ,fontname="Helvetica"];
  Node32 [label="mitk::wxMitkSurfaceLighting\lControl",height=0.2,width=0.4,color="red", fillcolor="white", style="filled",URL="$classmitk_1_1wxMitkSurfaceLightingControl.html"];
  Node3 -> Node32 [dir="back",color="midnightblue",fontsize="10",style="solid",fontname="Helvetica"];
  Node13 -> Node32 [dir="back",color="darkorchid3",fontsize="10",style="dashed",label=" diffuseColorSelector\nambientColorSelector\nspecularColorSelector" ,fontname="Helvetica"];
  Node33 -> Node18 [dir="back",color="darkorchid3",fontsize="10",style="dashed",label=" m_gradientWidget" ,fontname="Helvetica"];
  Node33 [label="mitk::wxMitkGradientOpacity\lWidget",height=0.2,width=0.4,color="black", fillcolor="white", style="filled",URL="$classmitk_1_1wxMitkGradientOpacityWidget.html"];
  Node3 -> Node33 [dir="back",color="midnightblue",fontsize="10",style="solid",fontname="Helvetica"];
  Node34 -> Node33 [dir="back",color="darkorchid3",fontsize="10",style="dashed",label=" opacityFunctionControl" ,fontname="Helvetica"];
  Node34 [label="mitk::wxMitkGradientOpacity\lControl",height=0.2,width=0.4,color="red", fillcolor="white", style="filled",URL="$classmitk_1_1wxMitkGradientOpacityControl.html"];
  Node20 -> Node34 [dir="back",color="midnightblue",fontsize="10",style="solid",fontname="Helvetica"];
  Node15 -> Node2 [dir="back",color="darkorchid3",fontsize="10",style="dashed",label=" m_PresetsFolder" ,fontname="Helvetica"];
  Node35 -> Node1 [dir="back",color="midnightblue",fontsize="10",style="solid",fontname="Helvetica"];
  Node35 [label="Core::Widgets::VisualPropertiesBase",height=0.2,width=0.4,color="black", fillcolor="white", style="filled",URL="$classCore_1_1Widgets_1_1VisualPropertiesBase.html"];
  Node36 -> Node35 [dir="back",color="midnightblue",fontsize="10",style="solid",fontname="Helvetica"];
  Node36 [label="Core::BaseWindow",height=0.2,width=0.4,color="black", fillcolor="white", style="filled",URL="$classCore_1_1BaseWindow.html",tooltip="Base Interface for all Gimias Windows. "];
  Node37 -> Node36 [dir="back",color="midnightblue",fontsize="10",style="solid",fontname="Helvetica"];
  Node37 [label="Core::Object",height=0.2,width=0.4,color="black", fillcolor="white", style="filled",URL="$classCore_1_1Object.html",tooltip="Abstract class that provides a common point for all the class hierarchy, because all classes in the C..."];
  Node38 -> Node37 [dir="back",color="midnightblue",fontsize="10",style="solid",fontname="Helvetica"];
  Node38 [label="boost::signals::trackable",height=0.2,width=0.4,color="grey75", fillcolor="white", style="filled"];
  Node39 -> Node37 [dir="back",color="darkorchid3",fontsize="10",style="dashed",label=" m_Properties" ,fontname="Helvetica"];
  Node39 [label="blSmartPointer\< Self \>",height=0.2,width=0.4,color="black", fillcolor="white", style="filled",URL="$classblSmartPointer.html"];
  Node40 -> Node36 [dir="back",color="darkorchid3",fontsize="10",style="dashed",label=" m_Children" ,fontname="Helvetica"];
  Node40 [label="std::list\< Core::BaseWindow * \>",height=0.2,width=0.4,color="grey75", fillcolor="white", style="filled"];
  Node36 -> Node40 [dir="back",color="darkorchid3",fontsize="10",style="dashed",label=" elements" ,fontname="Helvetica"];
  Node36 -> Node36 [dir="back",color="darkorchid3",fontsize="10",style="dashed",label=" m_ParentWindow" ,fontname="Helvetica"];
  Node41 -> Node36 [dir="back",color="darkorchid3",fontsize="10",style="dashed",label=" m_MultiRenderWindow" ,fontname="Helvetica"];
  Node41 [label="Core::Widgets::RenderWindowBase",height=0.2,width=0.4,color="black", fillcolor="white", style="filled",URL="$classCore_1_1Widgets_1_1RenderWindowBase.html",tooltip="Base class for all RenderWindowBase. "];
  Node36 -> Node41 [dir="back",color="midnightblue",fontsize="10",style="solid",fontname="Helvetica"];
  Node42 -> Node36 [dir="back",color="darkorchid3",fontsize="10",style="dashed",label=" m_ProcessorOutputObserver\lVector" ,fontname="Helvetica"];
  Node42 [label="std::vector\< Core::\lCore::ProcessorOutputObserver\l::Pointer \>",height=0.2,width=0.4,color="grey75", fillcolor="white", style="filled"];
  Node43 -> Node36 [dir="back",color="darkorchid3",fontsize="10",style="dashed",label=" m_PluginTab" ,fontname="Helvetica"];
  Node43 [label="Core::Widgets::PluginTab",height=0.2,width=0.4,color="black", fillcolor="white", style="filled",URL="$classCore_1_1Widgets_1_1PluginTab.html",tooltip="The PluginTab arranges all the default GUI for a plugin. There is always one PluginTab per plugin..."];
  Node3 -> Node43 [dir="back",color="midnightblue",fontsize="10",style="solid",fontname="Helvetica"];
  Node44 -> Node43 [dir="back",color="midnightblue",fontsize="10",style="solid",fontname="Helvetica"];
  Node44 [label="Core::BasePluginTab",height=0.2,width=0.4,color="black", fillcolor="white", style="filled",URL="$classCore_1_1BasePluginTab.html",tooltip="Interface for plugin tab page. "];
  Node37 -> Node44 [dir="back",color="midnightblue",fontsize="10",style="solid",fontname="Helvetica"];
  Node45 -> Node43 [dir="back",color="darkorchid3",fontsize="10",style="dashed",label=" m_WindowEnabled" ,fontname="Helvetica"];
  Node45 [label="std::map\< wxWindowID,\l bool \>",height=0.2,width=0.4,color="grey75", fillcolor="white", style="filled"];
  Node15 -> Node43 [dir="back",color="darkorchid3",fontsize="10",style="dashed",label=" m_BackupLayoutPerspective\nm_Caption" ,fontname="Helvetica"];
  Node46 -> Node43 [dir="back",color="darkorchid3",fontsize="10",style="dashed",label=" m_WindowsMapHolder" ,fontname="Helvetica"];
  Node46 [label="Core::DataHolder\< Window\lMapType \>",height=0.2,width=0.4,color="red", fillcolor="white", style="filled",URL="$classCore_1_1DataHolder.html"];
  Node15 -> Node36 [dir="back",color="darkorchid3",fontsize="10",style="dashed",label=" m_FactoryName\nm_BitmapFilename" ,fontname="Helvetica"];
  Node47 -> Node36 [dir="back",color="darkorchid3",fontsize="10",style="dashed",label=" m_HelperWidget" ,fontname="Helvetica"];
  Node47 [label="Core::Widgets::UserHelper",height=0.2,width=0.4,color="black", fillcolor="white", style="filled",URL="$classCore_1_1Widgets_1_1UserHelper.html",tooltip="Show messages to the user to help him to use the interface. "];
  Node48 -> Node47 [dir="back",color="midnightblue",fontsize="10",style="solid",fontname="Helvetica"];
  Node48 [label="coreUserHelperWidgetUI",height=0.2,width=0.4,color="red", fillcolor="white", style="filled",URL="$classcoreUserHelperWidgetUI.html",tooltip="UserHelperWidget&#39;s UI. "];
  Node36 -> Node47 [dir="back",color="midnightblue",fontsize="10",style="solid",fontname="Helvetica"];
  Node15 -> Node47 [dir="back",color="darkorchid3",fontsize="10",style="dashed",label=" m_strResourceBitmap" ,fontname="Helvetica"];
  Node49 -> Node36 [dir="back",color="darkorchid3",fontsize="10",style="dashed",label=" m_ProcessorInputWidgetMap" ,fontname="Helvetica"];
  Node49 [label="std::map\< int, Core\l::Widgets::ProcessorInputWidget * \>",height=0.2,width=0.4,color="grey75", fillcolor="white", style="filled"];
  Node50 -> Node36 [dir="back",color="darkorchid3",fontsize="10",style="dashed",label=" m_ListBrowser" ,fontname="Helvetica"];
  Node50 [label="Core::Widgets::DataEntity\lListBrowser",height=0.2,width=0.4,color="red", fillcolor="white", style="filled",URL="$classCore_1_1Widgets_1_1DataEntityListBrowser.html",tooltip="This browser maintains a coherent view to the Core::DataEntityList of the application model..."];
  Node3 -> Node50 [dir="back",color="midnightblue",fontsize="10",style="solid",fontname="Helvetica"];
  Node36 -> Node50 [dir="back",color="midnightblue",fontsize="10",style="solid",fontname="Helvetica"];
}
