digraph "svSignalLayer"
{
  edge [fontname="Helvetica",fontsize="10",labelfontname="Helvetica",labelfontsize="10"];
  node [fontname="Helvetica",fontsize="10",shape=record];
  Node1 [label="svSignalLayer",height=0.2,width=0.4,color="black", fillcolor="grey75", style="filled", fontcolor="black"];
  Node2 -> Node1 [dir="back",color="darkorchid3",fontsize="10",style="dashed",label=" m_ls_x_axis" ,fontname="Helvetica"];
  Node2 [label="svScaleXLayer",height=0.2,width=0.4,color="black", fillcolor="white", style="filled",URL="$classsvScaleXLayer.html"];
  Node3 -> Node2 [dir="back",color="midnightblue",fontsize="10",style="solid",fontname="Helvetica"];
  Node3 [label="mpScaleX",height=0.2,width=0.4,color="grey75", fillcolor="white", style="filled"];
  Node4 -> Node1 [dir="back",color="darkorchid3",fontsize="10",style="dashed",label=" m_ls_y_axis" ,fontname="Helvetica"];
  Node4 [label="svScaleYLayer",height=0.2,width=0.4,color="black", fillcolor="white", style="filled",URL="$classsvScaleYLayer.html"];
  Node5 -> Node4 [dir="back",color="midnightblue",fontsize="10",style="solid",fontname="Helvetica"];
  Node5 [label="mpScaleY",height=0.2,width=0.4,color="grey75", fillcolor="white", style="filled"];
  Node6 -> Node1 [dir="back",color="darkorchid3",fontsize="10",style="dashed",label=" m_svSignalAnnotationsLayer" ,fontname="Helvetica"];
  Node6 [label="svSignalAnnotationsLayer",height=0.2,width=0.4,color="black", fillcolor="white", style="filled",URL="$classsvSignalAnnotationsLayer.html"];
  Node7 -> Node6 [dir="back",color="midnightblue",fontsize="10",style="solid",fontname="Helvetica"];
  Node7 [label="mpInfoLayer",height=0.2,width=0.4,color="grey75", fillcolor="white", style="filled"];
  Node8 -> Node6 [dir="back",color="darkorchid3",fontsize="10",style="dashed",label=" m_currAnnotation\nm_Signal" ,fontname="Helvetica"];
  Node8 [label="blSmartPointer\< Self \>",height=0.2,width=0.4,color="black", fillcolor="white", style="filled",URL="$classblSmartPointer.html"];
}
