digraph "base::tetgen::readNodeFileException"
{
  edge [fontname="Helvetica",fontsize="10",labelfontname="Helvetica",labelfontsize="10"];
  node [fontname="Helvetica",fontsize="10",shape=record];
  rankdir="LR";
  Node1 [label="base::tetgen::readNodeFile\lException",height=0.2,width=0.4,color="black", fillcolor="grey75", style="filled", fontcolor="black"];
  Node2 -> Node1 [dir="back",color="midnightblue",fontsize="10",style="solid",fontname="Helvetica"];
  Node2 [label="std::exception",height=0.2,width=0.4,color="grey75", fillcolor="white", style="filled",tooltip="STL class. "];
  Node1 -> Node3 [dir="back",color="midnightblue",fontsize="10",style="solid",fontname="Helvetica"];
  Node3 [label="base::tetgen::readNodeNumber\lOfPointsIncorrectException",height=0.2,width=0.4,color="black", fillcolor="white", style="filled",URL="$classbase_1_1tetgen_1_1readNodeNumberOfPointsIncorrectException.html",tooltip="Exception thrown, if the number of nodes at the beginning of the file could not be read..."];
  Node1 -> Node4 [dir="back",color="midnightblue",fontsize="10",style="solid",fontname="Helvetica"];
  Node4 [label="base::tetgen::readNodePoint\lAlreadyDefinedException",height=0.2,width=0.4,color="black", fillcolor="white", style="filled",URL="$classbase_1_1tetgen_1_1readNodePointAlreadyDefinedException.html",tooltip="Exception thrown, if the point with the same index is defined twice. "];
  Node1 -> Node5 [dir="back",color="midnightblue",fontsize="10",style="solid",fontname="Helvetica"];
  Node5 [label="base::tetgen::readNodePoint\lIncorrectException",height=0.2,width=0.4,color="black", fillcolor="white", style="filled",URL="$classbase_1_1tetgen_1_1readNodePointIncorrectException.html",tooltip="Exception thrown, if the coordinates of a point could not be read. "];
  Node1 -> Node6 [dir="back",color="midnightblue",fontsize="10",style="solid",fontname="Helvetica"];
  Node6 [label="base::tetgen::readNodePoint\lIndexIncorrectException",height=0.2,width=0.4,color="black", fillcolor="white", style="filled",URL="$classbase_1_1tetgen_1_1readNodePointIndexIncorrectException.html",tooltip="Exception thrown, if the index of a point could not be read at all or is invalid (non-positive or too..."];
}
