digraph "boost::numeric::ublas::vector_of_vector&lt; T, L, A &gt;"
{
  edge [fontname="Helvetica",fontsize="10",labelfontname="Helvetica",labelfontsize="10"];
  node [fontname="Helvetica",fontsize="10",shape=record];
  Node1 [label="boost::numeric::ublas\l::vector_of_vector\< T,\l L, A \>",height=0.2,width=0.4,color="black", fillcolor="grey75", style="filled", fontcolor="black"];
  Node2 -> Node1 [dir="back",color="midnightblue",fontsize="10",style="solid",fontname="Helvetica"];
  Node2 [label="matrix_container\< vector\l_of_vector\< T, L, A \> \>",height=0.2,width=0.4,color="grey75", fillcolor="white", style="filled"];
  Node3 -> Node1 [dir="back",color="darkorchid3",fontsize="10",style="dashed",label=" data_" ,fontname="Helvetica"];
  Node3 [label="A",height=0.2,width=0.4,color="grey75", fillcolor="white", style="filled"];
}
