digraph "Core::Widgets::WebUpdateDialog"
{
  edge [fontname="Helvetica",fontsize="10",labelfontname="Helvetica",labelfontsize="10"];
  node [fontname="Helvetica",fontsize="10",shape=record];
  rankdir="LR";
  Node1 [label="Core::Widgets::WebUpdate\lDialog",height=0.2,width=0.4,color="black", fillcolor="grey75", style="filled", fontcolor="black"];
  Node2 -> Node1 [dir="back",color="midnightblue",fontsize="10",style="solid",fontname="Helvetica"];
  Node2 [label="wxWebUpdateDlg",height=0.2,width=0.4,color="black", fillcolor="white", style="filled",URL="$classwxWebUpdateDlg.html"];
  Node3 -> Node2 [dir="back",color="midnightblue",fontsize="10",style="solid",fontname="Helvetica"];
  Node3 [label="wxWebUpdateDlgUI",height=0.2,width=0.4,color="black", fillcolor="white", style="filled",URL="$classwxWebUpdateDlgUI.html"];
  Node4 -> Node3 [dir="back",color="midnightblue",fontsize="10",style="solid",fontname="Helvetica"];
  Node4 [label="wxDialog",height=0.2,width=0.4,color="grey75", fillcolor="white", style="filled"];
  Node5 -> Node3 [dir="back",color="darkorchid3",fontsize="10",style="dashed",label=" m_pAdvPanel" ,fontname="Helvetica"];
  Node5 [label="wxWebUpdateAdvPanel",height=0.2,width=0.4,color="black", fillcolor="white", style="filled",URL="$classwxWebUpdateAdvPanel.html"];
  Node6 -> Node5 [dir="back",color="midnightblue",fontsize="10",style="solid",fontname="Helvetica"];
  Node6 [label="wxWebUpdateAdvPanelUI",height=0.2,width=0.4,color="black", fillcolor="white", style="filled",URL="$classwxWebUpdateAdvPanelUI.html"];
  Node7 -> Node6 [dir="back",color="midnightblue",fontsize="10",style="solid",fontname="Helvetica"];
  Node7 [label="wxPanel",height=0.2,width=0.4,color="grey75", fillcolor="white", style="filled"];
  Node8 -> Node5 [dir="back",color="darkorchid3",fontsize="10",style="dashed",label=" m_xmlLocal" ,fontname="Helvetica"];
  Node8 [label="wxWebUpdateLocalXMLScript",height=0.2,width=0.4,color="black", fillcolor="white", style="filled",URL="$classwxWebUpdateLocalXMLScript.html"];
  Node9 -> Node8 [dir="back",color="midnightblue",fontsize="10",style="solid",fontname="Helvetica"];
  Node9 [label="wxXmlDocument",height=0.2,width=0.4,color="grey75", fillcolor="white", style="filled"];
  Node10 -> Node3 [dir="back",color="darkorchid3",fontsize="10",style="dashed",label=" m_pUpdatesList" ,fontname="Helvetica"];
  Node10 [label="wxWebUpdateListCtrl",height=0.2,width=0.4,color="black", fillcolor="white", style="filled",URL="$classwxWebUpdateListCtrl.html"];
  Node11 -> Node10 [dir="back",color="midnightblue",fontsize="10",style="solid",fontname="Helvetica"];
  Node11 [label="wxWUDLC_BASECLASS",height=0.2,width=0.4,color="grey75", fillcolor="white", style="filled"];
  Node8 -> Node2 [dir="back",color="darkorchid3",fontsize="10",style="dashed",label=" m_xmlLocal" ,fontname="Helvetica"];
  Node12 -> Node2 [dir="back",color="darkorchid3",fontsize="10",style="dashed",label=" m_current" ,fontname="Helvetica"];
  Node12 [label="wxWebUpdatePackage",height=0.2,width=0.4,color="black", fillcolor="white", style="filled",URL="$classwxWebUpdatePackage.html",tooltip="Contains the info about a package update. "];
  Node13 -> Node12 [dir="back",color="midnightblue",fontsize="10",style="solid",fontname="Helvetica"];
  Node13 [label="wxObject",height=0.2,width=0.4,color="grey75", fillcolor="white", style="filled"];
  Node14 -> Node2 [dir="back",color="darkorchid3",fontsize="10",style="dashed",label=" m_TempScriptList" ,fontname="Helvetica"];
  Node14 [label="std::list\< wxString \>",height=0.2,width=0.4,color="grey75", fillcolor="white", style="filled"];
  Node15 -> Node2 [dir="back",color="darkorchid3",fontsize="10",style="dashed",label=" m_dThread" ,fontname="Helvetica"];
  Node15 [label="wxDownloadThread",height=0.2,width=0.4,color="black", fillcolor="white", style="filled",URL="$classwxDownloadThread.html"];
  Node16 -> Node15 [dir="back",color="midnightblue",fontsize="10",style="solid",fontname="Helvetica"];
  Node16 [label="wxThread",height=0.2,width=0.4,color="grey75", fillcolor="white", style="filled"];
  Node17 -> Node2 [dir="back",color="darkorchid3",fontsize="10",style="dashed",label=" m_iThread" ,fontname="Helvetica"];
  Node17 [label="wxWebUpdateInstallThread",height=0.2,width=0.4,color="black", fillcolor="white", style="filled",URL="$classwxWebUpdateInstallThread.html",tooltip="The thread used to install the packages. "];
  Node16 -> Node17 [dir="back",color="midnightblue",fontsize="10",style="solid",fontname="Helvetica"];
  Node18 -> Node17 [dir="back",color="darkorchid3",fontsize="10",style="dashed",label=" m_pDownload" ,fontname="Helvetica"];
  Node18 [label="wxWebUpdateDownload",height=0.2,width=0.4,color="black", fillcolor="white", style="filled",URL="$classwxWebUpdateDownload.html",tooltip="Contains the info about an available download. "];
  Node13 -> Node18 [dir="back",color="midnightblue",fontsize="10",style="solid",fontname="Helvetica"];
  Node19 -> Node18 [dir="back",color="darkorchid3",fontsize="10",style="dashed",label=" m_platform" ,fontname="Helvetica"];
  Node19 [label="wxWebUpdatePlatform",height=0.2,width=0.4,color="black", fillcolor="white", style="filled",URL="$classwxWebUpdatePlatform.html",tooltip="Identifies uniquely a platform. "];
  Node13 -> Node19 [dir="back",color="midnightblue",fontsize="10",style="solid",fontname="Helvetica"];
  Node20 -> Node2 [dir="back",color="darkorchid3",fontsize="10",style="dashed",label=" m_xmlRemote" ,fontname="Helvetica"];
  Node20 [label="wxWebUpdateXMLScript",height=0.2,width=0.4,color="black", fillcolor="white", style="filled",URL="$classwxWebUpdateXMLScript.html"];
  Node9 -> Node20 [dir="back",color="midnightblue",fontsize="10",style="solid",fontname="Helvetica"];
  Node8 -> Node1 [dir="back",color="darkorchid3",fontsize="10",style="dashed",label=" m_script" ,fontname="Helvetica"];
  Node21 -> Node1 [dir="back",color="darkorchid3",fontsize="10",style="dashed",label=" m_log" ,fontname="Helvetica"];
  Node21 [label="wxWebUpdateLog",height=0.2,width=0.4,color="black", fillcolor="white", style="filled",URL="$classwxWebUpdateLog.html"];
  Node22 -> Node21 [dir="back",color="midnightblue",fontsize="10",style="solid",fontname="Helvetica"];
  Node22 [label="wxLogPassThrough",height=0.2,width=0.4,color="grey75", fillcolor="white", style="filled"];
}
