digraph "Core::Exceptions::StdException"
{
  edge [fontname="Helvetica",fontsize="10",labelfontname="Helvetica",labelfontsize="10"];
  node [fontname="Helvetica",fontsize="10",shape=record];
  Node1 [label="Core::Exceptions::StdException",height=0.2,width=0.4,color="black", fillcolor="grey75", style="filled", fontcolor="black"];
  Node2 -> Node1 [dir="back",color="midnightblue",fontsize="10",style="solid",fontname="Helvetica"];
  Node2 [label="Core::Exceptions::Critical\lException",height=0.2,width=0.4,color="black", fillcolor="white", style="filled",URL="$classCore_1_1Exceptions_1_1CriticalException.html",tooltip="A generic exception class for exception propagation and error reporting, that models a critical excep..."];
  Node3 -> Node2 [dir="back",color="midnightblue",fontsize="10",style="solid",fontname="Helvetica"];
  Node3 [label="Core::Exceptions::Exception",height=0.2,width=0.4,color="black", fillcolor="white", style="filled",URL="$classCore_1_1Exceptions_1_1Exception.html",tooltip="A generic Exception class for exception propagation and error reporting. "];
  Node4 -> Node3 [dir="back",color="midnightblue",fontsize="10",style="solid",fontname="Helvetica"];
  Node4 [label="std::exception",height=0.2,width=0.4,color="grey75", fillcolor="white", style="filled",tooltip="STL class. "];
}
