digraph "blIARescalerFilter&lt; InputImageType, OutputImageType &gt;"
{
  edge [fontname="Helvetica",fontsize="10",labelfontname="Helvetica",labelfontsize="10"];
  node [fontname="Helvetica",fontsize="10",shape=record];
  Node1 [label="blIARescalerFilter\l\< InputImageType, OutputImage\lType \>",height=0.2,width=0.4,color="black", fillcolor="grey75", style="filled", fontcolor="black"];
  Node2 -> Node1 [dir="back",color="midnightblue",fontsize="10",style="solid",fontname="Helvetica"];
  Node2 [label="itk::RescaleIntensityImage\lFilter\< InputImageType,\l OutputImageType \>",height=0.2,width=0.4,color="grey75", fillcolor="white", style="filled"];
}
