digraph "ptRadiographVisualizationWidget"
{
  edge [fontname="Helvetica",fontsize="10",labelfontname="Helvetica",labelfontsize="10"];
  node [fontname="Helvetica",fontsize="10",shape=record];
  rankdir="LR";
  Node1 [label="ptRadiographVisualization\lWidget",height=0.2,width=0.4,color="black", fillcolor="grey75", style="filled", fontcolor="black"];
  Node2 -> Node1 [dir="back",color="midnightblue",fontsize="10",style="solid",fontname="Helvetica"];
  Node2 [label="ptRadiographVisualization\lWidgetUI",height=0.2,width=0.4,color="black", fillcolor="white", style="filled",URL="$classptRadiographVisualizationWidgetUI.html"];
  Node3 -> Node2 [dir="back",color="midnightblue",fontsize="10",style="solid",fontname="Helvetica"];
  Node3 [label="wxPanel",height=0.2,width=0.4,color="grey75", fillcolor="white", style="filled"];
  Node4 -> Node2 [dir="back",color="midnightblue",fontsize="10",style="solid",fontname="Helvetica"];
  Node4 [label="Core::Widgets::Processing\lWidget",height=0.2,width=0.4,color="black", fillcolor="white", style="filled",URL="$classCore_1_1Widgets_1_1ProcessingWidget.html",tooltip="Base widget for processing tools. "];
  Node5 -> Node4 [dir="back",color="midnightblue",fontsize="10",style="solid",fontname="Helvetica"];
  Node5 [label="Core::BaseWindow",height=0.2,width=0.4,color="black", fillcolor="white", style="filled",URL="$classCore_1_1BaseWindow.html",tooltip="Base Interface for all Gimias Windows. "];
  Node6 -> Node5 [dir="back",color="midnightblue",fontsize="10",style="solid",fontname="Helvetica"];
  Node6 [label="Core::Object",height=0.2,width=0.4,color="black", fillcolor="white", style="filled",URL="$classCore_1_1Object.html",tooltip="Abstract class that provides a common point for all the class hierarchy, because all classes in the C..."];
  Node7 -> Node6 [dir="back",color="midnightblue",fontsize="10",style="solid",fontname="Helvetica"];
  Node7 [label="boost::signals::trackable",height=0.2,width=0.4,color="grey75", fillcolor="white", style="filled"];
  Node8 -> Node6 [dir="back",color="darkorchid3",fontsize="10",style="dashed",label=" m_Properties" ,fontname="Helvetica"];
  Node8 [label="blSmartPointer\< Self \>",height=0.2,width=0.4,color="black", fillcolor="white", style="filled",URL="$classblSmartPointer.html"];
  Node9 -> Node5 [dir="back",color="darkorchid3",fontsize="10",style="dashed",label=" m_Children" ,fontname="Helvetica"];
  Node9 [label="std::list\< Core::BaseWindow * \>",height=0.2,width=0.4,color="grey75", fillcolor="white", style="filled"];
  Node5 -> Node9 [dir="back",color="darkorchid3",fontsize="10",style="dashed",label=" elements" ,fontname="Helvetica"];
  Node5 -> Node5 [dir="back",color="darkorchid3",fontsize="10",style="dashed",label=" m_ParentWindow" ,fontname="Helvetica"];
  Node10 -> Node5 [dir="back",color="darkorchid3",fontsize="10",style="dashed",label=" m_MultiRenderWindow" ,fontname="Helvetica"];
  Node10 [label="Core::Widgets::RenderWindowBase",height=0.2,width=0.4,color="black", fillcolor="white", style="filled",URL="$classCore_1_1Widgets_1_1RenderWindowBase.html",tooltip="Base class for all RenderWindowBase. "];
  Node5 -> Node10 [dir="back",color="midnightblue",fontsize="10",style="solid",fontname="Helvetica"];
  Node11 -> Node5 [dir="back",color="darkorchid3",fontsize="10",style="dashed",label=" m_ProcessorOutputObserver\lVector" ,fontname="Helvetica"];
  Node11 [label="std::vector\< Core::\lCore::ProcessorOutputObserver\l::Pointer \>",height=0.2,width=0.4,color="grey75", fillcolor="white", style="filled"];
  Node12 -> Node5 [dir="back",color="darkorchid3",fontsize="10",style="dashed",label=" m_PluginTab" ,fontname="Helvetica"];
  Node12 [label="Core::Widgets::PluginTab",height=0.2,width=0.4,color="black", fillcolor="white", style="filled",URL="$classCore_1_1Widgets_1_1PluginTab.html",tooltip="The PluginTab arranges all the default GUI for a plugin. There is always one PluginTab per plugin..."];
  Node3 -> Node12 [dir="back",color="midnightblue",fontsize="10",style="solid",fontname="Helvetica"];
  Node13 -> Node12 [dir="back",color="midnightblue",fontsize="10",style="solid",fontname="Helvetica"];
  Node13 [label="Core::BasePluginTab",height=0.2,width=0.4,color="black", fillcolor="white", style="filled",URL="$classCore_1_1BasePluginTab.html",tooltip="Interface for plugin tab page. "];
  Node6 -> Node13 [dir="back",color="midnightblue",fontsize="10",style="solid",fontname="Helvetica"];
  Node14 -> Node12 [dir="back",color="darkorchid3",fontsize="10",style="dashed",label=" m_WindowEnabled" ,fontname="Helvetica"];
  Node14 [label="std::map\< wxWindowID,\l bool \>",height=0.2,width=0.4,color="grey75", fillcolor="white", style="filled"];
  Node15 -> Node12 [dir="back",color="darkorchid3",fontsize="10",style="dashed",label=" m_BackupLayoutPerspective\nm_Caption" ,fontname="Helvetica"];
  Node15 [label="std::string",height=0.2,width=0.4,color="grey75", fillcolor="white", style="filled",tooltip="STL class. "];
  Node16 -> Node15 [dir="back",color="midnightblue",fontsize="10",style="solid",fontname="Helvetica"];
  Node16 [label="std::basic_string\<\l char \>",height=0.2,width=0.4,color="grey75", fillcolor="white", style="filled",tooltip="STL class. "];
  Node17 -> Node12 [dir="back",color="darkorchid3",fontsize="10",style="dashed",label=" m_WindowsMapHolder" ,fontname="Helvetica"];
  Node17 [label="Core::DataHolder\< Window\lMapType \>",height=0.2,width=0.4,color="black", fillcolor="white", style="filled",URL="$classCore_1_1DataHolder.html"];
  Node18 -> Node17 [dir="back",color="midnightblue",fontsize="10",style="solid",fontname="Helvetica"];
  Node18 [label="Core::DataHolderBase",height=0.2,width=0.4,color="black", fillcolor="white", style="filled",URL="$classCore_1_1DataHolderBase.html",tooltip="Base class for DataHolders. Contains the signals and observer registration part. "];
  Node19 -> Node18 [dir="back",color="midnightblue",fontsize="10",style="solid",fontname="Helvetica"];
  Node19 [label="Core::SmartPointerObject",height=0.2,width=0.4,color="black", fillcolor="white", style="filled",URL="$classCore_1_1SmartPointerObject.html",tooltip="Abstract class that provides base functionalities for handling objects with SmartPointers (see itk::L..."];
  Node20 -> Node19 [dir="back",color="midnightblue",fontsize="10",style="solid",fontname="Helvetica"];
  Node20 [label="LightObject",height=0.2,width=0.4,color="grey75", fillcolor="white", style="filled"];
  Node6 -> Node19 [dir="back",color="midnightblue",fontsize="10",style="solid",fontname="Helvetica"];
  Node15 -> Node18 [dir="back",color="darkorchid3",fontsize="10",style="dashed",label=" m_Name" ,fontname="Helvetica"];
  Node21 -> Node17 [dir="back",color="darkorchid3",fontsize="10",style="dashed",label=" m_Data" ,fontname="Helvetica"];
  Node21 [label="std::list\< T \>",height=0.2,width=0.4,color="grey75", fillcolor="white", style="filled",tooltip="STL class. "];
  Node22 -> Node21 [dir="back",color="darkorchid3",fontsize="10",style="dashed",label=" elements" ,fontname="Helvetica"];
  Node22 [label="T",height=0.2,width=0.4,color="grey75", fillcolor="white", style="filled"];
  Node15 -> Node5 [dir="back",color="darkorchid3",fontsize="10",style="dashed",label=" m_FactoryName\nm_BitmapFilename" ,fontname="Helvetica"];
  Node23 -> Node5 [dir="back",color="darkorchid3",fontsize="10",style="dashed",label=" m_HelperWidget" ,fontname="Helvetica"];
  Node23 [label="Core::Widgets::UserHelper",height=0.2,width=0.4,color="black", fillcolor="white", style="filled",URL="$classCore_1_1Widgets_1_1UserHelper.html",tooltip="Show messages to the user to help him to use the interface. "];
  Node24 -> Node23 [dir="back",color="midnightblue",fontsize="10",style="solid",fontname="Helvetica"];
  Node24 [label="coreUserHelperWidgetUI",height=0.2,width=0.4,color="black", fillcolor="white", style="filled",URL="$classcoreUserHelperWidgetUI.html",tooltip="UserHelperWidget&#39;s UI. "];
  Node25 -> Node24 [dir="back",color="midnightblue",fontsize="10",style="solid",fontname="Helvetica"];
  Node25 [label="wxScrolledWindow",height=0.2,width=0.4,color="grey75", fillcolor="white", style="filled"];
  Node5 -> Node23 [dir="back",color="midnightblue",fontsize="10",style="solid",fontname="Helvetica"];
  Node15 -> Node23 [dir="back",color="darkorchid3",fontsize="10",style="dashed",label=" m_strResourceBitmap" ,fontname="Helvetica"];
  Node26 -> Node5 [dir="back",color="darkorchid3",fontsize="10",style="dashed",label=" m_ProcessorInputWidgetMap" ,fontname="Helvetica"];
  Node26 [label="std::map\< int, Core\l::Widgets::ProcessorInputWidget * \>",height=0.2,width=0.4,color="grey75", fillcolor="white", style="filled"];
  Node27 -> Node26 [dir="back",color="darkorchid3",fontsize="10",style="dashed",label=" elements" ,fontname="Helvetica"];
  Node27 [label="Core::Widgets::Processor\lInputWidget",height=0.2,width=0.4,color="black", fillcolor="white", style="filled",URL="$classCore_1_1Widgets_1_1ProcessorInputWidget.html"];
  Node28 -> Node27 [dir="back",color="midnightblue",fontsize="10",style="solid",fontname="Helvetica"];
  Node28 [label="Core::Widgets::BaseInput\lControl",height=0.2,width=0.4,color="black", fillcolor="white", style="filled",URL="$classCore_1_1Widgets_1_1BaseInputControl.html",tooltip="Select input data from DataEntityList. "];
  Node3 -> Node28 [dir="back",color="midnightblue",fontsize="10",style="solid",fontname="Helvetica"];
  Node5 -> Node28 [dir="back",color="midnightblue",fontsize="10",style="solid",fontname="Helvetica"];
  Node29 -> Node28 [dir="back",color="darkorchid3",fontsize="10",style="dashed",label=" m_wxListBox" ,fontname="Helvetica"];
  Node29 [label="Core::Widgets::Selection\lComboBox",height=0.2,width=0.4,color="black", fillcolor="white", style="filled",URL="$classCore_1_1Widgets_1_1SelectionComboBox.html"];
  Node30 -> Node29 [dir="back",color="midnightblue",fontsize="10",style="solid",fontname="Helvetica"];
  Node30 [label="wxComboCtrl",height=0.2,width=0.4,color="grey75", fillcolor="white", style="filled"];
  Node31 -> Node28 [dir="back",color="darkorchid3",fontsize="10",style="dashed",label=" m_ifaceComboBox" ,fontname="Helvetica"];
  Node31 [label="Core::Widgets::wxListView\lComboPopup",height=0.2,width=0.4,color="black", fillcolor="white", style="filled",URL="$classCore_1_1Widgets_1_1wxListViewComboPopup.html"];
  Node32 -> Node31 [dir="back",color="midnightblue",fontsize="10",style="solid",fontname="Helvetica"];
  Node32 [label="wxListView",height=0.2,width=0.4,color="grey75", fillcolor="white", style="filled"];
  Node33 -> Node31 [dir="back",color="midnightblue",fontsize="10",style="solid",fontname="Helvetica"];
  Node33 [label="wxComboPopup",height=0.2,width=0.4,color="grey75", fillcolor="white", style="filled"];
  Node10 -> Node31 [dir="back",color="darkorchid3",fontsize="10",style="dashed",label=" m_MultiRenderWindow" ,fontname="Helvetica"];
  Node34 -> Node31 [dir="back",color="darkorchid3",fontsize="10",style="dashed",label=" m_BackupOpacityMap" ,fontname="Helvetica"];
  Node34 [label="std::map\< long, float \>",height=0.2,width=0.4,color="grey75", fillcolor="white", style="filled"];
  Node35 -> Node28 [dir="back",color="darkorchid3",fontsize="10",style="dashed",label=" m_DataEntityListBrowser" ,fontname="Helvetica"];
  Node35 [label="Core::Widgets::DataEntity\lListBrowser",height=0.2,width=0.4,color="black", fillcolor="white", style="filled",URL="$classCore_1_1Widgets_1_1DataEntityListBrowser.html",tooltip="This browser maintains a coherent view to the Core::DataEntityList of the application model..."];
  Node3 -> Node35 [dir="back",color="midnightblue",fontsize="10",style="solid",fontname="Helvetica"];
  Node5 -> Node35 [dir="back",color="midnightblue",fontsize="10",style="solid",fontname="Helvetica"];
  Node36 -> Node35 [dir="back",color="darkorchid3",fontsize="10",style="dashed",label=" m_TreeControl" ,fontname="Helvetica"];
  Node36 [label="Core::Widgets::DataEntity\lTreeCtrl",height=0.2,width=0.4,color="black", fillcolor="white", style="filled",URL="$classCore_1_1Widgets_1_1DataEntityTreeCtrl.html",tooltip="This class extend the wxTreeCtrl functionalities. "];
  Node37 -> Node36 [dir="back",color="midnightblue",fontsize="10",style="solid",fontname="Helvetica"];
  Node37 [label="blwxTreeCtrl",height=0.2,width=0.4,color="black", fillcolor="white", style="filled",URL="$classblwxTreeCtrl.html",tooltip="wxTreeCtrl with states "];
  Node38 -> Node37 [dir="back",color="midnightblue",fontsize="10",style="solid",fontname="Helvetica"];
  Node38 [label="wxTreeCtrl",height=0.2,width=0.4,color="grey75", fillcolor="white", style="filled"];
  Node39 -> Node27 [dir="back",color="darkorchid3",fontsize="10",style="dashed",label=" m_CheckableControl" ,fontname="Helvetica"];
  Node39 [label="wxCheckableControl",height=0.2,width=0.4,color="black", fillcolor="white", style="filled",URL="$classwxCheckableControl.html",tooltip="wxPanel with a checkbox at the left and a control at the right. When the checkbox is checked..."];
  Node3 -> Node39 [dir="back",color="midnightblue",fontsize="10",style="solid",fontname="Helvetica"];
  Node35 -> Node5 [dir="back",color="darkorchid3",fontsize="10",style="dashed",label=" m_ListBrowser" ,fontname="Helvetica"];
  Node40 -> Node1 [dir="back",color="darkorchid3",fontsize="10",style="dashed",label=" m_AcquireInput" ,fontname="Helvetica"];
  Node40 [label="Core::Widgets::InputControl",height=0.2,width=0.4,color="black", fillcolor="white", style="filled",URL="$classCore_1_1Widgets_1_1InputControl.html"];
  Node28 -> Node40 [dir="back",color="midnightblue",fontsize="10",style="solid",fontname="Helvetica"];
}
