digraph "Core::Exceptions::RuntimeException"
{
  edge [fontname="Helvetica",fontsize="10",labelfontname="Helvetica",labelfontsize="10"];
  node [fontname="Helvetica",fontsize="10",shape=record];
  Node1 [label="Core::Exceptions::Runtime\lException",height=0.2,width=0.4,color="black", fillcolor="grey75", style="filled", fontcolor="black"];
  Node2 -> Node1 [dir="back",color="midnightblue",fontsize="10",style="solid",fontname="Helvetica"];
  Node2 [label="Core::Exceptions::Exception",height=0.2,width=0.4,color="black", fillcolor="white", style="filled",URL="$classCore_1_1Exceptions_1_1Exception.html",tooltip="A generic Exception class for exception propagation and error reporting. "];
  Node3 -> Node2 [dir="back",color="midnightblue",fontsize="10",style="solid",fontname="Helvetica"];
  Node3 [label="std::exception",height=0.2,width=0.4,color="grey75", fillcolor="white", style="filled",tooltip="STL class. "];
  Node4 -> Node2 [dir="back",color="darkorchid3",fontsize="10",style="dashed",label=" m_stackTrace" ,fontname="Helvetica"];
  Node4 [label="std::list\< const char * \>",height=0.2,width=0.4,color="grey75", fillcolor="white", style="filled"];
  Node5 -> Node2 [dir="back",color="darkorchid3",fontsize="10",style="dashed",label=" m_className\nm_message\nm_callingFunction" ,fontname="Helvetica"];
  Node5 [label="std::string",height=0.2,width=0.4,color="grey75", fillcolor="white", style="filled",tooltip="STL class. "];
  Node6 -> Node5 [dir="back",color="midnightblue",fontsize="10",style="solid",fontname="Helvetica"];
  Node6 [label="std::basic_string\<\l char \>",height=0.2,width=0.4,color="grey75", fillcolor="white", style="filled",tooltip="STL class. "];
}
