digraph "dynModuleExecutionExternalApp"
{
  edge [fontname="Helvetica",fontsize="10",labelfontname="Helvetica",labelfontsize="10"];
  node [fontname="Helvetica",fontsize="10",shape=record];
  Node1 [label="dynModuleExecutionExternalApp",height=0.2,width=0.4,color="black", fillcolor="grey75", style="filled", fontcolor="black"];
  Node2 -> Node1 [dir="back",color="midnightblue",fontsize="10",style="solid",fontname="Helvetica"];
  Node2 [label="dynModuleExecutionCLPExe",height=0.2,width=0.4,color="black", fillcolor="white", style="filled",URL="$classdynModuleExecutionCLPExe.html"];
  Node3 -> Node2 [dir="back",color="midnightblue",fontsize="10",style="solid",fontname="Helvetica"];
  Node3 [label="dynModuleExecutionCLPBase",height=0.2,width=0.4,color="black", fillcolor="white", style="filled",URL="$classdynModuleExecutionCLPBase.html"];
  Node4 -> Node3 [dir="back",color="midnightblue",fontsize="10",style="solid",fontname="Helvetica"];
  Node4 [label="dynModuleExecutionImpl",height=0.2,width=0.4,color="black", fillcolor="white", style="filled",URL="$classdynModuleExecutionImpl.html"];
  Node5 -> Node4 [dir="back",color="midnightblue",fontsize="10",style="solid",fontname="Helvetica"];
  Node5 [label="blLightObject",height=0.2,width=0.4,color="black", fillcolor="white", style="filled",URL="$classblLightObject.html",tooltip="Base Class for everything. "];
  Node6 -> Node4 [dir="back",color="darkorchid3",fontsize="10",style="dashed",label=" m_WorkingDirectory\nm_ModuleType\nm_UseCaseDirectory" ,fontname="Helvetica"];
  Node6 [label="std::string",height=0.2,width=0.4,color="grey75", fillcolor="white", style="filled",tooltip="STL class. "];
  Node7 -> Node6 [dir="back",color="midnightblue",fontsize="10",style="solid",fontname="Helvetica"];
  Node7 [label="std::basic_string\<\l char \>",height=0.2,width=0.4,color="grey75", fillcolor="white", style="filled",tooltip="STL class. "];
  Node6 -> Node3 [dir="back",color="darkorchid3",fontsize="10",style="dashed",label=" m_stderrbuffer\nm_stdoutbuffer" ,fontname="Helvetica"];
  Node8 -> Node3 [dir="back",color="darkorchid3",fontsize="10",style="dashed",label=" m_CommandLineAsString" ,fontname="Helvetica"];
  Node8 [label="std::vector\< std::string \>",height=0.2,width=0.4,color="grey75", fillcolor="white", style="filled"];
  Node6 -> Node8 [dir="back",color="darkorchid3",fontsize="10",style="dashed",label=" elements" ,fontname="Helvetica"];
}
