digraph "Core::Runtime::CommandLinePluginProvider"
{
  edge [fontname="Helvetica",fontsize="10",labelfontname="Helvetica",labelfontsize="10"];
  node [fontname="Helvetica",fontsize="10",shape=record];
  rankdir="LR";
  Node1 [label="Core::Runtime::CommandLine\lPluginProvider",height=0.2,width=0.4,color="black", fillcolor="grey75", style="filled", fontcolor="black"];
  Node2 -> Node1 [dir="back",color="midnightblue",fontsize="10",style="solid",fontname="Helvetica"];
  Node2 [label="Core::Runtime::PluginProvider",height=0.2,width=0.4,color="black", fillcolor="white", style="filled",URL="$classCore_1_1Runtime_1_1PluginProvider.html",tooltip="Interface class for all plugin providers. A plugin provider provides plugins and loads them..."];
  Node3 -> Node2 [dir="back",color="midnightblue",fontsize="10",style="solid",fontname="Helvetica"];
  Node3 [label="Core::BaseProcessor",height=0.2,width=0.4,color="black", fillcolor="white", style="filled",URL="$classCore_1_1BaseProcessor.html",tooltip="Generic BaseProcessor with UpdateOutput( ) functions for different types of data. ..."];
  Node4 -> Node3 [dir="back",color="midnightblue",fontsize="10",style="solid",fontname="Helvetica"];
  Node4 [label="Core::BaseFilter",height=0.2,width=0.4,color="black", fillcolor="white", style="filled",URL="$classCore_1_1BaseFilter.html",tooltip="Generic Filter. "];
  Node5 -> Node4 [dir="back",color="midnightblue",fontsize="10",style="solid",fontname="Helvetica"];
  Node5 [label="Core::SmartPointerObject",height=0.2,width=0.4,color="black", fillcolor="white", style="filled",URL="$classCore_1_1SmartPointerObject.html",tooltip="Abstract class that provides base functionalities for handling objects with SmartPointers (see itk::L..."];
  Node6 -> Node5 [dir="back",color="midnightblue",fontsize="10",style="solid",fontname="Helvetica"];
  Node6 [label="LightObject",height=0.2,width=0.4,color="grey75", fillcolor="white", style="filled"];
  Node7 -> Node5 [dir="back",color="midnightblue",fontsize="10",style="solid",fontname="Helvetica"];
  Node7 [label="Core::Object",height=0.2,width=0.4,color="black", fillcolor="white", style="filled",URL="$classCore_1_1Object.html",tooltip="Abstract class that provides a common point for all the class hierarchy, because all classes in the C..."];
  Node8 -> Node7 [dir="back",color="midnightblue",fontsize="10",style="solid",fontname="Helvetica"];
  Node8 [label="boost::signals::trackable",height=0.2,width=0.4,color="grey75", fillcolor="white", style="filled"];
  Node9 -> Node7 [dir="back",color="darkorchid3",fontsize="10",style="dashed",label=" m_Properties" ,fontname="Helvetica"];
  Node9 [label="blSmartPointer\< Self \>",height=0.2,width=0.4,color="black", fillcolor="white", style="filled",URL="$classblSmartPointer.html"];
  Node10 -> Node4 [dir="back",color="darkorchid3",fontsize="10",style="dashed",label=" m_Name" ,fontname="Helvetica"];
  Node10 [label="std::string",height=0.2,width=0.4,color="grey75", fillcolor="white", style="filled",tooltip="STL class. "];
  Node11 -> Node10 [dir="back",color="midnightblue",fontsize="10",style="solid",fontname="Helvetica"];
  Node11 [label="std::basic_string\<\l char \>",height=0.2,width=0.4,color="grey75", fillcolor="white", style="filled",tooltip="STL class. "];
  Node12 -> Node4 [dir="back",color="darkorchid3",fontsize="10",style="dashed",label=" m_InputPortVector" ,fontname="Helvetica"];
  Node12 [label="std::vector\< Core::\lBaseFilterInputPort\l::Pointer \>",height=0.2,width=0.4,color="grey75", fillcolor="white", style="filled"];
  Node13 -> Node4 [dir="back",color="darkorchid3",fontsize="10",style="dashed",label=" m_OutputPortVector" ,fontname="Helvetica"];
  Node13 [label="std::vector\< Core::\lBaseFilterOutputPort\l::Pointer \>",height=0.2,width=0.4,color="grey75", fillcolor="white", style="filled"];
  Node14 -> Node2 [dir="back",color="darkorchid3",fontsize="10",style="dashed",label=" m_PendingPlugins\nm_LoadedPlugins" ,fontname="Helvetica"];
  Node14 [label="std::list\< std::string \>",height=0.2,width=0.4,color="grey75", fillcolor="white", style="filled"];
  Node10 -> Node14 [dir="back",color="darkorchid3",fontsize="10",style="dashed",label=" elements" ,fontname="Helvetica"];
}
