digraph "blIA3DSampler&lt; TImage &gt;"
{
  edge [fontname="Helvetica",fontsize="10",labelfontname="Helvetica",labelfontsize="10"];
  node [fontname="Helvetica",fontsize="10",shape=record];
  Node1 [label="blIA3DSampler\< TImage \>",height=0.2,width=0.4,color="black", fillcolor="grey75", style="filled", fontcolor="black"];
  Node2 -> Node1 [dir="back",color="midnightblue",fontsize="10",style="solid",fontname="Helvetica"];
  Node2 [label="blLightObject",height=0.2,width=0.4,color="black", fillcolor="white", style="filled",URL="$classblLightObject.html",tooltip="Base Class for everything. "];
  Node1 -> Node3 [dir="back",color="midnightblue",fontsize="10",style="solid",fontname="Helvetica"];
  Node3 [label="blIA3DLinearSampler\l\< TImage \>",height=0.2,width=0.4,color="black", fillcolor="white", style="filled",URL="$classblIA3DLinearSampler.html",tooltip="This class defines a linear sampler that gets pixel values at some locations along a line..."];
}
