digraph "mitk::wxMitkLookupTableWidget"
{
  edge [fontname="Helvetica",fontsize="10",labelfontname="Helvetica",labelfontsize="10"];
  node [fontname="Helvetica",fontsize="10",shape=record];
  rankdir="LR";
  Node1 [label="mitk::wxMitkLookupTableWidget",height=0.2,width=0.4,color="black", fillcolor="grey75", style="filled", fontcolor="black"];
  Node2 -> Node1 [dir="back",color="midnightblue",fontsize="10",style="solid",fontname="Helvetica"];
  Node2 [label="wxPanel",height=0.2,width=0.4,color="grey75", fillcolor="white", style="filled"];
  Node3 -> Node1 [dir="back",color="darkorchid3",fontsize="10",style="dashed",label=" m_renderWindow" ,fontname="Helvetica"];
  Node3 [label="mitk::wxMitkRenderWindow",height=0.2,width=0.4,color="black", fillcolor="white", style="filled",URL="$classmitk_1_1wxMitkRenderWindow.html"];
  Node4 -> Node3 [dir="back",color="midnightblue",fontsize="10",style="solid",fontname="Helvetica"];
  Node4 [label="mitk::wxMitkVTKWindow",height=0.2,width=0.4,color="black", fillcolor="white", style="filled",URL="$classmitk_1_1wxMitkVTKWindow.html"];
  Node5 -> Node4 [dir="back",color="midnightblue",fontsize="10",style="solid",fontname="Helvetica"];
  Node5 [label="wxWindow",height=0.2,width=0.4,color="grey75", fillcolor="white", style="filled"];
  Node6 -> Node3 [dir="back",color="darkorchid3",fontsize="10",style="dashed",label=" m_wxMitkApplicationCursor" ,fontname="Helvetica"];
  Node6 [label="mitk::wxMitkApplicationCursor\lImplementation",height=0.2,width=0.4,color="black", fillcolor="white", style="filled",URL="$classmitk_1_1wxMitkApplicationCursorImplementation.html",tooltip="Manager of the mouse cursor icon. "];
  Node7 -> Node6 [dir="back",color="midnightblue",fontsize="10",style="solid",fontname="Helvetica"];
  Node7 [label="ApplicationCursorImplementation",height=0.2,width=0.4,color="grey75", fillcolor="white", style="filled"];
  Node8 -> Node6 [dir="back",color="darkorchid3",fontsize="10",style="dashed",label=" m_CursorList" ,fontname="Helvetica"];
  Node8 [label="std::list\< wxCursor \>",height=0.2,width=0.4,color="grey75", fillcolor="white", style="filled"];
  Node9 -> Node3 [dir="back",color="darkorchid3",fontsize="10",style="dashed",label=" m_MantainedKeyList" ,fontname="Helvetica"];
  Node9 [label="std::list\< int \>",height=0.2,width=0.4,color="grey75", fillcolor="white", style="filled"];
  Node10 -> Node1 [dir="back",color="darkorchid3",fontsize="10",style="dashed",label=" m_BackgroundColorSelector\nm_ColorSelector" ,fontname="Helvetica"];
  Node10 [label="mitk::wxMitkColorSelector\lControl",height=0.2,width=0.4,color="black", fillcolor="white", style="filled",URL="$classmitk_1_1wxMitkColorSelectorControl.html"];
  Node11 -> Node10 [dir="back",color="midnightblue",fontsize="10",style="solid",fontname="Helvetica"];
  Node11 [label="wxColourPickerCtrl",height=0.2,width=0.4,color="grey75", fillcolor="white", style="filled"];
  Node12 -> Node1 [dir="back",color="darkorchid3",fontsize="10",style="dashed",label=" m_selectedScalarType" ,fontname="Helvetica"];
  Node12 [label="blShapeUtils::ShapeUtils\l::VTKScalarType",height=0.2,width=0.4,color="black", fillcolor="white", style="filled",URL="$classblShapeUtils_1_1ShapeUtils_1_1VTKScalarType.html",tooltip="Class for storing the array name and mode. "];
  Node13 -> Node12 [dir="back",color="darkorchid3",fontsize="10",style="dashed",label=" name" ,fontname="Helvetica"];
  Node13 [label="std::string",height=0.2,width=0.4,color="grey75", fillcolor="white", style="filled",tooltip="STL class. "];
  Node14 -> Node13 [dir="back",color="midnightblue",fontsize="10",style="solid",fontname="Helvetica"];
  Node14 [label="std::basic_string\<\l char \>",height=0.2,width=0.4,color="grey75", fillcolor="white", style="filled",tooltip="STL class. "];
}
