digraph "blPDShape3D"
{
  edge [fontname="Helvetica",fontsize="10",labelfontname="Helvetica",labelfontsize="10"];
  node [fontname="Helvetica",fontsize="10",shape=record];
  rankdir="LR";
  Node1 [label="blPDShape3D",height=0.2,width=0.4,color="black", fillcolor="grey75", style="filled", fontcolor="black"];
  Node2 -> Node1 [dir="back",color="midnightblue",fontsize="10",style="solid",fontname="Helvetica"];
  Node2 [label="blPDShape\< 3 \>",height=0.2,width=0.4,color="black", fillcolor="white", style="filled",URL="$classblPDShape.html"];
  Node3 -> Node2 [dir="back",color="midnightblue",fontsize="10",style="solid",fontname="Helvetica"];
  Node3 [label="blPDShapeInterface",height=0.2,width=0.4,color="black", fillcolor="white", style="filled",URL="$classblPDShapeInterface.html",tooltip="This class defines common methods for a generic PDShape object.All these methods must be defined by i..."];
  Node4 -> Node3 [dir="back",color="midnightblue",fontsize="10",style="solid",fontname="Helvetica"];
  Node4 [label="blLightObject",height=0.2,width=0.4,color="black", fillcolor="white", style="filled",URL="$classblLightObject.html",tooltip="Base Class for everything. "];
  Node5 -> Node2 [dir="back",color="darkorchid3",fontsize="10",style="dashed",label=" polylinesContainer" ,fontname="Helvetica"];
  Node5 [label="std::vector\< PolylineType \>",height=0.2,width=0.4,color="grey75", fillcolor="white", style="filled"];
  Node6 -> Node2 [dir="back",color="darkorchid3",fontsize="10",style="dashed",label=" polylinesLUT" ,fontname="Helvetica"];
  Node6 [label="std::map\< CellIdentifier,\l PolylineIndex \>",height=0.2,width=0.4,color="grey75", fillcolor="white", style="filled"];
}
