digraph "itk::ComputeFAFilter&lt; TInputImage, TOutputImage &gt;"
{
  edge [fontname="Helvetica",fontsize="10",labelfontname="Helvetica",labelfontsize="10"];
  node [fontname="Helvetica",fontsize="10",shape=record];
  rankdir="LR";
  Node1 [label="itk::ComputeFAFilter\l\< TInputImage, TOutputImage \>",height=0.2,width=0.4,color="black", fillcolor="grey75", style="filled", fontcolor="black"];
  Node2 -> Node1 [dir="back",color="midnightblue",fontsize="10",style="solid",fontname="Helvetica"];
  Node2 [label="UnaryFunctorImageFilter\l\< TInputImage, TOutputImage,\l Function::FA\< TInputImage\l::PixelType, TOutputImage::\lPixelType \> \>",height=0.2,width=0.4,color="grey75", fillcolor="white", style="filled"];
}
