digraph "dcmAPI::Series"
{
  edge [fontname="Helvetica",fontsize="10",labelfontname="Helvetica",labelfontsize="10"];
  node [fontname="Helvetica",fontsize="10",shape=record];
  Node1 [label="dcmAPI::Series",height=0.2,width=0.4,color="black", fillcolor="grey75", style="filled", fontcolor="black"];
  Node2 -> Node1 [dir="back",color="midnightblue",fontsize="10",style="solid",fontname="Helvetica"];
  Node2 [label="dcmAPI::Base",height=0.2,width=0.4,color="black", fillcolor="white", style="filled",URL="$classdcmAPI_1_1Base.html",tooltip="Base class for all DICOM structures that contains a list of tags. "];
}
