digraph "dcmAPI::FileReader"
{
  edge [fontname="Helvetica",fontsize="10",labelfontname="Helvetica",labelfontsize="10"];
  node [fontname="Helvetica",fontsize="10",shape=record];
  rankdir="LR";
  Node1 [label="dcmAPI::FileReader",height=0.2,width=0.4,color="black", fillcolor="grey75", style="filled", fontcolor="black"];
  Node2 -> Node1 [dir="back",color="midnightblue",fontsize="10",style="solid",fontname="Helvetica"];
  Node2 [label="blLightObject",height=0.2,width=0.4,color="black", fillcolor="white", style="filled",URL="$classblLightObject.html",tooltip="Base Class for everything. "];
  Node3 -> Node1 [dir="back",color="darkorchid3",fontsize="10",style="dashed",label=" m_Path" ,fontname="Helvetica"];
  Node3 [label="std::string",height=0.2,width=0.4,color="grey75", fillcolor="white", style="filled",tooltip="STL class. "];
  Node4 -> Node3 [dir="back",color="midnightblue",fontsize="10",style="solid",fontname="Helvetica"];
  Node4 [label="std::basic_string\<\l char \>",height=0.2,width=0.4,color="grey75", fillcolor="white", style="filled",tooltip="STL class. "];
  Node5 -> Node1 [dir="back",color="darkorchid3",fontsize="10",style="dashed",label=" m_Readers" ,fontname="Helvetica"];
  Node5 [label="std::vector\< dcmAPI\l::AbstractImageReader\l::blSmartPointer\< Self \> \>",height=0.2,width=0.4,color="grey75", fillcolor="white", style="filled"];
}
