digraph "DicomPlugin::WorkingAreaPanelWidget"
{
  edge [fontname="Helvetica",fontsize="10",labelfontname="Helvetica",labelfontsize="10"];
  node [fontname="Helvetica",fontsize="10",shape=record];
  rankdir="LR";
  Node1 [label="DicomPlugin::WorkingArea\lPanelWidget",height=0.2,width=0.4,color="black", fillcolor="grey75", style="filled", fontcolor="black"];
  Node2 -> Node1 [dir="back",color="midnightblue",fontsize="10",style="solid",fontname="Helvetica"];
  Node2 [label="DicomWorkingAreaPanelWidgetUI",height=0.2,width=0.4,color="black", fillcolor="white", style="filled",URL="$classDicomWorkingAreaPanelWidgetUI.html"];
  Node3 -> Node2 [dir="back",color="midnightblue",fontsize="10",style="solid",fontname="Helvetica"];
  Node3 [label="wxPanel",height=0.2,width=0.4,color="grey75", fillcolor="white", style="filled"];
  Node4 -> Node2 [dir="back",color="darkorchid3",fontsize="10",style="dashed",label=" m_LevelWindowWidget" ,fontname="Helvetica"];
  Node4 [label="mitk::wxMitkLevelWindowWidget",height=0.2,width=0.4,color="black", fillcolor="white", style="filled",URL="$classmitk_1_1wxMitkLevelWindowWidget.html"];
  Node3 -> Node4 [dir="back",color="midnightblue",fontsize="10",style="solid",fontname="Helvetica"];
  Node5 -> Node4 [dir="back",color="darkorchid3",fontsize="10",style="dashed",label=" slider" ,fontname="Helvetica"];
  Node5 [label="mitk::wxMitkSliderLevelWindow\lControl",height=0.2,width=0.4,color="black", fillcolor="white", style="filled",URL="$classmitk_1_1wxMitkSliderLevelWindowControl.html"];
  Node6 -> Node5 [dir="back",color="midnightblue",fontsize="10",style="solid",fontname="Helvetica"];
  Node6 [label="mitk::wxMitkRangeSliderControl",height=0.2,width=0.4,color="black", fillcolor="white", style="filled",URL="$classmitk_1_1wxMitkRangeSliderControl.html"];
  Node7 -> Node6 [dir="back",color="midnightblue",fontsize="10",style="solid",fontname="Helvetica"];
  Node7 [label="wxControl",height=0.2,width=0.4,color="grey75", fillcolor="white", style="filled"];
  Node8 -> Node4 [dir="back",color="darkorchid3",fontsize="10",style="dashed",label=" lineEdit" ,fontname="Helvetica"];
  Node8 [label="mitk::wxMitkLineEditLevel\lWindowControl",height=0.2,width=0.4,color="black", fillcolor="white", style="filled",URL="$classmitk_1_1wxMitkLineEditLevelWindowControl.html"];
  Node3 -> Node8 [dir="back",color="midnightblue",fontsize="10",style="solid",fontname="Helvetica"];
  Node9 -> Node2 [dir="back",color="darkorchid3",fontsize="10",style="dashed",label=" m_MovieToolbar" ,fontname="Helvetica"];
  Node9 [label="DicomPlugin::MovieToolbar",height=0.2,width=0.4,color="black", fillcolor="white", style="filled",URL="$classDicomPlugin_1_1MovieToolbar.html",tooltip="A widget for managing DICOM 3D+t data. "];
  Node10 -> Node9 [dir="back",color="midnightblue",fontsize="10",style="solid",fontname="Helvetica"];
  Node10 [label="Core::Widgets::MovieToolbar",height=0.2,width=0.4,color="black", fillcolor="white", style="filled",URL="$classCore_1_1Widgets_1_1MovieToolbar.html",tooltip="A widget for managing 3D+t data. "];
  Node11 -> Node10 [dir="back",color="midnightblue",fontsize="10",style="solid",fontname="Helvetica"];
  Node11 [label="coreMovieToolbarUI",height=0.2,width=0.4,color="black", fillcolor="white", style="filled",URL="$classcoreMovieToolbarUI.html"];
  Node3 -> Node11 [dir="back",color="midnightblue",fontsize="10",style="solid",fontname="Helvetica"];
  Node12 -> Node10 [dir="back",color="midnightblue",fontsize="10",style="solid",fontname="Helvetica"];
  Node12 [label="Core::BaseWindow",height=0.2,width=0.4,color="black", fillcolor="white", style="filled",URL="$classCore_1_1BaseWindow.html",tooltip="Base Interface for all Gimias Windows. "];
  Node13 -> Node12 [dir="back",color="midnightblue",fontsize="10",style="solid",fontname="Helvetica"];
  Node13 [label="Core::Object",height=0.2,width=0.4,color="black", fillcolor="white", style="filled",URL="$classCore_1_1Object.html",tooltip="Abstract class that provides a common point for all the class hierarchy, because all classes in the C..."];
  Node14 -> Node13 [dir="back",color="midnightblue",fontsize="10",style="solid",fontname="Helvetica"];
  Node14 [label="boost::signals::trackable",height=0.2,width=0.4,color="grey75", fillcolor="white", style="filled"];
  Node15 -> Node13 [dir="back",color="darkorchid3",fontsize="10",style="dashed",label=" m_Properties" ,fontname="Helvetica"];
  Node15 [label="blSmartPointer\< Self \>",height=0.2,width=0.4,color="black", fillcolor="white", style="filled",URL="$classblSmartPointer.html"];
  Node16 -> Node12 [dir="back",color="darkorchid3",fontsize="10",style="dashed",label=" m_Children" ,fontname="Helvetica"];
  Node16 [label="std::list\< Core::BaseWindow * \>",height=0.2,width=0.4,color="grey75", fillcolor="white", style="filled"];
  Node12 -> Node16 [dir="back",color="darkorchid3",fontsize="10",style="dashed",label=" elements" ,fontname="Helvetica"];
  Node12 -> Node12 [dir="back",color="darkorchid3",fontsize="10",style="dashed",label=" m_ParentWindow" ,fontname="Helvetica"];
  Node17 -> Node12 [dir="back",color="darkorchid3",fontsize="10",style="dashed",label=" m_MultiRenderWindow" ,fontname="Helvetica"];
  Node17 [label="Core::Widgets::RenderWindowBase",height=0.2,width=0.4,color="black", fillcolor="white", style="filled",URL="$classCore_1_1Widgets_1_1RenderWindowBase.html",tooltip="Base class for all RenderWindowBase. "];
  Node12 -> Node17 [dir="back",color="midnightblue",fontsize="10",style="solid",fontname="Helvetica"];
  Node18 -> Node12 [dir="back",color="darkorchid3",fontsize="10",style="dashed",label=" m_ProcessorOutputObserver\lVector" ,fontname="Helvetica"];
  Node18 [label="std::vector\< Core::\lCore::ProcessorOutputObserver\l::Pointer \>",height=0.2,width=0.4,color="grey75", fillcolor="white", style="filled"];
  Node19 -> Node12 [dir="back",color="darkorchid3",fontsize="10",style="dashed",label=" m_PluginTab" ,fontname="Helvetica"];
  Node19 [label="Core::Widgets::PluginTab",height=0.2,width=0.4,color="black", fillcolor="white", style="filled",URL="$classCore_1_1Widgets_1_1PluginTab.html",tooltip="The PluginTab arranges all the default GUI for a plugin. There is always one PluginTab per plugin..."];
  Node3 -> Node19 [dir="back",color="midnightblue",fontsize="10",style="solid",fontname="Helvetica"];
  Node20 -> Node19 [dir="back",color="midnightblue",fontsize="10",style="solid",fontname="Helvetica"];
  Node20 [label="Core::BasePluginTab",height=0.2,width=0.4,color="black", fillcolor="white", style="filled",URL="$classCore_1_1BasePluginTab.html",tooltip="Interface for plugin tab page. "];
  Node13 -> Node20 [dir="back",color="midnightblue",fontsize="10",style="solid",fontname="Helvetica"];
  Node21 -> Node19 [dir="back",color="darkorchid3",fontsize="10",style="dashed",label=" m_WindowEnabled" ,fontname="Helvetica"];
  Node21 [label="std::map\< wxWindowID,\l bool \>",height=0.2,width=0.4,color="grey75", fillcolor="white", style="filled"];
  Node22 -> Node19 [dir="back",color="darkorchid3",fontsize="10",style="dashed",label=" m_BackupLayoutPerspective\nm_Caption" ,fontname="Helvetica"];
  Node22 [label="std::string",height=0.2,width=0.4,color="grey75", fillcolor="white", style="filled",tooltip="STL class. "];
  Node23 -> Node22 [dir="back",color="midnightblue",fontsize="10",style="solid",fontname="Helvetica"];
  Node23 [label="std::basic_string\<\l char \>",height=0.2,width=0.4,color="grey75", fillcolor="white", style="filled",tooltip="STL class. "];
  Node24 -> Node19 [dir="back",color="darkorchid3",fontsize="10",style="dashed",label=" m_WindowsMapHolder" ,fontname="Helvetica"];
  Node24 [label="Core::DataHolder\< Window\lMapType \>",height=0.2,width=0.4,color="red", fillcolor="white", style="filled",URL="$classCore_1_1DataHolder.html"];
  Node25 -> Node24 [dir="back",color="midnightblue",fontsize="10",style="solid",fontname="Helvetica"];
  Node25 [label="Core::DataHolderBase",height=0.2,width=0.4,color="black", fillcolor="white", style="filled",URL="$classCore_1_1DataHolderBase.html",tooltip="Base class for DataHolders. Contains the signals and observer registration part. "];
  Node26 -> Node25 [dir="back",color="midnightblue",fontsize="10",style="solid",fontname="Helvetica"];
  Node26 [label="Core::SmartPointerObject",height=0.2,width=0.4,color="black", fillcolor="white", style="filled",URL="$classCore_1_1SmartPointerObject.html",tooltip="Abstract class that provides base functionalities for handling objects with SmartPointers (see itk::L..."];
  Node27 -> Node26 [dir="back",color="midnightblue",fontsize="10",style="solid",fontname="Helvetica"];
  Node27 [label="LightObject",height=0.2,width=0.4,color="grey75", fillcolor="white", style="filled"];
  Node13 -> Node26 [dir="back",color="midnightblue",fontsize="10",style="solid",fontname="Helvetica"];
  Node22 -> Node25 [dir="back",color="darkorchid3",fontsize="10",style="dashed",label=" m_Name" ,fontname="Helvetica"];
  Node22 -> Node12 [dir="back",color="darkorchid3",fontsize="10",style="dashed",label=" m_FactoryName\nm_BitmapFilename" ,fontname="Helvetica"];
  Node28 -> Node12 [dir="back",color="darkorchid3",fontsize="10",style="dashed",label=" m_HelperWidget" ,fontname="Helvetica"];
  Node28 [label="Core::Widgets::UserHelper",height=0.2,width=0.4,color="black", fillcolor="white", style="filled",URL="$classCore_1_1Widgets_1_1UserHelper.html",tooltip="Show messages to the user to help him to use the interface. "];
  Node29 -> Node28 [dir="back",color="midnightblue",fontsize="10",style="solid",fontname="Helvetica"];
  Node29 [label="coreUserHelperWidgetUI",height=0.2,width=0.4,color="red", fillcolor="white", style="filled",URL="$classcoreUserHelperWidgetUI.html",tooltip="UserHelperWidget&#39;s UI. "];
  Node12 -> Node28 [dir="back",color="midnightblue",fontsize="10",style="solid",fontname="Helvetica"];
  Node22 -> Node28 [dir="back",color="darkorchid3",fontsize="10",style="dashed",label=" m_strResourceBitmap" ,fontname="Helvetica"];
  Node30 -> Node12 [dir="back",color="darkorchid3",fontsize="10",style="dashed",label=" m_ProcessorInputWidgetMap" ,fontname="Helvetica"];
  Node30 [label="std::map\< int, Core\l::Widgets::ProcessorInputWidget * \>",height=0.2,width=0.4,color="grey75", fillcolor="white", style="filled"];
  Node31 -> Node30 [dir="back",color="darkorchid3",fontsize="10",style="dashed",label=" elements" ,fontname="Helvetica"];
  Node31 [label="Core::Widgets::Processor\lInputWidget",height=0.2,width=0.4,color="red", fillcolor="white", style="filled",URL="$classCore_1_1Widgets_1_1ProcessorInputWidget.html"];
  Node32 -> Node12 [dir="back",color="darkorchid3",fontsize="10",style="dashed",label=" m_ListBrowser" ,fontname="Helvetica"];
  Node32 [label="Core::Widgets::DataEntity\lListBrowser",height=0.2,width=0.4,color="black", fillcolor="white", style="filled",URL="$classCore_1_1Widgets_1_1DataEntityListBrowser.html",tooltip="This browser maintains a coherent view to the Core::DataEntityList of the application model..."];
  Node3 -> Node32 [dir="back",color="midnightblue",fontsize="10",style="solid",fontname="Helvetica"];
  Node12 -> Node32 [dir="back",color="midnightblue",fontsize="10",style="solid",fontname="Helvetica"];
  Node33 -> Node32 [dir="back",color="darkorchid3",fontsize="10",style="dashed",label=" m_TreeControl" ,fontname="Helvetica"];
  Node33 [label="Core::Widgets::DataEntity\lTreeCtrl",height=0.2,width=0.4,color="red", fillcolor="white", style="filled",URL="$classCore_1_1Widgets_1_1DataEntityTreeCtrl.html",tooltip="This class extend the wxTreeCtrl functionalities. "];
  Node34 -> Node2 [dir="back",color="darkorchid3",fontsize="10",style="dashed",label=" m_treeDicomView" ,fontname="Helvetica"];
  Node34 [label="DicomPlugin::DICOMTree",height=0.2,width=0.4,color="black", fillcolor="white", style="filled",URL="$classDicomPlugin_1_1DICOMTree.html"];
  Node35 -> Node34 [dir="back",color="midnightblue",fontsize="10",style="solid",fontname="Helvetica"];
  Node35 [label="wxTreeCtrl",height=0.2,width=0.4,color="grey75", fillcolor="white", style="filled"];
  Node36 -> Node34 [dir="back",color="darkorchid3",fontsize="10",style="dashed",label=" m_SelectedSliceHolder" ,fontname="Helvetica"];
  Node36 [label="Core::DataHolder\< int \>",height=0.2,width=0.4,color="black", fillcolor="white", style="filled",URL="$classCore_1_1DataHolder.html"];
  Node25 -> Node36 [dir="back",color="midnightblue",fontsize="10",style="solid",fontname="Helvetica"];
  Node22 -> Node34 [dir="back",color="darkorchid3",fontsize="10",style="dashed",label=" m_currentDcmStudyId\nm_currentDcmPatientId\nm_currentDcmSliceId\nm_currentDcmSeriesId\nm_currentDcmTimepointId" ,fontname="Helvetica"];
  Node37 -> Node2 [dir="back",color="darkorchid3",fontsize="10",style="dashed",label=" m_RenderWindow" ,fontname="Helvetica"];
  Node37 [label="DicomPlugin::DcmImageView\lWindow",height=0.2,width=0.4,color="black", fillcolor="white", style="filled",URL="$classDicomPlugin_1_1DcmImageViewWindow.html"];
  Node38 -> Node37 [dir="back",color="midnightblue",fontsize="10",style="solid",fontname="Helvetica"];
  Node38 [label="mitk::wxMitkSelectableGLWidget",height=0.2,width=0.4,color="black", fillcolor="white", style="filled",URL="$classmitk_1_1wxMitkSelectableGLWidget.html"];
  Node3 -> Node38 [dir="back",color="midnightblue",fontsize="10",style="solid",fontname="Helvetica"];
  Node39 -> Node38 [dir="back",color="darkorchid3",fontsize="10",style="dashed",label=" m_mitkRenderWindow" ,fontname="Helvetica"];
  Node39 [label="mitk::wxMitkRenderWindow",height=0.2,width=0.4,color="red", fillcolor="white", style="filled",URL="$classmitk_1_1wxMitkRenderWindow.html"];
  Node40 -> Node39 [dir="back",color="midnightblue",fontsize="10",style="solid",fontname="Helvetica"];
  Node40 [label="mitk::wxMitkVTKWindow",height=0.2,width=0.4,color="red", fillcolor="white", style="filled",URL="$classmitk_1_1wxMitkVTKWindow.html"];
  Node41 -> Node39 [dir="back",color="darkorchid3",fontsize="10",style="dashed",label=" m_wxMitkApplicationCursor" ,fontname="Helvetica"];
  Node41 [label="mitk::wxMitkApplicationCursor\lImplementation",height=0.2,width=0.4,color="red", fillcolor="white", style="filled",URL="$classmitk_1_1wxMitkApplicationCursorImplementation.html",tooltip="Manager of the mouse cursor icon. "];
  Node42 -> Node37 [dir="back",color="midnightblue",fontsize="10",style="solid",fontname="Helvetica"];
  Node42 [label="trackable",height=0.2,width=0.4,color="grey75", fillcolor="white", style="filled"];
  Node43 -> Node1 [dir="back",color="midnightblue",fontsize="10",style="solid",fontname="Helvetica"];
  Node43 [label="Core::Widgets::Processing\lWidget",height=0.2,width=0.4,color="black", fillcolor="white", style="filled",URL="$classCore_1_1Widgets_1_1ProcessingWidget.html",tooltip="Base widget for processing tools. "];
  Node12 -> Node43 [dir="back",color="midnightblue",fontsize="10",style="solid",fontname="Helvetica"];
  Node44 -> Node1 [dir="back",color="darkorchid3",fontsize="10",style="dashed",label=" m_DicomMenuEventHandler" ,fontname="Helvetica"];
  Node44 [label="DicomPlugin::DicomMenuEvent\lHandler",height=0.2,width=0.4,color="black", fillcolor="white", style="filled",URL="$classDicomPlugin_1_1DicomMenuEventHandler.html"];
  Node45 -> Node44 [dir="back",color="midnightblue",fontsize="10",style="solid",fontname="Helvetica"];
  Node45 [label="wxEvtHandler",height=0.2,width=0.4,color="grey75", fillcolor="white", style="filled"];
  Node1 -> Node44 [dir="back",color="darkorchid3",fontsize="10",style="dashed",label=" m_WorkingArea" ,fontname="Helvetica"];
  Node36 -> Node1 [dir="back",color="darkorchid3",fontsize="10",style="dashed",label=" m_SelectedSliceHolder" ,fontname="Helvetica"];
  Node46 -> Node1 [dir="back",color="darkorchid3",fontsize="10",style="dashed",label=" m_AdvancedDialog" ,fontname="Helvetica"];
  Node46 [label="DicomPlugin::DicomWorking\lAreaAdvancedDialog",height=0.2,width=0.4,color="black", fillcolor="white", style="filled",URL="$classDicomPlugin_1_1DicomWorkingAreaAdvancedDialog.html"];
  Node47 -> Node46 [dir="back",color="midnightblue",fontsize="10",style="solid",fontname="Helvetica"];
  Node47 [label="DicomWorkingAreaAdvanced\lDialogUI",height=0.2,width=0.4,color="black", fillcolor="white", style="filled",URL="$classDicomWorkingAreaAdvancedDialogUI.html"];
  Node48 -> Node47 [dir="back",color="midnightblue",fontsize="10",style="solid",fontname="Helvetica"];
  Node48 [label="wxDialog",height=0.2,width=0.4,color="grey75", fillcolor="white", style="filled"];
  Node49 -> Node46 [dir="back",color="darkorchid3",fontsize="10",style="dashed",label=" m_TagsVector" ,fontname="Helvetica"];
  Node49 [label="std::vector\< dcmAPI\l::TagId \>",height=0.2,width=0.4,color="grey75", fillcolor="white", style="filled"];
  Node50 -> Node49 [dir="back",color="darkorchid3",fontsize="10",style="dashed",label=" elements" ,fontname="Helvetica"];
  Node50 [label="dcmAPI::TagId",height=0.2,width=0.4,color="black", fillcolor="white", style="filled",URL="$structdcmAPI_1_1TagId.html"];
  Node22 -> Node50 [dir="back",color="darkorchid3",fontsize="10",style="dashed",label=" m_description" ,fontname="Helvetica"];
  Node1 -> Node46 [dir="back",color="darkorchid3",fontsize="10",style="dashed",label=" m_WorkingArea" ,fontname="Helvetica"];
}
