digraph "base::meshio::iDataReaderDynamicRAPosition&lt; D &gt;"
{
  edge [fontname="Helvetica",fontsize="10",labelfontname="Helvetica",labelfontsize="10"];
  node [fontname="Helvetica",fontsize="10",shape=record];
  Node1 [label="base::meshio::iDataReader\lDynamicRAPosition\< D \>",height=0.2,width=0.4,color="black", fillcolor="grey75", style="filled", fontcolor="black"];
  Node2 -> Node1 [dir="back",color="midnightblue",fontsize="10",style="solid",fontname="Helvetica"];
  Node2 [label="base::meshio::iDataReader\lDynamicRA\< D \>",height=0.2,width=0.4,color="black", fillcolor="white", style="filled",URL="$classbase_1_1meshio_1_1iDataReaderDynamicRA.html",tooltip="Interface for reading 3D+T data in an iterative as well as random access manner. "];
  Node3 -> Node2 [dir="back",color="midnightblue",fontsize="10",style="solid",fontname="Helvetica"];
  Node3 [label="base::meshio::iDataReader\lDynamicI\< D \>",height=0.2,width=0.4,color="black", fillcolor="white", style="filled",URL="$classbase_1_1meshio_1_1iDataReaderDynamicI.html",tooltip="Interface for reading 3D+T data in an iterative (no random access) manner. "];
  Node4 -> Node1 [dir="back",color="darkorchid3",fontsize="10",style="dashed",label=" m_position" ,fontname="Helvetica"];
  Node4 [label="base::meshio::position2D",height=0.2,width=0.4,color="black", fillcolor="white", style="filled",URL="$classbase_1_1meshio_1_1position2D.html"];
}
