digraph "Apps/Gimias/GUI/Widgets/src/SelectionToolbox/coreSelectionToolWidget.h"
{
  edge [fontname="Helvetica",fontsize="10",labelfontname="Helvetica",labelfontsize="10"];
  node [fontname="Helvetica",fontsize="10",shape=record];
  Node1 [label="Apps/Gimias/GUI/Widgets\l/src/SelectionToolbox\l/coreSelectionToolWidget.h",height=0.2,width=0.4,color="black", fillcolor="grey75", style="filled", fontcolor="black"];
  Node1 -> Node2 [dir="back",color="midnightblue",fontsize="10",style="solid",fontname="Helvetica"];
  Node2 [label="Apps/Gimias/GUI/Widgets\l/src/ProcessingToolbox\l/coreProcessingWidget.h",height=0.2,width=0.4,color="red", fillcolor="white", style="filled",URL="$coreProcessingWidget_8h.html"];
  Node2 -> Node3 [dir="back",color="midnightblue",fontsize="10",style="solid",fontname="Helvetica"];
  Node3 [label="Apps/Gimias/GUI/Widgets\l/src/ProcessingToolbox\l/coreDynProcessingWidget.h",height=0.2,width=0.4,color="red", fillcolor="white", style="filled",URL="$coreDynProcessingWidget_8h.html"];
  Node3 -> Node4 [dir="back",color="midnightblue",fontsize="10",style="solid",fontname="Helvetica"];
  Node4 [label="Apps/Gimias/GUI/Widgets\l/src/ProcessingToolbox\l/coreDynProcessingWidget.cpp",height=0.2,width=0.4,color="black", fillcolor="white", style="filled",URL="$coreDynProcessingWidget_8cpp.html"];
  Node2 -> Node5 [dir="back",color="midnightblue",fontsize="10",style="solid",fontname="Helvetica"];
  Node5 [label="Apps/Gimias/GUI/Widgets\l/src/ProcessingToolbox\l/coreProcessingToolboxWidget.h",height=0.2,width=0.4,color="red", fillcolor="white", style="filled",URL="$coreProcessingToolboxWidget_8h.html"];
  Node2 -> Node6 [dir="back",color="midnightblue",fontsize="10",style="solid",fontname="Helvetica"];
  Node6 [label="Apps/Gimias/GUI/Widgets\l/src/ProcessingToolbox\l/coreProcessingWidget.cpp",height=0.2,width=0.4,color="black", fillcolor="white", style="filled",URL="$coreProcessingWidget_8cpp.html"];
  Node2 -> Node7 [dir="back",color="midnightblue",fontsize="10",style="solid",fontname="Helvetica"];
  Node7 [label="Apps/Gimias/GUI/Widgets\l/src/ProcessingToolbox\l/coreSimpleProcessingWidget.h",height=0.2,width=0.4,color="red", fillcolor="white", style="filled",URL="$coreSimpleProcessingWidget_8h.html"];
  Node7 -> Node8 [dir="back",color="midnightblue",fontsize="10",style="solid",fontname="Helvetica"];
  Node8 [label="Apps/Plugins/ImageToolsPlugin\l/ImageToolsPluginPCH.h",height=0.2,width=0.4,color="black", fillcolor="white", style="filled",URL="$ImageToolsPluginPCH_8h.html"];
  Node2 -> Node9 [dir="back",color="midnightblue",fontsize="10",style="solid",fontname="Helvetica"];
  Node9 [label="Apps/Gimias/GUI/Widgets\l/src/Workflow/coreEmptyToolWidget.h",height=0.2,width=0.4,color="red", fillcolor="white", style="filled",URL="$coreEmptyToolWidget_8h.html"];
  Node2 -> Node10 [dir="back",color="midnightblue",fontsize="10",style="solid",fontname="Helvetica"];
  Node10 [label="Apps/Gimias/GUI/Widgets\l/src/Workflow/coreWorkflowNavigation\lWidget.h",height=0.2,width=0.4,color="red", fillcolor="white", style="filled",URL="$coreWorkflowNavigationWidget_8h.html"];
  Node2 -> Node11 [dir="back",color="midnightblue",fontsize="10",style="solid",fontname="Helvetica"];
  Node11 [label="Apps/Plugins/DicomPlugin\l/widgets/BrowseTags/DicomBrowse\lTagsPanelWidget.h",height=0.2,width=0.4,color="red", fillcolor="white", style="filled",URL="$DicomBrowseTagsPanelWidget_8h.html"];
  Node2 -> Node12 [dir="back",color="midnightblue",fontsize="10",style="solid",fontname="Helvetica"];
  Node12 [label="Apps/Plugins/DicomPlugin\l/widgets/DicomConnectToPACSWidget\l/DicomConnectToPacsDialogWidget.h",height=0.2,width=0.4,color="red", fillcolor="white", style="filled",URL="$DicomConnectToPacsDialogWidget_8h.html"];
  Node2 -> Node13 [dir="back",color="midnightblue",fontsize="10",style="solid",fontname="Helvetica"];
  Node13 [label="Apps/Plugins/DicomPlugin\l/widgets/DicomWorkingAreaWidget\l/DicomWorkingAreaPanelWidget.h",height=0.2,width=0.4,color="red", fillcolor="white", style="filled",URL="$DicomWorkingAreaPanelWidget_8h.html"];
  Node13 -> Node11 [dir="back",color="midnightblue",fontsize="10",style="solid",fontname="Helvetica"];
  Node2 -> Node14 [dir="back",color="midnightblue",fontsize="10",style="solid",fontname="Helvetica"];
  Node14 [label="Apps/Plugins/GenericSegmentation\lPlugin/widgets/ConnectedThresholdWidget\l/ConnectedThresholdWidget.h",height=0.2,width=0.4,color="red", fillcolor="white", style="filled",URL="$ConnectedThresholdWidget_8h.html"];
  Node2 -> Node15 [dir="back",color="midnightblue",fontsize="10",style="solid",fontname="Helvetica"];
  Node15 [label="Apps/Plugins/GenericSegmentation\lPlugin/widgets/Generate3DRoiPanelWidget\l/Generate3DRoiPanelWidget.h",height=0.2,width=0.4,color="red", fillcolor="white", style="filled",URL="$Generate3DRoiPanelWidget_8h.html"];
  Node2 -> Node16 [dir="back",color="midnightblue",fontsize="10",style="solid",fontname="Helvetica"];
  Node16 [label="Apps/Plugins/GenericSegmentation\lPlugin/widgets/Generate3DRoiPanelWidget\l/GenerateSpherePanelWidget.h",height=0.2,width=0.4,color="red", fillcolor="white", style="filled",URL="$GenerateSpherePanelWidget_8h.html"];
  Node2 -> Node17 [dir="back",color="midnightblue",fontsize="10",style="solid",fontname="Helvetica"];
  Node17 [label="Apps/Plugins/GenericSegmentation\lPlugin/widgets/Generate3DRoiPanelWidget\l/SurfaceDeformationPanelWidget.h",height=0.2,width=0.4,color="red", fillcolor="white", style="filled",URL="$SurfaceDeformationPanelWidget_8h.html"];
  Node2 -> Node18 [dir="back",color="midnightblue",fontsize="10",style="solid",fontname="Helvetica"];
  Node18 [label="Apps/Plugins/GenericSegmentation\lPlugin/widgets/GenericSegmentation\lPluginBetweenModalitiesTransformPanelWidget\l/GenericSegmentationPluginBetweenModalitiesTransform\lPanelWidget.h",height=0.2,width=0.4,color="red", fillcolor="white", style="filled",URL="$GenericSegmentationPluginBetweenModalitiesTransformPanelWidget_8h.html"];
  Node2 -> Node19 [dir="back",color="midnightblue",fontsize="10",style="solid",fontname="Helvetica"];
  Node19 [label="Apps/Plugins/GenericSegmentation\lPlugin/widgets/GenericSegmentation\lPluginPhilipsSegmentedScarMeshPanelWidget\l/GenericSegmentationPluginPhilipsSegmentedScarMesh\lPanelWidget.h",height=0.2,width=0.4,color="red", fillcolor="white", style="filled",URL="$GenericSegmentationPluginPhilipsSegmentedScarMeshPanelWidget_8h.html"];
  Node2 -> Node20 [dir="back",color="midnightblue",fontsize="10",style="solid",fontname="Helvetica"];
  Node20 [label="Apps/Plugins/GenericSegmentation\lPlugin/widgets/GenericSegmentation\lPluginPropagateLandmarksPanelWidget\l/GenericSegmentationPluginPropagateLandmarks\lPanelWidget.h",height=0.2,width=0.4,color="red", fillcolor="white", style="filled",URL="$GenericSegmentationPluginPropagateLandmarksPanelWidget_8h.html"];
  Node2 -> Node21 [dir="back",color="midnightblue",fontsize="10",style="solid",fontname="Helvetica"];
  Node21 [label="Apps/Plugins/GenericSegmentation\lPlugin/widgets/gspPhilipsSegmented\lScarMeshPanelWidget/gspPhilipsSegmentedScar\lMeshPanelWidget.h",height=0.2,width=0.4,color="red", fillcolor="white", style="filled",URL="$gspPhilipsSegmentedScarMeshPanelWidget_8h.html"];
  Node2 -> Node22 [dir="back",color="midnightblue",fontsize="10",style="solid",fontname="Helvetica"];
  Node22 [label="Apps/Plugins/GenericSegmentation\lPlugin/widgets/gspPropagateLandmarks\lPanelWidget/gspPropagateLandmarksPanelWidget.h",height=0.2,width=0.4,color="red", fillcolor="white", style="filled",URL="$gspPropagateLandmarksPanelWidget_8h.html"];
  Node2 -> Node23 [dir="back",color="midnightblue",fontsize="10",style="solid",fontname="Helvetica"];
  Node23 [label="Apps/Plugins/GenericSegmentation\lPlugin/widgets/ManualCorrectionWidget\l/ManualCorrectionsPanelWidget.h",height=0.2,width=0.4,color="red", fillcolor="white", style="filled",URL="$ManualCorrectionsPanelWidget_8h.html"];
  Node2 -> Node24 [dir="back",color="midnightblue",fontsize="10",style="solid",fontname="Helvetica"];
  Node24 [label="Apps/Plugins/GenericSegmentation\lPlugin/widgets/MaskImageToROIImage\lWidget/MaskImageToROIImageWidget.h",height=0.2,width=0.4,color="red", fillcolor="white", style="filled",URL="$MaskImageToROIImageWidget_8h.html"];
  Node2 -> Node25 [dir="back",color="midnightblue",fontsize="10",style="solid",fontname="Helvetica"];
  Node25 [label="Apps/Plugins/GenericSegmentation\lPlugin/widgets/MoveDataPanelWidget\l/MoveDataPanelWidget.h",height=0.2,width=0.4,color="red", fillcolor="white", style="filled",URL="$MoveDataPanelWidget_8h.html"];
  Node2 -> Node26 [dir="back",color="midnightblue",fontsize="10",style="solid",fontname="Helvetica"];
  Node26 [label="Apps/Plugins/GenericSegmentation\lPlugin/widgets/OtsuWidget\l/OtsuWidget.h",height=0.2,width=0.4,color="red", fillcolor="white", style="filled",URL="$OtsuWidget_8h.html"];
  Node2 -> Node27 [dir="back",color="midnightblue",fontsize="10",style="solid",fontname="Helvetica"];
  Node27 [label="Apps/Plugins/GenericSegmentation\lPlugin/widgets/RegionGrowWidget\l/RegionGrowWidget.h",height=0.2,width=0.4,color="red", fillcolor="white", style="filled",URL="$RegionGrowWidget_8h.html"];
  Node2 -> Node28 [dir="back",color="midnightblue",fontsize="10",style="solid",fontname="Helvetica"];
  Node28 [label="Apps/Plugins/GenericSegmentation\lPlugin/widgets/ThresholdPhilipsPanel\lWidget/ThresholdPhilipsPanelWidget.h",height=0.2,width=0.4,color="red", fillcolor="white", style="filled",URL="$ThresholdPhilipsPanelWidget_8h.html"];
  Node2 -> Node29 [dir="back",color="midnightblue",fontsize="10",style="solid",fontname="Helvetica"];
  Node29 [label="Apps/Plugins/GenericSegmentation\lPlugin/widgets/ThresholdWidget\l/ThresholdWidget.h",height=0.2,width=0.4,color="red", fillcolor="white", style="filled",URL="$ThresholdWidget_8h.html"];
  Node2 -> Node30 [dir="back",color="midnightblue",fontsize="10",style="solid",fontname="Helvetica"];
  Node30 [label="Apps/Plugins/GenericSegmentation\lPlugin/widgets/TransformationBoxWidget\l/TransformationBoxPanelWidget.h",height=0.2,width=0.4,color="red", fillcolor="white", style="filled",URL="$TransformationBoxPanelWidget_8h.html"];
  Node2 -> Node31 [dir="back",color="midnightblue",fontsize="10",style="solid",fontname="Helvetica"];
  Node31 [label="Apps/Plugins/GenericSegmentation\lPlugin/widgets/VtkConnectedThreshold\lWidget/VtkConnectedThresholdPanelWidget.h",height=0.2,width=0.4,color="red", fillcolor="white", style="filled",URL="$VtkConnectedThresholdPanelWidget_8h.html"];
  Node31 -> Node32 [dir="back",color="midnightblue",fontsize="10",style="solid",fontname="Helvetica"];
  Node32 [label="Apps/Plugins/GenericSegmentation\lPlugin/widgets/VtkConnectedThreshold\lWidget/VtkConnectedThresholdPanelWidget.cpp",height=0.2,width=0.4,color="black", fillcolor="white", style="filled",URL="$VtkConnectedThresholdPanelWidget_8cpp.html"];
  Node2 -> Node32 [dir="back",color="midnightblue",fontsize="10",style="solid",fontname="Helvetica"];
  Node2 -> Node8 [dir="back",color="midnightblue",fontsize="10",style="solid",fontname="Helvetica"];
  Node2 -> Node33 [dir="back",color="midnightblue",fontsize="10",style="solid",fontname="Helvetica"];
  Node33 [label="Apps/Plugins/ImageToolsPlugin\l/widgets/ChangeDirectionWidget\l/ChangeDirectionPanelWidget.h",height=0.2,width=0.4,color="red", fillcolor="white", style="filled",URL="$ChangeDirectionPanelWidget_8h.html"];
  Node2 -> Node34 [dir="back",color="midnightblue",fontsize="10",style="solid",fontname="Helvetica"];
  Node34 [label="Apps/Plugins/ImageToolsPlugin\l/widgets/PointBasedImageAlignement\lWidget/PointBasedImageAlignementPanelWidget.h",height=0.2,width=0.4,color="red", fillcolor="white", style="filled",URL="$PointBasedImageAlignementPanelWidget_8h.html"];
  Node2 -> Node35 [dir="back",color="midnightblue",fontsize="10",style="solid",fontname="Helvetica"];
  Node35 [label="Apps/Plugins/ImageToolsPlugin\l/widgets/ProcessingToolsWidget\l/ptChangeOrientationWidget.h",height=0.2,width=0.4,color="red", fillcolor="white", style="filled",URL="$ptChangeOrientationWidget_8h.html"];
  Node2 -> Node36 [dir="back",color="midnightblue",fontsize="10",style="solid",fontname="Helvetica"];
  Node36 [label="Apps/Plugins/MeshEditorPlugin\l/MeshEditorPluginPCH.h",height=0.2,width=0.4,color="black", fillcolor="white", style="filled",URL="$MeshEditorPluginPCH_8h.html"];
  Node2 -> Node37 [dir="back",color="midnightblue",fontsize="10",style="solid",fontname="Helvetica"];
  Node37 [label="Apps/Plugins/MeshEditorPlugin\l/widgets/BooleanOperationsWidget\l/BooleanOperationsPanelWidget.h",height=0.2,width=0.4,color="red", fillcolor="white", style="filled",URL="$BooleanOperationsPanelWidget_8h.html"];
  Node2 -> Node38 [dir="back",color="midnightblue",fontsize="10",style="solid",fontname="Helvetica"];
  Node38 [label="Apps/Plugins/MeshEditorPlugin\l/widgets/EdgeSwappingWidget\l/ptEdgeSwappingPanelWidget.h",height=0.2,width=0.4,color="red", fillcolor="white", style="filled",URL="$EdgeSwappingWidget_2ptEdgeSwappingPanelWidget_8h.html"];
  Node2 -> Node39 [dir="back",color="midnightblue",fontsize="10",style="solid",fontname="Helvetica"];
  Node39 [label="Apps/Plugins/MeshEditorPlugin\l/widgets/ExtractScalarWidget\l/ptExtractScalarWidget.h",height=0.2,width=0.4,color="red", fillcolor="white", style="filled",URL="$ExtractScalarWidget_2ptExtractScalarWidget_8h.html"];
  Node2 -> Node40 [dir="back",color="midnightblue",fontsize="10",style="solid",fontname="Helvetica"];
  Node40 [label="Apps/Plugins/MeshEditorPlugin\l/widgets/ExtractSurfacesWidget\l/ptExtractMainSurfacePanelWidget.h",height=0.2,width=0.4,color="red", fillcolor="white", style="filled",URL="$ExtractSurfacesWidget_2ptExtractMainSurfacePanelWidget_8h.html"];
  Node2 -> Node41 [dir="back",color="midnightblue",fontsize="10",style="solid",fontname="Helvetica"];
  Node41 [label="Apps/Plugins/MeshEditorPlugin\l/widgets/LocalRefinerWidget\l/ptLocalRefinerPanelWidget.h",height=0.2,width=0.4,color="red", fillcolor="white", style="filled",URL="$LocalRefinerWidget_2ptLocalRefinerPanelWidget_8h.html"];
  Node1 -> Node4 [dir="back",color="midnightblue",fontsize="10",style="solid",fontname="Helvetica"];
  Node1 -> Node42 [dir="back",color="midnightblue",fontsize="10",style="solid",fontname="Helvetica"];
  Node42 [label="Apps/Gimias/GUI/Widgets\l/src/SelectionToolbox\l/coreSelectionToolboxWidget.h",height=0.2,width=0.4,color="red", fillcolor="white", style="filled",URL="$coreSelectionToolboxWidget_8h.html"];
  Node42 -> Node2 [dir="back",color="midnightblue",fontsize="10",style="solid",fontname="Helvetica"];
  Node42 -> Node6 [dir="back",color="midnightblue",fontsize="10",style="solid",fontname="Helvetica"];
  Node1 -> Node43 [dir="back",color="midnightblue",fontsize="10",style="solid",fontname="Helvetica"];
  Node43 [label="Apps/Gimias/GUI/Widgets\l/src/SelectionToolbox\l/coreSelectionToolWidget.cpp",height=0.2,width=0.4,color="black", fillcolor="white", style="filled",URL="$coreSelectionToolWidget_8cpp.html"];
  Node1 -> Node44 [dir="back",color="midnightblue",fontsize="10",style="solid",fontname="Helvetica"];
  Node44 [label="Apps/Plugins/ManualSegmentation\lPlugin/widgets/InteractiveSegmPanel\lWidget/InteractiveSegmPanelWidget.h",height=0.2,width=0.4,color="red", fillcolor="white", style="filled",URL="$InteractiveSegmPanelWidget_8h.html"];
  Node1 -> Node45 [dir="back",color="midnightblue",fontsize="10",style="solid",fontname="Helvetica"];
  Node45 [label="Apps/Plugins/ManualSegmentation\lPlugin/widgets/ManualSegmentationWidget\l/ManualSegmentationPanelWidget.h",height=0.2,width=0.4,color="red", fillcolor="white", style="filled",URL="$ManualSegmentationPanelWidget_8h.html"];
  Node1 -> Node46 [dir="back",color="midnightblue",fontsize="10",style="solid",fontname="Helvetica"];
  Node46 [label="Apps/Plugins/MeshEditorPlugin\l/widgets/SurfaceSelectorWidget\l/coreSurfaceSelectorWidget.h",height=0.2,width=0.4,color="red", fillcolor="white", style="filled",URL="$coreSurfaceSelectorWidget_8h.html"];
  Node1 -> Node47 [dir="back",color="midnightblue",fontsize="10",style="solid",fontname="Helvetica"];
  Node47 [label="Apps/Plugins/MITKPlugin\l/MITKPluginPCH.h",height=0.2,width=0.4,color="black", fillcolor="white", style="filled",URL="$MITKPluginPCH_8h.html"];
  Node1 -> Node48 [dir="back",color="midnightblue",fontsize="10",style="solid",fontname="Helvetica"];
  Node48 [label="Apps/Plugins/MITKPlugin\l/widgets/BoundingBoxWidget\l/coreBBoxWidget.h",height=0.2,width=0.4,color="red", fillcolor="white", style="filled",URL="$coreBBoxWidget_8h.html"];
  Node1 -> Node49 [dir="back",color="midnightblue",fontsize="10",style="solid",fontname="Helvetica"];
  Node49 [label="Apps/Plugins/MITKPlugin\l/widgets/LandmarkSelectorWidget\l/coreLandmarkSelectorWidget.h",height=0.2,width=0.4,color="red", fillcolor="white", style="filled",URL="$coreLandmarkSelectorWidget_8h.html"];
  Node49 -> Node14 [dir="back",color="midnightblue",fontsize="10",style="solid",fontname="Helvetica"];
  Node49 -> Node27 [dir="back",color="midnightblue",fontsize="10",style="solid",fontname="Helvetica"];
  Node49 -> Node32 [dir="back",color="midnightblue",fontsize="10",style="solid",fontname="Helvetica"];
  Node49 -> Node36 [dir="back",color="midnightblue",fontsize="10",style="solid",fontname="Helvetica"];
  Node1 -> Node50 [dir="back",color="midnightblue",fontsize="10",style="solid",fontname="Helvetica"];
  Node50 [label="Apps/Plugins/MITKPlugin\l/widgets/MeasurementWidget\l/coreMeasurementWidget.h",height=0.2,width=0.4,color="red", fillcolor="white", style="filled",URL="$coreMeasurementWidget_8h.html"];
}
