digraph "Apps/Gimias/Core/DataHandling/src/coreDataEntityMetadata.h"
{
  edge [fontname="Helvetica",fontsize="10",labelfontname="Helvetica",labelfontsize="10"];
  node [fontname="Helvetica",fontsize="10",shape=record];
  Node1 [label="Apps/Gimias/Core/DataHandling\l/src/coreDataEntityMetadata.h",height=0.2,width=0.4,color="black", fillcolor="grey75", style="filled", fontcolor="black"];
  Node1 -> Node2 [dir="back",color="midnightblue",fontsize="10",style="solid",fontname="Helvetica"];
  Node2 [label="Apps/Gimias/Core/DataHandling\l/src/coreDataEntity.h",height=0.2,width=0.4,color="red", fillcolor="white", style="filled",URL="$coreDataEntity_8h.html"];
  Node2 -> Node3 [dir="back",color="midnightblue",fontsize="10",style="solid",fontname="Helvetica"];
  Node3 [label="Apps/Gimias/Core/DataHandling\l/src/coreBaseTestData.h",height=0.2,width=0.4,color="red", fillcolor="white", style="filled",URL="$coreBaseTestData_8h.html"];
  Node2 -> Node4 [dir="back",color="midnightblue",fontsize="10",style="solid",fontname="Helvetica"];
  Node4 [label="Apps/Gimias/Core/DataHandling\l/src/coreDataEntityHolder.h",height=0.2,width=0.4,color="red", fillcolor="white", style="filled",URL="$coreDataEntityHolder_8h.html"];
  Node4 -> Node2 [dir="back",color="midnightblue",fontsize="10",style="solid",fontname="Helvetica"];
  Node4 -> Node5 [dir="back",color="midnightblue",fontsize="10",style="solid",fontname="Helvetica"];
  Node5 [label="Apps/Gimias/Core/Filtering\l/gmFilteringPCH.h",height=0.2,width=0.4,color="black", fillcolor="white", style="filled",URL="$gmFilteringPCH_8h.html"];
  Node4 -> Node6 [dir="back",color="midnightblue",fontsize="10",style="solid",fontname="Helvetica"];
  Node6 [label="Apps/Gimias/Core/Kernel\l/gmKernelPCH.h",height=0.2,width=0.4,color="black", fillcolor="white", style="filled",URL="$gmKernelPCH_8h.html"];
  Node4 -> Node7 [dir="back",color="midnightblue",fontsize="10",style="solid",fontname="Helvetica"];
  Node7 [label="Apps/Gimias/Core/Kernel\l/src/coreDataEntityList.h",height=0.2,width=0.4,color="red", fillcolor="white", style="filled",URL="$coreDataEntityList_8h.html"];
  Node7 -> Node8 [dir="back",color="midnightblue",fontsize="10",style="solid",fontname="Helvetica"];
  Node8 [label="Apps/Gimias/Core/Kernel\l/src/coreDataContainer.h",height=0.2,width=0.4,color="red", fillcolor="white", style="filled",URL="$coreDataContainer_8h.html"];
  Node8 -> Node9 [dir="back",color="midnightblue",fontsize="10",style="solid",fontname="Helvetica"];
  Node9 [label="Apps/Gimias/GUI/Widgets\l/gmWidgetsPCH.h",height=0.2,width=0.4,color="black", fillcolor="white", style="filled",URL="$gmWidgetsPCH_8h.html"];
  Node8 -> Node10 [dir="back",color="midnightblue",fontsize="10",style="solid",fontname="Helvetica"];
  Node10 [label="Apps/Gimias/GUI/Widgets\l/src/DataEntityInformation\l/coreDataEntityInformation.cxx",height=0.2,width=0.4,color="black", fillcolor="white", style="filled",URL="$coreDataEntityInformation_8cxx.html"];
  Node8 -> Node11 [dir="back",color="midnightblue",fontsize="10",style="solid",fontname="Helvetica"];
  Node11 [label="Apps/Gimias/GUI/Widgets\l/src/MultiRenderWindow\l/coreDataEntityUtilities.h",height=0.2,width=0.4,color="red", fillcolor="white", style="filled",URL="$coreDataEntityUtilities_8h.html"];
  Node8 -> Node12 [dir="back",color="midnightblue",fontsize="10",style="solid",fontname="Helvetica"];
  Node12 [label="Apps/Gimias/GUI/Widgets\l/src/ProcessingToolbox\l/coreProcessingToolboxWidget.cxx",height=0.2,width=0.4,color="black", fillcolor="white", style="filled",URL="$coreProcessingToolboxWidget_8cxx.html"];
  Node8 -> Node13 [dir="back",color="midnightblue",fontsize="10",style="solid",fontname="Helvetica"];
  Node13 [label="Apps/Plugins/MeshEditorPlugin\l/widgets/SurfaceSelectorWidget\l/coreSurfaceSelectorWidget.cxx",height=0.2,width=0.4,color="black", fillcolor="white", style="filled",URL="$coreSurfaceSelectorWidget_8cxx.html"];
  Node7 -> Node9 [dir="back",color="midnightblue",fontsize="10",style="solid",fontname="Helvetica"];
  Node7 -> Node14 [dir="back",color="midnightblue",fontsize="10",style="solid",fontname="Helvetica"];
  Node14 [label="Apps/Gimias/GUI/Widgets\l/src/PluginTab/corePluginTab.h",height=0.2,width=0.4,color="red", fillcolor="white", style="filled",URL="$corePluginTab_8h.html"];
  Node14 -> Node12 [dir="back",color="midnightblue",fontsize="10",style="solid",fontname="Helvetica"];
  Node14 -> Node15 [dir="back",color="midnightblue",fontsize="10",style="solid",fontname="Helvetica"];
  Node15 [label="Apps/Gimias/GUI/Widgets\l/src/VisualProperties\l/coreVisualProperties.cxx",height=0.2,width=0.4,color="black", fillcolor="white", style="filled",URL="$coreVisualProperties_8cxx.html"];
  Node4 -> Node9 [dir="back",color="midnightblue",fontsize="10",style="solid",fontname="Helvetica"];
  Node2 -> Node16 [dir="back",color="midnightblue",fontsize="10",style="solid",fontname="Helvetica"];
  Node16 [label="Apps/Gimias/Core/DataHandling\l/src/coreDataEntity.cxx",height=0.2,width=0.4,color="black", fillcolor="white", style="filled",URL="$coreDataEntity_8cxx.html"];
  Node2 -> Node17 [dir="back",color="midnightblue",fontsize="10",style="solid",fontname="Helvetica"];
  Node17 [label="Apps/Gimias/Core/DataHandling\l/src/coreDataEntityBuilder.h",height=0.2,width=0.4,color="black", fillcolor="white", style="filled",URL="$coreDataEntityBuilder_8h.html"];
  Node2 -> Node18 [dir="back",color="midnightblue",fontsize="10",style="solid",fontname="Helvetica"];
  Node18 [label="Apps/Gimias/Core/DataHandling\l/src/coreDataEntityInfoHelper.h",height=0.2,width=0.4,color="red", fillcolor="white", style="filled",URL="$coreDataEntityInfoHelper_8h.html"];
  Node18 -> Node19 [dir="back",color="midnightblue",fontsize="10",style="solid",fontname="Helvetica"];
  Node19 [label="Apps/Gimias/Core/IO\l/gmIOPCH.h",height=0.2,width=0.4,color="black", fillcolor="white", style="filled",URL="$gmIOPCH_8h.html"];
  Node18 -> Node6 [dir="back",color="midnightblue",fontsize="10",style="solid",fontname="Helvetica"];
  Node18 -> Node20 [dir="back",color="midnightblue",fontsize="10",style="solid",fontname="Helvetica"];
  Node20 [label="Apps/Gimias/Core/Kernel\l/src/coreRenderingTree.cxx",height=0.2,width=0.4,color="black", fillcolor="white", style="filled",URL="$coreRenderingTree_8cxx.html"];
  Node18 -> Node9 [dir="back",color="midnightblue",fontsize="10",style="solid",fontname="Helvetica"];
  Node18 -> Node21 [dir="back",color="midnightblue",fontsize="10",style="solid",fontname="Helvetica"];
  Node21 [label="Apps/Gimias/GUI/Widgets\l/src/DataEntityInformation\l/coreMetaDataWidget.cpp",height=0.2,width=0.4,color="black", fillcolor="white", style="filled",URL="$coreMetaDataWidget_8cpp.html"];
  Node18 -> Node22 [dir="back",color="midnightblue",fontsize="10",style="solid",fontname="Helvetica"];
  Node22 [label="Apps/Gimias/GUI/Widgets\l/src/MissingDataEntityFields\lWizard/coreMissingDataEntityFields\lWizard.cxx",height=0.2,width=0.4,color="black", fillcolor="white", style="filled",URL="$coreMissingDataEntityFieldsWizard_8cxx.html"];
  Node2 -> Node23 [dir="back",color="midnightblue",fontsize="10",style="solid",fontname="Helvetica"];
  Node23 [label="Apps/Gimias/Core/DataHandling\l/src/coreDataEntityPreview.cxx",height=0.2,width=0.4,color="black", fillcolor="white", style="filled",URL="$coreDataEntityPreview_8cxx.html"];
  Node2 -> Node24 [dir="back",color="midnightblue",fontsize="10",style="solid",fontname="Helvetica"];
  Node24 [label="Apps/Gimias/Core/DataHandling\l/src/coreSession.h",height=0.2,width=0.4,color="red", fillcolor="white", style="filled",URL="$coreSession_8h.html"];
  Node24 -> Node6 [dir="back",color="midnightblue",fontsize="10",style="solid",fontname="Helvetica"];
  Node2 -> Node5 [dir="back",color="midnightblue",fontsize="10",style="solid",fontname="Helvetica"];
  Node2 -> Node25 [dir="back",color="midnightblue",fontsize="10",style="solid",fontname="Helvetica"];
  Node25 [label="Apps/Gimias/Core/Filtering\l/src/coreBaseFilter.h",height=0.2,width=0.4,color="red", fillcolor="white", style="filled",URL="$coreBaseFilter_8h.html"];
  Node25 -> Node26 [dir="back",color="midnightblue",fontsize="10",style="solid",fontname="Helvetica"];
  Node26 [label="Apps/Gimias/Core/Filtering\l/src/coreBaseProcessor.h",height=0.2,width=0.4,color="red", fillcolor="white", style="filled",URL="$coreBaseProcessor_8h.html"];
  Node26 -> Node27 [dir="back",color="midnightblue",fontsize="10",style="solid",fontname="Helvetica"];
  Node27 [label="Apps/Gimias/Core/IO\l/src/coreBaseIO.h",height=0.2,width=0.4,color="red", fillcolor="white", style="filled",URL="$coreBaseIO_8h.html"];
  Node27 -> Node28 [dir="back",color="midnightblue",fontsize="10",style="solid",fontname="Helvetica"];
  Node28 [label="Apps/Gimias/Core/IO\l/src/coreBaseDataEntityReader.h",height=0.2,width=0.4,color="red", fillcolor="white", style="filled",URL="$coreBaseDataEntityReader_8h.html"];
  Node28 -> Node29 [dir="back",color="midnightblue",fontsize="10",style="solid",fontname="Helvetica"];
  Node29 [label="Apps/Gimias/Core/IO\l/src/coreDataEntityReader.h",height=0.2,width=0.4,color="red", fillcolor="white", style="filled",URL="$coreDataEntityReader_8h.html"];
  Node29 -> Node6 [dir="back",color="midnightblue",fontsize="10",style="solid",fontname="Helvetica"];
  Node29 -> Node9 [dir="back",color="midnightblue",fontsize="10",style="solid",fontname="Helvetica"];
  Node27 -> Node30 [dir="back",color="midnightblue",fontsize="10",style="solid",fontname="Helvetica"];
  Node30 [label="Apps/Gimias/Core/IO\l/src/coreBaseDataEntityWriter.h",height=0.2,width=0.4,color="red", fillcolor="white", style="filled",URL="$coreBaseDataEntityWriter_8h.html"];
  Node30 -> Node31 [dir="back",color="midnightblue",fontsize="10",style="solid",fontname="Helvetica"];
  Node31 [label="Apps/Gimias/Core/IO\l/src/coreDataEntityWriter.h",height=0.2,width=0.4,color="red", fillcolor="white", style="filled",URL="$coreDataEntityWriter_8h.html"];
  Node31 -> Node6 [dir="back",color="midnightblue",fontsize="10",style="solid",fontname="Helvetica"];
  Node31 -> Node9 [dir="back",color="midnightblue",fontsize="10",style="solid",fontname="Helvetica"];
  Node26 -> Node29 [dir="back",color="midnightblue",fontsize="10",style="solid",fontname="Helvetica"];
  Node26 -> Node31 [dir="back",color="midnightblue",fontsize="10",style="solid",fontname="Helvetica"];
  Node26 -> Node9 [dir="back",color="midnightblue",fontsize="10",style="solid",fontname="Helvetica"];
  Node25 -> Node19 [dir="back",color="midnightblue",fontsize="10",style="solid",fontname="Helvetica"];
  Node25 -> Node6 [dir="back",color="midnightblue",fontsize="10",style="solid",fontname="Helvetica"];
  Node25 -> Node9 [dir="back",color="midnightblue",fontsize="10",style="solid",fontname="Helvetica"];
  Node2 -> Node26 [dir="back",color="midnightblue",fontsize="10",style="solid",fontname="Helvetica"];
  Node2 -> Node19 [dir="back",color="midnightblue",fontsize="10",style="solid",fontname="Helvetica"];
  Node2 -> Node28 [dir="back",color="midnightblue",fontsize="10",style="solid",fontname="Helvetica"];
  Node2 -> Node27 [dir="back",color="midnightblue",fontsize="10",style="solid",fontname="Helvetica"];
  Node2 -> Node30 [dir="back",color="midnightblue",fontsize="10",style="solid",fontname="Helvetica"];
  Node2 -> Node29 [dir="back",color="midnightblue",fontsize="10",style="solid",fontname="Helvetica"];
  Node2 -> Node31 [dir="back",color="midnightblue",fontsize="10",style="solid",fontname="Helvetica"];
  Node2 -> Node32 [dir="back",color="midnightblue",fontsize="10",style="solid",fontname="Helvetica"];
  Node32 [label="Apps/Gimias/Core/IO\l/src/DataFormatObjects\l/NumericDataFile/coreNumeric\lDataWriter.cxx",height=0.2,width=0.4,color="black", fillcolor="white", style="filled",URL="$coreNumericDataWriter_8cxx.html"];
  Node2 -> Node6 [dir="back",color="midnightblue",fontsize="10",style="solid",fontname="Helvetica"];
  Node2 -> Node33 [dir="back",color="midnightblue",fontsize="10",style="solid",fontname="Helvetica"];
  Node33 [label="Apps/Gimias/Core/Kernel\l/src/coreRenderingTree.h",height=0.2,width=0.4,color="red", fillcolor="white", style="filled",URL="$coreRenderingTree_8h.html"];
  Node33 -> Node34 [dir="back",color="midnightblue",fontsize="10",style="solid",fontname="Helvetica"];
  Node34 [label="Apps/Gimias/Core/Kernel\l/src/coreRenderingTreeManager.h",height=0.2,width=0.4,color="red", fillcolor="white", style="filled",URL="$coreRenderingTreeManager_8h.html"];
  Node34 -> Node9 [dir="back",color="midnightblue",fontsize="10",style="solid",fontname="Helvetica"];
  Node34 -> Node14 [dir="back",color="midnightblue",fontsize="10",style="solid",fontname="Helvetica"];
  Node33 -> Node20 [dir="back",color="midnightblue",fontsize="10",style="solid",fontname="Helvetica"];
  Node33 -> Node9 [dir="back",color="midnightblue",fontsize="10",style="solid",fontname="Helvetica"];
  Node33 -> Node35 [dir="back",color="midnightblue",fontsize="10",style="solid",fontname="Helvetica"];
  Node35 [label="Apps/Gimias/GUI/Widgets\l/src/MultiRenderWindow\l/coreDataTreeHelper.h",height=0.2,width=0.4,color="red", fillcolor="white", style="filled",URL="$coreDataTreeHelper_8h.html"];
  Node35 -> Node13 [dir="back",color="midnightblue",fontsize="10",style="solid",fontname="Helvetica"];
  Node2 -> Node34 [dir="back",color="midnightblue",fontsize="10",style="solid",fontname="Helvetica"];
  Node2 -> Node8 [dir="back",color="midnightblue",fontsize="10",style="solid",fontname="Helvetica"];
  Node2 -> Node7 [dir="back",color="midnightblue",fontsize="10",style="solid",fontname="Helvetica"];
  Node2 -> Node36 [dir="back",color="midnightblue",fontsize="10",style="solid",fontname="Helvetica"];
  Node36 [label="Apps/Gimias/Core/Kernel\l/src/coreEnvironment.h",height=0.2,width=0.4,color="red", fillcolor="white", style="filled",URL="$coreEnvironment_8h.html"];
  Node36 -> Node20 [dir="back",color="midnightblue",fontsize="10",style="solid",fontname="Helvetica"];
  Node2 -> Node37 [dir="back",color="midnightblue",fontsize="10",style="solid",fontname="Helvetica"];
  Node37 [label="Apps/Gimias/Core/Kernel\l/src/coreDataEntityHelper.h",height=0.2,width=0.4,color="red", fillcolor="white", style="filled",URL="$coreDataEntityHelper_8h.html"];
  Node37 -> Node20 [dir="back",color="midnightblue",fontsize="10",style="solid",fontname="Helvetica"];
  Node37 -> Node9 [dir="back",color="midnightblue",fontsize="10",style="solid",fontname="Helvetica"];
  Node37 -> Node10 [dir="back",color="midnightblue",fontsize="10",style="solid",fontname="Helvetica"];
  Node37 -> Node12 [dir="back",color="midnightblue",fontsize="10",style="solid",fontname="Helvetica"];
  Node37 -> Node13 [dir="back",color="midnightblue",fontsize="10",style="solid",fontname="Helvetica"];
  Node2 -> Node20 [dir="back",color="midnightblue",fontsize="10",style="solid",fontname="Helvetica"];
  Node2 -> Node9 [dir="back",color="midnightblue",fontsize="10",style="solid",fontname="Helvetica"];
  Node2 -> Node38 [dir="back",color="midnightblue",fontsize="10",style="solid",fontname="Helvetica"];
  Node38 [label="Apps/Gimias/GUI/Widgets\l/src/DataEntityInformation\l/coreMetadataWidget.h",height=0.2,width=0.4,color="red", fillcolor="white", style="filled",URL="$coreMetadataWidget_8h.html"];
  Node38 -> Node21 [dir="back",color="midnightblue",fontsize="10",style="solid",fontname="Helvetica"];
  Node2 -> Node39 [dir="back",color="midnightblue",fontsize="10",style="solid",fontname="Helvetica"];
  Node39 [label="Apps/Gimias/GUI/Widgets\l/src/DataEntityInformation\l/coreDataInformationWidgetBase.h",height=0.2,width=0.4,color="red", fillcolor="white", style="filled",URL="$coreDataInformationWidgetBase_8h.html"];
  Node2 -> Node40 [dir="back",color="midnightblue",fontsize="10",style="solid",fontname="Helvetica"];
  Node40 [label="Apps/Gimias/GUI/Widgets\l/src/DataEntityInformation\l/coreNumericDataWidget.h",height=0.2,width=0.4,color="red", fillcolor="white", style="filled",URL="$coreNumericDataWidget_8h.html"];
  Node2 -> Node10 [dir="back",color="midnightblue",fontsize="10",style="solid",fontname="Helvetica"];
  Node2 -> Node41 [dir="back",color="midnightblue",fontsize="10",style="solid",fontname="Helvetica"];
  Node41 [label="Apps/Gimias/GUI/Widgets\l/src/InputControl/coreSelection\lComboBox.h",height=0.2,width=0.4,color="red", fillcolor="white", style="filled",URL="$coreSelectionComboBox_8h.html"];
  Node2 -> Node42 [dir="back",color="midnightblue",fontsize="10",style="solid",fontname="Helvetica"];
  Node42 [label="Apps/Gimias/GUI/Widgets\l/src/InputControl/coreInputControl.h",height=0.2,width=0.4,color="red", fillcolor="white", style="filled",URL="$coreInputControl_8h.html"];
  Node42 -> Node10 [dir="back",color="midnightblue",fontsize="10",style="solid",fontname="Helvetica"];
  Node42 -> Node15 [dir="back",color="midnightblue",fontsize="10",style="solid",fontname="Helvetica"];
  Node42 -> Node13 [dir="back",color="midnightblue",fontsize="10",style="solid",fontname="Helvetica"];
  Node2 -> Node43 [dir="back",color="midnightblue",fontsize="10",style="solid",fontname="Helvetica"];
  Node43 [label="Apps/Gimias/GUI/Widgets\l/src/InputControl/coreProcessor\lInputWidget.h",height=0.2,width=0.4,color="red", fillcolor="white", style="filled",URL="$coreProcessorInputWidget_8h.html"];
  Node43 -> Node13 [dir="back",color="midnightblue",fontsize="10",style="solid",fontname="Helvetica"];
  Node2 -> Node44 [dir="back",color="midnightblue",fontsize="10",style="solid",fontname="Helvetica"];
  Node44 [label="Apps/Gimias/GUI/Widgets\l/src/MetadataInformation\l/coreMetadataInformationWidget.h",height=0.2,width=0.4,color="red", fillcolor="white", style="filled",URL="$coreMetadataInformationWidget_8h.html"];
  Node44 -> Node21 [dir="back",color="midnightblue",fontsize="10",style="solid",fontname="Helvetica"];
  Node2 -> Node45 [dir="back",color="midnightblue",fontsize="10",style="solid",fontname="Helvetica"];
  Node45 [label="Apps/Gimias/GUI/Widgets\l/src/MissingDataEntityFields\lWizard/coreMissingDataEntityFields\lWizard.h",height=0.2,width=0.4,color="red", fillcolor="white", style="filled",URL="$coreMissingDataEntityFieldsWizard_8h.html"];
  Node45 -> Node22 [dir="back",color="midnightblue",fontsize="10",style="solid",fontname="Helvetica"];
  Node2 -> Node22 [dir="back",color="midnightblue",fontsize="10",style="solid",fontname="Helvetica"];
  Node2 -> Node11 [dir="back",color="midnightblue",fontsize="10",style="solid",fontname="Helvetica"];
  Node2 -> Node35 [dir="back",color="midnightblue",fontsize="10",style="solid",fontname="Helvetica"];
  Node2 -> Node46 [dir="back",color="midnightblue",fontsize="10",style="solid",fontname="Helvetica"];
  Node46 [label="Apps/Gimias/GUI/Widgets\l/src/MultiRenderWindow\l/coreRenderWindowBase.cxx",height=0.2,width=0.4,color="black", fillcolor="white", style="filled",URL="$coreRenderWindowBase_8cxx.html"];
  Node2 -> Node14 [dir="back",color="midnightblue",fontsize="10",style="solid",fontname="Helvetica"];
  Node2 -> Node12 [dir="back",color="midnightblue",fontsize="10",style="solid",fontname="Helvetica"];
  Node2 -> Node47 [dir="back",color="midnightblue",fontsize="10",style="solid",fontname="Helvetica"];
  Node47 [label="Apps/Gimias/GUI/Widgets\l/src/VisualProperties\l/coreVisualPropertiesBase.h",height=0.2,width=0.4,color="red", fillcolor="white", style="filled",URL="$coreVisualPropertiesBase_8h.html"];
  Node2 -> Node15 [dir="back",color="midnightblue",fontsize="10",style="solid",fontname="Helvetica"];
  Node2 -> Node48 [dir="back",color="midnightblue",fontsize="10",style="solid",fontname="Helvetica"];
  Node48 [label="Apps/Gimias/GUI/Widgets\l/src/wxMitkCoreMainWindow\l/coreWxDataObjectDataEntity.h",height=0.2,width=0.4,color="red", fillcolor="white", style="filled",URL="$coreWxDataObjectDataEntity_8h.html"];
  Node2 -> Node49 [dir="back",color="midnightblue",fontsize="10",style="solid",fontname="Helvetica"];
  Node49 [label="Apps/Plugins/DicomPlugin\l/DicomImageViewWindow.h",height=0.2,width=0.4,color="red", fillcolor="white", style="filled",URL="$DicomImageViewWindow_8h.html"];
  Node1 -> Node50 [dir="back",color="midnightblue",fontsize="10",style="solid",fontname="Helvetica"];
  Node50 [label="Apps/Gimias/Core/DataHandling\l/src/coreDataEntityMetadata.cxx",height=0.2,width=0.4,color="black", fillcolor="white", style="filled",URL="$coreDataEntityMetadata_8cxx.html"];
  Node1 -> Node9 [dir="back",color="midnightblue",fontsize="10",style="solid",fontname="Helvetica"];
  Node1 -> Node10 [dir="back",color="midnightblue",fontsize="10",style="solid",fontname="Helvetica"];
  Node1 -> Node21 [dir="back",color="midnightblue",fontsize="10",style="solid",fontname="Helvetica"];
  Node1 -> Node13 [dir="back",color="midnightblue",fontsize="10",style="solid",fontname="Helvetica"];
}
