digraph "Apps/Gimias/GUI/Widgets/src/WebUpdate/coreWebUpdateDialog.cpp"
{
  edge [fontname="Helvetica",fontsize="10",labelfontname="Helvetica",labelfontsize="10"];
  node [fontname="Helvetica",fontsize="10",shape=record];
  Node1 [label="Apps/Gimias/GUI/Widgets\l/src/WebUpdate/coreWebUpdate\lDialog.cpp",height=0.2,width=0.4,color="black", fillcolor="grey75", style="filled", fontcolor="black"];
  Node1 -> Node2 [color="midnightblue",fontsize="10",style="solid",fontname="Helvetica"];
  Node2 [label="coreWebUpdateDialog.h",height=0.2,width=0.4,color="black", fillcolor="white", style="filled",URL="$coreWebUpdateDialog_8h.html"];
  Node2 -> Node3 [color="midnightblue",fontsize="10",style="solid",fontname="Helvetica"];
  Node3 [label="wx/webupdatedlg.h",height=0.2,width=0.4,color="black", fillcolor="white", style="filled",URL="$webupdatedlg_8h.html"];
  Node3 -> Node4 [color="midnightblue",fontsize="10",style="solid",fontname="Helvetica"];
  Node4 [label="wxWebUpdateDlgUI.h",height=0.2,width=0.4,color="black", fillcolor="white", style="filled",URL="$wxWebUpdateDlgUI_8h.html"];
  Node4 -> Node5 [color="midnightblue",fontsize="10",style="solid",fontname="Helvetica"];
  Node5 [label="wx/wx.h",height=0.2,width=0.4,color="grey75", fillcolor="white", style="filled"];
  Node4 -> Node6 [color="midnightblue",fontsize="10",style="solid",fontname="Helvetica"];
  Node6 [label="wx/image.h",height=0.2,width=0.4,color="grey75", fillcolor="white", style="filled"];
  Node4 -> Node7 [color="midnightblue",fontsize="10",style="solid",fontname="Helvetica"];
  Node7 [label="wx/statline.h",height=0.2,width=0.4,color="grey75", fillcolor="white", style="filled"];
  Node4 -> Node8 [color="midnightblue",fontsize="10",style="solid",fontname="Helvetica"];
  Node8 [label="wx/webupdatectrl.h",height=0.2,width=0.4,color="black", fillcolor="white", style="filled",URL="$webupdatectrl_8h.html"];
  Node8 -> Node9 [color="midnightblue",fontsize="10",style="solid",fontname="Helvetica"];
  Node9 [label="wx/webupdate.h",height=0.2,width=0.4,color="black", fillcolor="white", style="filled",URL="$webupdate_8h.html"];
  Node9 -> Node10 [color="midnightblue",fontsize="10",style="solid",fontname="Helvetica"];
  Node10 [label="wx/webupdatedef.h",height=0.2,width=0.4,color="black", fillcolor="white", style="filled",URL="$webupdatedef_8h.html"];
  Node10 -> Node11 [color="midnightblue",fontsize="10",style="solid",fontname="Helvetica"];
  Node11 [label="tpExtLibWxWebUpdateWin32\lHeader.h",height=0.2,width=0.4,color="grey75", fillcolor="white", style="filled"];
  Node9 -> Node12 [color="midnightblue",fontsize="10",style="solid",fontname="Helvetica"];
  Node12 [label="wx/xml/xml.h",height=0.2,width=0.4,color="grey75", fillcolor="white", style="filled"];
  Node9 -> Node13 [color="midnightblue",fontsize="10",style="solid",fontname="Helvetica"];
  Node13 [label="wx/url.h",height=0.2,width=0.4,color="grey75", fillcolor="white", style="filled"];
  Node9 -> Node14 [color="midnightblue",fontsize="10",style="solid",fontname="Helvetica"];
  Node14 [label="wx/log.h",height=0.2,width=0.4,color="grey75", fillcolor="white", style="filled"];
  Node9 -> Node15 [color="midnightblue",fontsize="10",style="solid",fontname="Helvetica"];
  Node15 [label="wx/textfile.h",height=0.2,width=0.4,color="grey75", fillcolor="white", style="filled"];
  Node8 -> Node16 [color="midnightblue",fontsize="10",style="solid",fontname="Helvetica"];
  Node16 [label="wx/download.h",height=0.2,width=0.4,color="black", fillcolor="white", style="filled",URL="$download_8h.html"];
  Node16 -> Node10 [color="midnightblue",fontsize="10",style="solid",fontname="Helvetica"];
  Node16 -> Node13 [color="midnightblue",fontsize="10",style="solid",fontname="Helvetica"];
  Node16 -> Node17 [color="midnightblue",fontsize="10",style="solid",fontname="Helvetica"];
  Node17 [label="wx/datetime.h",height=0.2,width=0.4,color="grey75", fillcolor="white", style="filled"];
  Node8 -> Node18 [color="midnightblue",fontsize="10",style="solid",fontname="Helvetica"];
  Node18 [label="wx/checkedlistctrl.h",height=0.2,width=0.4,color="red", fillcolor="white", style="filled",URL="$checkedlistctrl_8h.html"];
  Node18 -> Node10 [color="midnightblue",fontsize="10",style="solid",fontname="Helvetica"];
  Node18 -> Node19 [color="midnightblue",fontsize="10",style="solid",fontname="Helvetica"];
  Node19 [label="wx/listctrl.h",height=0.2,width=0.4,color="grey75", fillcolor="white", style="filled"];
  Node8 -> Node20 [color="midnightblue",fontsize="10",style="solid",fontname="Helvetica"];
  Node20 [label="wx/installer.h",height=0.2,width=0.4,color="black", fillcolor="white", style="filled",URL="$installer_8h.html"];
  Node20 -> Node10 [color="midnightblue",fontsize="10",style="solid",fontname="Helvetica"];
  Node20 -> Node9 [color="midnightblue",fontsize="10",style="solid",fontname="Helvetica"];
  Node8 -> Node21 [color="midnightblue",fontsize="10",style="solid",fontname="Helvetica"];
  Node21 [label="wx/dialog.h",height=0.2,width=0.4,color="grey75", fillcolor="white", style="filled"];
  Node8 -> Node22 [color="midnightblue",fontsize="10",style="solid",fontname="Helvetica"];
  Node22 [label="wx/panel.h",height=0.2,width=0.4,color="grey75", fillcolor="white", style="filled"];
  Node8 -> Node23 [color="midnightblue",fontsize="10",style="solid",fontname="Helvetica"];
  Node23 [label="wx/checkbox.h",height=0.2,width=0.4,color="grey75", fillcolor="white", style="filled"];
  Node8 -> Node24 [color="midnightblue",fontsize="10",style="solid",fontname="Helvetica"];
  Node24 [label="wx/textctrl.h",height=0.2,width=0.4,color="grey75", fillcolor="white", style="filled"];
  Node8 -> Node25 [color="midnightblue",fontsize="10",style="solid",fontname="Helvetica"];
  Node25 [label="wx/xrc/xmlres.h",height=0.2,width=0.4,color="grey75", fillcolor="white", style="filled"];
  Node4 -> Node26 [color="midnightblue",fontsize="10",style="solid",fontname="Helvetica"];
  Node26 [label="wx/webupdateadvpanel.h",height=0.2,width=0.4,color="black", fillcolor="white", style="filled",URL="$webupdateadvpanel_8h.html"];
  Node26 -> Node27 [color="midnightblue",fontsize="10",style="solid",fontname="Helvetica"];
  Node27 [label="wxWebUpdateAdvPanelUI.h",height=0.2,width=0.4,color="black", fillcolor="white", style="filled",URL="$wxWebUpdateAdvPanelUI_8h.html"];
  Node27 -> Node5 [color="midnightblue",fontsize="10",style="solid",fontname="Helvetica"];
  Node27 -> Node6 [color="midnightblue",fontsize="10",style="solid",fontname="Helvetica"];
  Node26 -> Node9 [color="midnightblue",fontsize="10",style="solid",fontname="Helvetica"];
  Node26 -> Node16 [color="midnightblue",fontsize="10",style="solid",fontname="Helvetica"];
  Node26 -> Node8 [color="midnightblue",fontsize="10",style="solid",fontname="Helvetica"];
  Node26 -> Node20 [color="midnightblue",fontsize="10",style="solid",fontname="Helvetica"];
  Node26 -> Node21 [color="midnightblue",fontsize="10",style="solid",fontname="Helvetica"];
  Node26 -> Node22 [color="midnightblue",fontsize="10",style="solid",fontname="Helvetica"];
  Node26 -> Node23 [color="midnightblue",fontsize="10",style="solid",fontname="Helvetica"];
  Node26 -> Node24 [color="midnightblue",fontsize="10",style="solid",fontname="Helvetica"];
  Node3 -> Node9 [color="midnightblue",fontsize="10",style="solid",fontname="Helvetica"];
  Node3 -> Node16 [color="midnightblue",fontsize="10",style="solid",fontname="Helvetica"];
  Node3 -> Node8 [color="midnightblue",fontsize="10",style="solid",fontname="Helvetica"];
  Node3 -> Node20 [color="midnightblue",fontsize="10",style="solid",fontname="Helvetica"];
  Node3 -> Node21 [color="midnightblue",fontsize="10",style="solid",fontname="Helvetica"];
  Node3 -> Node22 [color="midnightblue",fontsize="10",style="solid",fontname="Helvetica"];
  Node3 -> Node23 [color="midnightblue",fontsize="10",style="solid",fontname="Helvetica"];
  Node3 -> Node24 [color="midnightblue",fontsize="10",style="solid",fontname="Helvetica"];
  Node3 -> Node28 [color="midnightblue",fontsize="10",style="solid",fontname="Helvetica"];
  Node28 [label="list",height=0.2,width=0.4,color="grey75", fillcolor="white", style="filled"];
  Node2 -> Node9 [color="midnightblue",fontsize="10",style="solid",fontname="Helvetica"];
  Node1 -> Node29 [color="midnightblue",fontsize="10",style="solid",fontname="Helvetica"];
  Node29 [label="coreDirectory.h",height=0.2,width=0.4,color="black", fillcolor="white", style="filled",URL="$coreDirectory_8h.html"];
  Node29 -> Node30 [color="midnightblue",fontsize="10",style="solid",fontname="Helvetica"];
  Node30 [label="coreObject.h",height=0.2,width=0.4,color="black", fillcolor="white", style="filled",URL="$coreObject_8h.html"];
  Node30 -> Node31 [color="midnightblue",fontsize="10",style="solid",fontname="Helvetica"];
  Node31 [label="gmCommonObjectsWin32Header.h",height=0.2,width=0.4,color="grey75", fillcolor="white", style="filled"];
  Node30 -> Node32 [color="midnightblue",fontsize="10",style="solid",fontname="Helvetica"];
  Node32 [label="coreCommonMacros.h",height=0.2,width=0.4,color="black", fillcolor="white", style="filled",URL="$coreCommonMacros_8h.html"];
  Node30 -> Node33 [color="midnightblue",fontsize="10",style="solid",fontname="Helvetica"];
  Node33 [label="coreSmartPointerMacros.h",height=0.2,width=0.4,color="black", fillcolor="white", style="filled",URL="$coreSmartPointerMacros_8h.html"];
  Node33 -> Node32 [color="midnightblue",fontsize="10",style="solid",fontname="Helvetica"];
  Node33 -> Node34 [color="midnightblue",fontsize="10",style="solid",fontname="Helvetica"];
  Node34 [label="itkSmartPointer.h",height=0.2,width=0.4,color="grey75", fillcolor="white", style="filled"];
  Node30 -> Node35 [color="midnightblue",fontsize="10",style="solid",fontname="Helvetica"];
  Node35 [label="blTagMap.h",height=0.2,width=0.4,color="black", fillcolor="white", style="filled",URL="$blTagMap_8h.html"];
  Node35 -> Node36 [color="midnightblue",fontsize="10",style="solid",fontname="Helvetica"];
  Node36 [label="blLightObject.h",height=0.2,width=0.4,color="red", fillcolor="white", style="filled",URL="$blLightObject_8h.html"];
  Node35 -> Node37 [color="midnightblue",fontsize="10",style="solid",fontname="Helvetica"];
  Node37 [label="blTag.h",height=0.2,width=0.4,color="red", fillcolor="white", style="filled",URL="$blTag_8h.html"];
  Node37 -> Node36 [color="midnightblue",fontsize="10",style="solid",fontname="Helvetica"];
  Node37 -> Node38 [color="midnightblue",fontsize="10",style="solid",fontname="Helvetica"];
  Node38 [label="CILabExceptionMacros.h",height=0.2,width=0.4,color="red", fillcolor="white", style="filled",URL="$CILabExceptionMacros_8h.html"];
  Node38 -> Node39 [color="midnightblue",fontsize="10",style="solid",fontname="Helvetica"];
  Node39 [label="string",height=0.2,width=0.4,color="grey75", fillcolor="white", style="filled"];
  Node37 -> Node39 [color="midnightblue",fontsize="10",style="solid",fontname="Helvetica"];
  Node35 -> Node38 [color="midnightblue",fontsize="10",style="solid",fontname="Helvetica"];
  Node35 -> Node40 [color="midnightblue",fontsize="10",style="solid",fontname="Helvetica"];
  Node40 [label="boost/signals.hpp",height=0.2,width=0.4,color="grey75", fillcolor="white", style="filled"];
  Node35 -> Node41 [color="midnightblue",fontsize="10",style="solid",fontname="Helvetica"];
  Node41 [label="boost/bind.hpp",height=0.2,width=0.4,color="grey75", fillcolor="white", style="filled"];
  Node35 -> Node39 [color="midnightblue",fontsize="10",style="solid",fontname="Helvetica"];
  Node35 -> Node42 [color="midnightblue",fontsize="10",style="solid",fontname="Helvetica"];
  Node42 [label="map",height=0.2,width=0.4,color="grey75", fillcolor="white", style="filled"];
  Node30 -> Node43 [color="midnightblue",fontsize="10",style="solid",fontname="Helvetica"];
  Node43 [label="itkLightObject.h",height=0.2,width=0.4,color="grey75", fillcolor="white", style="filled"];
  Node30 -> Node44 [color="midnightblue",fontsize="10",style="solid",fontname="Helvetica"];
  Node44 [label="itkTimeStamp.h",height=0.2,width=0.4,color="grey75", fillcolor="white", style="filled"];
  Node30 -> Node40 [color="midnightblue",fontsize="10",style="solid",fontname="Helvetica"];
  Node30 -> Node41 [color="midnightblue",fontsize="10",style="solid",fontname="Helvetica"];
  Node29 -> Node45 [color="midnightblue",fontsize="10",style="solid",fontname="Helvetica"];
  Node45 [label="coreFile.h",height=0.2,width=0.4,color="black", fillcolor="white", style="filled",URL="$coreFile_8h.html"];
  Node45 -> Node46 [color="midnightblue",fontsize="10",style="solid",fontname="Helvetica"];
  Node46 [label="gmIOWin32Header.h",height=0.2,width=0.4,color="grey75", fillcolor="white", style="filled"];
  Node45 -> Node30 [color="midnightblue",fontsize="10",style="solid",fontname="Helvetica"];
  Node45 -> Node39 [color="midnightblue",fontsize="10",style="solid",fontname="Helvetica"];
  Node29 -> Node47 [color="midnightblue",fontsize="10",style="solid",fontname="Helvetica"];
  Node47 [label="coreDirEntryFilter.h",height=0.2,width=0.4,color="black", fillcolor="white", style="filled",URL="$coreDirEntryFilter_8h.html"];
  Node47 -> Node46 [color="midnightblue",fontsize="10",style="solid",fontname="Helvetica"];
  Node47 -> Node30 [color="midnightblue",fontsize="10",style="solid",fontname="Helvetica"];
  Node47 -> Node28 [color="midnightblue",fontsize="10",style="solid",fontname="Helvetica"];
  Node47 -> Node39 [color="midnightblue",fontsize="10",style="solid",fontname="Helvetica"];
  Node29 -> Node39 [color="midnightblue",fontsize="10",style="solid",fontname="Helvetica"];
  Node29 -> Node48 [color="midnightblue",fontsize="10",style="solid",fontname="Helvetica"];
  Node48 [label="vector",height=0.2,width=0.4,color="grey75", fillcolor="white", style="filled"];
  Node1 -> Node49 [color="midnightblue",fontsize="10",style="solid",fontname="Helvetica"];
  Node49 [label="wx/filename.h",height=0.2,width=0.4,color="grey75", fillcolor="white", style="filled"];
  Node1 -> Node20 [color="midnightblue",fontsize="10",style="solid",fontname="Helvetica"];
  Node1 -> Node3 [color="midnightblue",fontsize="10",style="solid",fontname="Helvetica"];
  Node1 -> Node50 [color="midnightblue",fontsize="10",style="solid",fontname="Helvetica"];
  Node50 [label="wx/apptrait.h",height=0.2,width=0.4,color="grey75", fillcolor="white", style="filled"];
}
