digraph "Apps/Gimias/GUI/MainApp/src/coreMainApp.cxx"
{
  edge [fontname="Helvetica",fontsize="10",labelfontname="Helvetica",labelfontsize="10"];
  node [fontname="Helvetica",fontsize="10",shape=record];
  Node1 [label="Apps/Gimias/GUI/MainApp\l/src/coreMainApp.cxx",height=0.2,width=0.4,color="black", fillcolor="grey75", style="filled", fontcolor="black"];
  Node1 -> Node2 [color="midnightblue",fontsize="10",style="solid",fontname="Helvetica"];
  Node2 [label="wx/wxprec.h",height=0.2,width=0.4,color="grey75", fillcolor="white", style="filled"];
  Node1 -> Node3 [color="midnightblue",fontsize="10",style="solid",fontname="Helvetica"];
  Node3 [label="wx/wx.h",height=0.2,width=0.4,color="grey75", fillcolor="white", style="filled"];
  Node1 -> Node4 [color="midnightblue",fontsize="10",style="solid",fontname="Helvetica"];
  Node4 [label="coreKernel.h",height=0.2,width=0.4,color="black", fillcolor="white", style="filled",URL="$coreKernel_8h.html"];
  Node4 -> Node5 [color="midnightblue",fontsize="10",style="solid",fontname="Helvetica"];
  Node5 [label="coreObject.h",height=0.2,width=0.4,color="red", fillcolor="white", style="filled",URL="$coreObject_8h.html"];
  Node5 -> Node6 [color="midnightblue",fontsize="10",style="solid",fontname="Helvetica"];
  Node6 [label="gmCommonObjectsWin32Header.h",height=0.2,width=0.4,color="grey75", fillcolor="white", style="filled"];
  Node5 -> Node7 [color="midnightblue",fontsize="10",style="solid",fontname="Helvetica"];
  Node7 [label="coreCommonMacros.h",height=0.2,width=0.4,color="black", fillcolor="white", style="filled",URL="$coreCommonMacros_8h.html"];
  Node4 -> Node8 [color="midnightblue",fontsize="10",style="solid",fontname="Helvetica"];
  Node8 [label="coreEnvironment.h",height=0.2,width=0.4,color="red", fillcolor="white", style="filled",URL="$coreEnvironment_8h.html"];
  Node8 -> Node9 [color="midnightblue",fontsize="10",style="solid",fontname="Helvetica"];
  Node9 [label="gmKernelWin32Header.h",height=0.2,width=0.4,color="grey75", fillcolor="white", style="filled"];
  Node8 -> Node5 [color="midnightblue",fontsize="10",style="solid",fontname="Helvetica"];
  Node8 -> Node10 [color="midnightblue",fontsize="10",style="solid",fontname="Helvetica"];
  Node10 [label="string",height=0.2,width=0.4,color="grey75", fillcolor="white", style="filled"];
  Node4 -> Node11 [color="midnightblue",fontsize="10",style="solid",fontname="Helvetica"];
  Node11 [label="coreBaseFactory.h",height=0.2,width=0.4,color="red", fillcolor="white", style="filled",URL="$coreBaseFactory_8h.html"];
  Node11 -> Node6 [color="midnightblue",fontsize="10",style="solid",fontname="Helvetica"];
  Node11 -> Node7 [color="midnightblue",fontsize="10",style="solid",fontname="Helvetica"];
  Node11 -> Node5 [color="midnightblue",fontsize="10",style="solid",fontname="Helvetica"];
  Node4 -> Node12 [color="midnightblue",fontsize="10",style="solid",fontname="Helvetica"];
  Node12 [label="coreBaseMainWindow.h",height=0.2,width=0.4,color="red", fillcolor="white", style="filled",URL="$coreBaseMainWindow_8h.html"];
  Node12 -> Node10 [color="midnightblue",fontsize="10",style="solid",fontname="Helvetica"];
  Node12 -> Node13 [color="midnightblue",fontsize="10",style="solid",fontname="Helvetica"];
  Node13 [label="coreWindowConfig.h",height=0.2,width=0.4,color="black", fillcolor="white", style="filled",URL="$coreWindowConfig_8h.html"];
  Node13 -> Node10 [color="midnightblue",fontsize="10",style="solid",fontname="Helvetica"];
  Node13 -> Node9 [color="midnightblue",fontsize="10",style="solid",fontname="Helvetica"];
  Node12 -> Node14 [color="midnightblue",fontsize="10",style="solid",fontname="Helvetica"];
  Node14 [label="/home/el1mc/src/bitbucket\l/cistib/cilab-gimiax/src\l/Apps/Gimias/Core/Kernel\l/src/coreReportExceptionMacros.h",height=0.2,width=0.4,color="grey75", fillcolor="white", style="filled"];
  Node1 -> Node15 [color="midnightblue",fontsize="10",style="solid",fontname="Helvetica"];
  Node15 [label="coreMainApp.h",height=0.2,width=0.4,color="black", fillcolor="white", style="filled",URL="$coreMainApp_8h.html"];
  Node15 -> Node16 [color="midnightblue",fontsize="10",style="solid",fontname="Helvetica"];
  Node16 [label="wx/app.h",height=0.2,width=0.4,color="grey75", fillcolor="white", style="filled"];
  Node15 -> Node17 [color="midnightblue",fontsize="10",style="solid",fontname="Helvetica"];
  Node17 [label="coreWxEnvironment.h",height=0.2,width=0.4,color="black", fillcolor="white", style="filled",URL="$coreWxEnvironment_8h.html"];
  Node17 -> Node18 [color="midnightblue",fontsize="10",style="solid",fontname="Helvetica"];
  Node18 [label="gmWidgetsWin32Header.h",height=0.2,width=0.4,color="grey75", fillcolor="white", style="filled"];
  Node17 -> Node8 [color="midnightblue",fontsize="10",style="solid",fontname="Helvetica"];
  Node15 -> Node19 [color="midnightblue",fontsize="10",style="solid",fontname="Helvetica"];
  Node19 [label="coreCommandLineParser.h",height=0.2,width=0.4,color="black", fillcolor="white", style="filled",URL="$coreCommandLineParser_8h.html"];
  Node15 -> Node20 [color="midnightblue",fontsize="10",style="solid",fontname="Helvetica"];
  Node20 [label="blClock.h",height=0.2,width=0.4,color="black", fillcolor="white", style="filled",URL="$blClock_8h.html"];
  Node1 -> Node21 [color="midnightblue",fontsize="10",style="solid",fontname="Helvetica"];
  Node21 [label="coreLogger.h",height=0.2,width=0.4,color="black", fillcolor="white", style="filled",URL="$coreLogger_8h.html"];
  Node21 -> Node9 [color="midnightblue",fontsize="10",style="solid",fontname="Helvetica"];
  Node21 -> Node5 [color="midnightblue",fontsize="10",style="solid",fontname="Helvetica"];
  Node21 -> Node22 [color="midnightblue",fontsize="10",style="solid",fontname="Helvetica"];
  Node22 [label="stdio.h",height=0.2,width=0.4,color="grey75", fillcolor="white", style="filled"];
  Node21 -> Node10 [color="midnightblue",fontsize="10",style="solid",fontname="Helvetica"];
  Node1 -> Node23 [color="midnightblue",fontsize="10",style="solid",fontname="Helvetica"];
  Node23 [label="coreException.h",height=0.2,width=0.4,color="black", fillcolor="white", style="filled",URL="$coreException_8h.html"];
  Node23 -> Node24 [color="midnightblue",fontsize="10",style="solid",fontname="Helvetica"];
  Node24 [label="exception",height=0.2,width=0.4,color="grey75", fillcolor="white", style="filled"];
  Node23 -> Node10 [color="midnightblue",fontsize="10",style="solid",fontname="Helvetica"];
  Node23 -> Node25 [color="midnightblue",fontsize="10",style="solid",fontname="Helvetica"];
  Node25 [label="list",height=0.2,width=0.4,color="grey75", fillcolor="white", style="filled"];
  Node23 -> Node6 [color="midnightblue",fontsize="10",style="solid",fontname="Helvetica"];
  Node23 -> Node7 [color="midnightblue",fontsize="10",style="solid",fontname="Helvetica"];
  Node23 -> Node26 [color="midnightblue",fontsize="10",style="solid",fontname="Helvetica"];
  Node26 [label="coreCreateExceptionMacros.h",height=0.2,width=0.4,color="black", fillcolor="white", style="filled",URL="$coreCreateExceptionMacros_8h.html"];
  Node23 -> Node27 [color="midnightblue",fontsize="10",style="solid",fontname="Helvetica"];
  Node27 [label="coreBaseExceptions.h",height=0.2,width=0.4,color="black", fillcolor="white", style="filled",URL="$coreBaseExceptions_8h.html"];
  Node27 -> Node26 [color="midnightblue",fontsize="10",style="solid",fontname="Helvetica"];
  Node23 -> Node28 [color="midnightblue",fontsize="10",style="solid",fontname="Helvetica"];
  Node28 [label="coreExceptionMacros.h",height=0.2,width=0.4,color="black", fillcolor="white", style="filled",URL="$coreExceptionMacros_8h.html"];
  Node1 -> Node29 [color="midnightblue",fontsize="10",style="solid",fontname="Helvetica"];
  Node29 [label="coreSettings.h",height=0.2,width=0.4,color="black", fillcolor="white", style="filled",URL="$coreSettings_8h.html"];
  Node29 -> Node9 [color="midnightblue",fontsize="10",style="solid",fontname="Helvetica"];
  Node29 -> Node5 [color="midnightblue",fontsize="10",style="solid",fontname="Helvetica"];
  Node29 -> Node30 [color="midnightblue",fontsize="10",style="solid",fontname="Helvetica"];
  Node30 [label="coreConfigVars.h",height=0.2,width=0.4,color="red", fillcolor="white", style="filled",URL="$coreConfigVars_8h.html"];
  Node29 -> Node31 [color="midnightblue",fontsize="10",style="solid",fontname="Helvetica"];
  Node31 [label="coreSettingsIO.h",height=0.2,width=0.4,color="black", fillcolor="white", style="filled",URL="$coreSettingsIO_8h.html"];
  Node31 -> Node5 [color="midnightblue",fontsize="10",style="solid",fontname="Helvetica"];
  Node31 -> Node30 [color="midnightblue",fontsize="10",style="solid",fontname="Helvetica"];
  Node31 -> Node10 [color="midnightblue",fontsize="10",style="solid",fontname="Helvetica"];
  Node29 -> Node10 [color="midnightblue",fontsize="10",style="solid",fontname="Helvetica"];
  Node29 -> Node32 [color="midnightblue",fontsize="10",style="solid",fontname="Helvetica"];
  Node32 [label="boost/thread/mutex.hpp",height=0.2,width=0.4,color="grey75", fillcolor="white", style="filled"];
  Node1 -> Node33 [color="midnightblue",fontsize="10",style="solid",fontname="Helvetica"];
  Node33 [label="coreWxMitkGraphicalInterface.h",height=0.2,width=0.4,color="black", fillcolor="white", style="filled",URL="$coreWxMitkGraphicalInterface_8h.html"];
  Node33 -> Node5 [color="midnightblue",fontsize="10",style="solid",fontname="Helvetica"];
  Node33 -> Node13 [color="midnightblue",fontsize="10",style="solid",fontname="Helvetica"];
  Node33 -> Node34 [color="midnightblue",fontsize="10",style="solid",fontname="Helvetica"];
  Node34 [label="dynModuleExecutionImpl.h",height=0.2,width=0.4,color="red", fillcolor="white", style="filled",URL="$dynModuleExecutionImpl_8h.html"];
  Node34 -> Node25 [color="midnightblue",fontsize="10",style="solid",fontname="Helvetica"];
  Node34 -> Node35 [color="midnightblue",fontsize="10",style="solid",fontname="Helvetica"];
  Node35 [label="map",height=0.2,width=0.4,color="grey75", fillcolor="white", style="filled"];
  Node33 -> Node35 [color="midnightblue",fontsize="10",style="solid",fontname="Helvetica"];
  Node33 -> Node10 [color="midnightblue",fontsize="10",style="solid",fontname="Helvetica"];
  Node1 -> Node36 [color="midnightblue",fontsize="10",style="solid",fontname="Helvetica"];
  Node36 [label="coreDataEntityBuildersRegistration.h",height=0.2,width=0.4,color="black", fillcolor="white", style="filled",URL="$coreDataEntityBuildersRegistration_8h.html"];
  Node36 -> Node37 [color="midnightblue",fontsize="10",style="solid",fontname="Helvetica"];
  Node37 [label="gmDataHandlingWin32Header.h",height=0.2,width=0.4,color="grey75", fillcolor="white", style="filled"];
  Node36 -> Node5 [color="midnightblue",fontsize="10",style="solid",fontname="Helvetica"];
  Node1 -> Node38 [color="midnightblue",fontsize="10",style="solid",fontname="Helvetica"];
  Node38 [label="coreWxMitkCoreMainWindow.h",height=0.2,width=0.4,color="red", fillcolor="white", style="filled",URL="$coreWxMitkCoreMainWindow_8h.html"];
  Node38 -> Node18 [color="midnightblue",fontsize="10",style="solid",fontname="Helvetica"];
  Node38 -> Node5 [color="midnightblue",fontsize="10",style="solid",fontname="Helvetica"];
  Node38 -> Node12 [color="midnightblue",fontsize="10",style="solid",fontname="Helvetica"];
  Node38 -> Node13 [color="midnightblue",fontsize="10",style="solid",fontname="Helvetica"];
  Node38 -> Node39 [color="midnightblue",fontsize="10",style="solid",fontname="Helvetica"];
  Node39 [label="coreWorkingAreaStorage.h",height=0.2,width=0.4,color="red", fillcolor="white", style="filled",URL="$coreWorkingAreaStorage_8h.html"];
  Node39 -> Node18 [color="midnightblue",fontsize="10",style="solid",fontname="Helvetica"];
  Node38 -> Node40 [color="midnightblue",fontsize="10",style="solid",fontname="Helvetica"];
  Node40 [label="coreWxUpdateCallbackEvent.h",height=0.2,width=0.4,color="red", fillcolor="white", style="filled",URL="$coreWxUpdateCallbackEvent_8h.html"];
  Node38 -> Node41 [color="midnightblue",fontsize="10",style="solid",fontname="Helvetica"];
  Node41 [label="coreStyleManager.h",height=0.2,width=0.4,color="red", fillcolor="white", style="filled",URL="$coreStyleManager_8h.html"];
  Node41 -> Node18 [color="midnightblue",fontsize="10",style="solid",fontname="Helvetica"];
  Node41 -> Node5 [color="midnightblue",fontsize="10",style="solid",fontname="Helvetica"];
  Node38 -> Node10 [color="midnightblue",fontsize="10",style="solid",fontname="Helvetica"];
  Node1 -> Node14 [color="midnightblue",fontsize="10",style="solid",fontname="Helvetica"];
  Node1 -> Node42 [color="midnightblue",fontsize="10",style="solid",fontname="Helvetica"];
  Node42 [label="coreDataEntityHelper.h",height=0.2,width=0.4,color="red", fillcolor="white", style="filled",URL="$coreDataEntityHelper_8h.html"];
  Node42 -> Node9 [color="midnightblue",fontsize="10",style="solid",fontname="Helvetica"];
  Node42 -> Node5 [color="midnightblue",fontsize="10",style="solid",fontname="Helvetica"];
  Node42 -> Node25 [color="midnightblue",fontsize="10",style="solid",fontname="Helvetica"];
  Node1 -> Node43 [color="midnightblue",fontsize="10",style="solid",fontname="Helvetica"];
  Node43 [label="coreDataTreeHelper.h",height=0.2,width=0.4,color="red", fillcolor="white", style="filled",URL="$coreDataTreeHelper_8h.html"];
  Node43 -> Node18 [color="midnightblue",fontsize="10",style="solid",fontname="Helvetica"];
  Node43 -> Node5 [color="midnightblue",fontsize="10",style="solid",fontname="Helvetica"];
  Node1 -> Node44 [color="midnightblue",fontsize="10",style="solid",fontname="Helvetica"];
  Node44 [label="corePluginTab.h",height=0.2,width=0.4,color="red", fillcolor="white", style="filled",URL="$corePluginTab_8h.html"];
  Node44 -> Node5 [color="midnightblue",fontsize="10",style="solid",fontname="Helvetica"];
  Node44 -> Node13 [color="midnightblue",fontsize="10",style="solid",fontname="Helvetica"];
  Node1 -> Node45 [color="midnightblue",fontsize="10",style="solid",fontname="Helvetica"];
  Node45 [label="coreSessionReader.h",height=0.2,width=0.4,color="red", fillcolor="white", style="filled",URL="$coreSessionReader_8h.html"];
  Node45 -> Node9 [color="midnightblue",fontsize="10",style="solid",fontname="Helvetica"];
  Node45 -> Node5 [color="midnightblue",fontsize="10",style="solid",fontname="Helvetica"];
  Node1 -> Node46 [color="midnightblue",fontsize="10",style="solid",fontname="Helvetica"];
  Node46 [label="guicon.h",height=0.2,width=0.4,color="black", fillcolor="white", style="filled",URL="$guicon_8h.html"];
  Node1 -> Node47 [color="midnightblue",fontsize="10",style="solid",fontname="Helvetica"];
  Node47 [label="wx/cmdline.h",height=0.2,width=0.4,color="grey75", fillcolor="white", style="filled"];
  Node1 -> Node48 [color="midnightblue",fontsize="10",style="solid",fontname="Helvetica"];
  Node48 [label="iostream",height=0.2,width=0.4,color="grey75", fillcolor="white", style="filled"];
  Node1 -> Node22 [color="midnightblue",fontsize="10",style="solid",fontname="Helvetica"];
  Node1 -> Node10 [color="midnightblue",fontsize="10",style="solid",fontname="Helvetica"];
  Node1 -> Node49 [color="midnightblue",fontsize="10",style="solid",fontname="Helvetica"];
  Node49 [label="wxMitkAbortEventFilter.h",height=0.2,width=0.4,color="red", fillcolor="white", style="filled",URL="$wxMitkAbortEventFilter_8h.html"];
  Node1 -> Node50 [color="midnightblue",fontsize="10",style="solid",fontname="Helvetica"];
  Node50 [label="wx/log.h",height=0.2,width=0.4,color="grey75", fillcolor="white", style="filled"];
}
