digraph "Apps/Gimias/GUI/Widgets/src/DataEntityListBrowser/coreDataEntityListBrowser.h"
{
  edge [fontname="Helvetica",fontsize="10",labelfontname="Helvetica",labelfontsize="10"];
  node [fontname="Helvetica",fontsize="10",shape=record];
  Node1 [label="Apps/Gimias/GUI/Widgets\l/src/DataEntityListBrowser\l/coreDataEntityListBrowser.h",height=0.2,width=0.4,color="black", fillcolor="grey75", style="filled", fontcolor="black"];
  Node1 -> Node2 [dir="back",color="midnightblue",fontsize="10",style="solid",fontname="Helvetica"];
  Node2 [label="Apps/Gimias/GUI/Widgets\l/src/DataEntityInformation\l/coreDataEntityInformation.h",height=0.2,width=0.4,color="black", fillcolor="white", style="filled",URL="$coreDataEntityInformation_8h.html"];
  Node2 -> Node3 [dir="back",color="midnightblue",fontsize="10",style="solid",fontname="Helvetica"];
  Node3 [label="Apps/Gimias/GUI/Widgets\l/src/DataEntityInformation\l/coreDataEntityInformation.cxx",height=0.2,width=0.4,color="black", fillcolor="white", style="filled",URL="$coreDataEntityInformation_8cxx.html"];
  Node2 -> Node4 [dir="back",color="midnightblue",fontsize="10",style="solid",fontname="Helvetica"];
  Node4 [label="Apps/Gimias/GUI/Widgets\l/src/PluginTab/corePluginTab\lFactory.cxx",height=0.2,width=0.4,color="black", fillcolor="white", style="filled",URL="$corePluginTabFactory_8cxx.html"];
  Node2 -> Node5 [dir="back",color="midnightblue",fontsize="10",style="solid",fontname="Helvetica"];
  Node5 [label="Apps/Gimias/GUI/Widgets\l/src/wxMitkCoreMainWindow\l/coreWxMitkCoreMainWindow.cxx",height=0.2,width=0.4,color="black", fillcolor="white", style="filled",URL="$coreWxMitkCoreMainWindow_8cxx.html"];
  Node2 -> Node6 [dir="back",color="midnightblue",fontsize="10",style="solid",fontname="Helvetica"];
  Node6 [label="Apps/Plugins/MITKPlugin\l/widgets/DataInformation\l/coreDataInformation.h",height=0.2,width=0.4,color="red", fillcolor="white", style="filled",URL="$coreDataInformation_8h.html"];
  Node1 -> Node7 [dir="back",color="midnightblue",fontsize="10",style="solid",fontname="Helvetica"];
  Node7 [label="Apps/Gimias/GUI/Widgets\l/src/DataEntityListBrowser\l/coreDataEntityListBrowser.cxx",height=0.2,width=0.4,color="black", fillcolor="white", style="filled",URL="$coreDataEntityListBrowser_8cxx.html"];
  Node1 -> Node8 [dir="back",color="midnightblue",fontsize="10",style="solid",fontname="Helvetica"];
  Node8 [label="Apps/Gimias/GUI/Widgets\l/src/InputControl/coreBaseInput\lControl.cxx",height=0.2,width=0.4,color="black", fillcolor="white", style="filled",URL="$coreBaseInputControl_8cxx.html"];
  Node1 -> Node9 [dir="back",color="midnightblue",fontsize="10",style="solid",fontname="Helvetica"];
  Node9 [label="Apps/Gimias/GUI/Widgets\l/src/InputControl/coreInputControl.cxx",height=0.2,width=0.4,color="black", fillcolor="white", style="filled",URL="$coreInputControl_8cxx.html"];
  Node1 -> Node10 [dir="back",color="midnightblue",fontsize="10",style="solid",fontname="Helvetica"];
  Node10 [label="Apps/Gimias/GUI/Widgets\l/src/InputControl/coreProcessor\lInputWidget.cxx",height=0.2,width=0.4,color="black", fillcolor="white", style="filled",URL="$coreProcessorInputWidget_8cxx.html"];
  Node1 -> Node11 [dir="back",color="midnightblue",fontsize="10",style="solid",fontname="Helvetica"];
  Node11 [label="Apps/Gimias/GUI/Widgets\l/src/MovieToolbar/coreMovieToolbar.cxx",height=0.2,width=0.4,color="black", fillcolor="white", style="filled",URL="$coreMovieToolbar_8cxx.html"];
  Node1 -> Node12 [dir="back",color="midnightblue",fontsize="10",style="solid",fontname="Helvetica"];
  Node12 [label="Apps/Gimias/GUI/Widgets\l/src/PluginTab/corePluginTab.cxx",height=0.2,width=0.4,color="black", fillcolor="white", style="filled",URL="$corePluginTab_8cxx.html"];
  Node1 -> Node4 [dir="back",color="midnightblue",fontsize="10",style="solid",fontname="Helvetica"];
  Node1 -> Node13 [dir="back",color="midnightblue",fontsize="10",style="solid",fontname="Helvetica"];
  Node13 [label="Apps/Gimias/GUI/Widgets\l/src/ProcessingToolbox\l/coreProcessingWidget.h",height=0.2,width=0.4,color="red", fillcolor="white", style="filled",URL="$coreProcessingWidget_8h.html"];
  Node13 -> Node14 [dir="back",color="midnightblue",fontsize="10",style="solid",fontname="Helvetica"];
  Node14 [label="Apps/Gimias/GUI/Widgets\l/src/ProcessingToolbox\l/coreDynProcessingWidget.h",height=0.2,width=0.4,color="red", fillcolor="white", style="filled",URL="$coreDynProcessingWidget_8h.html"];
  Node13 -> Node15 [dir="back",color="midnightblue",fontsize="10",style="solid",fontname="Helvetica"];
  Node15 [label="Apps/Gimias/GUI/Widgets\l/src/ProcessingToolbox\l/coreProcessingToolboxWidget.h",height=0.2,width=0.4,color="red", fillcolor="white", style="filled",URL="$coreProcessingToolboxWidget_8h.html"];
  Node15 -> Node4 [dir="back",color="midnightblue",fontsize="10",style="solid",fontname="Helvetica"];
  Node13 -> Node16 [dir="back",color="midnightblue",fontsize="10",style="solid",fontname="Helvetica"];
  Node16 [label="Apps/Gimias/GUI/Widgets\l/src/ProcessingToolbox\l/coreProcessingWidget.cpp",height=0.2,width=0.4,color="black", fillcolor="white", style="filled",URL="$coreProcessingWidget_8cpp.html"];
  Node13 -> Node17 [dir="back",color="midnightblue",fontsize="10",style="solid",fontname="Helvetica"];
  Node17 [label="Apps/Gimias/GUI/Widgets\l/src/ProcessingToolbox\l/coreSimpleProcessingWidget.h",height=0.2,width=0.4,color="red", fillcolor="white", style="filled",URL="$coreSimpleProcessingWidget_8h.html"];
  Node17 -> Node18 [dir="back",color="midnightblue",fontsize="10",style="solid",fontname="Helvetica"];
  Node18 [label="Apps/Plugins/ImageToolsPlugin\l/ImageToolsPluginPCH.h",height=0.2,width=0.4,color="black", fillcolor="white", style="filled",URL="$ImageToolsPluginPCH_8h.html"];
  Node17 -> Node19 [dir="back",color="midnightblue",fontsize="10",style="solid",fontname="Helvetica"];
  Node19 [label="Apps/Plugins/ManualSegmentation\lPlugin/ManualSegmentationPluginPCH.h",height=0.2,width=0.4,color="black", fillcolor="white", style="filled",URL="$ManualSegmentationPluginPCH_8h.html"];
  Node13 -> Node20 [dir="back",color="midnightblue",fontsize="10",style="solid",fontname="Helvetica"];
  Node20 [label="Apps/Gimias/GUI/Widgets\l/src/Workflow/coreEmptyToolWidget.h",height=0.2,width=0.4,color="red", fillcolor="white", style="filled",URL="$coreEmptyToolWidget_8h.html"];
  Node20 -> Node4 [dir="back",color="midnightblue",fontsize="10",style="solid",fontname="Helvetica"];
  Node13 -> Node21 [dir="back",color="midnightblue",fontsize="10",style="solid",fontname="Helvetica"];
  Node21 [label="Apps/Gimias/GUI/Widgets\l/src/Workflow/coreWorkflowNavigation\lWidget.h",height=0.2,width=0.4,color="red", fillcolor="white", style="filled",URL="$coreWorkflowNavigationWidget_8h.html"];
  Node21 -> Node4 [dir="back",color="midnightblue",fontsize="10",style="solid",fontname="Helvetica"];
  Node13 -> Node22 [dir="back",color="midnightblue",fontsize="10",style="solid",fontname="Helvetica"];
  Node22 [label="Apps/Plugins/DicomPlugin\l/widgets/BrowseTags/DicomBrowse\lTagsPanelWidget.h",height=0.2,width=0.4,color="red", fillcolor="white", style="filled",URL="$DicomBrowseTagsPanelWidget_8h.html"];
  Node13 -> Node23 [dir="back",color="midnightblue",fontsize="10",style="solid",fontname="Helvetica"];
  Node23 [label="Apps/Plugins/GenericSegmentation\lPlugin/widgets/ConnectedThresholdWidget\l/ConnectedThresholdWidget.h",height=0.2,width=0.4,color="red", fillcolor="white", style="filled",URL="$ConnectedThresholdWidget_8h.html"];
  Node13 -> Node24 [dir="back",color="midnightblue",fontsize="10",style="solid",fontname="Helvetica"];
  Node24 [label="Apps/Plugins/GenericSegmentation\lPlugin/widgets/OtsuWidget\l/OtsuWidget.h",height=0.2,width=0.4,color="red", fillcolor="white", style="filled",URL="$OtsuWidget_8h.html"];
  Node13 -> Node25 [dir="back",color="midnightblue",fontsize="10",style="solid",fontname="Helvetica"];
  Node25 [label="Apps/Plugins/GenericSegmentation\lPlugin/widgets/RegionGrowWidget\l/RegionGrowWidget.h",height=0.2,width=0.4,color="red", fillcolor="white", style="filled",URL="$RegionGrowWidget_8h.html"];
  Node13 -> Node26 [dir="back",color="midnightblue",fontsize="10",style="solid",fontname="Helvetica"];
  Node26 [label="Apps/Plugins/GenericSegmentation\lPlugin/widgets/ThresholdWidget\l/ThresholdWidget.h",height=0.2,width=0.4,color="red", fillcolor="white", style="filled",URL="$ThresholdWidget_8h.html"];
  Node13 -> Node18 [dir="back",color="midnightblue",fontsize="10",style="solid",fontname="Helvetica"];
  Node13 -> Node27 [dir="back",color="midnightblue",fontsize="10",style="solid",fontname="Helvetica"];
  Node27 [label="Apps/Plugins/MeshEditorPlugin\l/MeshEditorPluginPCH.h",height=0.2,width=0.4,color="black", fillcolor="white", style="filled",URL="$MeshEditorPluginPCH_8h.html"];
  Node13 -> Node28 [dir="back",color="midnightblue",fontsize="10",style="solid",fontname="Helvetica"];
  Node28 [label="Apps/Plugins/MeshEditorPlugin\l/widgets/ThresholdWidget\l/ptThresholdPanelWidget.h",height=0.2,width=0.4,color="red", fillcolor="white", style="filled",URL="$ThresholdWidget_2ptThresholdPanelWidget_8h.html"];
  Node13 -> Node29 [dir="back",color="midnightblue",fontsize="10",style="solid",fontname="Helvetica"];
  Node29 [label="Apps/Plugins/MeshEditorPlugin\l/widgets/ToolsProcessorWidget\l/ptThresholdPanelWidget.h",height=0.2,width=0.4,color="red", fillcolor="white", style="filled",URL="$ToolsProcessorWidget_2ptThresholdPanelWidget_8h.html"];
  Node13 -> Node30 [dir="back",color="midnightblue",fontsize="10",style="solid",fontname="Helvetica"];
  Node30 [label="Apps/Plugins/SignalViewer\lPlugin/widgets/PlotWidget\l/svPlotManagerWidget.h",height=0.2,width=0.4,color="red", fillcolor="white", style="filled",URL="$svPlotManagerWidget_8h.html"];
  Node1 -> Node15 [dir="back",color="midnightblue",fontsize="10",style="solid",fontname="Helvetica"];
  Node1 -> Node31 [dir="back",color="midnightblue",fontsize="10",style="solid",fontname="Helvetica"];
  Node31 [label="Apps/Gimias/GUI/Widgets\l/src/Toolbar/coreToolbarWorking\lArea.cpp",height=0.2,width=0.4,color="black", fillcolor="white", style="filled",URL="$coreToolbarWorkingArea_8cpp.html"];
  Node1 -> Node23 [dir="back",color="midnightblue",fontsize="10",style="solid",fontname="Helvetica"];
  Node1 -> Node32 [dir="back",color="midnightblue",fontsize="10",style="solid",fontname="Helvetica"];
  Node32 [label="Apps/Plugins/GenericSegmentation\lPlugin/widgets/Generate3DRoiPanelWidget\l/GenerateSpherePanelWidget.cpp",height=0.2,width=0.4,color="black", fillcolor="white", style="filled",URL="$GenerateSpherePanelWidget_8cpp.html"];
  Node1 -> Node33 [dir="back",color="midnightblue",fontsize="10",style="solid",fontname="Helvetica"];
  Node33 [label="Apps/Plugins/GenericSegmentation\lPlugin/widgets/Generate3DRoiPanelWidget\l/SurfaceDeformationPanelWidget.cpp",height=0.2,width=0.4,color="black", fillcolor="white", style="filled",URL="$SurfaceDeformationPanelWidget_8cpp.html"];
  Node1 -> Node34 [dir="back",color="midnightblue",fontsize="10",style="solid",fontname="Helvetica"];
  Node34 [label="Apps/Plugins/GenericSegmentation\lPlugin/widgets/MoveDataPanelWidget\l/MoveDataPanelWidget.cpp",height=0.2,width=0.4,color="black", fillcolor="white", style="filled",URL="$MoveDataPanelWidget_8cpp.html"];
  Node1 -> Node24 [dir="back",color="midnightblue",fontsize="10",style="solid",fontname="Helvetica"];
  Node1 -> Node25 [dir="back",color="midnightblue",fontsize="10",style="solid",fontname="Helvetica"];
  Node1 -> Node26 [dir="back",color="midnightblue",fontsize="10",style="solid",fontname="Helvetica"];
  Node1 -> Node18 [dir="back",color="midnightblue",fontsize="10",style="solid",fontname="Helvetica"];
  Node1 -> Node35 [dir="back",color="midnightblue",fontsize="10",style="solid",fontname="Helvetica"];
  Node35 [label="Apps/Plugins/ImageToolsPlugin\l/widgets/JoinImagesWidget\l/JoinImagesWidget.cxx",height=0.2,width=0.4,color="black", fillcolor="white", style="filled",URL="$JoinImagesWidget_8cxx.html"];
  Node1 -> Node36 [dir="back",color="midnightblue",fontsize="10",style="solid",fontname="Helvetica"];
  Node36 [label="Apps/Plugins/ImageToolsPlugin\l/widgets/SetSpacingWidget\l/ptSetSpacingWidget.cxx",height=0.2,width=0.4,color="black", fillcolor="white", style="filled",URL="$ptSetSpacingWidget_8cxx.html"];
  Node1 -> Node19 [dir="back",color="midnightblue",fontsize="10",style="solid",fontname="Helvetica"];
  Node1 -> Node37 [dir="back",color="midnightblue",fontsize="10",style="solid",fontname="Helvetica"];
  Node37 [label="Apps/Plugins/ManualSegmentation\lPlugin/widgets/InteractiveSegmPanel\lWidget/InteractiveSegmPanelWidget.cpp",height=0.2,width=0.4,color="black", fillcolor="white", style="filled",URL="$InteractiveSegmPanelWidget_8cpp.html"];
  Node1 -> Node38 [dir="back",color="midnightblue",fontsize="10",style="solid",fontname="Helvetica"];
  Node38 [label="Apps/Plugins/ManualSegmentation\lPlugin/widgets/ManualSegmentationWidget\l/ManualSegmentationPanelWidget.cpp",height=0.2,width=0.4,color="black", fillcolor="white", style="filled",URL="$ManualSegmentationPanelWidget_8cpp.html"];
  Node1 -> Node39 [dir="back",color="midnightblue",fontsize="10",style="solid",fontname="Helvetica"];
  Node39 [label="Apps/Plugins/ManualSegmentation\lPlugin/widgets/MultiLevelROIPanelWidget\l/MultiLevelROIPanelWidget.cpp",height=0.2,width=0.4,color="black", fillcolor="white", style="filled",URL="$MultiLevelROIPanelWidget_8cpp.html"];
  Node1 -> Node27 [dir="back",color="midnightblue",fontsize="10",style="solid",fontname="Helvetica"];
  Node1 -> Node40 [dir="back",color="midnightblue",fontsize="10",style="solid",fontname="Helvetica"];
  Node40 [label="Apps/Plugins/MeshEditorPlugin\l/widgets/ManualNeckCuttingWidget\l/ManualNeckCuttingPanelWidget.cpp",height=0.2,width=0.4,color="black", fillcolor="white", style="filled",URL="$ManualNeckCuttingPanelWidget_8cpp.html"];
  Node1 -> Node41 [dir="back",color="midnightblue",fontsize="10",style="solid",fontname="Helvetica"];
  Node41 [label="Apps/Plugins/MeshEditorPlugin\l/widgets/RadiographVisualization\l/ptRadiographVisualizationWidget.cxx",height=0.2,width=0.4,color="black", fillcolor="white", style="filled",URL="$ptRadiographVisualizationWidget_8cxx.html"];
  Node1 -> Node42 [dir="back",color="midnightblue",fontsize="10",style="solid",fontname="Helvetica"];
  Node42 [label="Apps/Plugins/MeshEditorPlugin\l/widgets/SurfaceSelectorWidget\l/coreSurfaceSelectorWidget.cxx",height=0.2,width=0.4,color="black", fillcolor="white", style="filled",URL="$coreSurfaceSelectorWidget_8cxx.html"];
  Node1 -> Node28 [dir="back",color="midnightblue",fontsize="10",style="solid",fontname="Helvetica"];
  Node1 -> Node29 [dir="back",color="midnightblue",fontsize="10",style="solid",fontname="Helvetica"];
  Node1 -> Node43 [dir="back",color="midnightblue",fontsize="10",style="solid",fontname="Helvetica"];
  Node43 [label="Apps/Plugins/MITKPlugin\l/MITKPluginPCH.h",height=0.2,width=0.4,color="black", fillcolor="white", style="filled",URL="$MITKPluginPCH_8h.html"];
  Node1 -> Node44 [dir="back",color="midnightblue",fontsize="10",style="solid",fontname="Helvetica"];
  Node44 [label="Apps/Plugins/MITKPlugin\l/widgets/BoundingBoxWidget\l/coreBBoxWidget.cxx",height=0.2,width=0.4,color="black", fillcolor="white", style="filled",URL="$coreBBoxWidget_8cxx.html"];
  Node1 -> Node45 [dir="back",color="midnightblue",fontsize="10",style="solid",fontname="Helvetica"];
  Node45 [label="Apps/Plugins/MITKPlugin\l/widgets/CroppingWidget\l/ptCroppingWidget.cxx",height=0.2,width=0.4,color="black", fillcolor="white", style="filled",URL="$ptCroppingWidget_8cxx.html"];
  Node1 -> Node46 [dir="back",color="midnightblue",fontsize="10",style="solid",fontname="Helvetica"];
  Node46 [label="Apps/Plugins/MITKPlugin\l/widgets/LandmarkSelectorWidget\l/coreLandmarkSelectorWidget.cxx",height=0.2,width=0.4,color="black", fillcolor="white", style="filled",URL="$coreLandmarkSelectorWidget_8cxx.html"];
  Node1 -> Node30 [dir="back",color="midnightblue",fontsize="10",style="solid",fontname="Helvetica"];
  Node1 -> Node47 [dir="back",color="midnightblue",fontsize="10",style="solid",fontname="Helvetica"];
  Node47 [label="Apps/Plugins/SignalViewer\lPlugin/widgets/PlotWidget\l/svPlotWidget.cxx",height=0.2,width=0.4,color="black", fillcolor="white", style="filled",URL="$svPlotWidget_8cxx.html"];
  Node1 -> Node48 [dir="back",color="midnightblue",fontsize="10",style="solid",fontname="Helvetica"];
  Node48 [label="Apps/Plugins/SignalViewer\lPlugin/widgets/PlotWidget\l/svSignalNotebookPage.h",height=0.2,width=0.4,color="red", fillcolor="white", style="filled",URL="$svSignalNotebookPage_8h.html"];
  Node48 -> Node47 [dir="back",color="midnightblue",fontsize="10",style="solid",fontname="Helvetica"];
  Node48 -> Node49 [dir="back",color="midnightblue",fontsize="10",style="solid",fontname="Helvetica"];
  Node49 [label="Apps/Plugins/SignalViewer\lPlugin/widgets/PlotWidget\l/svSignalNotebookPage.cxx",height=0.2,width=0.4,color="black", fillcolor="white", style="filled",URL="$svSignalNotebookPage_8cxx.html"];
  Node1 -> Node49 [dir="back",color="midnightblue",fontsize="10",style="solid",fontname="Helvetica"];
  Node1 -> Node50 [dir="back",color="midnightblue",fontsize="10",style="solid",fontname="Helvetica"];
  Node50 [label="Apps/Plugins/SignalViewer\lPlugin/widgets/PlotWidget\l/svSignalPlotAnnotationsWidget.cxx",height=0.2,width=0.4,color="black", fillcolor="white", style="filled",URL="$svSignalPlotAnnotationsWidget_8cxx.html"];
}
