digraph "Apps/Plugins/MITKPlugin/processors/VTKPolyData/coreVTKPolyDataWriter.cxx"
{
  edge [fontname="Helvetica",fontsize="10",labelfontname="Helvetica",labelfontsize="10"];
  node [fontname="Helvetica",fontsize="10",shape=record];
  Node1 [label="Apps/Plugins/MITKPlugin\l/processors/VTKPolyData\l/coreVTKPolyDataWriter.cxx",height=0.2,width=0.4,color="black", fillcolor="grey75", style="filled", fontcolor="black"];
  Node1 -> Node2 [color="midnightblue",fontsize="10",style="solid",fontname="Helvetica"];
  Node2 [label="coreVTKPolyDataWriter.h",height=0.2,width=0.4,color="black", fillcolor="white", style="filled",URL="$coreVTKPolyDataWriter_8h.html"];
  Node2 -> Node3 [color="midnightblue",fontsize="10",style="solid",fontname="Helvetica"];
  Node3 [label="coreBaseDataEntityWriter.h",height=0.2,width=0.4,color="black", fillcolor="white", style="filled",URL="$coreBaseDataEntityWriter_8h.html"];
  Node3 -> Node4 [color="midnightblue",fontsize="10",style="solid",fontname="Helvetica"];
  Node4 [label="gmIOWin32Header.h",height=0.2,width=0.4,color="grey75", fillcolor="white", style="filled"];
  Node3 -> Node5 [color="midnightblue",fontsize="10",style="solid",fontname="Helvetica"];
  Node5 [label="coreObject.h",height=0.2,width=0.4,color="red", fillcolor="white", style="filled",URL="$coreObject_8h.html"];
  Node5 -> Node6 [color="midnightblue",fontsize="10",style="solid",fontname="Helvetica"];
  Node6 [label="gmCommonObjectsWin32Header.h",height=0.2,width=0.4,color="grey75", fillcolor="white", style="filled"];
  Node5 -> Node7 [color="midnightblue",fontsize="10",style="solid",fontname="Helvetica"];
  Node7 [label="coreCommonMacros.h",height=0.2,width=0.4,color="black", fillcolor="white", style="filled",URL="$coreCommonMacros_8h.html"];
  Node5 -> Node8 [color="midnightblue",fontsize="10",style="solid",fontname="Helvetica"];
  Node8 [label="coreSmartPointerMacros.h",height=0.2,width=0.4,color="red", fillcolor="white", style="filled",URL="$coreSmartPointerMacros_8h.html"];
  Node8 -> Node7 [color="midnightblue",fontsize="10",style="solid",fontname="Helvetica"];
  Node5 -> Node9 [color="midnightblue",fontsize="10",style="solid",fontname="Helvetica"];
  Node9 [label="boost/signals.hpp",height=0.2,width=0.4,color="grey75", fillcolor="white", style="filled"];
  Node3 -> Node10 [color="midnightblue",fontsize="10",style="solid",fontname="Helvetica"];
  Node10 [label="coreDataEntity.h",height=0.2,width=0.4,color="black", fillcolor="white", style="filled",URL="$coreDataEntity_8h.html"];
  Node10 -> Node11 [color="midnightblue",fontsize="10",style="solid",fontname="Helvetica"];
  Node11 [label="gmDataHandlingWin32Header.h",height=0.2,width=0.4,color="grey75", fillcolor="white", style="filled"];
  Node10 -> Node5 [color="midnightblue",fontsize="10",style="solid",fontname="Helvetica"];
  Node10 -> Node12 [color="midnightblue",fontsize="10",style="solid",fontname="Helvetica"];
  Node12 [label="coreDataEntityMetadata.h",height=0.2,width=0.4,color="red", fillcolor="white", style="filled",URL="$coreDataEntityMetadata_8h.html"];
  Node12 -> Node11 [color="midnightblue",fontsize="10",style="solid",fontname="Helvetica"];
  Node12 -> Node5 [color="midnightblue",fontsize="10",style="solid",fontname="Helvetica"];
  Node10 -> Node13 [color="midnightblue",fontsize="10",style="solid",fontname="Helvetica"];
  Node13 [label="coreDataEntityImpl.h",height=0.2,width=0.4,color="red", fillcolor="white", style="filled",URL="$coreDataEntityImpl_8h.html"];
  Node13 -> Node11 [color="midnightblue",fontsize="10",style="solid",fontname="Helvetica"];
  Node13 -> Node5 [color="midnightblue",fontsize="10",style="solid",fontname="Helvetica"];
  Node13 -> Node14 [color="midnightblue",fontsize="10",style="solid",fontname="Helvetica"];
  Node14 [label="string",height=0.2,width=0.4,color="grey75", fillcolor="white", style="filled"];
  Node13 -> Node15 [color="midnightblue",fontsize="10",style="solid",fontname="Helvetica"];
  Node15 [label="vector",height=0.2,width=0.4,color="grey75", fillcolor="white", style="filled"];
  Node13 -> Node16 [color="midnightblue",fontsize="10",style="solid",fontname="Helvetica"];
  Node16 [label="boost/any.hpp",height=0.2,width=0.4,color="grey75", fillcolor="white", style="filled"];
  Node13 -> Node17 [color="midnightblue",fontsize="10",style="solid",fontname="Helvetica"];
  Node17 [label="coreException.h",height=0.2,width=0.4,color="black", fillcolor="white", style="filled",URL="$coreException_8h.html"];
  Node17 -> Node18 [color="midnightblue",fontsize="10",style="solid",fontname="Helvetica"];
  Node18 [label="exception",height=0.2,width=0.4,color="grey75", fillcolor="white", style="filled"];
  Node17 -> Node14 [color="midnightblue",fontsize="10",style="solid",fontname="Helvetica"];
  Node17 -> Node19 [color="midnightblue",fontsize="10",style="solid",fontname="Helvetica"];
  Node19 [label="list",height=0.2,width=0.4,color="grey75", fillcolor="white", style="filled"];
  Node17 -> Node6 [color="midnightblue",fontsize="10",style="solid",fontname="Helvetica"];
  Node17 -> Node7 [color="midnightblue",fontsize="10",style="solid",fontname="Helvetica"];
  Node17 -> Node20 [color="midnightblue",fontsize="10",style="solid",fontname="Helvetica"];
  Node20 [label="coreCreateExceptionMacros.h",height=0.2,width=0.4,color="black", fillcolor="white", style="filled",URL="$coreCreateExceptionMacros_8h.html"];
  Node17 -> Node21 [color="midnightblue",fontsize="10",style="solid",fontname="Helvetica"];
  Node21 [label="coreBaseExceptions.h",height=0.2,width=0.4,color="black", fillcolor="white", style="filled",URL="$coreBaseExceptions_8h.html"];
  Node21 -> Node20 [color="midnightblue",fontsize="10",style="solid",fontname="Helvetica"];
  Node17 -> Node22 [color="midnightblue",fontsize="10",style="solid",fontname="Helvetica"];
  Node22 [label="coreExceptionMacros.h",height=0.2,width=0.4,color="black", fillcolor="white", style="filled",URL="$coreExceptionMacros_8h.html"];
  Node13 -> Node21 [color="midnightblue",fontsize="10",style="solid",fontname="Helvetica"];
  Node10 -> Node23 [color="midnightblue",fontsize="10",style="solid",fontname="Helvetica"];
  Node23 [label="coreDataEntityImplFactory.h",height=0.2,width=0.4,color="red", fillcolor="white", style="filled",URL="$coreDataEntityImplFactory_8h.html"];
  Node23 -> Node11 [color="midnightblue",fontsize="10",style="solid",fontname="Helvetica"];
  Node23 -> Node5 [color="midnightblue",fontsize="10",style="solid",fontname="Helvetica"];
  Node23 -> Node14 [color="midnightblue",fontsize="10",style="solid",fontname="Helvetica"];
  Node23 -> Node24 [color="midnightblue",fontsize="10",style="solid",fontname="Helvetica"];
  Node24 [label="typeinfo",height=0.2,width=0.4,color="grey75", fillcolor="white", style="filled"];
  Node23 -> Node15 [color="midnightblue",fontsize="10",style="solid",fontname="Helvetica"];
  Node23 -> Node16 [color="midnightblue",fontsize="10",style="solid",fontname="Helvetica"];
  Node23 -> Node13 [color="midnightblue",fontsize="10",style="solid",fontname="Helvetica"];
  Node23 -> Node25 [color="midnightblue",fontsize="10",style="solid",fontname="Helvetica"];
  Node25 [label="coreDataEntityTypes.h",height=0.2,width=0.4,color="black", fillcolor="white", style="filled",URL="$coreDataEntityTypes_8h.html"];
  Node10 -> Node25 [color="midnightblue",fontsize="10",style="solid",fontname="Helvetica"];
  Node10 -> Node26 [color="midnightblue",fontsize="10",style="solid",fontname="Helvetica"];
  Node26 [label="coreDataEntityPreview.h",height=0.2,width=0.4,color="black", fillcolor="white", style="filled",URL="$coreDataEntityPreview_8h.html"];
  Node26 -> Node11 [color="midnightblue",fontsize="10",style="solid",fontname="Helvetica"];
  Node26 -> Node5 [color="midnightblue",fontsize="10",style="solid",fontname="Helvetica"];
  Node10 -> Node14 [color="midnightblue",fontsize="10",style="solid",fontname="Helvetica"];
  Node10 -> Node15 [color="midnightblue",fontsize="10",style="solid",fontname="Helvetica"];
  Node10 -> Node24 [color="midnightblue",fontsize="10",style="solid",fontname="Helvetica"];
  Node10 -> Node9 [color="midnightblue",fontsize="10",style="solid",fontname="Helvetica"];
  Node10 -> Node16 [color="midnightblue",fontsize="10",style="solid",fontname="Helvetica"];
  Node10 -> Node27 [color="midnightblue",fontsize="10",style="solid",fontname="Helvetica"];
  Node27 [label="coreDataEntity.txx",height=0.2,width=0.4,color="grey75", fillcolor="white", style="filled"];
  Node10 -> Node28 [color="midnightblue",fontsize="10",style="solid",fontname="Helvetica"];
  Node28 [label="coreDataEntityHolder.h",height=0.2,width=0.4,color="black", fillcolor="white", style="filled",URL="$coreDataEntityHolder_8h.html"];
  Node28 -> Node11 [color="midnightblue",fontsize="10",style="solid",fontname="Helvetica"];
  Node28 -> Node10 [color="midnightblue",fontsize="10",style="solid",fontname="Helvetica"];
  Node28 -> Node29 [color="midnightblue",fontsize="10",style="solid",fontname="Helvetica"];
  Node29 [label="coreDataHolder.h",height=0.2,width=0.4,color="red", fillcolor="white", style="filled",URL="$coreDataHolder_8h.html"];
  Node29 -> Node6 [color="midnightblue",fontsize="10",style="solid",fontname="Helvetica"];
  Node29 -> Node9 [color="midnightblue",fontsize="10",style="solid",fontname="Helvetica"];
  Node29 -> Node29 [color="midnightblue",fontsize="10",style="solid",fontname="Helvetica"];
  Node3 -> Node30 [color="midnightblue",fontsize="10",style="solid",fontname="Helvetica"];
  Node30 [label="coreBaseIO.h",height=0.2,width=0.4,color="red", fillcolor="white", style="filled",URL="$coreBaseIO_8h.html"];
  Node30 -> Node4 [color="midnightblue",fontsize="10",style="solid",fontname="Helvetica"];
  Node30 -> Node5 [color="midnightblue",fontsize="10",style="solid",fontname="Helvetica"];
  Node30 -> Node10 [color="midnightblue",fontsize="10",style="solid",fontname="Helvetica"];
  Node1 -> Node10 [color="midnightblue",fontsize="10",style="solid",fontname="Helvetica"];
  Node1 -> Node31 [color="midnightblue",fontsize="10",style="solid",fontname="Helvetica"];
  Node31 [label="blShapeUtils.h",height=0.2,width=0.4,color="black", fillcolor="white", style="filled",URL="$blShapeUtils_8h.html"];
  Node31 -> Node32 [color="midnightblue",fontsize="10",style="solid",fontname="Helvetica"];
  Node32 [label="BaseLibVTKWin32Header.h",height=0.2,width=0.4,color="grey75", fillcolor="white", style="filled"];
  Node31 -> Node33 [color="midnightblue",fontsize="10",style="solid",fontname="Helvetica"];
  Node33 [label="vnl/vnl_cross_product\l_matrix.h",height=0.2,width=0.4,color="grey75", fillcolor="white", style="filled"];
  Node31 -> Node34 [color="midnightblue",fontsize="10",style="solid",fontname="Helvetica"];
  Node34 [label="vnl/algo/vnl_symmetric\l_eigensystem.h",height=0.2,width=0.4,color="grey75", fillcolor="white", style="filled"];
  Node31 -> Node35 [color="midnightblue",fontsize="10",style="solid",fontname="Helvetica"];
  Node35 [label="vtkSmartPointer.h",height=0.2,width=0.4,color="grey75", fillcolor="white", style="filled"];
  Node31 -> Node36 [color="midnightblue",fontsize="10",style="solid",fontname="Helvetica"];
  Node36 [label="vtkImageData.h",height=0.2,width=0.4,color="grey75", fillcolor="white", style="filled"];
  Node31 -> Node37 [color="midnightblue",fontsize="10",style="solid",fontname="Helvetica"];
  Node37 [label="vtkShortArray.h",height=0.2,width=0.4,color="grey75", fillcolor="white", style="filled"];
  Node31 -> Node38 [color="midnightblue",fontsize="10",style="solid",fontname="Helvetica"];
  Node38 [label="vtkFloatArray.h",height=0.2,width=0.4,color="grey75", fillcolor="white", style="filled"];
  Node31 -> Node39 [color="midnightblue",fontsize="10",style="solid",fontname="Helvetica"];
  Node39 [label="vtkPlane.h",height=0.2,width=0.4,color="grey75", fillcolor="white", style="filled"];
  Node31 -> Node40 [color="midnightblue",fontsize="10",style="solid",fontname="Helvetica"];
  Node40 [label="vtkPolyData.h",height=0.2,width=0.4,color="grey75", fillcolor="white", style="filled"];
  Node31 -> Node41 [color="midnightblue",fontsize="10",style="solid",fontname="Helvetica"];
  Node41 [label="vtkLookupTable.h",height=0.2,width=0.4,color="grey75", fillcolor="white", style="filled"];
  Node31 -> Node42 [color="midnightblue",fontsize="10",style="solid",fontname="Helvetica"];
  Node42 [label="vtkUnstructuredGrid.h",height=0.2,width=0.4,color="grey75", fillcolor="white", style="filled"];
  Node31 -> Node15 [color="midnightblue",fontsize="10",style="solid",fontname="Helvetica"];
  Node31 -> Node43 [color="midnightblue",fontsize="10",style="solid",fontname="Helvetica"];
  Node43 [label="map",height=0.2,width=0.4,color="grey75", fillcolor="white", style="filled"];
  Node31 -> Node44 [color="midnightblue",fontsize="10",style="solid",fontname="Helvetica"];
  Node44 [label="blPDShape.h",height=0.2,width=0.4,color="red", fillcolor="white", style="filled",URL="$blPDShape_8h.html"];
  Node44 -> Node15 [color="midnightblue",fontsize="10",style="solid",fontname="Helvetica"];
  Node31 -> Node45 [color="midnightblue",fontsize="10",style="solid",fontname="Helvetica"];
  Node45 [label="blShapeUtils.txx",height=0.2,width=0.4,color="grey75", fillcolor="white", style="filled"];
  Node1 -> Node46 [color="midnightblue",fontsize="10",style="solid",fontname="Helvetica"];
  Node46 [label="coreVTKPolyDataHolder.h",height=0.2,width=0.4,color="black", fillcolor="white", style="filled",URL="$coreVTKPolyDataHolder_8h.html"];
  Node46 -> Node47 [color="midnightblue",fontsize="10",style="solid",fontname="Helvetica"];
  Node47 [label="corePluginMacros.h",height=0.2,width=0.4,color="black", fillcolor="white", style="filled",URL="$corePluginMacros_8h.html"];
  Node46 -> Node29 [color="midnightblue",fontsize="10",style="solid",fontname="Helvetica"];
  Node46 -> Node40 [color="midnightblue",fontsize="10",style="solid",fontname="Helvetica"];
  Node46 -> Node35 [color="midnightblue",fontsize="10",style="solid",fontname="Helvetica"];
  Node1 -> Node48 [color="midnightblue",fontsize="10",style="solid",fontname="Helvetica"];
  Node48 [label="coreDataEntityInfoHelper.h",height=0.2,width=0.4,color="black", fillcolor="white", style="filled",URL="$coreDataEntityInfoHelper_8h.html"];
  Node48 -> Node11 [color="midnightblue",fontsize="10",style="solid",fontname="Helvetica"];
  Node48 -> Node5 [color="midnightblue",fontsize="10",style="solid",fontname="Helvetica"];
  Node48 -> Node10 [color="midnightblue",fontsize="10",style="solid",fontname="Helvetica"];
  Node48 -> Node19 [color="midnightblue",fontsize="10",style="solid",fontname="Helvetica"];
  Node1 -> Node17 [color="midnightblue",fontsize="10",style="solid",fontname="Helvetica"];
  Node1 -> Node49 [color="midnightblue",fontsize="10",style="solid",fontname="Helvetica"];
  Node49 [label="coreVTKPolyDataImpl.h",height=0.2,width=0.4,color="black", fillcolor="white", style="filled",URL="$coreVTKPolyDataImpl_8h.html"];
  Node49 -> Node47 [color="midnightblue",fontsize="10",style="solid",fontname="Helvetica"];
  Node49 -> Node23 [color="midnightblue",fontsize="10",style="solid",fontname="Helvetica"];
  Node49 -> Node46 [color="midnightblue",fontsize="10",style="solid",fontname="Helvetica"];
  Node1 -> Node50 [color="midnightblue",fontsize="10",style="solid",fontname="Helvetica"];
  Node50 [label="vtkTriangleFilter.h",height=0.2,width=0.4,color="grey75", fillcolor="white", style="filled"];
}
