digraph "Apps/Gimias/Core/IO/src/coreBaseIO.h"
{
  edge [fontname="Helvetica",fontsize="10",labelfontname="Helvetica",labelfontsize="10"];
  node [fontname="Helvetica",fontsize="10",shape=record];
  Node1 [label="Apps/Gimias/Core/IO\l/src/coreBaseIO.h",height=0.2,width=0.4,color="black", fillcolor="grey75", style="filled", fontcolor="black"];
  Node1 -> Node2 [dir="back",color="midnightblue",fontsize="10",style="solid",fontname="Helvetica"];
  Node2 [label="Apps/Gimias/Core/IO\l/src/coreBaseDataEntityReader.h",height=0.2,width=0.4,color="black", fillcolor="white", style="filled",URL="$coreBaseDataEntityReader_8h.html"];
  Node2 -> Node3 [dir="back",color="midnightblue",fontsize="10",style="solid",fontname="Helvetica"];
  Node3 [label="Apps/Gimias/Core/IO\l/src/coreBaseDataEntityReader.cxx",height=0.2,width=0.4,color="black", fillcolor="white", style="filled",URL="$coreBaseDataEntityReader_8cxx.html"];
  Node2 -> Node4 [dir="back",color="midnightblue",fontsize="10",style="solid",fontname="Helvetica"];
  Node4 [label="Apps/Gimias/Core/IO\l/src/coreDataEntityReader.h",height=0.2,width=0.4,color="black", fillcolor="white", style="filled",URL="$coreDataEntityReader_8h.html"];
  Node4 -> Node5 [dir="back",color="midnightblue",fontsize="10",style="solid",fontname="Helvetica"];
  Node5 [label="Apps/Gimias/Core/IO\l/src/coreDataEntityIORegistration.cxx",height=0.2,width=0.4,color="black", fillcolor="white", style="filled",URL="$coreDataEntityIORegistration_8cxx.html"];
  Node4 -> Node6 [dir="back",color="midnightblue",fontsize="10",style="solid",fontname="Helvetica"];
  Node6 [label="Apps/Gimias/Core/IO\l/src/coreDataEntityReader.cxx",height=0.2,width=0.4,color="black", fillcolor="white", style="filled",URL="$coreDataEntityReader_8cxx.html"];
  Node4 -> Node7 [dir="back",color="midnightblue",fontsize="10",style="solid",fontname="Helvetica"];
  Node7 [label="Apps/Gimias/Core/Kernel\l/gmKernelPCH.h",height=0.2,width=0.4,color="black", fillcolor="white", style="filled",URL="$gmKernelPCH_8h.html"];
  Node4 -> Node8 [dir="back",color="midnightblue",fontsize="10",style="solid",fontname="Helvetica"];
  Node8 [label="Apps/Gimias/Core/Kernel\l/src/coreDataEntityHelper.cxx",height=0.2,width=0.4,color="black", fillcolor="white", style="filled",URL="$coreDataEntityHelper_8cxx.html"];
  Node4 -> Node9 [dir="back",color="midnightblue",fontsize="10",style="solid",fontname="Helvetica"];
  Node9 [label="Apps/Gimias/Core/Kernel\l/src/coreSessionReader.cxx",height=0.2,width=0.4,color="black", fillcolor="white", style="filled",URL="$coreSessionReader_8cxx.html"];
  Node4 -> Node10 [dir="back",color="midnightblue",fontsize="10",style="solid",fontname="Helvetica"];
  Node10 [label="Apps/Gimias/Core/Processors\l/src/coreDynDataTransferCLP.cxx",height=0.2,width=0.4,color="black", fillcolor="white", style="filled",URL="$coreDynDataTransferCLP_8cxx.html"];
  Node4 -> Node11 [dir="back",color="midnightblue",fontsize="10",style="solid",fontname="Helvetica"];
  Node11 [label="Apps/Gimias/Core/Processors\l/src/coreDynDataTransferProcessor.cxx",height=0.2,width=0.4,color="black", fillcolor="white", style="filled",URL="$coreDynDataTransferProcessor_8cxx.html"];
  Node4 -> Node12 [dir="back",color="midnightblue",fontsize="10",style="solid",fontname="Helvetica"];
  Node12 [label="Apps/Gimias/GUI/MainApp\l/src/coreCommandLineParser.cxx",height=0.2,width=0.4,color="black", fillcolor="white", style="filled",URL="$coreCommandLineParser_8cxx.html"];
  Node4 -> Node13 [dir="back",color="midnightblue",fontsize="10",style="solid",fontname="Helvetica"];
  Node13 [label="Apps/Gimias/GUI/Widgets\l/gmWidgetsPCH.h",height=0.2,width=0.4,color="black", fillcolor="white", style="filled",URL="$gmWidgetsPCH_8h.html"];
  Node4 -> Node14 [dir="back",color="midnightblue",fontsize="10",style="solid",fontname="Helvetica"];
  Node14 [label="Apps/Gimias/GUI/Widgets\l/src/wxMitkCoreMainWindow\l/coreMainMenu.cxx",height=0.2,width=0.4,color="black", fillcolor="white", style="filled",URL="$coreMainMenu_8cxx.html"];
  Node4 -> Node15 [dir="back",color="midnightblue",fontsize="10",style="solid",fontname="Helvetica"];
  Node15 [label="Apps/Plugins/DicomPlugin\l/widgets/DicomWorkingAreaWidget\l/DicomWorkingAreaPanelWidget.cpp",height=0.2,width=0.4,color="black", fillcolor="white", style="filled",URL="$DicomWorkingAreaPanelWidget_8cpp.html"];
  Node4 -> Node16 [dir="back",color="midnightblue",fontsize="10",style="solid",fontname="Helvetica"];
  Node16 [label="Apps/Plugins/GenericSegmentation\lPlugin/tests/src/OtsuSegmentationTest.cxx",height=0.2,width=0.4,color="black", fillcolor="white", style="filled",URL="$OtsuSegmentationTest_8cxx.html"];
  Node4 -> Node17 [dir="back",color="midnightblue",fontsize="10",style="solid",fontname="Helvetica"];
  Node17 [label="Apps/Plugins/GenericSegmentation\lPlugin/tests/src/RegionGrowSegmentation\lTest.cxx",height=0.2,width=0.4,color="black", fillcolor="white", style="filled",URL="$RegionGrowSegmentationTest_8cxx.html"];
  Node4 -> Node18 [dir="back",color="midnightblue",fontsize="10",style="solid",fontname="Helvetica"];
  Node18 [label="Apps/Plugins/GenericSegmentation\lPlugin/tests/src/ThresholdSegmentation\lTest.cxx",height=0.2,width=0.4,color="black", fillcolor="white", style="filled",URL="$ThresholdSegmentationTest_8cxx.html"];
  Node4 -> Node19 [dir="back",color="midnightblue",fontsize="10",style="solid",fontname="Helvetica"];
  Node19 [label="Apps/Plugins/GenericSegmentation\lPlugin/tests/src/VtkConnectedThreshold\lSegmentationTest.cxx",height=0.2,width=0.4,color="black", fillcolor="white", style="filled",URL="$VtkConnectedThresholdSegmentationTest_8cxx.html"];
  Node4 -> Node20 [dir="back",color="midnightblue",fontsize="10",style="solid",fontname="Helvetica"];
  Node20 [label="Apps/Plugins/MITKPlugin\l/MITKPluginProcessorCollective.cxx",height=0.2,width=0.4,color="black", fillcolor="white", style="filled",URL="$MITKPluginProcessorCollective_8cxx.html"];
  Node4 -> Node21 [dir="back",color="midnightblue",fontsize="10",style="solid",fontname="Helvetica"];
  Node21 [label="Apps/Plugins/SignalViewer\lPlugin/svPluginProcessorCollective.cxx",height=0.2,width=0.4,color="black", fillcolor="white", style="filled",URL="$svPluginProcessorCollective_8cxx.html"];
  Node2 -> Node22 [dir="back",color="midnightblue",fontsize="10",style="solid",fontname="Helvetica"];
  Node22 [label="Apps/Gimias/Core/IO\l/src/DataFormatObjects\l/NumericDataFile/coreNumeric\lDataReader.h",height=0.2,width=0.4,color="black", fillcolor="white", style="filled",URL="$coreNumericDataReader_8h.html"];
  Node22 -> Node5 [dir="back",color="midnightblue",fontsize="10",style="solid",fontname="Helvetica"];
  Node22 -> Node23 [dir="back",color="midnightblue",fontsize="10",style="solid",fontname="Helvetica"];
  Node23 [label="Apps/Gimias/Core/IO\l/src/DataFormatObjects\l/NumericDataFile/coreNumeric\lDataReader.cxx",height=0.2,width=0.4,color="black", fillcolor="white", style="filled",URL="$coreNumericDataReader_8cxx.html"];
  Node2 -> Node24 [dir="back",color="midnightblue",fontsize="10",style="solid",fontname="Helvetica"];
  Node24 [label="Apps/Gimias/Core/Kernel\l/src/coreSessionReader.h",height=0.2,width=0.4,color="red", fillcolor="white", style="filled",URL="$coreSessionReader_8h.html"];
  Node24 -> Node25 [dir="back",color="midnightblue",fontsize="10",style="solid",fontname="Helvetica"];
  Node25 [label="Apps/Gimias/Core/Kernel\l/src/coreKernel.cxx",height=0.2,width=0.4,color="black", fillcolor="white", style="filled",URL="$coreKernel_8cxx.html"];
  Node24 -> Node9 [dir="back",color="midnightblue",fontsize="10",style="solid",fontname="Helvetica"];
  Node24 -> Node14 [dir="back",color="midnightblue",fontsize="10",style="solid",fontname="Helvetica"];
  Node2 -> Node12 [dir="back",color="midnightblue",fontsize="10",style="solid",fontname="Helvetica"];
  Node2 -> Node26 [dir="back",color="midnightblue",fontsize="10",style="solid",fontname="Helvetica"];
  Node26 [label="Apps/Plugins/MITKPlugin\l/processors/CgnsFile/coreCgns\lFileReader.h",height=0.2,width=0.4,color="red", fillcolor="white", style="filled",URL="$coreCgnsFileReader_8h.html"];
  Node26 -> Node20 [dir="back",color="midnightblue",fontsize="10",style="solid",fontname="Helvetica"];
  Node2 -> Node27 [dir="back",color="midnightblue",fontsize="10",style="solid",fontname="Helvetica"];
  Node27 [label="Apps/Plugins/MITKPlugin\l/processors/DICOMFile\l/coreDICOMFileReader.h",height=0.2,width=0.4,color="red", fillcolor="white", style="filled",URL="$coreDICOMFileReader_8h.html"];
  Node27 -> Node20 [dir="back",color="midnightblue",fontsize="10",style="solid",fontname="Helvetica"];
  Node2 -> Node28 [dir="back",color="midnightblue",fontsize="10",style="solid",fontname="Helvetica"];
  Node28 [label="Apps/Plugins/MITKPlugin\l/processors/DICOMFile\l/coreDICOMRTFileReader.h",height=0.2,width=0.4,color="red", fillcolor="white", style="filled",URL="$coreDICOMRTFileReader_8h.html"];
  Node2 -> Node29 [dir="back",color="midnightblue",fontsize="10",style="solid",fontname="Helvetica"];
  Node29 [label="Apps/Plugins/MITKPlugin\l/processors/ITKImage/coreITKImage\lReader.h",height=0.2,width=0.4,color="red", fillcolor="white", style="filled",URL="$coreITKImageReader_8h.html"];
  Node29 -> Node20 [dir="back",color="midnightblue",fontsize="10",style="solid",fontname="Helvetica"];
  Node2 -> Node30 [dir="back",color="midnightblue",fontsize="10",style="solid",fontname="Helvetica"];
  Node30 [label="Apps/Plugins/MITKPlugin\l/processors/ITKTransform\l/coreITKTransformReader.h",height=0.2,width=0.4,color="red", fillcolor="white", style="filled",URL="$coreITKTransformReader_8h.html"];
  Node30 -> Node20 [dir="back",color="midnightblue",fontsize="10",style="solid",fontname="Helvetica"];
  Node2 -> Node31 [dir="back",color="midnightblue",fontsize="10",style="solid",fontname="Helvetica"];
  Node31 [label="Apps/Plugins/MITKPlugin\l/processors/MDHVectorField\l/coreMHDVectorFieldReader.h",height=0.2,width=0.4,color="red", fillcolor="white", style="filled",URL="$coreMHDVectorFieldReader_8h.html"];
  Node31 -> Node20 [dir="back",color="midnightblue",fontsize="10",style="solid",fontname="Helvetica"];
  Node2 -> Node32 [dir="back",color="midnightblue",fontsize="10",style="solid",fontname="Helvetica"];
  Node32 [label="Apps/Plugins/MITKPlugin\l/processors/VTKImageData\l/coreVTKImageDataReader.h",height=0.2,width=0.4,color="red", fillcolor="white", style="filled",URL="$coreVTKImageDataReader_8h.html"];
  Node32 -> Node20 [dir="back",color="midnightblue",fontsize="10",style="solid",fontname="Helvetica"];
  Node2 -> Node33 [dir="back",color="midnightblue",fontsize="10",style="solid",fontname="Helvetica"];
  Node33 [label="Apps/Plugins/MITKPlugin\l/processors/VTKPolyData\l/coreVTKPolyDataReader.h",height=0.2,width=0.4,color="red", fillcolor="white", style="filled",URL="$coreVTKPolyDataReader_8h.html"];
  Node33 -> Node20 [dir="back",color="midnightblue",fontsize="10",style="solid",fontname="Helvetica"];
  Node2 -> Node34 [dir="back",color="midnightblue",fontsize="10",style="solid",fontname="Helvetica"];
  Node34 [label="Apps/Plugins/MITKPlugin\l/processors/VTKUnstructuredGrid\l/coreVTKUnstructuredGridReader.h",height=0.2,width=0.4,color="red", fillcolor="white", style="filled",URL="$coreVTKUnstructuredGridReader_8h.html"];
  Node34 -> Node20 [dir="back",color="midnightblue",fontsize="10",style="solid",fontname="Helvetica"];
  Node2 -> Node35 [dir="back",color="midnightblue",fontsize="10",style="solid",fontname="Helvetica"];
  Node35 [label="Apps/Plugins/MITKPlugin\l/processors/VTKVRML/coreVTKVRMLReader.h",height=0.2,width=0.4,color="red", fillcolor="white", style="filled",URL="$coreVTKVRMLReader_8h.html"];
  Node35 -> Node20 [dir="back",color="midnightblue",fontsize="10",style="solid",fontname="Helvetica"];
  Node2 -> Node36 [dir="back",color="midnightblue",fontsize="10",style="solid",fontname="Helvetica"];
  Node36 [label="Apps/Plugins/SignalViewer\lPlugin/processors/coreSignalReader.h",height=0.2,width=0.4,color="red", fillcolor="white", style="filled",URL="$coreSignalReader_8h.html"];
  Node36 -> Node21 [dir="back",color="midnightblue",fontsize="10",style="solid",fontname="Helvetica"];
  Node1 -> Node37 [dir="back",color="midnightblue",fontsize="10",style="solid",fontname="Helvetica"];
  Node37 [label="Apps/Gimias/Core/IO\l/src/coreBaseDataEntityWriter.h",height=0.2,width=0.4,color="black", fillcolor="white", style="filled",URL="$coreBaseDataEntityWriter_8h.html"];
  Node37 -> Node38 [dir="back",color="midnightblue",fontsize="10",style="solid",fontname="Helvetica"];
  Node38 [label="Apps/Gimias/Core/IO\l/src/coreBaseDataEntityWriter.cxx",height=0.2,width=0.4,color="black", fillcolor="white", style="filled",URL="$coreBaseDataEntityWriter_8cxx.html"];
  Node37 -> Node39 [dir="back",color="midnightblue",fontsize="10",style="solid",fontname="Helvetica"];
  Node39 [label="Apps/Gimias/Core/IO\l/src/coreDataEntityWriter.h",height=0.2,width=0.4,color="red", fillcolor="white", style="filled",URL="$coreDataEntityWriter_8h.html"];
  Node39 -> Node5 [dir="back",color="midnightblue",fontsize="10",style="solid",fontname="Helvetica"];
  Node39 -> Node7 [dir="back",color="midnightblue",fontsize="10",style="solid",fontname="Helvetica"];
  Node39 -> Node8 [dir="back",color="midnightblue",fontsize="10",style="solid",fontname="Helvetica"];
  Node39 -> Node10 [dir="back",color="midnightblue",fontsize="10",style="solid",fontname="Helvetica"];
  Node39 -> Node11 [dir="back",color="midnightblue",fontsize="10",style="solid",fontname="Helvetica"];
  Node39 -> Node13 [dir="back",color="midnightblue",fontsize="10",style="solid",fontname="Helvetica"];
  Node39 -> Node14 [dir="back",color="midnightblue",fontsize="10",style="solid",fontname="Helvetica"];
  Node39 -> Node16 [dir="back",color="midnightblue",fontsize="10",style="solid",fontname="Helvetica"];
  Node39 -> Node17 [dir="back",color="midnightblue",fontsize="10",style="solid",fontname="Helvetica"];
  Node39 -> Node18 [dir="back",color="midnightblue",fontsize="10",style="solid",fontname="Helvetica"];
  Node39 -> Node19 [dir="back",color="midnightblue",fontsize="10",style="solid",fontname="Helvetica"];
  Node39 -> Node20 [dir="back",color="midnightblue",fontsize="10",style="solid",fontname="Helvetica"];
  Node39 -> Node21 [dir="back",color="midnightblue",fontsize="10",style="solid",fontname="Helvetica"];
  Node37 -> Node40 [dir="back",color="midnightblue",fontsize="10",style="solid",fontname="Helvetica"];
  Node40 [label="Apps/Gimias/Core/IO\l/src/DataFormatObjects\l/NumericDataFile/coreNumeric\lDataWriter.h",height=0.2,width=0.4,color="red", fillcolor="white", style="filled",URL="$coreNumericDataWriter_8h.html"];
  Node40 -> Node5 [dir="back",color="midnightblue",fontsize="10",style="solid",fontname="Helvetica"];
  Node37 -> Node41 [dir="back",color="midnightblue",fontsize="10",style="solid",fontname="Helvetica"];
  Node41 [label="Apps/Gimias/Core/Kernel\l/src/coreSessionWriter.h",height=0.2,width=0.4,color="red", fillcolor="white", style="filled",URL="$coreSessionWriter_8h.html"];
  Node41 -> Node25 [dir="back",color="midnightblue",fontsize="10",style="solid",fontname="Helvetica"];
  Node41 -> Node14 [dir="back",color="midnightblue",fontsize="10",style="solid",fontname="Helvetica"];
  Node37 -> Node42 [dir="back",color="midnightblue",fontsize="10",style="solid",fontname="Helvetica"];
  Node42 [label="Apps/Plugins/MITKPlugin\l/processors/CgnsFile/coreCgns\lFileWriter.h",height=0.2,width=0.4,color="red", fillcolor="white", style="filled",URL="$coreCgnsFileWriter_8h.html"];
  Node42 -> Node20 [dir="back",color="midnightblue",fontsize="10",style="solid",fontname="Helvetica"];
  Node37 -> Node43 [dir="back",color="midnightblue",fontsize="10",style="solid",fontname="Helvetica"];
  Node43 [label="Apps/Plugins/MITKPlugin\l/processors/ITKImage/coreITKImage\lWriter.h",height=0.2,width=0.4,color="red", fillcolor="white", style="filled",URL="$coreITKImageWriter_8h.html"];
  Node43 -> Node20 [dir="back",color="midnightblue",fontsize="10",style="solid",fontname="Helvetica"];
  Node37 -> Node44 [dir="back",color="midnightblue",fontsize="10",style="solid",fontname="Helvetica"];
  Node44 [label="Apps/Plugins/MITKPlugin\l/processors/ITKTransform\l/coreITKTransformWriter.h",height=0.2,width=0.4,color="red", fillcolor="white", style="filled",URL="$coreITKTransformWriter_8h.html"];
  Node44 -> Node20 [dir="back",color="midnightblue",fontsize="10",style="solid",fontname="Helvetica"];
  Node37 -> Node45 [dir="back",color="midnightblue",fontsize="10",style="solid",fontname="Helvetica"];
  Node45 [label="Apps/Plugins/MITKPlugin\l/processors/VTKImageData\l/coreVTKImageDataWriter.h",height=0.2,width=0.4,color="red", fillcolor="white", style="filled",URL="$coreVTKImageDataWriter_8h.html"];
  Node45 -> Node20 [dir="back",color="midnightblue",fontsize="10",style="solid",fontname="Helvetica"];
  Node37 -> Node46 [dir="back",color="midnightblue",fontsize="10",style="solid",fontname="Helvetica"];
  Node46 [label="Apps/Plugins/MITKPlugin\l/processors/VTKPolyData\l/coreVTKPolyDataWriter.h",height=0.2,width=0.4,color="red", fillcolor="white", style="filled",URL="$coreVTKPolyDataWriter_8h.html"];
  Node46 -> Node20 [dir="back",color="midnightblue",fontsize="10",style="solid",fontname="Helvetica"];
  Node37 -> Node47 [dir="back",color="midnightblue",fontsize="10",style="solid",fontname="Helvetica"];
  Node47 [label="Apps/Plugins/MITKPlugin\l/processors/VTKUnstructuredGrid\l/coreVTKUnstructuredGridWriter.h",height=0.2,width=0.4,color="red", fillcolor="white", style="filled",URL="$coreVTKUnstructuredGridWriter_8h.html"];
  Node47 -> Node20 [dir="back",color="midnightblue",fontsize="10",style="solid",fontname="Helvetica"];
  Node37 -> Node48 [dir="back",color="midnightblue",fontsize="10",style="solid",fontname="Helvetica"];
  Node48 [label="Apps/Plugins/MITKPlugin\l/processors/VTKVRML/coreVTKVRMLWriter.h",height=0.2,width=0.4,color="red", fillcolor="white", style="filled",URL="$coreVTKVRMLWriter_8h.html"];
  Node48 -> Node20 [dir="back",color="midnightblue",fontsize="10",style="solid",fontname="Helvetica"];
  Node37 -> Node49 [dir="back",color="midnightblue",fontsize="10",style="solid",fontname="Helvetica"];
  Node49 [label="Apps/Plugins/SignalViewer\lPlugin/processors/coreSignalWriter.h",height=0.2,width=0.4,color="red", fillcolor="white", style="filled",URL="$coreSignalWriter_8h.html"];
  Node49 -> Node21 [dir="back",color="midnightblue",fontsize="10",style="solid",fontname="Helvetica"];
  Node1 -> Node50 [dir="back",color="midnightblue",fontsize="10",style="solid",fontname="Helvetica"];
  Node50 [label="Apps/Gimias/Core/IO\l/src/coreBaseIO.cxx",height=0.2,width=0.4,color="black", fillcolor="white", style="filled",URL="$coreBaseIO_8cxx.html"];
  Node1 -> Node12 [dir="back",color="midnightblue",fontsize="10",style="solid",fontname="Helvetica"];
}
