digraph "Apps/Gimias/GUI/Widgets/src/ProcessingToolbox/coreSimpleProcessingWidget.cpp"
{
  edge [fontname="Helvetica",fontsize="10",labelfontname="Helvetica",labelfontsize="10"];
  node [fontname="Helvetica",fontsize="10",shape=record];
  Node1 [label="Apps/Gimias/GUI/Widgets\l/src/ProcessingToolbox\l/coreSimpleProcessingWidget.cpp",height=0.2,width=0.4,color="black", fillcolor="grey75", style="filled", fontcolor="black"];
  Node1 -> Node2 [color="midnightblue",fontsize="10",style="solid",fontname="Helvetica"];
  Node2 [label="coreSimpleProcessingWidget.h",height=0.2,width=0.4,color="black", fillcolor="white", style="filled",URL="$coreSimpleProcessingWidget_8h.html"];
  Node2 -> Node3 [color="midnightblue",fontsize="10",style="solid",fontname="Helvetica"];
  Node3 [label="coreSimpleProcessingWidgetUI.h",height=0.2,width=0.4,color="black", fillcolor="white", style="filled",URL="$coreSimpleProcessingWidgetUI_8h.html"];
  Node3 -> Node4 [color="midnightblue",fontsize="10",style="solid",fontname="Helvetica"];
  Node4 [label="wx/wx.h",height=0.2,width=0.4,color="grey75", fillcolor="white", style="filled"];
  Node3 -> Node5 [color="midnightblue",fontsize="10",style="solid",fontname="Helvetica"];
  Node5 [label="wx/image.h",height=0.2,width=0.4,color="grey75", fillcolor="white", style="filled"];
  Node2 -> Node6 [color="midnightblue",fontsize="10",style="solid",fontname="Helvetica"];
  Node6 [label="coreProcessingWidget.h",height=0.2,width=0.4,color="black", fillcolor="white", style="filled",URL="$coreProcessingWidget_8h.html"];
  Node6 -> Node4 [color="midnightblue",fontsize="10",style="solid",fontname="Helvetica"];
  Node6 -> Node5 [color="midnightblue",fontsize="10",style="solid",fontname="Helvetica"];
  Node6 -> Node7 [color="midnightblue",fontsize="10",style="solid",fontname="Helvetica"];
  Node7 [label="coreDataEntityHolder.h",height=0.2,width=0.4,color="black", fillcolor="white", style="filled",URL="$coreDataEntityHolder_8h.html"];
  Node7 -> Node8 [color="midnightblue",fontsize="10",style="solid",fontname="Helvetica"];
  Node8 [label="gmDataHandlingWin32Header.h",height=0.2,width=0.4,color="grey75", fillcolor="white", style="filled"];
  Node7 -> Node9 [color="midnightblue",fontsize="10",style="solid",fontname="Helvetica"];
  Node9 [label="coreDataEntity.h",height=0.2,width=0.4,color="red", fillcolor="white", style="filled",URL="$coreDataEntity_8h.html"];
  Node9 -> Node8 [color="midnightblue",fontsize="10",style="solid",fontname="Helvetica"];
  Node9 -> Node10 [color="midnightblue",fontsize="10",style="solid",fontname="Helvetica"];
  Node10 [label="coreObject.h",height=0.2,width=0.4,color="red", fillcolor="white", style="filled",URL="$coreObject_8h.html"];
  Node10 -> Node11 [color="midnightblue",fontsize="10",style="solid",fontname="Helvetica"];
  Node11 [label="coreSmartPointerMacros.h",height=0.2,width=0.4,color="red", fillcolor="white", style="filled",URL="$coreSmartPointerMacros_8h.html"];
  Node10 -> Node12 [color="midnightblue",fontsize="10",style="solid",fontname="Helvetica"];
  Node12 [label="boost/signals.hpp",height=0.2,width=0.4,color="grey75", fillcolor="white", style="filled"];
  Node9 -> Node12 [color="midnightblue",fontsize="10",style="solid",fontname="Helvetica"];
  Node9 -> Node7 [color="midnightblue",fontsize="10",style="solid",fontname="Helvetica"];
  Node7 -> Node13 [color="midnightblue",fontsize="10",style="solid",fontname="Helvetica"];
  Node13 [label="coreDataHolder.h",height=0.2,width=0.4,color="red", fillcolor="white", style="filled",URL="$coreDataHolder_8h.html"];
  Node13 -> Node12 [color="midnightblue",fontsize="10",style="solid",fontname="Helvetica"];
  Node13 -> Node13 [color="midnightblue",fontsize="10",style="solid",fontname="Helvetica"];
  Node6 -> Node14 [color="midnightblue",fontsize="10",style="solid",fontname="Helvetica"];
  Node14 [label="coreRenderingTree.h",height=0.2,width=0.4,color="black", fillcolor="white", style="filled",URL="$coreRenderingTree_8h.html"];
  Node14 -> Node15 [color="midnightblue",fontsize="10",style="solid",fontname="Helvetica"];
  Node15 [label="gmKernelWin32Header.h",height=0.2,width=0.4,color="grey75", fillcolor="white", style="filled"];
  Node14 -> Node10 [color="midnightblue",fontsize="10",style="solid",fontname="Helvetica"];
  Node14 -> Node9 [color="midnightblue",fontsize="10",style="solid",fontname="Helvetica"];
  Node14 -> Node12 [color="midnightblue",fontsize="10",style="solid",fontname="Helvetica"];
  Node14 -> Node16 [color="midnightblue",fontsize="10",style="solid",fontname="Helvetica"];
  Node16 [label="map",height=0.2,width=0.4,color="grey75", fillcolor="white", style="filled"];
  Node14 -> Node17 [color="midnightblue",fontsize="10",style="solid",fontname="Helvetica"];
  Node17 [label="coreRenderingTree.txx",height=0.2,width=0.4,color="grey75", fillcolor="white", style="filled"];
  Node6 -> Node18 [color="midnightblue",fontsize="10",style="solid",fontname="Helvetica"];
  Node18 [label="coreDataEntityListBrowser.h",height=0.2,width=0.4,color="black", fillcolor="white", style="filled",URL="$coreDataEntityListBrowser_8h.html"];
  Node18 -> Node19 [color="midnightblue",fontsize="10",style="solid",fontname="Helvetica"];
  Node19 [label="gmWidgetsWin32Header.h",height=0.2,width=0.4,color="grey75", fillcolor="white", style="filled"];
  Node18 -> Node10 [color="midnightblue",fontsize="10",style="solid",fontname="Helvetica"];
  Node18 -> Node20 [color="midnightblue",fontsize="10",style="solid",fontname="Helvetica"];
  Node20 [label="coreDataEntityList.h",height=0.2,width=0.4,color="red", fillcolor="white", style="filled",URL="$coreDataEntityList_8h.html"];
  Node20 -> Node15 [color="midnightblue",fontsize="10",style="solid",fontname="Helvetica"];
  Node20 -> Node10 [color="midnightblue",fontsize="10",style="solid",fontname="Helvetica"];
  Node20 -> Node9 [color="midnightblue",fontsize="10",style="solid",fontname="Helvetica"];
  Node20 -> Node7 [color="midnightblue",fontsize="10",style="solid",fontname="Helvetica"];
  Node20 -> Node21 [color="midnightblue",fontsize="10",style="solid",fontname="Helvetica"];
  Node21 [label="CILabExceptionMacros.h",height=0.2,width=0.4,color="red", fillcolor="white", style="filled",URL="$CILabExceptionMacros_8h.html"];
  Node20 -> Node12 [color="midnightblue",fontsize="10",style="solid",fontname="Helvetica"];
  Node20 -> Node16 [color="midnightblue",fontsize="10",style="solid",fontname="Helvetica"];
  Node18 -> Node13 [color="midnightblue",fontsize="10",style="solid",fontname="Helvetica"];
  Node18 -> Node12 [color="midnightblue",fontsize="10",style="solid",fontname="Helvetica"];
  Node18 -> Node14 [color="midnightblue",fontsize="10",style="solid",fontname="Helvetica"];
  Node18 -> Node22 [color="midnightblue",fontsize="10",style="solid",fontname="Helvetica"];
  Node22 [label="coreBaseWindow.h",height=0.2,width=0.4,color="red", fillcolor="white", style="filled",URL="$coreBaseWindow_8h.html"];
  Node22 -> Node15 [color="midnightblue",fontsize="10",style="solid",fontname="Helvetica"];
  Node22 -> Node14 [color="midnightblue",fontsize="10",style="solid",fontname="Helvetica"];
  Node22 -> Node23 [color="midnightblue",fontsize="10",style="solid",fontname="Helvetica"];
  Node23 [label="coreBaseProcessor.h",height=0.2,width=0.4,color="black", fillcolor="white", style="filled",URL="$coreBaseProcessor_8h.html"];
  Node23 -> Node24 [color="midnightblue",fontsize="10",style="solid",fontname="Helvetica"];
  Node24 [label="gmFilteringWin32Header.h",height=0.2,width=0.4,color="grey75", fillcolor="white", style="filled"];
  Node23 -> Node10 [color="midnightblue",fontsize="10",style="solid",fontname="Helvetica"];
  Node23 -> Node13 [color="midnightblue",fontsize="10",style="solid",fontname="Helvetica"];
  Node23 -> Node9 [color="midnightblue",fontsize="10",style="solid",fontname="Helvetica"];
  Node23 -> Node25 [color="midnightblue",fontsize="10",style="solid",fontname="Helvetica"];
  Node25 [label="coreBaseFilter.h",height=0.2,width=0.4,color="black", fillcolor="white", style="filled",URL="$coreBaseFilter_8h.html"];
  Node25 -> Node10 [color="midnightblue",fontsize="10",style="solid",fontname="Helvetica"];
  Node25 -> Node13 [color="midnightblue",fontsize="10",style="solid",fontname="Helvetica"];
  Node25 -> Node9 [color="midnightblue",fontsize="10",style="solid",fontname="Helvetica"];
  Node25 -> Node26 [color="midnightblue",fontsize="10",style="solid",fontname="Helvetica"];
  Node26 [label="coreBaseFilterInputPort.h",height=0.2,width=0.4,color="red", fillcolor="white", style="filled",URL="$coreBaseFilterInputPort_8h.html"];
  Node26 -> Node10 [color="midnightblue",fontsize="10",style="solid",fontname="Helvetica"];
  Node25 -> Node27 [color="midnightblue",fontsize="10",style="solid",fontname="Helvetica"];
  Node27 [label="coreBaseFilterOutputPort.h",height=0.2,width=0.4,color="red", fillcolor="white", style="filled",URL="$coreBaseFilterOutputPort_8h.html"];
  Node27 -> Node10 [color="midnightblue",fontsize="10",style="solid",fontname="Helvetica"];
  Node25 -> Node28 [color="midnightblue",fontsize="10",style="solid",fontname="Helvetica"];
  Node28 [label="coreUpdateCallback.h",height=0.2,width=0.4,color="black", fillcolor="white", style="filled",URL="$coreUpdateCallback_8h.html"];
  Node28 -> Node24 [color="midnightblue",fontsize="10",style="solid",fontname="Helvetica"];
  Node28 -> Node10 [color="midnightblue",fontsize="10",style="solid",fontname="Helvetica"];
  Node25 -> Node29 [color="midnightblue",fontsize="10",style="solid",fontname="Helvetica"];
  Node29 [label="coreBaseFilter.txx",height=0.2,width=0.4,color="grey75", fillcolor="white", style="filled"];
  Node23 -> Node30 [color="midnightblue",fontsize="10",style="solid",fontname="Helvetica"];
  Node30 [label="ModuleDescription.h",height=0.2,width=0.4,color="grey75", fillcolor="white", style="filled"];
  Node23 -> Node31 [color="midnightblue",fontsize="10",style="solid",fontname="Helvetica"];
  Node31 [label="coreBaseProcessor.txx",height=0.2,width=0.4,color="grey75", fillcolor="white", style="filled"];
  Node22 -> Node32 [color="midnightblue",fontsize="10",style="solid",fontname="Helvetica"];
  Node32 [label="coreProcessorOutputObserver.h",height=0.2,width=0.4,color="black", fillcolor="white", style="filled",URL="$coreProcessorOutputObserver_8h.html"];
  Node32 -> Node15 [color="midnightblue",fontsize="10",style="solid",fontname="Helvetica"];
  Node32 -> Node10 [color="midnightblue",fontsize="10",style="solid",fontname="Helvetica"];
  Node32 -> Node14 [color="midnightblue",fontsize="10",style="solid",fontname="Helvetica"];
  Node18 -> Node33 [color="midnightblue",fontsize="10",style="solid",fontname="Helvetica"];
  Node33 [label="wx/treebase.h",height=0.2,width=0.4,color="grey75", fillcolor="white", style="filled"];
  Node18 -> Node34 [color="midnightblue",fontsize="10",style="solid",fontname="Helvetica"];
  Node34 [label="wx/panel.h",height=0.2,width=0.4,color="grey75", fillcolor="white", style="filled"];
  Node18 -> Node35 [color="midnightblue",fontsize="10",style="solid",fontname="Helvetica"];
  Node35 [label="wxID.h",height=0.2,width=0.4,color="red", fillcolor="white", style="filled",URL="$wxID_8h.html"];
  Node6 -> Node25 [color="midnightblue",fontsize="10",style="solid",fontname="Helvetica"];
  Node6 -> Node32 [color="midnightblue",fontsize="10",style="solid",fontname="Helvetica"];
  Node6 -> Node36 [color="midnightblue",fontsize="10",style="solid",fontname="Helvetica"];
  Node36 [label="coreProcessorOutputsObserver\lBuilder.h",height=0.2,width=0.4,color="black", fillcolor="white", style="filled",URL="$coreProcessorOutputsObserverBuilder_8h.html"];
  Node36 -> Node15 [color="midnightblue",fontsize="10",style="solid",fontname="Helvetica"];
  Node36 -> Node23 [color="midnightblue",fontsize="10",style="solid",fontname="Helvetica"];
  Node36 -> Node32 [color="midnightblue",fontsize="10",style="solid",fontname="Helvetica"];
  Node36 -> Node11 [color="midnightblue",fontsize="10",style="solid",fontname="Helvetica"];
  Node36 -> Node14 [color="midnightblue",fontsize="10",style="solid",fontname="Helvetica"];
  Node36 -> Node10 [color="midnightblue",fontsize="10",style="solid",fontname="Helvetica"];
  Node6 -> Node37 [color="midnightblue",fontsize="10",style="solid",fontname="Helvetica"];
  Node37 [label="coreUserHelperWidget.h",height=0.2,width=0.4,color="red", fillcolor="white", style="filled",URL="$coreUserHelperWidget_8h.html"];
  Node37 -> Node19 [color="midnightblue",fontsize="10",style="solid",fontname="Helvetica"];
  Node37 -> Node34 [color="midnightblue",fontsize="10",style="solid",fontname="Helvetica"];
  Node37 -> Node22 [color="midnightblue",fontsize="10",style="solid",fontname="Helvetica"];
  Node37 -> Node35 [color="midnightblue",fontsize="10",style="solid",fontname="Helvetica"];
  Node6 -> Node22 [color="midnightblue",fontsize="10",style="solid",fontname="Helvetica"];
  Node6 -> Node38 [color="midnightblue",fontsize="10",style="solid",fontname="Helvetica"];
  Node38 [label="coreSelectionToolWidget.h",height=0.2,width=0.4,color="black", fillcolor="white", style="filled",URL="$coreSelectionToolWidget_8h.html"];
  Node38 -> Node19 [color="midnightblue",fontsize="10",style="solid",fontname="Helvetica"];
  Node38 -> Node22 [color="midnightblue",fontsize="10",style="solid",fontname="Helvetica"];
  Node6 -> Node39 [color="midnightblue",fontsize="10",style="solid",fontname="Helvetica"];
  Node39 [label="coreSelectionToolboxWidget.h",height=0.2,width=0.4,color="red", fillcolor="white", style="filled",URL="$coreSelectionToolboxWidget_8h.html"];
  Node39 -> Node22 [color="midnightblue",fontsize="10",style="solid",fontname="Helvetica"];
  Node39 -> Node38 [color="midnightblue",fontsize="10",style="solid",fontname="Helvetica"];
  Node6 -> Node40 [color="midnightblue",fontsize="10",style="solid",fontname="Helvetica"];
  Node40 [label="corePluginTabFactory.h",height=0.2,width=0.4,color="red", fillcolor="white", style="filled",URL="$corePluginTabFactory_8h.html"];
  Node40 -> Node10 [color="midnightblue",fontsize="10",style="solid",fontname="Helvetica"];
  Node2 -> Node41 [color="midnightblue",fontsize="10",style="solid",fontname="Helvetica"];
  Node41 [label="coreSimpleProcessingWidget.txx",height=0.2,width=0.4,color="grey75", fillcolor="white", style="filled"];
  Node1 -> Node42 [color="midnightblue",fontsize="10",style="solid",fontname="Helvetica"];
  Node42 [label="coreDynProcessor.h",height=0.2,width=0.4,color="black", fillcolor="white", style="filled",URL="$coreDynProcessor_8h.html"];
  Node42 -> Node43 [color="midnightblue",fontsize="10",style="solid",fontname="Helvetica"];
  Node43 [label="gmProcessorsWin32Header.h",height=0.2,width=0.4,color="grey75", fillcolor="white", style="filled"];
  Node42 -> Node23 [color="midnightblue",fontsize="10",style="solid",fontname="Helvetica"];
  Node42 -> Node44 [color="midnightblue",fontsize="10",style="solid",fontname="Helvetica"];
  Node44 [label="dynModuleExecution.h",height=0.2,width=0.4,color="black", fillcolor="white", style="filled",URL="$dynModuleExecution_8h.html"];
  Node44 -> Node45 [color="midnightblue",fontsize="10",style="solid",fontname="Helvetica"];
  Node45 [label="DynLibWin32Header.h",height=0.2,width=0.4,color="grey75", fillcolor="white", style="filled"];
  Node44 -> Node30 [color="midnightblue",fontsize="10",style="solid",fontname="Helvetica"];
  Node44 -> Node46 [color="midnightblue",fontsize="10",style="solid",fontname="Helvetica"];
  Node46 [label="dynModuleExecutionImpl.h",height=0.2,width=0.4,color="red", fillcolor="white", style="filled",URL="$dynModuleExecutionImpl_8h.html"];
  Node46 -> Node45 [color="midnightblue",fontsize="10",style="solid",fontname="Helvetica"];
  Node46 -> Node30 [color="midnightblue",fontsize="10",style="solid",fontname="Helvetica"];
  Node46 -> Node47 [color="midnightblue",fontsize="10",style="solid",fontname="Helvetica"];
  Node47 [label="blLightObject.h",height=0.2,width=0.4,color="red", fillcolor="white", style="filled",URL="$blLightObject_8h.html"];
  Node46 -> Node48 [color="midnightblue",fontsize="10",style="solid",fontname="Helvetica"];
  Node48 [label="list",height=0.2,width=0.4,color="grey75", fillcolor="white", style="filled"];
  Node46 -> Node16 [color="midnightblue",fontsize="10",style="solid",fontname="Helvetica"];
  Node46 -> Node49 [color="midnightblue",fontsize="10",style="solid",fontname="Helvetica"];
  Node49 [label="dynUpdateCallback.h",height=0.2,width=0.4,color="red", fillcolor="white", style="filled",URL="$dynUpdateCallback_8h.html"];
  Node49 -> Node45 [color="midnightblue",fontsize="10",style="solid",fontname="Helvetica"];
  Node44 -> Node47 [color="midnightblue",fontsize="10",style="solid",fontname="Helvetica"];
  Node44 -> Node48 [color="midnightblue",fontsize="10",style="solid",fontname="Helvetica"];
  Node44 -> Node16 [color="midnightblue",fontsize="10",style="solid",fontname="Helvetica"];
  Node44 -> Node49 [color="midnightblue",fontsize="10",style="solid",fontname="Helvetica"];
  Node44 -> Node21 [color="midnightblue",fontsize="10",style="solid",fontname="Helvetica"];
  Node42 -> Node50 [color="midnightblue",fontsize="10",style="solid",fontname="Helvetica"];
  Node50 [label="coreDynUpdateCallback.h",height=0.2,width=0.4,color="black", fillcolor="white", style="filled",URL="$coreDynUpdateCallback_8h.html"];
  Node50 -> Node43 [color="midnightblue",fontsize="10",style="solid",fontname="Helvetica"];
  Node50 -> Node49 [color="midnightblue",fontsize="10",style="solid",fontname="Helvetica"];
  Node50 -> Node28 [color="midnightblue",fontsize="10",style="solid",fontname="Helvetica"];
}
