digraph "Apps/Gimias/GUI/Widgets/src/ProcessorWidgetsBuilder/coreProcessorWidgetsBuilder.h"
{
  edge [fontname="Helvetica",fontsize="10",labelfontname="Helvetica",labelfontsize="10"];
  node [fontname="Helvetica",fontsize="10",shape=record];
  Node1 [label="Apps/Gimias/GUI/Widgets\l/src/ProcessorWidgetsBuilder\l/coreProcessorWidgetsBuilder.h",height=0.2,width=0.4,color="black", fillcolor="grey75", style="filled", fontcolor="black"];
  Node1 -> Node2 [dir="back",color="midnightblue",fontsize="10",style="solid",fontname="Helvetica"];
  Node2 [label="Apps/Gimias/GUI/Widgets\l/src/PluginTab/corePluginTab.cxx",height=0.2,width=0.4,color="black", fillcolor="white", style="filled",URL="$corePluginTab_8cxx.html"];
  Node1 -> Node3 [dir="back",color="midnightblue",fontsize="10",style="solid",fontname="Helvetica"];
  Node3 [label="Apps/Gimias/GUI/Widgets\l/src/ProcessingToolbox\l/coreDynProcessingWidget.cpp",height=0.2,width=0.4,color="black", fillcolor="white", style="filled",URL="$coreDynProcessingWidget_8cpp.html"];
  Node1 -> Node4 [dir="back",color="midnightblue",fontsize="10",style="solid",fontname="Helvetica"];
  Node4 [label="Apps/Gimias/GUI/Widgets\l/src/ProcessingToolbox\l/coreProcessingToolboxWidget.cxx",height=0.2,width=0.4,color="black", fillcolor="white", style="filled",URL="$coreProcessingToolboxWidget_8cxx.html"];
  Node1 -> Node5 [dir="back",color="midnightblue",fontsize="10",style="solid",fontname="Helvetica"];
  Node5 [label="Apps/Gimias/GUI/Widgets\l/src/ProcessorWidgetsBuilder\l/coreProcessorWidgetsBuilder.cxx",height=0.2,width=0.4,color="black", fillcolor="white", style="filled",URL="$coreProcessorWidgetsBuilder_8cxx.html"];
  Node1 -> Node6 [dir="back",color="midnightblue",fontsize="10",style="solid",fontname="Helvetica"];
  Node6 [label="Apps/Gimias/GUI/Widgets\l/src/WidgetCollective\l/coreWidgetCollective.cxx",height=0.2,width=0.4,color="black", fillcolor="white", style="filled",URL="$coreWidgetCollective_8cxx.html"];
  Node1 -> Node7 [dir="back",color="midnightblue",fontsize="10",style="solid",fontname="Helvetica"];
  Node7 [label="Apps/Plugins/MeshEditorPlugin\l/widgets/RadiographVisualization\l/ptRadiographVisualizationWidget.cxx",height=0.2,width=0.4,color="black", fillcolor="white", style="filled",URL="$ptRadiographVisualizationWidget_8cxx.html"];
}
