digraph "Apps/Gimias/Core/Kernel/src/coreWxMitkGraphicalInterface.cxx"
{
  edge [fontname="Helvetica",fontsize="10",labelfontname="Helvetica",labelfontsize="10"];
  node [fontname="Helvetica",fontsize="10",shape=record];
  Node1 [label="Apps/Gimias/Core/Kernel\l/src/coreWxMitkGraphicalInterface.cxx",height=0.2,width=0.4,color="black", fillcolor="grey75", style="filled", fontcolor="black"];
  Node1 -> Node2 [color="midnightblue",fontsize="10",style="solid",fontname="Helvetica"];
  Node2 [label="coreKernel.h",height=0.2,width=0.4,color="black", fillcolor="white", style="filled",URL="$coreKernel_8h.html"];
  Node2 -> Node3 [color="midnightblue",fontsize="10",style="solid",fontname="Helvetica"];
  Node3 [label="coreObject.h",height=0.2,width=0.4,color="red", fillcolor="white", style="filled",URL="$coreObject_8h.html"];
  Node3 -> Node4 [color="midnightblue",fontsize="10",style="solid",fontname="Helvetica"];
  Node4 [label="gmCommonObjectsWin32Header.h",height=0.2,width=0.4,color="grey75", fillcolor="white", style="filled"];
  Node3 -> Node5 [color="midnightblue",fontsize="10",style="solid",fontname="Helvetica"];
  Node5 [label="coreCommonMacros.h",height=0.2,width=0.4,color="black", fillcolor="white", style="filled",URL="$coreCommonMacros_8h.html"];
  Node3 -> Node6 [color="midnightblue",fontsize="10",style="solid",fontname="Helvetica"];
  Node6 [label="coreSmartPointerMacros.h",height=0.2,width=0.4,color="red", fillcolor="white", style="filled",URL="$coreSmartPointerMacros_8h.html"];
  Node6 -> Node5 [color="midnightblue",fontsize="10",style="solid",fontname="Helvetica"];
  Node3 -> Node7 [color="midnightblue",fontsize="10",style="solid",fontname="Helvetica"];
  Node7 [label="blTagMap.h",height=0.2,width=0.4,color="red", fillcolor="white", style="filled",URL="$blTagMap_8h.html"];
  Node7 -> Node8 [color="midnightblue",fontsize="10",style="solid",fontname="Helvetica"];
  Node8 [label="blLightObject.h",height=0.2,width=0.4,color="red", fillcolor="white", style="filled",URL="$blLightObject_8h.html"];
  Node7 -> Node9 [color="midnightblue",fontsize="10",style="solid",fontname="Helvetica"];
  Node9 [label="CILabExceptionMacros.h",height=0.2,width=0.4,color="black", fillcolor="white", style="filled",URL="$CILabExceptionMacros_8h.html"];
  Node9 -> Node10 [color="midnightblue",fontsize="10",style="solid",fontname="Helvetica"];
  Node10 [label="exception",height=0.2,width=0.4,color="grey75", fillcolor="white", style="filled"];
  Node9 -> Node11 [color="midnightblue",fontsize="10",style="solid",fontname="Helvetica"];
  Node11 [label="string",height=0.2,width=0.4,color="grey75", fillcolor="white", style="filled"];
  Node7 -> Node12 [color="midnightblue",fontsize="10",style="solid",fontname="Helvetica"];
  Node12 [label="boost/bind.hpp",height=0.2,width=0.4,color="grey75", fillcolor="white", style="filled"];
  Node7 -> Node11 [color="midnightblue",fontsize="10",style="solid",fontname="Helvetica"];
  Node7 -> Node13 [color="midnightblue",fontsize="10",style="solid",fontname="Helvetica"];
  Node13 [label="map",height=0.2,width=0.4,color="grey75", fillcolor="white", style="filled"];
  Node3 -> Node14 [color="midnightblue",fontsize="10",style="solid",fontname="Helvetica"];
  Node14 [label="itkLightObject.h",height=0.2,width=0.4,color="grey75", fillcolor="white", style="filled"];
  Node3 -> Node15 [color="midnightblue",fontsize="10",style="solid",fontname="Helvetica"];
  Node15 [label="itkTimeStamp.h",height=0.2,width=0.4,color="grey75", fillcolor="white", style="filled"];
  Node3 -> Node12 [color="midnightblue",fontsize="10",style="solid",fontname="Helvetica"];
  Node2 -> Node16 [color="midnightblue",fontsize="10",style="solid",fontname="Helvetica"];
  Node16 [label="coreEnvironment.h",height=0.2,width=0.4,color="red", fillcolor="white", style="filled",URL="$coreEnvironment_8h.html"];
  Node16 -> Node17 [color="midnightblue",fontsize="10",style="solid",fontname="Helvetica"];
  Node17 [label="gmKernelWin32Header.h",height=0.2,width=0.4,color="grey75", fillcolor="white", style="filled"];
  Node16 -> Node3 [color="midnightblue",fontsize="10",style="solid",fontname="Helvetica"];
  Node16 -> Node18 [color="midnightblue",fontsize="10",style="solid",fontname="Helvetica"];
  Node18 [label="coreDataHolder.h",height=0.2,width=0.4,color="red", fillcolor="white", style="filled",URL="$coreDataHolder_8h.html"];
  Node18 -> Node4 [color="midnightblue",fontsize="10",style="solid",fontname="Helvetica"];
  Node18 -> Node12 [color="midnightblue",fontsize="10",style="solid",fontname="Helvetica"];
  Node18 -> Node18 [color="midnightblue",fontsize="10",style="solid",fontname="Helvetica"];
  Node18 -> Node19 [color="midnightblue",fontsize="10",style="solid",fontname="Helvetica"];
  Node19 [label="/home/el1mc/src/bitbucket\l/cistib/cilab-gimiax/src\l/Apps/Gimias/Core/CommonObjects\l/src/coreAssert.h",height=0.2,width=0.4,color="grey75", fillcolor="white", style="filled"];
  Node16 -> Node11 [color="midnightblue",fontsize="10",style="solid",fontname="Helvetica"];
  Node2 -> Node20 [color="midnightblue",fontsize="10",style="solid",fontname="Helvetica"];
  Node20 [label="coreBaseFactory.h",height=0.2,width=0.4,color="black", fillcolor="white", style="filled",URL="$coreBaseFactory_8h.html"];
  Node20 -> Node4 [color="midnightblue",fontsize="10",style="solid",fontname="Helvetica"];
  Node20 -> Node5 [color="midnightblue",fontsize="10",style="solid",fontname="Helvetica"];
  Node20 -> Node6 [color="midnightblue",fontsize="10",style="solid",fontname="Helvetica"];
  Node20 -> Node3 [color="midnightblue",fontsize="10",style="solid",fontname="Helvetica"];
  Node2 -> Node21 [color="midnightblue",fontsize="10",style="solid",fontname="Helvetica"];
  Node21 [label="coreBaseMainWindow.h",height=0.2,width=0.4,color="black", fillcolor="white", style="filled",URL="$coreBaseMainWindow_8h.html"];
  Node21 -> Node11 [color="midnightblue",fontsize="10",style="solid",fontname="Helvetica"];
  Node21 -> Node22 [color="midnightblue",fontsize="10",style="solid",fontname="Helvetica"];
  Node22 [label="coreWindowConfig.h",height=0.2,width=0.4,color="black", fillcolor="white", style="filled",URL="$coreWindowConfig_8h.html"];
  Node22 -> Node11 [color="midnightblue",fontsize="10",style="solid",fontname="Helvetica"];
  Node22 -> Node17 [color="midnightblue",fontsize="10",style="solid",fontname="Helvetica"];
  Node21 -> Node23 [color="midnightblue",fontsize="10",style="solid",fontname="Helvetica"];
  Node23 [label="coreWorkflow.h",height=0.2,width=0.4,color="red", fillcolor="white", style="filled",URL="$coreWorkflow_8h.html"];
  Node23 -> Node3 [color="midnightblue",fontsize="10",style="solid",fontname="Helvetica"];
  Node21 -> Node24 [color="midnightblue",fontsize="10",style="solid",fontname="Helvetica"];
  Node24 [label="coreBasePluginTab.h",height=0.2,width=0.4,color="black", fillcolor="white", style="filled",URL="$coreBasePluginTab_8h.html"];
  Node24 -> Node3 [color="midnightblue",fontsize="10",style="solid",fontname="Helvetica"];
  Node24 -> Node25 [color="midnightblue",fontsize="10",style="solid",fontname="Helvetica"];
  Node25 [label="coreBaseWindow.h",height=0.2,width=0.4,color="red", fillcolor="white", style="filled",URL="$coreBaseWindow_8h.html"];
  Node25 -> Node17 [color="midnightblue",fontsize="10",style="solid",fontname="Helvetica"];
  Node25 -> Node26 [color="midnightblue",fontsize="10",style="solid",fontname="Helvetica"];
  Node26 [label="coreRenderingTree.h",height=0.2,width=0.4,color="red", fillcolor="white", style="filled",URL="$coreRenderingTree_8h.html"];
  Node26 -> Node17 [color="midnightblue",fontsize="10",style="solid",fontname="Helvetica"];
  Node26 -> Node3 [color="midnightblue",fontsize="10",style="solid",fontname="Helvetica"];
  Node26 -> Node13 [color="midnightblue",fontsize="10",style="solid",fontname="Helvetica"];
  Node25 -> Node27 [color="midnightblue",fontsize="10",style="solid",fontname="Helvetica"];
  Node27 [label="coreBaseWindowFactory.h",height=0.2,width=0.4,color="red", fillcolor="white", style="filled",URL="$coreBaseWindowFactory_8h.html"];
  Node27 -> Node3 [color="midnightblue",fontsize="10",style="solid",fontname="Helvetica"];
  Node27 -> Node25 [color="midnightblue",fontsize="10",style="solid",fontname="Helvetica"];
  Node27 -> Node22 [color="midnightblue",fontsize="10",style="solid",fontname="Helvetica"];
  Node27 -> Node28 [color="midnightblue",fontsize="10",style="solid",fontname="Helvetica"];
  Node28 [label="ModuleDescription.h",height=0.2,width=0.4,color="grey75", fillcolor="white", style="filled"];
  Node25 -> Node7 [color="midnightblue",fontsize="10",style="solid",fontname="Helvetica"];
  Node25 -> Node22 [color="midnightblue",fontsize="10",style="solid",fontname="Helvetica"];
  Node24 -> Node22 [color="midnightblue",fontsize="10",style="solid",fontname="Helvetica"];
  Node21 -> Node26 [color="midnightblue",fontsize="10",style="solid",fontname="Helvetica"];
  Node21 -> Node29 [color="midnightblue",fontsize="10",style="solid",fontname="Helvetica"];
  Node29 [label="/home/el1mc/src/bitbucket\l/cistib/cilab-gimiax/src\l/Apps/Gimias/Core/Kernel\l/src/coreReportExceptionMacros.h",height=0.2,width=0.4,color="grey75", fillcolor="white", style="filled"];
  Node21 -> Node12 [color="midnightblue",fontsize="10",style="solid",fontname="Helvetica"];
  Node1 -> Node19 [color="midnightblue",fontsize="10",style="solid",fontname="Helvetica"];
  Node1 -> Node30 [color="midnightblue",fontsize="10",style="solid",fontname="Helvetica"];
  Node30 [label="coreWxMitkGraphicalInterface.h",height=0.2,width=0.4,color="black", fillcolor="white", style="filled",URL="$coreWxMitkGraphicalInterface_8h.html"];
  Node30 -> Node3 [color="midnightblue",fontsize="10",style="solid",fontname="Helvetica"];
  Node30 -> Node22 [color="midnightblue",fontsize="10",style="solid",fontname="Helvetica"];
  Node30 -> Node31 [color="midnightblue",fontsize="10",style="solid",fontname="Helvetica"];
  Node31 [label="dynModuleExecutionImpl.h",height=0.2,width=0.4,color="black", fillcolor="white", style="filled",URL="$dynModuleExecutionImpl_8h.html"];
  Node31 -> Node32 [color="midnightblue",fontsize="10",style="solid",fontname="Helvetica"];
  Node32 [label="DynLibWin32Header.h",height=0.2,width=0.4,color="grey75", fillcolor="white", style="filled"];
  Node31 -> Node28 [color="midnightblue",fontsize="10",style="solid",fontname="Helvetica"];
  Node31 -> Node8 [color="midnightblue",fontsize="10",style="solid",fontname="Helvetica"];
  Node31 -> Node33 [color="midnightblue",fontsize="10",style="solid",fontname="Helvetica"];
  Node33 [label="list",height=0.2,width=0.4,color="grey75", fillcolor="white", style="filled"];
  Node31 -> Node13 [color="midnightblue",fontsize="10",style="solid",fontname="Helvetica"];
  Node31 -> Node34 [color="midnightblue",fontsize="10",style="solid",fontname="Helvetica"];
  Node34 [label="dynUpdateCallback.h",height=0.2,width=0.4,color="black", fillcolor="white", style="filled",URL="$dynUpdateCallback_8h.html"];
  Node34 -> Node32 [color="midnightblue",fontsize="10",style="solid",fontname="Helvetica"];
  Node34 -> Node14 [color="midnightblue",fontsize="10",style="solid",fontname="Helvetica"];
  Node31 -> Node7 [color="midnightblue",fontsize="10",style="solid",fontname="Helvetica"];
  Node30 -> Node13 [color="midnightblue",fontsize="10",style="solid",fontname="Helvetica"];
  Node30 -> Node11 [color="midnightblue",fontsize="10",style="solid",fontname="Helvetica"];
  Node1 -> Node35 [color="midnightblue",fontsize="10",style="solid",fontname="Helvetica"];
  Node35 [label="coreException.h",height=0.2,width=0.4,color="black", fillcolor="white", style="filled",URL="$coreException_8h.html"];
  Node35 -> Node10 [color="midnightblue",fontsize="10",style="solid",fontname="Helvetica"];
  Node35 -> Node11 [color="midnightblue",fontsize="10",style="solid",fontname="Helvetica"];
  Node35 -> Node33 [color="midnightblue",fontsize="10",style="solid",fontname="Helvetica"];
  Node35 -> Node4 [color="midnightblue",fontsize="10",style="solid",fontname="Helvetica"];
  Node35 -> Node5 [color="midnightblue",fontsize="10",style="solid",fontname="Helvetica"];
  Node35 -> Node36 [color="midnightblue",fontsize="10",style="solid",fontname="Helvetica"];
  Node36 [label="coreCreateExceptionMacros.h",height=0.2,width=0.4,color="black", fillcolor="white", style="filled",URL="$coreCreateExceptionMacros_8h.html"];
  Node35 -> Node37 [color="midnightblue",fontsize="10",style="solid",fontname="Helvetica"];
  Node37 [label="coreBaseExceptions.h",height=0.2,width=0.4,color="black", fillcolor="white", style="filled",URL="$coreBaseExceptions_8h.html"];
  Node37 -> Node36 [color="midnightblue",fontsize="10",style="solid",fontname="Helvetica"];
  Node35 -> Node38 [color="midnightblue",fontsize="10",style="solid",fontname="Helvetica"];
  Node38 [label="coreExceptionMacros.h",height=0.2,width=0.4,color="black", fillcolor="white", style="filled",URL="$coreExceptionMacros_8h.html"];
  Node1 -> Node29 [color="midnightblue",fontsize="10",style="solid",fontname="Helvetica"];
  Node1 -> Node39 [color="midnightblue",fontsize="10",style="solid",fontname="Helvetica"];
  Node39 [label="coreSettings.h",height=0.2,width=0.4,color="black", fillcolor="white", style="filled",URL="$coreSettings_8h.html"];
  Node39 -> Node17 [color="midnightblue",fontsize="10",style="solid",fontname="Helvetica"];
  Node39 -> Node3 [color="midnightblue",fontsize="10",style="solid",fontname="Helvetica"];
  Node39 -> Node40 [color="midnightblue",fontsize="10",style="solid",fontname="Helvetica"];
  Node40 [label="coreConfigVars.h",height=0.2,width=0.4,color="red", fillcolor="white", style="filled",URL="$coreConfigVars_8h.html"];
  Node40 -> Node7 [color="midnightblue",fontsize="10",style="solid",fontname="Helvetica"];
  Node39 -> Node41 [color="midnightblue",fontsize="10",style="solid",fontname="Helvetica"];
  Node41 [label="coreSettingsIO.h",height=0.2,width=0.4,color="black", fillcolor="white", style="filled",URL="$coreSettingsIO_8h.html"];
  Node41 -> Node3 [color="midnightblue",fontsize="10",style="solid",fontname="Helvetica"];
  Node41 -> Node40 [color="midnightblue",fontsize="10",style="solid",fontname="Helvetica"];
  Node41 -> Node11 [color="midnightblue",fontsize="10",style="solid",fontname="Helvetica"];
  Node39 -> Node11 [color="midnightblue",fontsize="10",style="solid",fontname="Helvetica"];
  Node39 -> Node42 [color="midnightblue",fontsize="10",style="solid",fontname="Helvetica"];
  Node42 [label="boost/thread/mutex.hpp",height=0.2,width=0.4,color="grey75", fillcolor="white", style="filled"];
  Node1 -> Node43 [color="midnightblue",fontsize="10",style="solid",fontname="Helvetica"];
  Node43 [label="coreWorkflowManager.h",height=0.2,width=0.4,color="black", fillcolor="white", style="filled",URL="$coreWorkflowManager_8h.html"];
  Node43 -> Node17 [color="midnightblue",fontsize="10",style="solid",fontname="Helvetica"];
  Node43 -> Node3 [color="midnightblue",fontsize="10",style="solid",fontname="Helvetica"];
  Node43 -> Node23 [color="midnightblue",fontsize="10",style="solid",fontname="Helvetica"];
  Node43 -> Node18 [color="midnightblue",fontsize="10",style="solid",fontname="Helvetica"];
  Node1 -> Node44 [color="midnightblue",fontsize="10",style="solid",fontname="Helvetica"];
  Node44 [label="corePluginProviderManager.h",height=0.2,width=0.4,color="black", fillcolor="white", style="filled",URL="$corePluginProviderManager_8h.html"];
  Node44 -> Node17 [color="midnightblue",fontsize="10",style="solid",fontname="Helvetica"];
  Node44 -> Node3 [color="midnightblue",fontsize="10",style="solid",fontname="Helvetica"];
  Node44 -> Node45 [color="midnightblue",fontsize="10",style="solid",fontname="Helvetica"];
  Node45 [label="corePluginProvider.h",height=0.2,width=0.4,color="red", fillcolor="white", style="filled",URL="$corePluginProvider_8h.html"];
  Node45 -> Node17 [color="midnightblue",fontsize="10",style="solid",fontname="Helvetica"];
  Node45 -> Node3 [color="midnightblue",fontsize="10",style="solid",fontname="Helvetica"];
  Node45 -> Node42 [color="midnightblue",fontsize="10",style="solid",fontname="Helvetica"];
  Node44 -> Node46 [color="midnightblue",fontsize="10",style="solid",fontname="Helvetica"];
  Node46 [label="corePluginProvidersUpdater.h",height=0.2,width=0.4,color="black", fillcolor="white", style="filled",URL="$corePluginProvidersUpdater_8h.html"];
  Node46 -> Node17 [color="midnightblue",fontsize="10",style="solid",fontname="Helvetica"];
  Node46 -> Node3 [color="midnightblue",fontsize="10",style="solid",fontname="Helvetica"];
  Node46 -> Node45 [color="midnightblue",fontsize="10",style="solid",fontname="Helvetica"];
  Node46 -> Node42 [color="midnightblue",fontsize="10",style="solid",fontname="Helvetica"];
  Node1 -> Node21 [color="midnightblue",fontsize="10",style="solid",fontname="Helvetica"];
  Node1 -> Node47 [color="midnightblue",fontsize="10",style="solid",fontname="Helvetica"];
  Node47 [label="coreBaseWindowFactories.h",height=0.2,width=0.4,color="black", fillcolor="white", style="filled",URL="$coreBaseWindowFactories_8h.html"];
  Node47 -> Node3 [color="midnightblue",fontsize="10",style="solid",fontname="Helvetica"];
  Node47 -> Node25 [color="midnightblue",fontsize="10",style="solid",fontname="Helvetica"];
  Node47 -> Node22 [color="midnightblue",fontsize="10",style="solid",fontname="Helvetica"];
  Node47 -> Node27 [color="midnightblue",fontsize="10",style="solid",fontname="Helvetica"];
  Node1 -> Node48 [color="midnightblue",fontsize="10",style="solid",fontname="Helvetica"];
  Node48 [label="coreBaseWorkingAreaStorage.h",height=0.2,width=0.4,color="black", fillcolor="white", style="filled",URL="$coreBaseWorkingAreaStorage_8h.html"];
  Node48 -> Node17 [color="midnightblue",fontsize="10",style="solid",fontname="Helvetica"];
  Node1 -> Node49 [color="midnightblue",fontsize="10",style="solid",fontname="Helvetica"];
  Node49 [label="coreFactoryManager.h",height=0.2,width=0.4,color="black", fillcolor="white", style="filled",URL="$coreFactoryManager_8h.html"];
  Node49 -> Node4 [color="midnightblue",fontsize="10",style="solid",fontname="Helvetica"];
  Node49 -> Node20 [color="midnightblue",fontsize="10",style="solid",fontname="Helvetica"];
  Node49 -> Node35 [color="midnightblue",fontsize="10",style="solid",fontname="Helvetica"];
  Node49 -> Node36 [color="midnightblue",fontsize="10",style="solid",fontname="Helvetica"];
  Node49 -> Node42 [color="midnightblue",fontsize="10",style="solid",fontname="Helvetica"];
  Node1 -> Node50 [color="midnightblue",fontsize="10",style="solid",fontname="Helvetica"];
  Node50 [label="dynModuleExecution.h",height=0.2,width=0.4,color="black", fillcolor="white", style="filled",URL="$dynModuleExecution_8h.html"];
  Node50 -> Node32 [color="midnightblue",fontsize="10",style="solid",fontname="Helvetica"];
  Node50 -> Node28 [color="midnightblue",fontsize="10",style="solid",fontname="Helvetica"];
  Node50 -> Node31 [color="midnightblue",fontsize="10",style="solid",fontname="Helvetica"];
  Node50 -> Node8 [color="midnightblue",fontsize="10",style="solid",fontname="Helvetica"];
  Node50 -> Node33 [color="midnightblue",fontsize="10",style="solid",fontname="Helvetica"];
  Node50 -> Node13 [color="midnightblue",fontsize="10",style="solid",fontname="Helvetica"];
  Node50 -> Node34 [color="midnightblue",fontsize="10",style="solid",fontname="Helvetica"];
  Node50 -> Node9 [color="midnightblue",fontsize="10",style="solid",fontname="Helvetica"];
}
