digraph "Apps/Plugins/MITKPlugin/processors/DICOMFile/coreDICOMRTFileReader.h"
{
  edge [fontname="Helvetica",fontsize="10",labelfontname="Helvetica",labelfontsize="10"];
  node [fontname="Helvetica",fontsize="10",shape=record];
  Node1 [label="Apps/Plugins/MITKPlugin\l/processors/DICOMFile\l/coreDICOMRTFileReader.h",height=0.2,width=0.4,color="black", fillcolor="grey75", style="filled", fontcolor="black"];
  Node1 -> Node2 [color="midnightblue",fontsize="10",style="solid",fontname="Helvetica"];
  Node2 [label="coreBaseDataEntityReader.h",height=0.2,width=0.4,color="black", fillcolor="white", style="filled",URL="$coreBaseDataEntityReader_8h.html"];
  Node2 -> Node3 [color="midnightblue",fontsize="10",style="solid",fontname="Helvetica"];
  Node3 [label="gmIOWin32Header.h",height=0.2,width=0.4,color="grey75", fillcolor="white", style="filled"];
  Node2 -> Node4 [color="midnightblue",fontsize="10",style="solid",fontname="Helvetica"];
  Node4 [label="coreObject.h",height=0.2,width=0.4,color="black", fillcolor="white", style="filled",URL="$coreObject_8h.html"];
  Node4 -> Node5 [color="midnightblue",fontsize="10",style="solid",fontname="Helvetica"];
  Node5 [label="gmCommonObjectsWin32Header.h",height=0.2,width=0.4,color="grey75", fillcolor="white", style="filled"];
  Node4 -> Node6 [color="midnightblue",fontsize="10",style="solid",fontname="Helvetica"];
  Node6 [label="coreCommonMacros.h",height=0.2,width=0.4,color="black", fillcolor="white", style="filled",URL="$coreCommonMacros_8h.html"];
  Node4 -> Node7 [color="midnightblue",fontsize="10",style="solid",fontname="Helvetica"];
  Node7 [label="coreSmartPointerMacros.h",height=0.2,width=0.4,color="black", fillcolor="white", style="filled",URL="$coreSmartPointerMacros_8h.html"];
  Node7 -> Node6 [color="midnightblue",fontsize="10",style="solid",fontname="Helvetica"];
  Node7 -> Node8 [color="midnightblue",fontsize="10",style="solid",fontname="Helvetica"];
  Node8 [label="itkSmartPointer.h",height=0.2,width=0.4,color="grey75", fillcolor="white", style="filled"];
  Node4 -> Node9 [color="midnightblue",fontsize="10",style="solid",fontname="Helvetica"];
  Node9 [label="blTagMap.h",height=0.2,width=0.4,color="black", fillcolor="white", style="filled",URL="$blTagMap_8h.html"];
  Node9 -> Node10 [color="midnightblue",fontsize="10",style="solid",fontname="Helvetica"];
  Node10 [label="blLightObject.h",height=0.2,width=0.4,color="red", fillcolor="white", style="filled",URL="$blLightObject_8h.html"];
  Node9 -> Node11 [color="midnightblue",fontsize="10",style="solid",fontname="Helvetica"];
  Node11 [label="blTag.h",height=0.2,width=0.4,color="black", fillcolor="white", style="filled",URL="$blTag_8h.html"];
  Node11 -> Node10 [color="midnightblue",fontsize="10",style="solid",fontname="Helvetica"];
  Node11 -> Node12 [color="midnightblue",fontsize="10",style="solid",fontname="Helvetica"];
  Node12 [label="CILabExceptionMacros.h",height=0.2,width=0.4,color="black", fillcolor="white", style="filled",URL="$CILabExceptionMacros_8h.html"];
  Node12 -> Node13 [color="midnightblue",fontsize="10",style="solid",fontname="Helvetica"];
  Node13 [label="exception",height=0.2,width=0.4,color="grey75", fillcolor="white", style="filled"];
  Node12 -> Node14 [color="midnightblue",fontsize="10",style="solid",fontname="Helvetica"];
  Node14 [label="string",height=0.2,width=0.4,color="grey75", fillcolor="white", style="filled"];
  Node11 -> Node15 [color="midnightblue",fontsize="10",style="solid",fontname="Helvetica"];
  Node15 [label="boost/any.hpp",height=0.2,width=0.4,color="grey75", fillcolor="white", style="filled"];
  Node11 -> Node14 [color="midnightblue",fontsize="10",style="solid",fontname="Helvetica"];
  Node9 -> Node12 [color="midnightblue",fontsize="10",style="solid",fontname="Helvetica"];
  Node9 -> Node16 [color="midnightblue",fontsize="10",style="solid",fontname="Helvetica"];
  Node16 [label="boost/signals.hpp",height=0.2,width=0.4,color="grey75", fillcolor="white", style="filled"];
  Node9 -> Node17 [color="midnightblue",fontsize="10",style="solid",fontname="Helvetica"];
  Node17 [label="boost/bind.hpp",height=0.2,width=0.4,color="grey75", fillcolor="white", style="filled"];
  Node9 -> Node14 [color="midnightblue",fontsize="10",style="solid",fontname="Helvetica"];
  Node9 -> Node18 [color="midnightblue",fontsize="10",style="solid",fontname="Helvetica"];
  Node18 [label="map",height=0.2,width=0.4,color="grey75", fillcolor="white", style="filled"];
  Node4 -> Node19 [color="midnightblue",fontsize="10",style="solid",fontname="Helvetica"];
  Node19 [label="itkLightObject.h",height=0.2,width=0.4,color="grey75", fillcolor="white", style="filled"];
  Node4 -> Node20 [color="midnightblue",fontsize="10",style="solid",fontname="Helvetica"];
  Node20 [label="itkTimeStamp.h",height=0.2,width=0.4,color="grey75", fillcolor="white", style="filled"];
  Node4 -> Node16 [color="midnightblue",fontsize="10",style="solid",fontname="Helvetica"];
  Node4 -> Node17 [color="midnightblue",fontsize="10",style="solid",fontname="Helvetica"];
  Node2 -> Node21 [color="midnightblue",fontsize="10",style="solid",fontname="Helvetica"];
  Node21 [label="coreDataEntity.h",height=0.2,width=0.4,color="black", fillcolor="white", style="filled",URL="$coreDataEntity_8h.html"];
  Node21 -> Node22 [color="midnightblue",fontsize="10",style="solid",fontname="Helvetica"];
  Node22 [label="gmDataHandlingWin32Header.h",height=0.2,width=0.4,color="grey75", fillcolor="white", style="filled"];
  Node21 -> Node4 [color="midnightblue",fontsize="10",style="solid",fontname="Helvetica"];
  Node21 -> Node23 [color="midnightblue",fontsize="10",style="solid",fontname="Helvetica"];
  Node23 [label="coreDataEntityMetadata.h",height=0.2,width=0.4,color="black", fillcolor="white", style="filled",URL="$coreDataEntityMetadata_8h.html"];
  Node23 -> Node22 [color="midnightblue",fontsize="10",style="solid",fontname="Helvetica"];
  Node23 -> Node4 [color="midnightblue",fontsize="10",style="solid",fontname="Helvetica"];
  Node23 -> Node9 [color="midnightblue",fontsize="10",style="solid",fontname="Helvetica"];
  Node21 -> Node24 [color="midnightblue",fontsize="10",style="solid",fontname="Helvetica"];
  Node24 [label="coreDataEntityImpl.h",height=0.2,width=0.4,color="black", fillcolor="white", style="filled",URL="$coreDataEntityImpl_8h.html"];
  Node24 -> Node22 [color="midnightblue",fontsize="10",style="solid",fontname="Helvetica"];
  Node24 -> Node4 [color="midnightblue",fontsize="10",style="solid",fontname="Helvetica"];
  Node24 -> Node14 [color="midnightblue",fontsize="10",style="solid",fontname="Helvetica"];
  Node24 -> Node25 [color="midnightblue",fontsize="10",style="solid",fontname="Helvetica"];
  Node25 [label="vector",height=0.2,width=0.4,color="grey75", fillcolor="white", style="filled"];
  Node24 -> Node15 [color="midnightblue",fontsize="10",style="solid",fontname="Helvetica"];
  Node24 -> Node9 [color="midnightblue",fontsize="10",style="solid",fontname="Helvetica"];
  Node24 -> Node26 [color="midnightblue",fontsize="10",style="solid",fontname="Helvetica"];
  Node26 [label="coreException.h",height=0.2,width=0.4,color="red", fillcolor="white", style="filled",URL="$coreException_8h.html"];
  Node26 -> Node13 [color="midnightblue",fontsize="10",style="solid",fontname="Helvetica"];
  Node26 -> Node14 [color="midnightblue",fontsize="10",style="solid",fontname="Helvetica"];
  Node26 -> Node5 [color="midnightblue",fontsize="10",style="solid",fontname="Helvetica"];
  Node26 -> Node6 [color="midnightblue",fontsize="10",style="solid",fontname="Helvetica"];
  Node26 -> Node27 [color="midnightblue",fontsize="10",style="solid",fontname="Helvetica"];
  Node27 [label="coreBaseExceptions.h",height=0.2,width=0.4,color="red", fillcolor="white", style="filled",URL="$coreBaseExceptions_8h.html"];
  Node24 -> Node27 [color="midnightblue",fontsize="10",style="solid",fontname="Helvetica"];
  Node21 -> Node28 [color="midnightblue",fontsize="10",style="solid",fontname="Helvetica"];
  Node28 [label="coreDataEntityImplFactory.h",height=0.2,width=0.4,color="red", fillcolor="white", style="filled",URL="$coreDataEntityImplFactory_8h.html"];
  Node28 -> Node22 [color="midnightblue",fontsize="10",style="solid",fontname="Helvetica"];
  Node28 -> Node4 [color="midnightblue",fontsize="10",style="solid",fontname="Helvetica"];
  Node28 -> Node14 [color="midnightblue",fontsize="10",style="solid",fontname="Helvetica"];
  Node28 -> Node29 [color="midnightblue",fontsize="10",style="solid",fontname="Helvetica"];
  Node29 [label="typeinfo",height=0.2,width=0.4,color="grey75", fillcolor="white", style="filled"];
  Node28 -> Node25 [color="midnightblue",fontsize="10",style="solid",fontname="Helvetica"];
  Node28 -> Node15 [color="midnightblue",fontsize="10",style="solid",fontname="Helvetica"];
  Node28 -> Node9 [color="midnightblue",fontsize="10",style="solid",fontname="Helvetica"];
  Node28 -> Node24 [color="midnightblue",fontsize="10",style="solid",fontname="Helvetica"];
  Node28 -> Node30 [color="midnightblue",fontsize="10",style="solid",fontname="Helvetica"];
  Node30 [label="coreDataEntityTypes.h",height=0.2,width=0.4,color="black", fillcolor="white", style="filled",URL="$coreDataEntityTypes_8h.html"];
  Node28 -> Node31 [color="midnightblue",fontsize="10",style="solid",fontname="Helvetica"];
  Node31 [label="coreBaseFactory.h",height=0.2,width=0.4,color="black", fillcolor="white", style="filled",URL="$coreBaseFactory_8h.html"];
  Node31 -> Node5 [color="midnightblue",fontsize="10",style="solid",fontname="Helvetica"];
  Node31 -> Node6 [color="midnightblue",fontsize="10",style="solid",fontname="Helvetica"];
  Node31 -> Node7 [color="midnightblue",fontsize="10",style="solid",fontname="Helvetica"];
  Node31 -> Node4 [color="midnightblue",fontsize="10",style="solid",fontname="Helvetica"];
  Node21 -> Node30 [color="midnightblue",fontsize="10",style="solid",fontname="Helvetica"];
  Node21 -> Node32 [color="midnightblue",fontsize="10",style="solid",fontname="Helvetica"];
  Node32 [label="coreDataEntityPreview.h",height=0.2,width=0.4,color="black", fillcolor="white", style="filled",URL="$coreDataEntityPreview_8h.html"];
  Node32 -> Node22 [color="midnightblue",fontsize="10",style="solid",fontname="Helvetica"];
  Node32 -> Node4 [color="midnightblue",fontsize="10",style="solid",fontname="Helvetica"];
  Node21 -> Node14 [color="midnightblue",fontsize="10",style="solid",fontname="Helvetica"];
  Node21 -> Node25 [color="midnightblue",fontsize="10",style="solid",fontname="Helvetica"];
  Node21 -> Node29 [color="midnightblue",fontsize="10",style="solid",fontname="Helvetica"];
  Node21 -> Node16 [color="midnightblue",fontsize="10",style="solid",fontname="Helvetica"];
  Node21 -> Node15 [color="midnightblue",fontsize="10",style="solid",fontname="Helvetica"];
  Node21 -> Node33 [color="midnightblue",fontsize="10",style="solid",fontname="Helvetica"];
  Node33 [label="coreDataEntity.txx",height=0.2,width=0.4,color="grey75", fillcolor="white", style="filled"];
  Node21 -> Node34 [color="midnightblue",fontsize="10",style="solid",fontname="Helvetica"];
  Node34 [label="coreDataEntityHolder.h",height=0.2,width=0.4,color="red", fillcolor="white", style="filled",URL="$coreDataEntityHolder_8h.html"];
  Node34 -> Node22 [color="midnightblue",fontsize="10",style="solid",fontname="Helvetica"];
  Node34 -> Node21 [color="midnightblue",fontsize="10",style="solid",fontname="Helvetica"];
  Node2 -> Node35 [color="midnightblue",fontsize="10",style="solid",fontname="Helvetica"];
  Node35 [label="coreBaseIO.h",height=0.2,width=0.4,color="black", fillcolor="white", style="filled",URL="$coreBaseIO_8h.html"];
  Node35 -> Node3 [color="midnightblue",fontsize="10",style="solid",fontname="Helvetica"];
  Node35 -> Node4 [color="midnightblue",fontsize="10",style="solid",fontname="Helvetica"];
  Node35 -> Node21 [color="midnightblue",fontsize="10",style="solid",fontname="Helvetica"];
  Node35 -> Node36 [color="midnightblue",fontsize="10",style="solid",fontname="Helvetica"];
  Node36 [label="coreBaseProcessor.h",height=0.2,width=0.4,color="red", fillcolor="white", style="filled",URL="$coreBaseProcessor_8h.html"];
  Node36 -> Node4 [color="midnightblue",fontsize="10",style="solid",fontname="Helvetica"];
  Node36 -> Node21 [color="midnightblue",fontsize="10",style="solid",fontname="Helvetica"];
  Node1 -> Node37 [color="midnightblue",fontsize="10",style="solid",fontname="Helvetica"];
  Node37 [label="dcmDataSet.h",height=0.2,width=0.4,color="black", fillcolor="white", style="filled",URL="$dcmDataSet_8h.html"];
  Node37 -> Node38 [color="midnightblue",fontsize="10",style="solid",fontname="Helvetica"];
  Node38 [label="dcmAPIDataWin32Header.h",height=0.2,width=0.4,color="grey75", fillcolor="white", style="filled"];
  Node37 -> Node14 [color="midnightblue",fontsize="10",style="solid",fontname="Helvetica"];
  Node37 -> Node25 [color="midnightblue",fontsize="10",style="solid",fontname="Helvetica"];
  Node37 -> Node18 [color="midnightblue",fontsize="10",style="solid",fontname="Helvetica"];
  Node37 -> Node39 [color="midnightblue",fontsize="10",style="solid",fontname="Helvetica"];
  Node39 [label="boost/foreach.hpp",height=0.2,width=0.4,color="grey75", fillcolor="white", style="filled"];
  Node37 -> Node40 [color="midnightblue",fontsize="10",style="solid",fontname="Helvetica"];
  Node40 [label="dcmSeries.h",height=0.2,width=0.4,color="black", fillcolor="white", style="filled",URL="$dcmSeries_8h.html"];
  Node40 -> Node38 [color="midnightblue",fontsize="10",style="solid",fontname="Helvetica"];
  Node40 -> Node14 [color="midnightblue",fontsize="10",style="solid",fontname="Helvetica"];
  Node40 -> Node25 [color="midnightblue",fontsize="10",style="solid",fontname="Helvetica"];
  Node40 -> Node41 [color="midnightblue",fontsize="10",style="solid",fontname="Helvetica"];
  Node41 [label="dcmTimePoint.h",height=0.2,width=0.4,color="red", fillcolor="white", style="filled",URL="$dcmTimePoint_8h.html"];
  Node41 -> Node38 [color="midnightblue",fontsize="10",style="solid",fontname="Helvetica"];
  Node41 -> Node14 [color="midnightblue",fontsize="10",style="solid",fontname="Helvetica"];
  Node41 -> Node25 [color="midnightblue",fontsize="10",style="solid",fontname="Helvetica"];
  Node41 -> Node42 [color="midnightblue",fontsize="10",style="solid",fontname="Helvetica"];
  Node42 [label="dcmBase.h",height=0.2,width=0.4,color="black", fillcolor="white", style="filled",URL="$dcmBase_8h.html"];
  Node42 -> Node38 [color="midnightblue",fontsize="10",style="solid",fontname="Helvetica"];
  Node42 -> Node43 [color="midnightblue",fontsize="10",style="solid",fontname="Helvetica"];
  Node43 [label="dcmTypes.h",height=0.2,width=0.4,color="black", fillcolor="white", style="filled",URL="$dcmTypes_8h.html"];
  Node43 -> Node44 [color="midnightblue",fontsize="10",style="solid",fontname="Helvetica"];
  Node44 [label="cstdio",height=0.2,width=0.4,color="grey75", fillcolor="white", style="filled"];
  Node43 -> Node25 [color="midnightblue",fontsize="10",style="solid",fontname="Helvetica"];
  Node43 -> Node45 [color="midnightblue",fontsize="10",style="solid",fontname="Helvetica"];
  Node45 [label="string.h",height=0.2,width=0.4,color="grey75", fillcolor="white", style="filled"];
  Node43 -> Node18 [color="midnightblue",fontsize="10",style="solid",fontname="Helvetica"];
  Node43 -> Node13 [color="midnightblue",fontsize="10",style="solid",fontname="Helvetica"];
  Node43 -> Node46 [color="midnightblue",fontsize="10",style="solid",fontname="Helvetica"];
  Node46 [label="boost/shared_ptr.hpp",height=0.2,width=0.4,color="grey75", fillcolor="white", style="filled"];
  Node43 -> Node47 [color="midnightblue",fontsize="10",style="solid",fontname="Helvetica"];
  Node47 [label="CILabBoostMacros.h",height=0.2,width=0.4,color="red", fillcolor="white", style="filled",URL="$CILabBoostMacros_8h.html"];
  Node43 -> Node38 [color="midnightblue",fontsize="10",style="solid",fontname="Helvetica"];
  Node42 -> Node14 [color="midnightblue",fontsize="10",style="solid",fontname="Helvetica"];
  Node42 -> Node25 [color="midnightblue",fontsize="10",style="solid",fontname="Helvetica"];
  Node41 -> Node43 [color="midnightblue",fontsize="10",style="solid",fontname="Helvetica"];
  Node40 -> Node43 [color="midnightblue",fontsize="10",style="solid",fontname="Helvetica"];
  Node40 -> Node42 [color="midnightblue",fontsize="10",style="solid",fontname="Helvetica"];
  Node37 -> Node48 [color="midnightblue",fontsize="10",style="solid",fontname="Helvetica"];
  Node48 [label="dcmPatient.h",height=0.2,width=0.4,color="black", fillcolor="white", style="filled",URL="$dcmPatient_8h.html"];
  Node48 -> Node38 [color="midnightblue",fontsize="10",style="solid",fontname="Helvetica"];
  Node48 -> Node14 [color="midnightblue",fontsize="10",style="solid",fontname="Helvetica"];
  Node48 -> Node25 [color="midnightblue",fontsize="10",style="solid",fontname="Helvetica"];
  Node48 -> Node43 [color="midnightblue",fontsize="10",style="solid",fontname="Helvetica"];
  Node48 -> Node42 [color="midnightblue",fontsize="10",style="solid",fontname="Helvetica"];
  Node48 -> Node49 [color="midnightblue",fontsize="10",style="solid",fontname="Helvetica"];
  Node49 [label="dcmStudy.h",height=0.2,width=0.4,color="black", fillcolor="white", style="filled",URL="$dcmStudy_8h.html"];
  Node49 -> Node38 [color="midnightblue",fontsize="10",style="solid",fontname="Helvetica"];
  Node49 -> Node14 [color="midnightblue",fontsize="10",style="solid",fontname="Helvetica"];
  Node49 -> Node25 [color="midnightblue",fontsize="10",style="solid",fontname="Helvetica"];
  Node49 -> Node43 [color="midnightblue",fontsize="10",style="solid",fontname="Helvetica"];
  Node49 -> Node40 [color="midnightblue",fontsize="10",style="solid",fontname="Helvetica"];
  Node37 -> Node43 [color="midnightblue",fontsize="10",style="solid",fontname="Helvetica"];
  Node1 -> Node50 [color="midnightblue",fontsize="10",style="solid",fontname="Helvetica"];
  Node50 [label="coreDICOMRTFileReader.txx",height=0.2,width=0.4,color="grey75", fillcolor="white", style="filled"];
}
