digraph "Apps/Gimias/Core/Kernel/src/coreCompatibility.h"
{
  edge [fontname="Helvetica",fontsize="10",labelfontname="Helvetica",labelfontsize="10"];
  node [fontname="Helvetica",fontsize="10",shape=record];
  Node1 [label="Apps/Gimias/Core/Kernel\l/src/coreCompatibility.h",height=0.2,width=0.4,color="black", fillcolor="grey75", style="filled", fontcolor="black"];
  Node1 -> Node2 [dir="back",color="midnightblue",fontsize="10",style="solid",fontname="Helvetica"];
  Node2 [label="Apps/Gimias/Core/Kernel\l/src/coreCompatibility.cxx",height=0.2,width=0.4,color="black", fillcolor="white", style="filled",URL="$coreCompatibility_8cxx.html"];
  Node1 -> Node3 [dir="back",color="midnightblue",fontsize="10",style="solid",fontname="Helvetica"];
  Node3 [label="Apps/Gimias/Core/Kernel\l/src/coreDataEntityHelper.cxx",height=0.2,width=0.4,color="black", fillcolor="white", style="filled",URL="$coreDataEntityHelper_8cxx.html"];
  Node1 -> Node4 [dir="back",color="midnightblue",fontsize="10",style="solid",fontname="Helvetica"];
  Node4 [label="Apps/Gimias/Core/Kernel\l/src/corePluginProviderManager.cxx",height=0.2,width=0.4,color="black", fillcolor="white", style="filled",URL="$corePluginProviderManager_8cxx.html"];
  Node1 -> Node5 [dir="back",color="midnightblue",fontsize="10",style="solid",fontname="Helvetica"];
  Node5 [label="Apps/Gimias/Core/Kernel\l/src/coreWorkflowManager.cxx",height=0.2,width=0.4,color="black", fillcolor="white", style="filled",URL="$coreWorkflowManager_8cxx.html"];
  Node1 -> Node6 [dir="back",color="midnightblue",fontsize="10",style="solid",fontname="Helvetica"];
  Node6 [label="Apps/Gimias/GUI/Widgets\l/src/MultiRenderWindow\l/coreWorkingAreaStorage.cxx",height=0.2,width=0.4,color="black", fillcolor="white", style="filled",URL="$coreWorkingAreaStorage_8cxx.html"];
  Node1 -> Node7 [dir="back",color="midnightblue",fontsize="10",style="solid",fontname="Helvetica"];
  Node7 [label="Apps/Gimias/GUI/Widgets\l/src/ProfileWizard/corePlugin\lSelectorWidget.cxx",height=0.2,width=0.4,color="black", fillcolor="white", style="filled",URL="$corePluginSelectorWidget_8cxx.html"];
  Node1 -> Node8 [dir="back",color="midnightblue",fontsize="10",style="solid",fontname="Helvetica"];
  Node8 [label="Apps/Gimias/GUI/Widgets\l/src/wxMitkCoreMainWindow\l/coreMainMenu.cxx",height=0.2,width=0.4,color="black", fillcolor="white", style="filled",URL="$coreMainMenu_8cxx.html"];
}
