digraph "Apps/Gimias/GUI/WxEvents/src/coreWxPortInvocation.cpp"
{
  edge [fontname="Helvetica",fontsize="10",labelfontname="Helvetica",labelfontsize="10"];
  node [fontname="Helvetica",fontsize="10",shape=record];
  Node1 [label="Apps/Gimias/GUI/WxEvents\l/src/coreWxPortInvocation.cpp",height=0.2,width=0.4,color="black", fillcolor="grey75", style="filled", fontcolor="black"];
  Node1 -> Node2 [color="midnightblue",fontsize="10",style="solid",fontname="Helvetica"];
  Node2 [label="wx/wxprec.h",height=0.2,width=0.4,color="grey75", fillcolor="white", style="filled"];
  Node1 -> Node3 [color="midnightblue",fontsize="10",style="solid",fontname="Helvetica"];
  Node3 [label="wx/wx.h",height=0.2,width=0.4,color="grey75", fillcolor="white", style="filled"];
  Node1 -> Node4 [color="midnightblue",fontsize="10",style="solid",fontname="Helvetica"];
  Node4 [label="coreWxPortInvocation.h",height=0.2,width=0.4,color="black", fillcolor="white", style="filled",URL="$coreWxPortInvocation_8h.html"];
  Node4 -> Node5 [color="midnightblue",fontsize="10",style="solid",fontname="Helvetica"];
  Node5 [label="gmWxEventsWin32Header.h",height=0.2,width=0.4,color="grey75", fillcolor="white", style="filled"];
  Node4 -> Node6 [color="midnightblue",fontsize="10",style="solid",fontname="Helvetica"];
  Node6 [label="corePortInvocation.h",height=0.2,width=0.4,color="black", fillcolor="white", style="filled",URL="$corePortInvocation_8h.html"];
  Node6 -> Node7 [color="midnightblue",fontsize="10",style="solid",fontname="Helvetica"];
  Node7 [label="gmFilteringWin32Header.h",height=0.2,width=0.4,color="grey75", fillcolor="white", style="filled"];
  Node6 -> Node8 [color="midnightblue",fontsize="10",style="solid",fontname="Helvetica"];
  Node8 [label="corePortUpdater.h",height=0.2,width=0.4,color="black", fillcolor="white", style="filled",URL="$corePortUpdater_8h.html"];
  Node8 -> Node7 [color="midnightblue",fontsize="10",style="solid",fontname="Helvetica"];
  Node1 -> Node9 [color="midnightblue",fontsize="10",style="solid",fontname="Helvetica"];
  Node9 [label="coreWxUpdatePortEvent.h",height=0.2,width=0.4,color="black", fillcolor="white", style="filled",URL="$coreWxUpdatePortEvent_8h.html"];
  Node9 -> Node5 [color="midnightblue",fontsize="10",style="solid",fontname="Helvetica"];
  Node9 -> Node10 [color="midnightblue",fontsize="10",style="solid",fontname="Helvetica"];
  Node10 [label="wx/event.h",height=0.2,width=0.4,color="grey75", fillcolor="white", style="filled"];
  Node9 -> Node8 [color="midnightblue",fontsize="10",style="solid",fontname="Helvetica"];
  Node9 -> Node11 [color="midnightblue",fontsize="10",style="solid",fontname="Helvetica"];
  Node11 [label="boost/shared_ptr.hpp",height=0.2,width=0.4,color="grey75", fillcolor="white", style="filled"];
}
