digraph "Apps/Gimias/Core/Filtering/src/corePortInvocation.h"
{
  edge [fontname="Helvetica",fontsize="10",labelfontname="Helvetica",labelfontsize="10"];
  node [fontname="Helvetica",fontsize="10",shape=record];
  Node1 [label="Apps/Gimias/Core/Filtering\l/src/corePortInvocation.h",height=0.2,width=0.4,color="black", fillcolor="grey75", style="filled", fontcolor="black"];
  Node1 -> Node2 [dir="back",color="midnightblue",fontsize="10",style="solid",fontname="Helvetica"];
  Node2 [label="Apps/Gimias/Core/Filtering\l/src/coreDirectPortInvocation.h",height=0.2,width=0.4,color="black", fillcolor="white", style="filled",URL="$coreDirectPortInvocation_8h.html"];
  Node2 -> Node3 [dir="back",color="midnightblue",fontsize="10",style="solid",fontname="Helvetica"];
  Node3 [label="Apps/Gimias/Core/Filtering\l/src/coreDirectPortInvocation.cxx",height=0.2,width=0.4,color="black", fillcolor="white", style="filled",URL="$coreDirectPortInvocation_8cxx.html"];
  Node2 -> Node4 [dir="back",color="midnightblue",fontsize="10",style="solid",fontname="Helvetica"];
  Node4 [label="Apps/Gimias/Core/Filtering\l/src/coreFilteringFactoriesRegistration.cxx",height=0.2,width=0.4,color="black", fillcolor="white", style="filled",URL="$coreFilteringFactoriesRegistration_8cxx.html"];
  Node1 -> Node5 [dir="back",color="midnightblue",fontsize="10",style="solid",fontname="Helvetica"];
  Node5 [label="Apps/Gimias/Core/Filtering\l/src/corePortInvocation.cxx",height=0.2,width=0.4,color="black", fillcolor="white", style="filled",URL="$corePortInvocation_8cxx.html"];
  Node1 -> Node6 [dir="back",color="midnightblue",fontsize="10",style="solid",fontname="Helvetica"];
  Node6 [label="Apps/Gimias/Core/Filtering\l/src/corePortUpdater.cxx",height=0.2,width=0.4,color="black", fillcolor="white", style="filled",URL="$corePortUpdater_8cxx.html"];
  Node1 -> Node7 [dir="back",color="midnightblue",fontsize="10",style="solid",fontname="Helvetica"];
  Node7 [label="Apps/Gimias/GUI/WxEvents\l/src/coreWxPortInvocation.h",height=0.2,width=0.4,color="black", fillcolor="white", style="filled",URL="$coreWxPortInvocation_8h.html"];
  Node7 -> Node8 [dir="back",color="midnightblue",fontsize="10",style="solid",fontname="Helvetica"];
  Node8 [label="Apps/Gimias/GUI/WxEvents\l/src/coreWxEventsFactoriesRegistration.cxx",height=0.2,width=0.4,color="black", fillcolor="white", style="filled",URL="$coreWxEventsFactoriesRegistration_8cxx.html"];
  Node7 -> Node9 [dir="back",color="midnightblue",fontsize="10",style="solid",fontname="Helvetica"];
  Node9 [label="Apps/Gimias/GUI/WxEvents\l/src/coreWxPortInvocation.cpp",height=0.2,width=0.4,color="black", fillcolor="white", style="filled",URL="$coreWxPortInvocation_8cpp.html"];
}
