digraph "Apps/Gimias/GUI/Widgets/src/DataEntityListBrowser/coreDataEntityTreeCtrl.h"
{
  edge [fontname="Helvetica",fontsize="10",labelfontname="Helvetica",labelfontsize="10"];
  node [fontname="Helvetica",fontsize="10",shape=record];
  Node1 [label="Apps/Gimias/GUI/Widgets\l/src/DataEntityListBrowser\l/coreDataEntityTreeCtrl.h",height=0.2,width=0.4,color="black", fillcolor="grey75", style="filled", fontcolor="black"];
  Node1 -> Node2 [dir="back",color="midnightblue",fontsize="10",style="solid",fontname="Helvetica"];
  Node2 [label="Apps/Gimias/GUI/Widgets\l/src/DataEntityListBrowser\l/coreDataEntityListBrowser.cxx",height=0.2,width=0.4,color="black", fillcolor="white", style="filled",URL="$coreDataEntityListBrowser_8cxx.html"];
  Node1 -> Node3 [dir="back",color="midnightblue",fontsize="10",style="solid",fontname="Helvetica"];
  Node3 [label="Apps/Gimias/GUI/Widgets\l/src/DataEntityListBrowser\l/coreDataEntityTreeCtrl.cxx",height=0.2,width=0.4,color="black", fillcolor="white", style="filled",URL="$coreDataEntityTreeCtrl_8cxx.html"];
}
