digraph "Apps/Plugins/MITKPlugin/widgets/LandmarkSelectorWidget/coreLandmarkSelectorWidget.h"
{
  edge [fontname="Helvetica",fontsize="10",labelfontname="Helvetica",labelfontsize="10"];
  node [fontname="Helvetica",fontsize="10",shape=record];
  Node1 [label="Apps/Plugins/MITKPlugin\l/widgets/LandmarkSelectorWidget\l/coreLandmarkSelectorWidget.h",height=0.2,width=0.4,color="black", fillcolor="grey75", style="filled", fontcolor="black"];
  Node1 -> Node2 [dir="back",color="midnightblue",fontsize="10",style="solid",fontname="Helvetica"];
  Node2 [label="Apps/Plugins/GenericSegmentation\lPlugin/widgets/ConnectedThresholdWidget\l/ConnectedThresholdWidget.h",height=0.2,width=0.4,color="black", fillcolor="white", style="filled",URL="$ConnectedThresholdWidget_8h.html"];
  Node2 -> Node3 [dir="back",color="midnightblue",fontsize="10",style="solid",fontname="Helvetica"];
  Node3 [label="Apps/Plugins/GenericSegmentation\lPlugin/GenericSegmentationPluginWidget\lCollective.cxx",height=0.2,width=0.4,color="black", fillcolor="white", style="filled",URL="$GenericSegmentationPluginWidgetCollective_8cxx.html"];
  Node2 -> Node4 [dir="back",color="midnightblue",fontsize="10",style="solid",fontname="Helvetica"];
  Node4 [label="Apps/Plugins/GenericSegmentation\lPlugin/widgets/ConnectedThresholdWidget\l/ConnectedThresholdWidget.cpp",height=0.2,width=0.4,color="black", fillcolor="white", style="filled",URL="$ConnectedThresholdWidget_8cpp.html"];
  Node1 -> Node5 [dir="back",color="midnightblue",fontsize="10",style="solid",fontname="Helvetica"];
  Node5 [label="Apps/Plugins/GenericSegmentation\lPlugin/widgets/ManualCorrectionWidget\l/ManualCorrectionsPanelWidget.cpp",height=0.2,width=0.4,color="black", fillcolor="white", style="filled",URL="$ManualCorrectionsPanelWidget_8cpp.html"];
  Node1 -> Node6 [dir="back",color="midnightblue",fontsize="10",style="solid",fontname="Helvetica"];
  Node6 [label="Apps/Plugins/GenericSegmentation\lPlugin/widgets/RegionGrowWidget\l/RegionGrowWidget.h",height=0.2,width=0.4,color="black", fillcolor="white", style="filled",URL="$RegionGrowWidget_8h.html"];
  Node6 -> Node3 [dir="back",color="midnightblue",fontsize="10",style="solid",fontname="Helvetica"];
  Node6 -> Node7 [dir="back",color="midnightblue",fontsize="10",style="solid",fontname="Helvetica"];
  Node7 [label="Apps/Plugins/GenericSegmentation\lPlugin/widgets/RegionGrowWidget\l/RegionGrowWidget.cpp",height=0.2,width=0.4,color="black", fillcolor="white", style="filled",URL="$RegionGrowWidget_8cpp.html"];
  Node1 -> Node8 [dir="back",color="midnightblue",fontsize="10",style="solid",fontname="Helvetica"];
  Node8 [label="Apps/Plugins/GenericSegmentation\lPlugin/widgets/VtkConnectedThreshold\lWidget/VtkConnectedThresholdPanelWidget.cpp",height=0.2,width=0.4,color="black", fillcolor="white", style="filled",URL="$VtkConnectedThresholdPanelWidget_8cpp.html"];
  Node1 -> Node9 [dir="back",color="midnightblue",fontsize="10",style="solid",fontname="Helvetica"];
  Node9 [label="Apps/Plugins/ImageToolsPlugin\l/widgets/PointBasedImageAlignement\lWidget/PointBasedImageAlignementPanelWidget.cpp",height=0.2,width=0.4,color="black", fillcolor="white", style="filled",URL="$PointBasedImageAlignementPanelWidget_8cpp.html"];
  Node1 -> Node10 [dir="back",color="midnightblue",fontsize="10",style="solid",fontname="Helvetica"];
  Node10 [label="Apps/Plugins/MeshEditorPlugin\l/MeshEditorPluginPCH.h",height=0.2,width=0.4,color="black", fillcolor="white", style="filled",URL="$MeshEditorPluginPCH_8h.html"];
  Node1 -> Node11 [dir="back",color="midnightblue",fontsize="10",style="solid",fontname="Helvetica"];
  Node11 [label="Apps/Plugins/MeshEditorPlugin\l/widgets/BooleanOperationsWidget\l/BooleanOperationsPanelWidget.cpp",height=0.2,width=0.4,color="black", fillcolor="white", style="filled",URL="$BooleanOperationsPanelWidget_8cpp.html"];
  Node1 -> Node12 [dir="back",color="midnightblue",fontsize="10",style="solid",fontname="Helvetica"];
  Node12 [label="Apps/Plugins/MeshEditorPlugin\l/widgets/ExtractScalarWidget\l/ptExtractScalarWidget.cpp",height=0.2,width=0.4,color="black", fillcolor="white", style="filled",URL="$ExtractScalarWidget_2ptExtractScalarWidget_8cpp.html"];
  Node1 -> Node13 [dir="back",color="midnightblue",fontsize="10",style="solid",fontname="Helvetica"];
  Node13 [label="Apps/Plugins/MeshEditorPlugin\l/widgets/ManualNeckCuttingWidget\l/ManualNeckCuttingPanelWidget.cpp",height=0.2,width=0.4,color="black", fillcolor="white", style="filled",URL="$ManualNeckCuttingPanelWidget_8cpp.html"];
  Node1 -> Node14 [dir="back",color="midnightblue",fontsize="10",style="solid",fontname="Helvetica"];
  Node14 [label="Apps/Plugins/MeshEditorPlugin\l/widgets/RingCutWidget/ptRingCut\lPanelWidget.h",height=0.2,width=0.4,color="black", fillcolor="white", style="filled",URL="$RingCutWidget_2ptRingCutPanelWidget_8h.html"];
  Node14 -> Node15 [dir="back",color="midnightblue",fontsize="10",style="solid",fontname="Helvetica"];
  Node15 [label="Apps/Plugins/MeshEditorPlugin\l/widgets/RingCutWidget/ptRingCut\lPanelWidget.cpp",height=0.2,width=0.4,color="black", fillcolor="white", style="filled",URL="$RingCutWidget_2ptRingCutPanelWidget_8cpp.html"];
  Node1 -> Node16 [dir="back",color="midnightblue",fontsize="10",style="solid",fontname="Helvetica"];
  Node16 [label="Apps/Plugins/MeshEditorPlugin\l/widgets/SkeletonCutWidget\l/ptSkeletonCutPanelWidget.h",height=0.2,width=0.4,color="black", fillcolor="white", style="filled",URL="$SkeletonCutWidget_2ptSkeletonCutPanelWidget_8h.html"];
  Node16 -> Node17 [dir="back",color="midnightblue",fontsize="10",style="solid",fontname="Helvetica"];
  Node17 [label="Apps/Plugins/MeshEditorPlugin\l/widgets/SkeletonCutWidget\l/ptSkeletonCutPanelWidget.cpp",height=0.2,width=0.4,color="black", fillcolor="white", style="filled",URL="$SkeletonCutWidget_2ptSkeletonCutPanelWidget_8cpp.html"];
  Node1 -> Node18 [dir="back",color="midnightblue",fontsize="10",style="solid",fontname="Helvetica"];
  Node18 [label="Apps/Plugins/MeshEditorPlugin\l/widgets/ToolsProcessorWidget\l/ptExtractScalarWidget.cpp",height=0.2,width=0.4,color="black", fillcolor="white", style="filled",URL="$ToolsProcessorWidget_2ptExtractScalarWidget_8cpp.html"];
  Node1 -> Node19 [dir="back",color="midnightblue",fontsize="10",style="solid",fontname="Helvetica"];
  Node19 [label="Apps/Plugins/MeshEditorPlugin\l/widgets/ToolsProcessorWidget\l/ptRingCutPanelWidget.h",height=0.2,width=0.4,color="black", fillcolor="white", style="filled",URL="$ToolsProcessorWidget_2ptRingCutPanelWidget_8h.html"];
  Node19 -> Node20 [dir="back",color="midnightblue",fontsize="10",style="solid",fontname="Helvetica"];
  Node20 [label="Apps/Plugins/MeshEditorPlugin\l/medWidgetCollective.cxx",height=0.2,width=0.4,color="black", fillcolor="white", style="filled",URL="$medWidgetCollective_8cxx.html"];
  Node19 -> Node21 [dir="back",color="midnightblue",fontsize="10",style="solid",fontname="Helvetica"];
  Node21 [label="Apps/Plugins/MeshEditorPlugin\l/widgets/ToolbarMeshEditor\l/coreToolbarMeshEditing.cpp",height=0.2,width=0.4,color="black", fillcolor="white", style="filled",URL="$coreToolbarMeshEditing_8cpp.html"];
  Node19 -> Node22 [dir="back",color="midnightblue",fontsize="10",style="solid",fontname="Helvetica"];
  Node22 [label="Apps/Plugins/MeshEditorPlugin\l/widgets/ToolsProcessorWidget\l/ptRingCutPanelWidget.cpp",height=0.2,width=0.4,color="black", fillcolor="white", style="filled",URL="$ToolsProcessorWidget_2ptRingCutPanelWidget_8cpp.html"];
  Node1 -> Node23 [dir="back",color="midnightblue",fontsize="10",style="solid",fontname="Helvetica"];
  Node23 [label="Apps/Plugins/MeshEditorPlugin\l/widgets/ToolsProcessorWidget\l/ptSkeletonCutPanelWidget.h",height=0.2,width=0.4,color="black", fillcolor="white", style="filled",URL="$ToolsProcessorWidget_2ptSkeletonCutPanelWidget_8h.html"];
  Node23 -> Node20 [dir="back",color="midnightblue",fontsize="10",style="solid",fontname="Helvetica"];
  Node23 -> Node24 [dir="back",color="midnightblue",fontsize="10",style="solid",fontname="Helvetica"];
  Node24 [label="Apps/Plugins/MeshEditorPlugin\l/widgets/ToolsProcessorWidget\l/ptSkeletonCutPanelWidget.cpp",height=0.2,width=0.4,color="black", fillcolor="white", style="filled",URL="$ToolsProcessorWidget_2ptSkeletonCutPanelWidget_8cpp.html"];
  Node1 -> Node25 [dir="back",color="midnightblue",fontsize="10",style="solid",fontname="Helvetica"];
  Node25 [label="Apps/Plugins/MITKPlugin\l/MITKPluginWidgetCollective.cxx",height=0.2,width=0.4,color="black", fillcolor="white", style="filled",URL="$MITKPluginWidgetCollective_8cxx.html"];
  Node1 -> Node26 [dir="back",color="midnightblue",fontsize="10",style="solid",fontname="Helvetica"];
  Node26 [label="Apps/Plugins/MITKPlugin\l/widgets/LandmarkSelectorWidget\l/coreLandmarkSelectorWidget.cxx",height=0.2,width=0.4,color="black", fillcolor="white", style="filled",URL="$coreLandmarkSelectorWidget_8cxx.html"];
}
