digraph "Apps/Gimias/GUI/Widgets/src/MultiRenderWindow/coreWorkingAreaManagerWidget.h"
{
  edge [fontname="Helvetica",fontsize="10",labelfontname="Helvetica",labelfontsize="10"];
  node [fontname="Helvetica",fontsize="10",shape=record];
  Node1 [label="Apps/Gimias/GUI/Widgets\l/src/MultiRenderWindow\l/coreWorkingAreaManagerWidget.h",height=0.2,width=0.4,color="black", fillcolor="grey75", style="filled", fontcolor="black"];
  Node1 -> Node2 [color="midnightblue",fontsize="10",style="solid",fontname="Helvetica"];
  Node2 [label="coreWorkingAreaManagerWidgetUI.h",height=0.2,width=0.4,color="black", fillcolor="white", style="filled",URL="$coreWorkingAreaManagerWidgetUI_8h.html"];
  Node2 -> Node3 [color="midnightblue",fontsize="10",style="solid",fontname="Helvetica"];
  Node3 [label="wx/wx.h",height=0.2,width=0.4,color="grey75", fillcolor="white", style="filled"];
  Node2 -> Node4 [color="midnightblue",fontsize="10",style="solid",fontname="Helvetica"];
  Node4 [label="wx/image.h",height=0.2,width=0.4,color="grey75", fillcolor="white", style="filled"];
  Node2 -> Node5 [color="midnightblue",fontsize="10",style="solid",fontname="Helvetica"];
  Node5 [label="wxID.h",height=0.2,width=0.4,color="black", fillcolor="white", style="filled",URL="$wxID_8h.html"];
  Node5 -> Node6 [color="midnightblue",fontsize="10",style="solid",fontname="Helvetica"];
  Node6 [label="string",height=0.2,width=0.4,color="grey75", fillcolor="white", style="filled"];
  Node5 -> Node7 [color="midnightblue",fontsize="10",style="solid",fontname="Helvetica"];
  Node7 [label="TpExtLibWxWidgetsWin32Header.h",height=0.2,width=0.4,color="grey75", fillcolor="white", style="filled"];
  Node1 -> Node8 [color="midnightblue",fontsize="10",style="solid",fontname="Helvetica"];
  Node8 [label="coreBaseWindow.h",height=0.2,width=0.4,color="black", fillcolor="white", style="filled",URL="$coreBaseWindow_8h.html"];
  Node8 -> Node9 [color="midnightblue",fontsize="10",style="solid",fontname="Helvetica"];
  Node9 [label="gmKernelWin32Header.h",height=0.2,width=0.4,color="grey75", fillcolor="white", style="filled"];
  Node8 -> Node10 [color="midnightblue",fontsize="10",style="solid",fontname="Helvetica"];
  Node10 [label="coreRenderingTree.h",height=0.2,width=0.4,color="black", fillcolor="white", style="filled",URL="$coreRenderingTree_8h.html"];
  Node10 -> Node9 [color="midnightblue",fontsize="10",style="solid",fontname="Helvetica"];
  Node10 -> Node11 [color="midnightblue",fontsize="10",style="solid",fontname="Helvetica"];
  Node11 [label="coreObject.h",height=0.2,width=0.4,color="black", fillcolor="white", style="filled",URL="$coreObject_8h.html"];
  Node11 -> Node12 [color="midnightblue",fontsize="10",style="solid",fontname="Helvetica"];
  Node12 [label="gmCommonObjectsWin32Header.h",height=0.2,width=0.4,color="grey75", fillcolor="white", style="filled"];
  Node11 -> Node13 [color="midnightblue",fontsize="10",style="solid",fontname="Helvetica"];
  Node13 [label="coreCommonMacros.h",height=0.2,width=0.4,color="black", fillcolor="white", style="filled",URL="$coreCommonMacros_8h.html"];
  Node11 -> Node14 [color="midnightblue",fontsize="10",style="solid",fontname="Helvetica"];
  Node14 [label="coreSmartPointerMacros.h",height=0.2,width=0.4,color="red", fillcolor="white", style="filled",URL="$coreSmartPointerMacros_8h.html"];
  Node14 -> Node13 [color="midnightblue",fontsize="10",style="solid",fontname="Helvetica"];
  Node11 -> Node15 [color="midnightblue",fontsize="10",style="solid",fontname="Helvetica"];
  Node15 [label="blTagMap.h",height=0.2,width=0.4,color="black", fillcolor="white", style="filled",URL="$blTagMap_8h.html"];
  Node15 -> Node16 [color="midnightblue",fontsize="10",style="solid",fontname="Helvetica"];
  Node16 [label="blLightObject.h",height=0.2,width=0.4,color="red", fillcolor="white", style="filled",URL="$blLightObject_8h.html"];
  Node15 -> Node17 [color="midnightblue",fontsize="10",style="solid",fontname="Helvetica"];
  Node17 [label="blTag.h",height=0.2,width=0.4,color="red", fillcolor="white", style="filled",URL="$blTag_8h.html"];
  Node17 -> Node16 [color="midnightblue",fontsize="10",style="solid",fontname="Helvetica"];
  Node17 -> Node18 [color="midnightblue",fontsize="10",style="solid",fontname="Helvetica"];
  Node18 [label="CILabExceptionMacros.h",height=0.2,width=0.4,color="red", fillcolor="white", style="filled",URL="$CILabExceptionMacros_8h.html"];
  Node18 -> Node6 [color="midnightblue",fontsize="10",style="solid",fontname="Helvetica"];
  Node17 -> Node6 [color="midnightblue",fontsize="10",style="solid",fontname="Helvetica"];
  Node15 -> Node18 [color="midnightblue",fontsize="10",style="solid",fontname="Helvetica"];
  Node15 -> Node19 [color="midnightblue",fontsize="10",style="solid",fontname="Helvetica"];
  Node19 [label="boost/signals.hpp",height=0.2,width=0.4,color="grey75", fillcolor="white", style="filled"];
  Node15 -> Node20 [color="midnightblue",fontsize="10",style="solid",fontname="Helvetica"];
  Node20 [label="boost/bind.hpp",height=0.2,width=0.4,color="grey75", fillcolor="white", style="filled"];
  Node15 -> Node6 [color="midnightblue",fontsize="10",style="solid",fontname="Helvetica"];
  Node15 -> Node21 [color="midnightblue",fontsize="10",style="solid",fontname="Helvetica"];
  Node21 [label="map",height=0.2,width=0.4,color="grey75", fillcolor="white", style="filled"];
  Node11 -> Node22 [color="midnightblue",fontsize="10",style="solid",fontname="Helvetica"];
  Node22 [label="itkLightObject.h",height=0.2,width=0.4,color="grey75", fillcolor="white", style="filled"];
  Node11 -> Node23 [color="midnightblue",fontsize="10",style="solid",fontname="Helvetica"];
  Node23 [label="itkTimeStamp.h",height=0.2,width=0.4,color="grey75", fillcolor="white", style="filled"];
  Node11 -> Node19 [color="midnightblue",fontsize="10",style="solid",fontname="Helvetica"];
  Node11 -> Node20 [color="midnightblue",fontsize="10",style="solid",fontname="Helvetica"];
  Node10 -> Node24 [color="midnightblue",fontsize="10",style="solid",fontname="Helvetica"];
  Node24 [label="coreDataEntity.h",height=0.2,width=0.4,color="red", fillcolor="white", style="filled",URL="$coreDataEntity_8h.html"];
  Node24 -> Node25 [color="midnightblue",fontsize="10",style="solid",fontname="Helvetica"];
  Node25 [label="gmDataHandlingWin32Header.h",height=0.2,width=0.4,color="grey75", fillcolor="white", style="filled"];
  Node24 -> Node11 [color="midnightblue",fontsize="10",style="solid",fontname="Helvetica"];
  Node24 -> Node26 [color="midnightblue",fontsize="10",style="solid",fontname="Helvetica"];
  Node26 [label="coreDataEntityMetadata.h",height=0.2,width=0.4,color="black", fillcolor="white", style="filled",URL="$coreDataEntityMetadata_8h.html"];
  Node26 -> Node25 [color="midnightblue",fontsize="10",style="solid",fontname="Helvetica"];
  Node26 -> Node11 [color="midnightblue",fontsize="10",style="solid",fontname="Helvetica"];
  Node26 -> Node15 [color="midnightblue",fontsize="10",style="solid",fontname="Helvetica"];
  Node24 -> Node27 [color="midnightblue",fontsize="10",style="solid",fontname="Helvetica"];
  Node27 [label="coreDataEntityImpl.h",height=0.2,width=0.4,color="red", fillcolor="white", style="filled",URL="$coreDataEntityImpl_8h.html"];
  Node27 -> Node25 [color="midnightblue",fontsize="10",style="solid",fontname="Helvetica"];
  Node27 -> Node11 [color="midnightblue",fontsize="10",style="solid",fontname="Helvetica"];
  Node27 -> Node6 [color="midnightblue",fontsize="10",style="solid",fontname="Helvetica"];
  Node27 -> Node15 [color="midnightblue",fontsize="10",style="solid",fontname="Helvetica"];
  Node24 -> Node28 [color="midnightblue",fontsize="10",style="solid",fontname="Helvetica"];
  Node28 [label="coreDataEntityImplFactory.h",height=0.2,width=0.4,color="red", fillcolor="white", style="filled",URL="$coreDataEntityImplFactory_8h.html"];
  Node28 -> Node25 [color="midnightblue",fontsize="10",style="solid",fontname="Helvetica"];
  Node28 -> Node11 [color="midnightblue",fontsize="10",style="solid",fontname="Helvetica"];
  Node28 -> Node6 [color="midnightblue",fontsize="10",style="solid",fontname="Helvetica"];
  Node28 -> Node29 [color="midnightblue",fontsize="10",style="solid",fontname="Helvetica"];
  Node29 [label="typeinfo",height=0.2,width=0.4,color="grey75", fillcolor="white", style="filled"];
  Node28 -> Node15 [color="midnightblue",fontsize="10",style="solid",fontname="Helvetica"];
  Node28 -> Node27 [color="midnightblue",fontsize="10",style="solid",fontname="Helvetica"];
  Node28 -> Node30 [color="midnightblue",fontsize="10",style="solid",fontname="Helvetica"];
  Node30 [label="coreDataEntityTypes.h",height=0.2,width=0.4,color="black", fillcolor="white", style="filled",URL="$coreDataEntityTypes_8h.html"];
  Node24 -> Node30 [color="midnightblue",fontsize="10",style="solid",fontname="Helvetica"];
  Node24 -> Node6 [color="midnightblue",fontsize="10",style="solid",fontname="Helvetica"];
  Node24 -> Node29 [color="midnightblue",fontsize="10",style="solid",fontname="Helvetica"];
  Node24 -> Node19 [color="midnightblue",fontsize="10",style="solid",fontname="Helvetica"];
  Node10 -> Node19 [color="midnightblue",fontsize="10",style="solid",fontname="Helvetica"];
  Node10 -> Node21 [color="midnightblue",fontsize="10",style="solid",fontname="Helvetica"];
  Node10 -> Node31 [color="midnightblue",fontsize="10",style="solid",fontname="Helvetica"];
  Node31 [label="coreRenderingTree.txx",height=0.2,width=0.4,color="grey75", fillcolor="white", style="filled"];
  Node8 -> Node32 [color="midnightblue",fontsize="10",style="solid",fontname="Helvetica"];
  Node32 [label="coreBaseProcessor.h",height=0.2,width=0.4,color="black", fillcolor="white", style="filled",URL="$coreBaseProcessor_8h.html"];
  Node32 -> Node33 [color="midnightblue",fontsize="10",style="solid",fontname="Helvetica"];
  Node33 [label="gmFilteringWin32Header.h",height=0.2,width=0.4,color="grey75", fillcolor="white", style="filled"];
  Node32 -> Node11 [color="midnightblue",fontsize="10",style="solid",fontname="Helvetica"];
  Node32 -> Node34 [color="midnightblue",fontsize="10",style="solid",fontname="Helvetica"];
  Node34 [label="coreDataHolder.h",height=0.2,width=0.4,color="red", fillcolor="white", style="filled",URL="$coreDataHolder_8h.html"];
  Node34 -> Node12 [color="midnightblue",fontsize="10",style="solid",fontname="Helvetica"];
  Node34 -> Node20 [color="midnightblue",fontsize="10",style="solid",fontname="Helvetica"];
  Node34 -> Node19 [color="midnightblue",fontsize="10",style="solid",fontname="Helvetica"];
  Node34 -> Node34 [color="midnightblue",fontsize="10",style="solid",fontname="Helvetica"];
  Node32 -> Node24 [color="midnightblue",fontsize="10",style="solid",fontname="Helvetica"];
  Node32 -> Node35 [color="midnightblue",fontsize="10",style="solid",fontname="Helvetica"];
  Node35 [label="coreBaseFilter.h",height=0.2,width=0.4,color="red", fillcolor="white", style="filled",URL="$coreBaseFilter_8h.html"];
  Node35 -> Node11 [color="midnightblue",fontsize="10",style="solid",fontname="Helvetica"];
  Node35 -> Node34 [color="midnightblue",fontsize="10",style="solid",fontname="Helvetica"];
  Node35 -> Node24 [color="midnightblue",fontsize="10",style="solid",fontname="Helvetica"];
  Node32 -> Node36 [color="midnightblue",fontsize="10",style="solid",fontname="Helvetica"];
  Node36 [label="ModuleDescription.h",height=0.2,width=0.4,color="grey75", fillcolor="white", style="filled"];
  Node32 -> Node37 [color="midnightblue",fontsize="10",style="solid",fontname="Helvetica"];
  Node37 [label="coreBaseProcessor.txx",height=0.2,width=0.4,color="grey75", fillcolor="white", style="filled"];
  Node8 -> Node38 [color="midnightblue",fontsize="10",style="solid",fontname="Helvetica"];
  Node38 [label="coreProcessorOutputObserver.h",height=0.2,width=0.4,color="black", fillcolor="white", style="filled",URL="$coreProcessorOutputObserver_8h.html"];
  Node38 -> Node9 [color="midnightblue",fontsize="10",style="solid",fontname="Helvetica"];
  Node38 -> Node11 [color="midnightblue",fontsize="10",style="solid",fontname="Helvetica"];
  Node38 -> Node10 [color="midnightblue",fontsize="10",style="solid",fontname="Helvetica"];
  Node8 -> Node39 [color="midnightblue",fontsize="10",style="solid",fontname="Helvetica"];
  Node39 [label="coreCommonDataTypes.h",height=0.2,width=0.4,color="black", fillcolor="white", style="filled",URL="$coreCommonDataTypes_8h.html"];
  Node39 -> Node34 [color="midnightblue",fontsize="10",style="solid",fontname="Helvetica"];
  Node8 -> Node40 [color="midnightblue",fontsize="10",style="solid",fontname="Helvetica"];
  Node40 [label="coreRenderingTreeManager.h",height=0.2,width=0.4,color="black", fillcolor="white", style="filled",URL="$coreRenderingTreeManager_8h.html"];
  Node40 -> Node9 [color="midnightblue",fontsize="10",style="solid",fontname="Helvetica"];
  Node40 -> Node11 [color="midnightblue",fontsize="10",style="solid",fontname="Helvetica"];
  Node40 -> Node24 [color="midnightblue",fontsize="10",style="solid",fontname="Helvetica"];
  Node40 -> Node10 [color="midnightblue",fontsize="10",style="solid",fontname="Helvetica"];
  Node8 -> Node41 [color="midnightblue",fontsize="10",style="solid",fontname="Helvetica"];
  Node41 [label="coreBaseWindowFactory.h",height=0.2,width=0.4,color="black", fillcolor="white", style="filled",URL="$coreBaseWindowFactory_8h.html"];
  Node41 -> Node11 [color="midnightblue",fontsize="10",style="solid",fontname="Helvetica"];
  Node41 -> Node8 [color="midnightblue",fontsize="10",style="solid",fontname="Helvetica"];
  Node41 -> Node42 [color="midnightblue",fontsize="10",style="solid",fontname="Helvetica"];
  Node42 [label="coreWindowConfig.h",height=0.2,width=0.4,color="black", fillcolor="white", style="filled",URL="$coreWindowConfig_8h.html"];
  Node42 -> Node6 [color="midnightblue",fontsize="10",style="solid",fontname="Helvetica"];
  Node42 -> Node9 [color="midnightblue",fontsize="10",style="solid",fontname="Helvetica"];
  Node41 -> Node29 [color="midnightblue",fontsize="10",style="solid",fontname="Helvetica"];
  Node41 -> Node36 [color="midnightblue",fontsize="10",style="solid",fontname="Helvetica"];
  Node8 -> Node15 [color="midnightblue",fontsize="10",style="solid",fontname="Helvetica"];
  Node8 -> Node42 [color="midnightblue",fontsize="10",style="solid",fontname="Helvetica"];
  Node1 -> Node43 [color="midnightblue",fontsize="10",style="solid",fontname="Helvetica"];
  Node43 [label="coreRenderWindowContainer.h",height=0.2,width=0.4,color="black", fillcolor="white", style="filled",URL="$coreRenderWindowContainer_8h.html"];
  Node43 -> Node44 [color="midnightblue",fontsize="10",style="solid",fontname="Helvetica"];
  Node44 [label="gmWidgetsWin32Header.h",height=0.2,width=0.4,color="grey75", fillcolor="white", style="filled"];
  Node43 -> Node11 [color="midnightblue",fontsize="10",style="solid",fontname="Helvetica"];
  Node43 -> Node45 [color="midnightblue",fontsize="10",style="solid",fontname="Helvetica"];
  Node45 [label="coreMultiRenderWindow.h",height=0.2,width=0.4,color="black", fillcolor="white", style="filled",URL="$coreMultiRenderWindow_8h.html"];
  Node45 -> Node46 [color="midnightblue",fontsize="10",style="solid",fontname="Helvetica"];
  Node46 [label="coreRenderWindowBase.h",height=0.2,width=0.4,color="red", fillcolor="white", style="filled",URL="$coreRenderWindowBase_8h.html"];
  Node46 -> Node44 [color="midnightblue",fontsize="10",style="solid",fontname="Helvetica"];
  Node46 -> Node11 [color="midnightblue",fontsize="10",style="solid",fontname="Helvetica"];
  Node46 -> Node10 [color="midnightblue",fontsize="10",style="solid",fontname="Helvetica"];
  Node46 -> Node15 [color="midnightblue",fontsize="10",style="solid",fontname="Helvetica"];
  Node46 -> Node8 [color="midnightblue",fontsize="10",style="solid",fontname="Helvetica"];
  Node46 -> Node47 [color="midnightblue",fontsize="10",style="solid",fontname="Helvetica"];
  Node47 [label="coreCamera3D.h",height=0.2,width=0.4,color="black", fillcolor="white", style="filled",URL="$coreCamera3D_8h.html"];
  Node47 -> Node44 [color="midnightblue",fontsize="10",style="solid",fontname="Helvetica"];
  Node47 -> Node11 [color="midnightblue",fontsize="10",style="solid",fontname="Helvetica"];
  Node46 -> Node48 [color="midnightblue",fontsize="10",style="solid",fontname="Helvetica"];
  Node48 [label="coreSlicePlane.h",height=0.2,width=0.4,color="black", fillcolor="white", style="filled",URL="$coreSlicePlane_8h.html"];
  Node48 -> Node44 [color="midnightblue",fontsize="10",style="solid",fontname="Helvetica"];
  Node48 -> Node11 [color="midnightblue",fontsize="10",style="solid",fontname="Helvetica"];
  Node46 -> Node49 [color="midnightblue",fontsize="10",style="solid",fontname="Helvetica"];
  Node49 [label="coreDisplay2D.h",height=0.2,width=0.4,color="black", fillcolor="white", style="filled",URL="$coreDisplay2D_8h.html"];
  Node49 -> Node44 [color="midnightblue",fontsize="10",style="solid",fontname="Helvetica"];
  Node49 -> Node11 [color="midnightblue",fontsize="10",style="solid",fontname="Helvetica"];
  Node43 -> Node39 [color="midnightblue",fontsize="10",style="solid",fontname="Helvetica"];
  Node43 -> Node40 [color="midnightblue",fontsize="10",style="solid",fontname="Helvetica"];
  Node43 -> Node50 [color="midnightblue",fontsize="10",style="solid",fontname="Helvetica"];
  Node50 [label="coreRenderWindowLinker.h",height=0.2,width=0.4,color="black", fillcolor="white", style="filled",URL="$coreRenderWindowLinker_8h.html"];
  Node50 -> Node44 [color="midnightblue",fontsize="10",style="solid",fontname="Helvetica"];
  Node50 -> Node47 [color="midnightblue",fontsize="10",style="solid",fontname="Helvetica"];
  Node50 -> Node48 [color="midnightblue",fontsize="10",style="solid",fontname="Helvetica"];
  Node50 -> Node49 [color="midnightblue",fontsize="10",style="solid",fontname="Helvetica"];
  Node43 -> Node8 [color="midnightblue",fontsize="10",style="solid",fontname="Helvetica"];
}
