digraph "Apps/Gimias/GUI/Widgets/src/Workflow/coreWorkflowGUIBuilder.cxx"
{
  edge [fontname="Helvetica",fontsize="10",labelfontname="Helvetica",labelfontsize="10"];
  node [fontname="Helvetica",fontsize="10",shape=record];
  Node1 [label="Apps/Gimias/GUI/Widgets\l/src/Workflow/coreWorkflowGUIBuilder.cxx",height=0.2,width=0.4,color="black", fillcolor="grey75", style="filled", fontcolor="black"];
  Node1 -> Node2 [color="midnightblue",fontsize="10",style="solid",fontname="Helvetica"];
  Node2 [label="coreWorkflowGUIBuilder.h",height=0.2,width=0.4,color="black", fillcolor="white", style="filled",URL="$coreWorkflowGUIBuilder_8h.html"];
  Node2 -> Node3 [color="midnightblue",fontsize="10",style="solid",fontname="Helvetica"];
  Node3 [label="coreObject.h",height=0.2,width=0.4,color="black", fillcolor="white", style="filled",URL="$coreObject_8h.html"];
  Node3 -> Node4 [color="midnightblue",fontsize="10",style="solid",fontname="Helvetica"];
  Node4 [label="gmCommonObjectsWin32Header.h",height=0.2,width=0.4,color="grey75", fillcolor="white", style="filled"];
  Node3 -> Node5 [color="midnightblue",fontsize="10",style="solid",fontname="Helvetica"];
  Node5 [label="coreCommonMacros.h",height=0.2,width=0.4,color="black", fillcolor="white", style="filled",URL="$coreCommonMacros_8h.html"];
  Node3 -> Node6 [color="midnightblue",fontsize="10",style="solid",fontname="Helvetica"];
  Node6 [label="coreSmartPointerMacros.h",height=0.2,width=0.4,color="red", fillcolor="white", style="filled",URL="$coreSmartPointerMacros_8h.html"];
  Node6 -> Node5 [color="midnightblue",fontsize="10",style="solid",fontname="Helvetica"];
  Node3 -> Node7 [color="midnightblue",fontsize="10",style="solid",fontname="Helvetica"];
  Node7 [label="blTagMap.h",height=0.2,width=0.4,color="red", fillcolor="white", style="filled",URL="$blTagMap_8h.html"];
  Node7 -> Node8 [color="midnightblue",fontsize="10",style="solid",fontname="Helvetica"];
  Node8 [label="blLightObject.h",height=0.2,width=0.4,color="red", fillcolor="white", style="filled",URL="$blLightObject_8h.html"];
  Node7 -> Node9 [color="midnightblue",fontsize="10",style="solid",fontname="Helvetica"];
  Node9 [label="boost/signals.hpp",height=0.2,width=0.4,color="grey75", fillcolor="white", style="filled"];
  Node7 -> Node10 [color="midnightblue",fontsize="10",style="solid",fontname="Helvetica"];
  Node10 [label="boost/bind.hpp",height=0.2,width=0.4,color="grey75", fillcolor="white", style="filled"];
  Node7 -> Node11 [color="midnightblue",fontsize="10",style="solid",fontname="Helvetica"];
  Node11 [label="string",height=0.2,width=0.4,color="grey75", fillcolor="white", style="filled"];
  Node7 -> Node12 [color="midnightblue",fontsize="10",style="solid",fontname="Helvetica"];
  Node12 [label="map",height=0.2,width=0.4,color="grey75", fillcolor="white", style="filled"];
  Node3 -> Node13 [color="midnightblue",fontsize="10",style="solid",fontname="Helvetica"];
  Node13 [label="itkLightObject.h",height=0.2,width=0.4,color="grey75", fillcolor="white", style="filled"];
  Node3 -> Node14 [color="midnightblue",fontsize="10",style="solid",fontname="Helvetica"];
  Node14 [label="itkTimeStamp.h",height=0.2,width=0.4,color="grey75", fillcolor="white", style="filled"];
  Node3 -> Node9 [color="midnightblue",fontsize="10",style="solid",fontname="Helvetica"];
  Node3 -> Node10 [color="midnightblue",fontsize="10",style="solid",fontname="Helvetica"];
  Node2 -> Node15 [color="midnightblue",fontsize="10",style="solid",fontname="Helvetica"];
  Node15 [label="coreWorkflow.h",height=0.2,width=0.4,color="black", fillcolor="white", style="filled",URL="$coreWorkflow_8h.html"];
  Node15 -> Node16 [color="midnightblue",fontsize="10",style="solid",fontname="Helvetica"];
  Node16 [label="gmWorkflowWin32Header.h",height=0.2,width=0.4,color="grey75", fillcolor="white", style="filled"];
  Node15 -> Node3 [color="midnightblue",fontsize="10",style="solid",fontname="Helvetica"];
  Node15 -> Node17 [color="midnightblue",fontsize="10",style="solid",fontname="Helvetica"];
  Node17 [label="coreWorkflowStep.h",height=0.2,width=0.4,color="red", fillcolor="white", style="filled",URL="$coreWorkflowStep_8h.html"];
  Node17 -> Node16 [color="midnightblue",fontsize="10",style="solid",fontname="Helvetica"];
  Node17 -> Node3 [color="midnightblue",fontsize="10",style="solid",fontname="Helvetica"];
  Node17 -> Node7 [color="midnightblue",fontsize="10",style="solid",fontname="Helvetica"];
  Node1 -> Node18 [color="midnightblue",fontsize="10",style="solid",fontname="Helvetica"];
  Node18 [label="coreWxMitkGraphicalInterface.h",height=0.2,width=0.4,color="black", fillcolor="white", style="filled",URL="$coreWxMitkGraphicalInterface_8h.html"];
  Node18 -> Node3 [color="midnightblue",fontsize="10",style="solid",fontname="Helvetica"];
  Node18 -> Node19 [color="midnightblue",fontsize="10",style="solid",fontname="Helvetica"];
  Node19 [label="coreWindowConfig.h",height=0.2,width=0.4,color="black", fillcolor="white", style="filled",URL="$coreWindowConfig_8h.html"];
  Node19 -> Node11 [color="midnightblue",fontsize="10",style="solid",fontname="Helvetica"];
  Node19 -> Node20 [color="midnightblue",fontsize="10",style="solid",fontname="Helvetica"];
  Node20 [label="gmKernelWin32Header.h",height=0.2,width=0.4,color="grey75", fillcolor="white", style="filled"];
  Node18 -> Node21 [color="midnightblue",fontsize="10",style="solid",fontname="Helvetica"];
  Node21 [label="dynModuleExecutionImpl.h",height=0.2,width=0.4,color="black", fillcolor="white", style="filled",URL="$dynModuleExecutionImpl_8h.html"];
  Node21 -> Node22 [color="midnightblue",fontsize="10",style="solid",fontname="Helvetica"];
  Node22 [label="DynLibWin32Header.h",height=0.2,width=0.4,color="grey75", fillcolor="white", style="filled"];
  Node21 -> Node23 [color="midnightblue",fontsize="10",style="solid",fontname="Helvetica"];
  Node23 [label="ModuleDescription.h",height=0.2,width=0.4,color="grey75", fillcolor="white", style="filled"];
  Node21 -> Node8 [color="midnightblue",fontsize="10",style="solid",fontname="Helvetica"];
  Node21 -> Node24 [color="midnightblue",fontsize="10",style="solid",fontname="Helvetica"];
  Node24 [label="list",height=0.2,width=0.4,color="grey75", fillcolor="white", style="filled"];
  Node21 -> Node12 [color="midnightblue",fontsize="10",style="solid",fontname="Helvetica"];
  Node21 -> Node25 [color="midnightblue",fontsize="10",style="solid",fontname="Helvetica"];
  Node25 [label="dynUpdateCallback.h",height=0.2,width=0.4,color="black", fillcolor="white", style="filled",URL="$dynUpdateCallback_8h.html"];
  Node25 -> Node22 [color="midnightblue",fontsize="10",style="solid",fontname="Helvetica"];
  Node25 -> Node13 [color="midnightblue",fontsize="10",style="solid",fontname="Helvetica"];
  Node21 -> Node7 [color="midnightblue",fontsize="10",style="solid",fontname="Helvetica"];
  Node18 -> Node12 [color="midnightblue",fontsize="10",style="solid",fontname="Helvetica"];
  Node18 -> Node11 [color="midnightblue",fontsize="10",style="solid",fontname="Helvetica"];
  Node1 -> Node26 [color="midnightblue",fontsize="10",style="solid",fontname="Helvetica"];
  Node26 [label="corePluginTabFactory.h",height=0.2,width=0.4,color="black", fillcolor="white", style="filled",URL="$corePluginTabFactory_8h.html"];
  Node26 -> Node27 [color="midnightblue",fontsize="10",style="solid",fontname="Helvetica"];
  Node27 [label="corePluginTab.h",height=0.2,width=0.4,color="black", fillcolor="white", style="filled",URL="$corePluginTab_8h.html"];
  Node27 -> Node3 [color="midnightblue",fontsize="10",style="solid",fontname="Helvetica"];
  Node27 -> Node28 [color="midnightblue",fontsize="10",style="solid",fontname="Helvetica"];
  Node28 [label="coreDataEntityList.h",height=0.2,width=0.4,color="red", fillcolor="white", style="filled",URL="$coreDataEntityList_8h.html"];
  Node28 -> Node20 [color="midnightblue",fontsize="10",style="solid",fontname="Helvetica"];
  Node28 -> Node3 [color="midnightblue",fontsize="10",style="solid",fontname="Helvetica"];
  Node28 -> Node29 [color="midnightblue",fontsize="10",style="solid",fontname="Helvetica"];
  Node29 [label="coreDataEntity.h",height=0.2,width=0.4,color="red", fillcolor="white", style="filled",URL="$coreDataEntity_8h.html"];
  Node29 -> Node3 [color="midnightblue",fontsize="10",style="solid",fontname="Helvetica"];
  Node29 -> Node11 [color="midnightblue",fontsize="10",style="solid",fontname="Helvetica"];
  Node29 -> Node9 [color="midnightblue",fontsize="10",style="solid",fontname="Helvetica"];
  Node29 -> Node30 [color="midnightblue",fontsize="10",style="solid",fontname="Helvetica"];
  Node30 [label="coreDataEntityHolder.h",height=0.2,width=0.4,color="red", fillcolor="white", style="filled",URL="$coreDataEntityHolder_8h.html"];
  Node30 -> Node29 [color="midnightblue",fontsize="10",style="solid",fontname="Helvetica"];
  Node30 -> Node31 [color="midnightblue",fontsize="10",style="solid",fontname="Helvetica"];
  Node31 [label="coreDataHolder.h",height=0.2,width=0.4,color="red", fillcolor="white", style="filled",URL="$coreDataHolder_8h.html"];
  Node31 -> Node4 [color="midnightblue",fontsize="10",style="solid",fontname="Helvetica"];
  Node31 -> Node10 [color="midnightblue",fontsize="10",style="solid",fontname="Helvetica"];
  Node31 -> Node9 [color="midnightblue",fontsize="10",style="solid",fontname="Helvetica"];
  Node31 -> Node31 [color="midnightblue",fontsize="10",style="solid",fontname="Helvetica"];
  Node28 -> Node30 [color="midnightblue",fontsize="10",style="solid",fontname="Helvetica"];
  Node28 -> Node9 [color="midnightblue",fontsize="10",style="solid",fontname="Helvetica"];
  Node28 -> Node12 [color="midnightblue",fontsize="10",style="solid",fontname="Helvetica"];
  Node27 -> Node32 [color="midnightblue",fontsize="10",style="solid",fontname="Helvetica"];
  Node32 [label="coreRenderingTreeManager.h",height=0.2,width=0.4,color="black", fillcolor="white", style="filled",URL="$coreRenderingTreeManager_8h.html"];
  Node32 -> Node20 [color="midnightblue",fontsize="10",style="solid",fontname="Helvetica"];
  Node32 -> Node3 [color="midnightblue",fontsize="10",style="solid",fontname="Helvetica"];
  Node32 -> Node29 [color="midnightblue",fontsize="10",style="solid",fontname="Helvetica"];
  Node32 -> Node33 [color="midnightblue",fontsize="10",style="solid",fontname="Helvetica"];
  Node33 [label="coreRenderingTree.h",height=0.2,width=0.4,color="red", fillcolor="white", style="filled",URL="$coreRenderingTree_8h.html"];
  Node33 -> Node20 [color="midnightblue",fontsize="10",style="solid",fontname="Helvetica"];
  Node33 -> Node3 [color="midnightblue",fontsize="10",style="solid",fontname="Helvetica"];
  Node33 -> Node29 [color="midnightblue",fontsize="10",style="solid",fontname="Helvetica"];
  Node33 -> Node9 [color="midnightblue",fontsize="10",style="solid",fontname="Helvetica"];
  Node33 -> Node12 [color="midnightblue",fontsize="10",style="solid",fontname="Helvetica"];
  Node27 -> Node31 [color="midnightblue",fontsize="10",style="solid",fontname="Helvetica"];
  Node27 -> Node29 [color="midnightblue",fontsize="10",style="solid",fontname="Helvetica"];
  Node27 -> Node34 [color="midnightblue",fontsize="10",style="solid",fontname="Helvetica"];
  Node34 [label="coreWorkingAreaManager.h",height=0.2,width=0.4,color="red", fillcolor="white", style="filled",URL="$coreWorkingAreaManager_8h.html"];
  Node34 -> Node35 [color="midnightblue",fontsize="10",style="solid",fontname="Helvetica"];
  Node35 [label="gmWidgetsWin32Header.h",height=0.2,width=0.4,color="grey75", fillcolor="white", style="filled"];
  Node34 -> Node36 [color="midnightblue",fontsize="10",style="solid",fontname="Helvetica"];
  Node36 [label="coreBaseWindow.h",height=0.2,width=0.4,color="red", fillcolor="white", style="filled",URL="$coreBaseWindow_8h.html"];
  Node36 -> Node20 [color="midnightblue",fontsize="10",style="solid",fontname="Helvetica"];
  Node36 -> Node33 [color="midnightblue",fontsize="10",style="solid",fontname="Helvetica"];
  Node36 -> Node37 [color="midnightblue",fontsize="10",style="solid",fontname="Helvetica"];
  Node37 [label="coreProcessorOutputObserver.h",height=0.2,width=0.4,color="black", fillcolor="white", style="filled",URL="$coreProcessorOutputObserver_8h.html"];
  Node37 -> Node20 [color="midnightblue",fontsize="10",style="solid",fontname="Helvetica"];
  Node37 -> Node3 [color="midnightblue",fontsize="10",style="solid",fontname="Helvetica"];
  Node37 -> Node33 [color="midnightblue",fontsize="10",style="solid",fontname="Helvetica"];
  Node36 -> Node32 [color="midnightblue",fontsize="10",style="solid",fontname="Helvetica"];
  Node36 -> Node7 [color="midnightblue",fontsize="10",style="solid",fontname="Helvetica"];
  Node36 -> Node19 [color="midnightblue",fontsize="10",style="solid",fontname="Helvetica"];
  Node34 -> Node38 [color="midnightblue",fontsize="10",style="solid",fontname="Helvetica"];
  Node38 [label="wxID.h",height=0.2,width=0.4,color="red", fillcolor="white", style="filled",URL="$wxID_8h.html"];
  Node38 -> Node11 [color="midnightblue",fontsize="10",style="solid",fontname="Helvetica"];
  Node27 -> Node36 [color="midnightblue",fontsize="10",style="solid",fontname="Helvetica"];
  Node27 -> Node19 [color="midnightblue",fontsize="10",style="solid",fontname="Helvetica"];
  Node27 -> Node39 [color="midnightblue",fontsize="10",style="solid",fontname="Helvetica"];
  Node39 [label="coreBasePluginTab.h",height=0.2,width=0.4,color="black", fillcolor="white", style="filled",URL="$coreBasePluginTab_8h.html"];
  Node39 -> Node3 [color="midnightblue",fontsize="10",style="solid",fontname="Helvetica"];
  Node39 -> Node36 [color="midnightblue",fontsize="10",style="solid",fontname="Helvetica"];
  Node39 -> Node19 [color="midnightblue",fontsize="10",style="solid",fontname="Helvetica"];
  Node27 -> Node40 [color="midnightblue",fontsize="10",style="solid",fontname="Helvetica"];
  Node40 [label="wx/panel.h",height=0.2,width=0.4,color="grey75", fillcolor="white", style="filled"];
  Node27 -> Node41 [color="midnightblue",fontsize="10",style="solid",fontname="Helvetica"];
  Node41 [label="wx/aui/aui.h",height=0.2,width=0.4,color="grey75", fillcolor="white", style="filled"];
  Node26 -> Node3 [color="midnightblue",fontsize="10",style="solid",fontname="Helvetica"];
  Node1 -> Node42 [color="midnightblue",fontsize="10",style="solid",fontname="Helvetica"];
  Node42 [label="coreWorkflowNavigationWidget.h",height=0.2,width=0.4,color="black", fillcolor="white", style="filled",URL="$coreWorkflowNavigationWidget_8h.html"];
  Node42 -> Node35 [color="midnightblue",fontsize="10",style="solid",fontname="Helvetica"];
  Node42 -> Node43 [color="midnightblue",fontsize="10",style="solid",fontname="Helvetica"];
  Node43 [label="coreWorkflowNavigationWidgetUI.h",height=0.2,width=0.4,color="black", fillcolor="white", style="filled",URL="$coreWorkflowNavigationWidgetUI_8h.html"];
  Node43 -> Node44 [color="midnightblue",fontsize="10",style="solid",fontname="Helvetica"];
  Node44 [label="wx/wx.h",height=0.2,width=0.4,color="grey75", fillcolor="white", style="filled"];
  Node43 -> Node45 [color="midnightblue",fontsize="10",style="solid",fontname="Helvetica"];
  Node45 [label="wx/image.h",height=0.2,width=0.4,color="grey75", fillcolor="white", style="filled"];
  Node43 -> Node38 [color="midnightblue",fontsize="10",style="solid",fontname="Helvetica"];
  Node42 -> Node15 [color="midnightblue",fontsize="10",style="solid",fontname="Helvetica"];
  Node42 -> Node46 [color="midnightblue",fontsize="10",style="solid",fontname="Helvetica"];
  Node46 [label="coreProcessingWidget.h",height=0.2,width=0.4,color="red", fillcolor="white", style="filled",URL="$coreProcessingWidget_8h.html"];
  Node46 -> Node44 [color="midnightblue",fontsize="10",style="solid",fontname="Helvetica"];
  Node46 -> Node45 [color="midnightblue",fontsize="10",style="solid",fontname="Helvetica"];
  Node46 -> Node30 [color="midnightblue",fontsize="10",style="solid",fontname="Helvetica"];
  Node46 -> Node33 [color="midnightblue",fontsize="10",style="solid",fontname="Helvetica"];
  Node46 -> Node47 [color="midnightblue",fontsize="10",style="solid",fontname="Helvetica"];
  Node47 [label="coreDataEntityListBrowser.h",height=0.2,width=0.4,color="red", fillcolor="white", style="filled",URL="$coreDataEntityListBrowser_8h.html"];
  Node47 -> Node35 [color="midnightblue",fontsize="10",style="solid",fontname="Helvetica"];
  Node47 -> Node3 [color="midnightblue",fontsize="10",style="solid",fontname="Helvetica"];
  Node47 -> Node28 [color="midnightblue",fontsize="10",style="solid",fontname="Helvetica"];
  Node47 -> Node31 [color="midnightblue",fontsize="10",style="solid",fontname="Helvetica"];
  Node47 -> Node9 [color="midnightblue",fontsize="10",style="solid",fontname="Helvetica"];
  Node47 -> Node33 [color="midnightblue",fontsize="10",style="solid",fontname="Helvetica"];
  Node47 -> Node36 [color="midnightblue",fontsize="10",style="solid",fontname="Helvetica"];
  Node47 -> Node40 [color="midnightblue",fontsize="10",style="solid",fontname="Helvetica"];
  Node47 -> Node38 [color="midnightblue",fontsize="10",style="solid",fontname="Helvetica"];
  Node46 -> Node48 [color="midnightblue",fontsize="10",style="solid",fontname="Helvetica"];
  Node48 [label="coreBaseFilter.h",height=0.2,width=0.4,color="red", fillcolor="white", style="filled",URL="$coreBaseFilter_8h.html"];
  Node48 -> Node3 [color="midnightblue",fontsize="10",style="solid",fontname="Helvetica"];
  Node48 -> Node31 [color="midnightblue",fontsize="10",style="solid",fontname="Helvetica"];
  Node48 -> Node29 [color="midnightblue",fontsize="10",style="solid",fontname="Helvetica"];
  Node46 -> Node37 [color="midnightblue",fontsize="10",style="solid",fontname="Helvetica"];
  Node46 -> Node36 [color="midnightblue",fontsize="10",style="solid",fontname="Helvetica"];
  Node46 -> Node26 [color="midnightblue",fontsize="10",style="solid",fontname="Helvetica"];
  Node1 -> Node49 [color="midnightblue",fontsize="10",style="solid",fontname="Helvetica"];
  Node49 [label="coreToolboxWidget.h",height=0.2,width=0.4,color="black", fillcolor="white", style="filled",URL="$coreToolboxWidget_8h.html"];
  Node49 -> Node36 [color="midnightblue",fontsize="10",style="solid",fontname="Helvetica"];
  Node49 -> Node50 [color="midnightblue",fontsize="10",style="solid",fontname="Helvetica"];
  Node50 [label="wx/aui/auibook.h",height=0.2,width=0.4,color="grey75", fillcolor="white", style="filled"];
}
