digraph "Apps/Plugins/MITKPlugin/widgets/RenderingTree/coreRenDataFactory.h"
{
  edge [fontname="Helvetica",fontsize="10",labelfontname="Helvetica",labelfontsize="10"];
  node [fontname="Helvetica",fontsize="10",shape=record];
  Node1 [label="Apps/Plugins/MITKPlugin\l/widgets/RenderingTree\l/coreRenDataFactory.h",height=0.2,width=0.4,color="black", fillcolor="grey75", style="filled", fontcolor="black"];
  Node1 -> Node2 [dir="back",color="midnightblue",fontsize="10",style="solid",fontname="Helvetica"];
  Node2 [label="Apps/Plugins/ManualSegmentation\lPlugin/processors/coreContourInteractor.cxx",height=0.2,width=0.4,color="black", fillcolor="white", style="filled",URL="$coreContourInteractor_8cxx.html"];
  Node1 -> Node3 [dir="back",color="midnightblue",fontsize="10",style="solid",fontname="Helvetica"];
  Node3 [label="Apps/Plugins/MeshEditorPlugin\l/processors/coreSurfaceInteractor.cxx",height=0.2,width=0.4,color="black", fillcolor="white", style="filled",URL="$coreSurfaceInteractor_8cxx.html"];
  Node1 -> Node4 [dir="back",color="midnightblue",fontsize="10",style="solid",fontname="Helvetica"];
  Node4 [label="Apps/Plugins/MITKPlugin\l/widgets/Interactors/corePoint\lInteractor.cxx",height=0.2,width=0.4,color="black", fillcolor="white", style="filled",URL="$corePointInteractor_8cxx.html"];
  Node1 -> Node5 [dir="back",color="midnightblue",fontsize="10",style="solid",fontname="Helvetica"];
  Node5 [label="Apps/Plugins/MITKPlugin\l/widgets/RenderingTree\l/coreRenDataFactory.cxx",height=0.2,width=0.4,color="black", fillcolor="white", style="filled",URL="$coreRenDataFactory_8cxx.html"];
  Node1 -> Node6 [dir="back",color="midnightblue",fontsize="10",style="solid",fontname="Helvetica"];
  Node6 [label="Apps/Plugins/MITKPlugin\l/widgets/RenderWindow\l/coreMultiRenderWindowFocus.cxx",height=0.2,width=0.4,color="black", fillcolor="white", style="filled",URL="$coreMultiRenderWindowFocus_8cxx.html"];
  Node1 -> Node7 [dir="back",color="midnightblue",fontsize="10",style="solid",fontname="Helvetica"];
  Node7 [label="Apps/Plugins/MITKPlugin\l/widgets/RenderWindow\l/coreMultiRenderWindowOverlay.cxx",height=0.2,width=0.4,color="black", fillcolor="white", style="filled",URL="$coreMultiRenderWindowOverlay_8cxx.html"];
  Node1 -> Node8 [dir="back",color="midnightblue",fontsize="10",style="solid",fontname="Helvetica"];
  Node8 [label="Apps/Plugins/MITKPlugin\l/widgets/RenderWindow\l/coreRenderingTreeMITK.cxx",height=0.2,width=0.4,color="black", fillcolor="white", style="filled",URL="$coreRenderingTreeMITK_8cxx.html"];
}
