digraph "Apps/Gimias/Core/Processors/src/coreDynDataTransferCLP.h"
{
  edge [fontname="Helvetica",fontsize="10",labelfontname="Helvetica",labelfontsize="10"];
  node [fontname="Helvetica",fontsize="10",shape=record];
  Node1 [label="Apps/Gimias/Core/Processors\l/src/coreDynDataTransferCLP.h",height=0.2,width=0.4,color="black", fillcolor="grey75", style="filled", fontcolor="black"];
  Node1 -> Node2 [dir="back",color="midnightblue",fontsize="10",style="solid",fontname="Helvetica"];
  Node2 [label="Apps/Gimias/Core/Processors\l/src/coreDynDataTransferCLP.cxx",height=0.2,width=0.4,color="black", fillcolor="white", style="filled",URL="$coreDynDataTransferCLP_8cxx.html"];
  Node1 -> Node3 [dir="back",color="midnightblue",fontsize="10",style="solid",fontname="Helvetica"];
  Node3 [label="Apps/Gimias/Core/Processors\l/src/coreDynDataTransferCLPShared.h",height=0.2,width=0.4,color="black", fillcolor="white", style="filled",URL="$coreDynDataTransferCLPShared_8h.html"];
  Node3 -> Node4 [dir="back",color="midnightblue",fontsize="10",style="solid",fontname="Helvetica"];
  Node4 [label="Apps/Gimias/Core/Processors\l/src/coreDynDataTransferCLPShared.cxx",height=0.2,width=0.4,color="black", fillcolor="white", style="filled",URL="$coreDynDataTransferCLPShared_8cxx.html"];
  Node3 -> Node5 [dir="back",color="midnightblue",fontsize="10",style="solid",fontname="Helvetica"];
  Node5 [label="Apps/Gimias/Core/Processors\l/src/coreDynProcessor.cxx",height=0.2,width=0.4,color="black", fillcolor="white", style="filled",URL="$coreDynProcessor_8cxx.html"];
  Node1 -> Node6 [dir="back",color="midnightblue",fontsize="10",style="solid",fontname="Helvetica"];
  Node6 [label="Apps/Gimias/Core/Processors\l/src/coreDynDataTransferExternalApp.h",height=0.2,width=0.4,color="black", fillcolor="white", style="filled",URL="$coreDynDataTransferExternalApp_8h.html"];
  Node6 -> Node7 [dir="back",color="midnightblue",fontsize="10",style="solid",fontname="Helvetica"];
  Node7 [label="Apps/Gimias/Core/Processors\l/src/coreDynDataTransferExternal\lApp.cxx",height=0.2,width=0.4,color="black", fillcolor="white", style="filled",URL="$coreDynDataTransferExternalApp_8cxx.html"];
  Node6 -> Node5 [dir="back",color="midnightblue",fontsize="10",style="solid",fontname="Helvetica"];
  Node1 -> Node5 [dir="back",color="midnightblue",fontsize="10",style="solid",fontname="Helvetica"];
}
