digraph "Apps/Gimias/GUI/Widgets/src/ProcessingToolbox/coreProcessingToolboxWidget.h"
{
  edge [fontname="Helvetica",fontsize="10",labelfontname="Helvetica",labelfontsize="10"];
  node [fontname="Helvetica",fontsize="10",shape=record];
  Node1 [label="Apps/Gimias/GUI/Widgets\l/src/ProcessingToolbox\l/coreProcessingToolboxWidget.h",height=0.2,width=0.4,color="black", fillcolor="grey75", style="filled", fontcolor="black"];
  Node1 -> Node2 [color="midnightblue",fontsize="10",style="solid",fontname="Helvetica"];
  Node2 [label="coreObject.h",height=0.2,width=0.4,color="black", fillcolor="white", style="filled",URL="$coreObject_8h.html"];
  Node2 -> Node3 [color="midnightblue",fontsize="10",style="solid",fontname="Helvetica"];
  Node3 [label="gmCommonObjectsWin32Header.h",height=0.2,width=0.4,color="grey75", fillcolor="white", style="filled"];
  Node2 -> Node4 [color="midnightblue",fontsize="10",style="solid",fontname="Helvetica"];
  Node4 [label="coreCommonMacros.h",height=0.2,width=0.4,color="black", fillcolor="white", style="filled",URL="$coreCommonMacros_8h.html"];
  Node2 -> Node5 [color="midnightblue",fontsize="10",style="solid",fontname="Helvetica"];
  Node5 [label="coreSmartPointerMacros.h",height=0.2,width=0.4,color="black", fillcolor="white", style="filled",URL="$coreSmartPointerMacros_8h.html"];
  Node5 -> Node4 [color="midnightblue",fontsize="10",style="solid",fontname="Helvetica"];
  Node5 -> Node6 [color="midnightblue",fontsize="10",style="solid",fontname="Helvetica"];
  Node6 [label="itkSmartPointer.h",height=0.2,width=0.4,color="grey75", fillcolor="white", style="filled"];
  Node2 -> Node7 [color="midnightblue",fontsize="10",style="solid",fontname="Helvetica"];
  Node7 [label="blTagMap.h",height=0.2,width=0.4,color="black", fillcolor="white", style="filled",URL="$blTagMap_8h.html"];
  Node7 -> Node8 [color="midnightblue",fontsize="10",style="solid",fontname="Helvetica"];
  Node8 [label="blLightObject.h",height=0.2,width=0.4,color="red", fillcolor="white", style="filled",URL="$blLightObject_8h.html"];
  Node7 -> Node9 [color="midnightblue",fontsize="10",style="solid",fontname="Helvetica"];
  Node9 [label="blTag.h",height=0.2,width=0.4,color="red", fillcolor="white", style="filled",URL="$blTag_8h.html"];
  Node9 -> Node8 [color="midnightblue",fontsize="10",style="solid",fontname="Helvetica"];
  Node9 -> Node10 [color="midnightblue",fontsize="10",style="solid",fontname="Helvetica"];
  Node10 [label="CILabExceptionMacros.h",height=0.2,width=0.4,color="red", fillcolor="white", style="filled",URL="$CILabExceptionMacros_8h.html"];
  Node10 -> Node11 [color="midnightblue",fontsize="10",style="solid",fontname="Helvetica"];
  Node11 [label="string",height=0.2,width=0.4,color="grey75", fillcolor="white", style="filled"];
  Node9 -> Node11 [color="midnightblue",fontsize="10",style="solid",fontname="Helvetica"];
  Node7 -> Node10 [color="midnightblue",fontsize="10",style="solid",fontname="Helvetica"];
  Node7 -> Node12 [color="midnightblue",fontsize="10",style="solid",fontname="Helvetica"];
  Node12 [label="boost/signals.hpp",height=0.2,width=0.4,color="grey75", fillcolor="white", style="filled"];
  Node7 -> Node13 [color="midnightblue",fontsize="10",style="solid",fontname="Helvetica"];
  Node13 [label="boost/bind.hpp",height=0.2,width=0.4,color="grey75", fillcolor="white", style="filled"];
  Node7 -> Node11 [color="midnightblue",fontsize="10",style="solid",fontname="Helvetica"];
  Node7 -> Node14 [color="midnightblue",fontsize="10",style="solid",fontname="Helvetica"];
  Node14 [label="map",height=0.2,width=0.4,color="grey75", fillcolor="white", style="filled"];
  Node2 -> Node15 [color="midnightblue",fontsize="10",style="solid",fontname="Helvetica"];
  Node15 [label="itkLightObject.h",height=0.2,width=0.4,color="grey75", fillcolor="white", style="filled"];
  Node2 -> Node16 [color="midnightblue",fontsize="10",style="solid",fontname="Helvetica"];
  Node16 [label="itkTimeStamp.h",height=0.2,width=0.4,color="grey75", fillcolor="white", style="filled"];
  Node2 -> Node12 [color="midnightblue",fontsize="10",style="solid",fontname="Helvetica"];
  Node2 -> Node13 [color="midnightblue",fontsize="10",style="solid",fontname="Helvetica"];
  Node1 -> Node17 [color="midnightblue",fontsize="10",style="solid",fontname="Helvetica"];
  Node17 [label="coreDataEntityHolder.h",height=0.2,width=0.4,color="black", fillcolor="white", style="filled",URL="$coreDataEntityHolder_8h.html"];
  Node17 -> Node18 [color="midnightblue",fontsize="10",style="solid",fontname="Helvetica"];
  Node18 [label="gmDataHandlingWin32Header.h",height=0.2,width=0.4,color="grey75", fillcolor="white", style="filled"];
  Node17 -> Node19 [color="midnightblue",fontsize="10",style="solid",fontname="Helvetica"];
  Node19 [label="coreDataEntity.h",height=0.2,width=0.4,color="red", fillcolor="white", style="filled",URL="$coreDataEntity_8h.html"];
  Node19 -> Node18 [color="midnightblue",fontsize="10",style="solid",fontname="Helvetica"];
  Node19 -> Node2 [color="midnightblue",fontsize="10",style="solid",fontname="Helvetica"];
  Node19 -> Node20 [color="midnightblue",fontsize="10",style="solid",fontname="Helvetica"];
  Node20 [label="coreDataEntityMetadata.h",height=0.2,width=0.4,color="black", fillcolor="white", style="filled",URL="$coreDataEntityMetadata_8h.html"];
  Node20 -> Node18 [color="midnightblue",fontsize="10",style="solid",fontname="Helvetica"];
  Node20 -> Node2 [color="midnightblue",fontsize="10",style="solid",fontname="Helvetica"];
  Node20 -> Node7 [color="midnightblue",fontsize="10",style="solid",fontname="Helvetica"];
  Node19 -> Node21 [color="midnightblue",fontsize="10",style="solid",fontname="Helvetica"];
  Node21 [label="coreDataEntityImpl.h",height=0.2,width=0.4,color="red", fillcolor="white", style="filled",URL="$coreDataEntityImpl_8h.html"];
  Node21 -> Node18 [color="midnightblue",fontsize="10",style="solid",fontname="Helvetica"];
  Node21 -> Node2 [color="midnightblue",fontsize="10",style="solid",fontname="Helvetica"];
  Node21 -> Node11 [color="midnightblue",fontsize="10",style="solid",fontname="Helvetica"];
  Node21 -> Node7 [color="midnightblue",fontsize="10",style="solid",fontname="Helvetica"];
  Node19 -> Node22 [color="midnightblue",fontsize="10",style="solid",fontname="Helvetica"];
  Node22 [label="coreDataEntityImplFactory.h",height=0.2,width=0.4,color="red", fillcolor="white", style="filled",URL="$coreDataEntityImplFactory_8h.html"];
  Node22 -> Node18 [color="midnightblue",fontsize="10",style="solid",fontname="Helvetica"];
  Node22 -> Node2 [color="midnightblue",fontsize="10",style="solid",fontname="Helvetica"];
  Node22 -> Node11 [color="midnightblue",fontsize="10",style="solid",fontname="Helvetica"];
  Node22 -> Node7 [color="midnightblue",fontsize="10",style="solid",fontname="Helvetica"];
  Node22 -> Node21 [color="midnightblue",fontsize="10",style="solid",fontname="Helvetica"];
  Node19 -> Node11 [color="midnightblue",fontsize="10",style="solid",fontname="Helvetica"];
  Node19 -> Node12 [color="midnightblue",fontsize="10",style="solid",fontname="Helvetica"];
  Node19 -> Node17 [color="midnightblue",fontsize="10",style="solid",fontname="Helvetica"];
  Node17 -> Node23 [color="midnightblue",fontsize="10",style="solid",fontname="Helvetica"];
  Node23 [label="coreDataHolder.h",height=0.2,width=0.4,color="red", fillcolor="white", style="filled",URL="$coreDataHolder_8h.html"];
  Node23 -> Node3 [color="midnightblue",fontsize="10",style="solid",fontname="Helvetica"];
  Node23 -> Node13 [color="midnightblue",fontsize="10",style="solid",fontname="Helvetica"];
  Node23 -> Node12 [color="midnightblue",fontsize="10",style="solid",fontname="Helvetica"];
  Node23 -> Node23 [color="midnightblue",fontsize="10",style="solid",fontname="Helvetica"];
  Node1 -> Node24 [color="midnightblue",fontsize="10",style="solid",fontname="Helvetica"];
  Node24 [label="coreDataEntityListBrowser.h",height=0.2,width=0.4,color="black", fillcolor="white", style="filled",URL="$coreDataEntityListBrowser_8h.html"];
  Node24 -> Node25 [color="midnightblue",fontsize="10",style="solid",fontname="Helvetica"];
  Node25 [label="gmWidgetsWin32Header.h",height=0.2,width=0.4,color="grey75", fillcolor="white", style="filled"];
  Node24 -> Node2 [color="midnightblue",fontsize="10",style="solid",fontname="Helvetica"];
  Node24 -> Node26 [color="midnightblue",fontsize="10",style="solid",fontname="Helvetica"];
  Node26 [label="coreDataEntityList.h",height=0.2,width=0.4,color="red", fillcolor="white", style="filled",URL="$coreDataEntityList_8h.html"];
  Node26 -> Node27 [color="midnightblue",fontsize="10",style="solid",fontname="Helvetica"];
  Node27 [label="gmKernelWin32Header.h",height=0.2,width=0.4,color="grey75", fillcolor="white", style="filled"];
  Node26 -> Node2 [color="midnightblue",fontsize="10",style="solid",fontname="Helvetica"];
  Node26 -> Node19 [color="midnightblue",fontsize="10",style="solid",fontname="Helvetica"];
  Node26 -> Node17 [color="midnightblue",fontsize="10",style="solid",fontname="Helvetica"];
  Node26 -> Node10 [color="midnightblue",fontsize="10",style="solid",fontname="Helvetica"];
  Node26 -> Node12 [color="midnightblue",fontsize="10",style="solid",fontname="Helvetica"];
  Node26 -> Node14 [color="midnightblue",fontsize="10",style="solid",fontname="Helvetica"];
  Node24 -> Node23 [color="midnightblue",fontsize="10",style="solid",fontname="Helvetica"];
  Node24 -> Node12 [color="midnightblue",fontsize="10",style="solid",fontname="Helvetica"];
  Node24 -> Node28 [color="midnightblue",fontsize="10",style="solid",fontname="Helvetica"];
  Node28 [label="coreRenderingTree.h",height=0.2,width=0.4,color="black", fillcolor="white", style="filled",URL="$coreRenderingTree_8h.html"];
  Node28 -> Node27 [color="midnightblue",fontsize="10",style="solid",fontname="Helvetica"];
  Node28 -> Node2 [color="midnightblue",fontsize="10",style="solid",fontname="Helvetica"];
  Node28 -> Node19 [color="midnightblue",fontsize="10",style="solid",fontname="Helvetica"];
  Node28 -> Node12 [color="midnightblue",fontsize="10",style="solid",fontname="Helvetica"];
  Node28 -> Node14 [color="midnightblue",fontsize="10",style="solid",fontname="Helvetica"];
  Node28 -> Node29 [color="midnightblue",fontsize="10",style="solid",fontname="Helvetica"];
  Node29 [label="coreRenderingTree.txx",height=0.2,width=0.4,color="grey75", fillcolor="white", style="filled"];
  Node24 -> Node30 [color="midnightblue",fontsize="10",style="solid",fontname="Helvetica"];
  Node30 [label="coreBaseWindow.h",height=0.2,width=0.4,color="black", fillcolor="white", style="filled",URL="$coreBaseWindow_8h.html"];
  Node30 -> Node27 [color="midnightblue",fontsize="10",style="solid",fontname="Helvetica"];
  Node30 -> Node28 [color="midnightblue",fontsize="10",style="solid",fontname="Helvetica"];
  Node30 -> Node31 [color="midnightblue",fontsize="10",style="solid",fontname="Helvetica"];
  Node31 [label="coreBaseProcessor.h",height=0.2,width=0.4,color="red", fillcolor="white", style="filled",URL="$coreBaseProcessor_8h.html"];
  Node31 -> Node2 [color="midnightblue",fontsize="10",style="solid",fontname="Helvetica"];
  Node31 -> Node23 [color="midnightblue",fontsize="10",style="solid",fontname="Helvetica"];
  Node31 -> Node19 [color="midnightblue",fontsize="10",style="solid",fontname="Helvetica"];
  Node31 -> Node32 [color="midnightblue",fontsize="10",style="solid",fontname="Helvetica"];
  Node32 [label="coreBaseFilter.h",height=0.2,width=0.4,color="red", fillcolor="white", style="filled",URL="$coreBaseFilter_8h.html"];
  Node32 -> Node2 [color="midnightblue",fontsize="10",style="solid",fontname="Helvetica"];
  Node32 -> Node23 [color="midnightblue",fontsize="10",style="solid",fontname="Helvetica"];
  Node32 -> Node19 [color="midnightblue",fontsize="10",style="solid",fontname="Helvetica"];
  Node30 -> Node33 [color="midnightblue",fontsize="10",style="solid",fontname="Helvetica"];
  Node33 [label="coreProcessorOutputObserver.h",height=0.2,width=0.4,color="black", fillcolor="white", style="filled",URL="$coreProcessorOutputObserver_8h.html"];
  Node33 -> Node27 [color="midnightblue",fontsize="10",style="solid",fontname="Helvetica"];
  Node33 -> Node2 [color="midnightblue",fontsize="10",style="solid",fontname="Helvetica"];
  Node33 -> Node28 [color="midnightblue",fontsize="10",style="solid",fontname="Helvetica"];
  Node30 -> Node34 [color="midnightblue",fontsize="10",style="solid",fontname="Helvetica"];
  Node34 [label="coreCommonDataTypes.h",height=0.2,width=0.4,color="black", fillcolor="white", style="filled",URL="$coreCommonDataTypes_8h.html"];
  Node34 -> Node23 [color="midnightblue",fontsize="10",style="solid",fontname="Helvetica"];
  Node30 -> Node35 [color="midnightblue",fontsize="10",style="solid",fontname="Helvetica"];
  Node35 [label="coreRenderingTreeManager.h",height=0.2,width=0.4,color="black", fillcolor="white", style="filled",URL="$coreRenderingTreeManager_8h.html"];
  Node35 -> Node27 [color="midnightblue",fontsize="10",style="solid",fontname="Helvetica"];
  Node35 -> Node2 [color="midnightblue",fontsize="10",style="solid",fontname="Helvetica"];
  Node35 -> Node19 [color="midnightblue",fontsize="10",style="solid",fontname="Helvetica"];
  Node35 -> Node28 [color="midnightblue",fontsize="10",style="solid",fontname="Helvetica"];
  Node30 -> Node36 [color="midnightblue",fontsize="10",style="solid",fontname="Helvetica"];
  Node36 [label="coreBaseWindowFactory.h",height=0.2,width=0.4,color="red", fillcolor="white", style="filled",URL="$coreBaseWindowFactory_8h.html"];
  Node36 -> Node2 [color="midnightblue",fontsize="10",style="solid",fontname="Helvetica"];
  Node36 -> Node30 [color="midnightblue",fontsize="10",style="solid",fontname="Helvetica"];
  Node36 -> Node37 [color="midnightblue",fontsize="10",style="solid",fontname="Helvetica"];
  Node37 [label="coreWindowConfig.h",height=0.2,width=0.4,color="black", fillcolor="white", style="filled",URL="$coreWindowConfig_8h.html"];
  Node37 -> Node11 [color="midnightblue",fontsize="10",style="solid",fontname="Helvetica"];
  Node37 -> Node27 [color="midnightblue",fontsize="10",style="solid",fontname="Helvetica"];
  Node30 -> Node7 [color="midnightblue",fontsize="10",style="solid",fontname="Helvetica"];
  Node30 -> Node37 [color="midnightblue",fontsize="10",style="solid",fontname="Helvetica"];
  Node24 -> Node38 [color="midnightblue",fontsize="10",style="solid",fontname="Helvetica"];
  Node38 [label="wx/treebase.h",height=0.2,width=0.4,color="grey75", fillcolor="white", style="filled"];
  Node24 -> Node39 [color="midnightblue",fontsize="10",style="solid",fontname="Helvetica"];
  Node39 [label="wx/panel.h",height=0.2,width=0.4,color="grey75", fillcolor="white", style="filled"];
  Node24 -> Node40 [color="midnightblue",fontsize="10",style="solid",fontname="Helvetica"];
  Node40 [label="wxID.h",height=0.2,width=0.4,color="red", fillcolor="white", style="filled",URL="$wxID_8h.html"];
  Node40 -> Node11 [color="midnightblue",fontsize="10",style="solid",fontname="Helvetica"];
  Node1 -> Node28 [color="midnightblue",fontsize="10",style="solid",fontname="Helvetica"];
  Node1 -> Node41 [color="midnightblue",fontsize="10",style="solid",fontname="Helvetica"];
  Node41 [label="coreProcessingWidget.h",height=0.2,width=0.4,color="black", fillcolor="white", style="filled",URL="$coreProcessingWidget_8h.html"];
  Node41 -> Node42 [color="midnightblue",fontsize="10",style="solid",fontname="Helvetica"];
  Node42 [label="wx/wx.h",height=0.2,width=0.4,color="grey75", fillcolor="white", style="filled"];
  Node41 -> Node43 [color="midnightblue",fontsize="10",style="solid",fontname="Helvetica"];
  Node43 [label="wx/image.h",height=0.2,width=0.4,color="grey75", fillcolor="white", style="filled"];
  Node41 -> Node17 [color="midnightblue",fontsize="10",style="solid",fontname="Helvetica"];
  Node41 -> Node28 [color="midnightblue",fontsize="10",style="solid",fontname="Helvetica"];
  Node41 -> Node24 [color="midnightblue",fontsize="10",style="solid",fontname="Helvetica"];
  Node41 -> Node32 [color="midnightblue",fontsize="10",style="solid",fontname="Helvetica"];
  Node41 -> Node33 [color="midnightblue",fontsize="10",style="solid",fontname="Helvetica"];
  Node41 -> Node44 [color="midnightblue",fontsize="10",style="solid",fontname="Helvetica"];
  Node44 [label="coreProcessorOutputsObserver\lBuilder.h",height=0.2,width=0.4,color="black", fillcolor="white", style="filled",URL="$coreProcessorOutputsObserverBuilder_8h.html"];
  Node44 -> Node27 [color="midnightblue",fontsize="10",style="solid",fontname="Helvetica"];
  Node44 -> Node31 [color="midnightblue",fontsize="10",style="solid",fontname="Helvetica"];
  Node44 -> Node33 [color="midnightblue",fontsize="10",style="solid",fontname="Helvetica"];
  Node44 -> Node5 [color="midnightblue",fontsize="10",style="solid",fontname="Helvetica"];
  Node44 -> Node28 [color="midnightblue",fontsize="10",style="solid",fontname="Helvetica"];
  Node44 -> Node2 [color="midnightblue",fontsize="10",style="solid",fontname="Helvetica"];
  Node41 -> Node45 [color="midnightblue",fontsize="10",style="solid",fontname="Helvetica"];
  Node45 [label="coreUserHelperWidget.h",height=0.2,width=0.4,color="black", fillcolor="white", style="filled",URL="$coreUserHelperWidget_8h.html"];
  Node45 -> Node25 [color="midnightblue",fontsize="10",style="solid",fontname="Helvetica"];
  Node45 -> Node39 [color="midnightblue",fontsize="10",style="solid",fontname="Helvetica"];
  Node45 -> Node11 [color="midnightblue",fontsize="10",style="solid",fontname="Helvetica"];
  Node45 -> Node46 [color="midnightblue",fontsize="10",style="solid",fontname="Helvetica"];
  Node46 [label="coreUserHelperWidgetUI.h",height=0.2,width=0.4,color="black", fillcolor="white", style="filled",URL="$coreUserHelperWidgetUI_8h.html"];
  Node46 -> Node42 [color="midnightblue",fontsize="10",style="solid",fontname="Helvetica"];
  Node46 -> Node43 [color="midnightblue",fontsize="10",style="solid",fontname="Helvetica"];
  Node45 -> Node30 [color="midnightblue",fontsize="10",style="solid",fontname="Helvetica"];
  Node45 -> Node40 [color="midnightblue",fontsize="10",style="solid",fontname="Helvetica"];
  Node41 -> Node30 [color="midnightblue",fontsize="10",style="solid",fontname="Helvetica"];
  Node41 -> Node47 [color="midnightblue",fontsize="10",style="solid",fontname="Helvetica"];
  Node47 [label="coreSelectionToolWidget.h",height=0.2,width=0.4,color="black", fillcolor="white", style="filled",URL="$coreSelectionToolWidget_8h.html"];
  Node47 -> Node25 [color="midnightblue",fontsize="10",style="solid",fontname="Helvetica"];
  Node47 -> Node30 [color="midnightblue",fontsize="10",style="solid",fontname="Helvetica"];
  Node41 -> Node48 [color="midnightblue",fontsize="10",style="solid",fontname="Helvetica"];
  Node48 [label="coreSelectionToolboxWidget.h",height=0.2,width=0.4,color="black", fillcolor="white", style="filled",URL="$coreSelectionToolboxWidget_8h.html"];
  Node48 -> Node30 [color="midnightblue",fontsize="10",style="solid",fontname="Helvetica"];
  Node48 -> Node47 [color="midnightblue",fontsize="10",style="solid",fontname="Helvetica"];
  Node48 -> Node49 [color="midnightblue",fontsize="10",style="solid",fontname="Helvetica"];
  Node49 [label="coreBaseToolboxWidget.h",height=0.2,width=0.4,color="black", fillcolor="white", style="filled",URL="$coreBaseToolboxWidget_8h.html"];
  Node49 -> Node30 [color="midnightblue",fontsize="10",style="solid",fontname="Helvetica"];
  Node41 -> Node50 [color="midnightblue",fontsize="10",style="solid",fontname="Helvetica"];
  Node50 [label="corePluginTabFactory.h",height=0.2,width=0.4,color="red", fillcolor="white", style="filled",URL="$corePluginTabFactory_8h.html"];
  Node50 -> Node2 [color="midnightblue",fontsize="10",style="solid",fontname="Helvetica"];
  Node1 -> Node45 [color="midnightblue",fontsize="10",style="solid",fontname="Helvetica"];
  Node1 -> Node30 [color="midnightblue",fontsize="10",style="solid",fontname="Helvetica"];
  Node1 -> Node49 [color="midnightblue",fontsize="10",style="solid",fontname="Helvetica"];
  Node1 -> Node39 [color="midnightblue",fontsize="10",style="solid",fontname="Helvetica"];
}
