digraph "Apps/Gimias/GUI/Widgets/src/MacroPannelWidget/coreMacroPannelWidget.cxx"
{
  edge [fontname="Helvetica",fontsize="10",labelfontname="Helvetica",labelfontsize="10"];
  node [fontname="Helvetica",fontsize="10",shape=record];
  Node1 [label="Apps/Gimias/GUI/Widgets\l/src/MacroPannelWidget\l/coreMacroPannelWidget.cxx",height=0.2,width=0.4,color="black", fillcolor="grey75", style="filled", fontcolor="black"];
  Node1 -> Node2 [color="midnightblue",fontsize="10",style="solid",fontname="Helvetica"];
  Node2 [label="wx/wxprec.h",height=0.2,width=0.4,color="grey75", fillcolor="white", style="filled"];
  Node1 -> Node3 [color="midnightblue",fontsize="10",style="solid",fontname="Helvetica"];
  Node3 [label="wx/wx.h",height=0.2,width=0.4,color="grey75", fillcolor="white", style="filled"];
  Node1 -> Node4 [color="midnightblue",fontsize="10",style="solid",fontname="Helvetica"];
  Node4 [label="wxUnicode.h",height=0.2,width=0.4,color="black", fillcolor="white", style="filled",URL="$wxUnicode_8h.html"];
  Node4 -> Node5 [color="midnightblue",fontsize="10",style="solid",fontname="Helvetica"];
  Node5 [label="TpExtLibWxWidgetsWin32Header.h",height=0.2,width=0.4,color="grey75", fillcolor="white", style="filled"];
  Node4 -> Node6 [color="midnightblue",fontsize="10",style="solid",fontname="Helvetica"];
  Node6 [label="string",height=0.2,width=0.4,color="grey75", fillcolor="white", style="filled"];
  Node4 -> Node7 [color="midnightblue",fontsize="10",style="solid",fontname="Helvetica"];
  Node7 [label="wx/string.h",height=0.2,width=0.4,color="grey75", fillcolor="white", style="filled"];
  Node1 -> Node8 [color="midnightblue",fontsize="10",style="solid",fontname="Helvetica"];
  Node8 [label="coreMacroPannelWidget.h",height=0.2,width=0.4,color="black", fillcolor="white", style="filled",URL="$coreMacroPannelWidget_8h.html"];
  Node8 -> Node9 [color="midnightblue",fontsize="10",style="solid",fontname="Helvetica"];
  Node9 [label="gmWidgetsWin32Header.h",height=0.2,width=0.4,color="grey75", fillcolor="white", style="filled"];
  Node8 -> Node10 [color="midnightblue",fontsize="10",style="solid",fontname="Helvetica"];
  Node10 [label="coreObject.h",height=0.2,width=0.4,color="black", fillcolor="white", style="filled",URL="$coreObject_8h.html"];
  Node10 -> Node11 [color="midnightblue",fontsize="10",style="solid",fontname="Helvetica"];
  Node11 [label="gmCommonObjectsWin32Header.h",height=0.2,width=0.4,color="grey75", fillcolor="white", style="filled"];
  Node10 -> Node12 [color="midnightblue",fontsize="10",style="solid",fontname="Helvetica"];
  Node12 [label="coreCommonMacros.h",height=0.2,width=0.4,color="black", fillcolor="white", style="filled",URL="$coreCommonMacros_8h.html"];
  Node10 -> Node13 [color="midnightblue",fontsize="10",style="solid",fontname="Helvetica"];
  Node13 [label="coreSmartPointerMacros.h",height=0.2,width=0.4,color="black", fillcolor="white", style="filled",URL="$coreSmartPointerMacros_8h.html"];
  Node13 -> Node12 [color="midnightblue",fontsize="10",style="solid",fontname="Helvetica"];
  Node13 -> Node14 [color="midnightblue",fontsize="10",style="solid",fontname="Helvetica"];
  Node14 [label="itkSmartPointer.h",height=0.2,width=0.4,color="grey75", fillcolor="white", style="filled"];
  Node10 -> Node15 [color="midnightblue",fontsize="10",style="solid",fontname="Helvetica"];
  Node15 [label="blTagMap.h",height=0.2,width=0.4,color="black", fillcolor="white", style="filled",URL="$blTagMap_8h.html"];
  Node15 -> Node16 [color="midnightblue",fontsize="10",style="solid",fontname="Helvetica"];
  Node16 [label="blLightObject.h",height=0.2,width=0.4,color="red", fillcolor="white", style="filled",URL="$blLightObject_8h.html"];
  Node15 -> Node17 [color="midnightblue",fontsize="10",style="solid",fontname="Helvetica"];
  Node17 [label="blTag.h",height=0.2,width=0.4,color="red", fillcolor="white", style="filled",URL="$blTag_8h.html"];
  Node17 -> Node16 [color="midnightblue",fontsize="10",style="solid",fontname="Helvetica"];
  Node17 -> Node18 [color="midnightblue",fontsize="10",style="solid",fontname="Helvetica"];
  Node18 [label="CILabExceptionMacros.h",height=0.2,width=0.4,color="black", fillcolor="white", style="filled",URL="$CILabExceptionMacros_8h.html"];
  Node18 -> Node19 [color="midnightblue",fontsize="10",style="solid",fontname="Helvetica"];
  Node19 [label="exception",height=0.2,width=0.4,color="grey75", fillcolor="white", style="filled"];
  Node18 -> Node6 [color="midnightblue",fontsize="10",style="solid",fontname="Helvetica"];
  Node17 -> Node6 [color="midnightblue",fontsize="10",style="solid",fontname="Helvetica"];
  Node15 -> Node18 [color="midnightblue",fontsize="10",style="solid",fontname="Helvetica"];
  Node15 -> Node20 [color="midnightblue",fontsize="10",style="solid",fontname="Helvetica"];
  Node20 [label="boost/signals.hpp",height=0.2,width=0.4,color="grey75", fillcolor="white", style="filled"];
  Node15 -> Node21 [color="midnightblue",fontsize="10",style="solid",fontname="Helvetica"];
  Node21 [label="boost/bind.hpp",height=0.2,width=0.4,color="grey75", fillcolor="white", style="filled"];
  Node15 -> Node6 [color="midnightblue",fontsize="10",style="solid",fontname="Helvetica"];
  Node15 -> Node22 [color="midnightblue",fontsize="10",style="solid",fontname="Helvetica"];
  Node22 [label="map",height=0.2,width=0.4,color="grey75", fillcolor="white", style="filled"];
  Node10 -> Node23 [color="midnightblue",fontsize="10",style="solid",fontname="Helvetica"];
  Node23 [label="itkLightObject.h",height=0.2,width=0.4,color="grey75", fillcolor="white", style="filled"];
  Node10 -> Node24 [color="midnightblue",fontsize="10",style="solid",fontname="Helvetica"];
  Node24 [label="itkTimeStamp.h",height=0.2,width=0.4,color="grey75", fillcolor="white", style="filled"];
  Node10 -> Node20 [color="midnightblue",fontsize="10",style="solid",fontname="Helvetica"];
  Node10 -> Node21 [color="midnightblue",fontsize="10",style="solid",fontname="Helvetica"];
  Node8 -> Node25 [color="midnightblue",fontsize="10",style="solid",fontname="Helvetica"];
  Node25 [label="wx/textctrl.h",height=0.2,width=0.4,color="grey75", fillcolor="white", style="filled"];
  Node8 -> Node6 [color="midnightblue",fontsize="10",style="solid",fontname="Helvetica"];
  Node1 -> Node26 [color="midnightblue",fontsize="10",style="solid",fontname="Helvetica"];
  Node26 [label="coreKernel.h",height=0.2,width=0.4,color="black", fillcolor="white", style="filled",URL="$coreKernel_8h.html"];
  Node26 -> Node10 [color="midnightblue",fontsize="10",style="solid",fontname="Helvetica"];
  Node26 -> Node27 [color="midnightblue",fontsize="10",style="solid",fontname="Helvetica"];
  Node27 [label="coreEnvironment.h",height=0.2,width=0.4,color="black", fillcolor="white", style="filled",URL="$coreEnvironment_8h.html"];
  Node27 -> Node28 [color="midnightblue",fontsize="10",style="solid",fontname="Helvetica"];
  Node28 [label="gmKernelWin32Header.h",height=0.2,width=0.4,color="grey75", fillcolor="white", style="filled"];
  Node27 -> Node10 [color="midnightblue",fontsize="10",style="solid",fontname="Helvetica"];
  Node27 -> Node29 [color="midnightblue",fontsize="10",style="solid",fontname="Helvetica"];
  Node29 [label="coreDataEntity.h",height=0.2,width=0.4,color="red", fillcolor="white", style="filled",URL="$coreDataEntity_8h.html"];
  Node29 -> Node30 [color="midnightblue",fontsize="10",style="solid",fontname="Helvetica"];
  Node30 [label="gmDataHandlingWin32Header.h",height=0.2,width=0.4,color="grey75", fillcolor="white", style="filled"];
  Node29 -> Node10 [color="midnightblue",fontsize="10",style="solid",fontname="Helvetica"];
  Node29 -> Node31 [color="midnightblue",fontsize="10",style="solid",fontname="Helvetica"];
  Node31 [label="coreDataEntityMetadata.h",height=0.2,width=0.4,color="black", fillcolor="white", style="filled",URL="$coreDataEntityMetadata_8h.html"];
  Node31 -> Node30 [color="midnightblue",fontsize="10",style="solid",fontname="Helvetica"];
  Node31 -> Node10 [color="midnightblue",fontsize="10",style="solid",fontname="Helvetica"];
  Node31 -> Node15 [color="midnightblue",fontsize="10",style="solid",fontname="Helvetica"];
  Node29 -> Node6 [color="midnightblue",fontsize="10",style="solid",fontname="Helvetica"];
  Node29 -> Node20 [color="midnightblue",fontsize="10",style="solid",fontname="Helvetica"];
  Node27 -> Node32 [color="midnightblue",fontsize="10",style="solid",fontname="Helvetica"];
  Node32 [label="coreDataHolder.h",height=0.2,width=0.4,color="red", fillcolor="white", style="filled",URL="$coreDataHolder_8h.html"];
  Node32 -> Node11 [color="midnightblue",fontsize="10",style="solid",fontname="Helvetica"];
  Node32 -> Node21 [color="midnightblue",fontsize="10",style="solid",fontname="Helvetica"];
  Node32 -> Node20 [color="midnightblue",fontsize="10",style="solid",fontname="Helvetica"];
  Node32 -> Node32 [color="midnightblue",fontsize="10",style="solid",fontname="Helvetica"];
  Node32 -> Node33 [color="midnightblue",fontsize="10",style="solid",fontname="Helvetica"];
  Node33 [label="/home/el1mc/src/bitbucket\l/cistib/cilab-gimiax/src\l/Apps/Gimias/Core/CommonObjects\l/src/coreAssert.h",height=0.2,width=0.4,color="grey75", fillcolor="white", style="filled"];
  Node27 -> Node6 [color="midnightblue",fontsize="10",style="solid",fontname="Helvetica"];
  Node26 -> Node34 [color="midnightblue",fontsize="10",style="solid",fontname="Helvetica"];
  Node34 [label="coreBaseFactory.h",height=0.2,width=0.4,color="black", fillcolor="white", style="filled",URL="$coreBaseFactory_8h.html"];
  Node34 -> Node11 [color="midnightblue",fontsize="10",style="solid",fontname="Helvetica"];
  Node34 -> Node12 [color="midnightblue",fontsize="10",style="solid",fontname="Helvetica"];
  Node34 -> Node13 [color="midnightblue",fontsize="10",style="solid",fontname="Helvetica"];
  Node34 -> Node10 [color="midnightblue",fontsize="10",style="solid",fontname="Helvetica"];
  Node26 -> Node35 [color="midnightblue",fontsize="10",style="solid",fontname="Helvetica"];
  Node35 [label="coreBaseMainWindow.h",height=0.2,width=0.4,color="black", fillcolor="white", style="filled",URL="$coreBaseMainWindow_8h.html"];
  Node35 -> Node6 [color="midnightblue",fontsize="10",style="solid",fontname="Helvetica"];
  Node35 -> Node36 [color="midnightblue",fontsize="10",style="solid",fontname="Helvetica"];
  Node36 [label="coreWindowConfig.h",height=0.2,width=0.4,color="black", fillcolor="white", style="filled",URL="$coreWindowConfig_8h.html"];
  Node36 -> Node6 [color="midnightblue",fontsize="10",style="solid",fontname="Helvetica"];
  Node36 -> Node28 [color="midnightblue",fontsize="10",style="solid",fontname="Helvetica"];
  Node35 -> Node37 [color="midnightblue",fontsize="10",style="solid",fontname="Helvetica"];
  Node37 [label="coreWorkflow.h",height=0.2,width=0.4,color="red", fillcolor="white", style="filled",URL="$coreWorkflow_8h.html"];
  Node37 -> Node10 [color="midnightblue",fontsize="10",style="solid",fontname="Helvetica"];
  Node35 -> Node38 [color="midnightblue",fontsize="10",style="solid",fontname="Helvetica"];
  Node38 [label="coreBasePluginTab.h",height=0.2,width=0.4,color="red", fillcolor="white", style="filled",URL="$coreBasePluginTab_8h.html"];
  Node38 -> Node10 [color="midnightblue",fontsize="10",style="solid",fontname="Helvetica"];
  Node38 -> Node36 [color="midnightblue",fontsize="10",style="solid",fontname="Helvetica"];
  Node35 -> Node39 [color="midnightblue",fontsize="10",style="solid",fontname="Helvetica"];
  Node39 [label="coreRenderingTree.h",height=0.2,width=0.4,color="red", fillcolor="white", style="filled",URL="$coreRenderingTree_8h.html"];
  Node39 -> Node28 [color="midnightblue",fontsize="10",style="solid",fontname="Helvetica"];
  Node39 -> Node10 [color="midnightblue",fontsize="10",style="solid",fontname="Helvetica"];
  Node39 -> Node29 [color="midnightblue",fontsize="10",style="solid",fontname="Helvetica"];
  Node39 -> Node20 [color="midnightblue",fontsize="10",style="solid",fontname="Helvetica"];
  Node39 -> Node22 [color="midnightblue",fontsize="10",style="solid",fontname="Helvetica"];
  Node35 -> Node40 [color="midnightblue",fontsize="10",style="solid",fontname="Helvetica"];
  Node40 [label="/home/el1mc/src/bitbucket\l/cistib/cilab-gimiax/src\l/Apps/Gimias/Core/Kernel\l/src/coreReportExceptionMacros.h",height=0.2,width=0.4,color="grey75", fillcolor="white", style="filled"];
  Node35 -> Node21 [color="midnightblue",fontsize="10",style="solid",fontname="Helvetica"];
  Node1 -> Node41 [color="midnightblue",fontsize="10",style="solid",fontname="Helvetica"];
  Node41 [label="coreWxMitkGraphicalInterface.h",height=0.2,width=0.4,color="black", fillcolor="white", style="filled",URL="$coreWxMitkGraphicalInterface_8h.html"];
  Node41 -> Node10 [color="midnightblue",fontsize="10",style="solid",fontname="Helvetica"];
  Node41 -> Node36 [color="midnightblue",fontsize="10",style="solid",fontname="Helvetica"];
  Node41 -> Node42 [color="midnightblue",fontsize="10",style="solid",fontname="Helvetica"];
  Node42 [label="dynModuleExecutionImpl.h",height=0.2,width=0.4,color="black", fillcolor="white", style="filled",URL="$dynModuleExecutionImpl_8h.html"];
  Node42 -> Node43 [color="midnightblue",fontsize="10",style="solid",fontname="Helvetica"];
  Node43 [label="DynLibWin32Header.h",height=0.2,width=0.4,color="grey75", fillcolor="white", style="filled"];
  Node42 -> Node44 [color="midnightblue",fontsize="10",style="solid",fontname="Helvetica"];
  Node44 [label="ModuleDescription.h",height=0.2,width=0.4,color="grey75", fillcolor="white", style="filled"];
  Node42 -> Node16 [color="midnightblue",fontsize="10",style="solid",fontname="Helvetica"];
  Node42 -> Node45 [color="midnightblue",fontsize="10",style="solid",fontname="Helvetica"];
  Node45 [label="list",height=0.2,width=0.4,color="grey75", fillcolor="white", style="filled"];
  Node42 -> Node22 [color="midnightblue",fontsize="10",style="solid",fontname="Helvetica"];
  Node42 -> Node46 [color="midnightblue",fontsize="10",style="solid",fontname="Helvetica"];
  Node46 [label="dynUpdateCallback.h",height=0.2,width=0.4,color="black", fillcolor="white", style="filled",URL="$dynUpdateCallback_8h.html"];
  Node46 -> Node43 [color="midnightblue",fontsize="10",style="solid",fontname="Helvetica"];
  Node46 -> Node23 [color="midnightblue",fontsize="10",style="solid",fontname="Helvetica"];
  Node42 -> Node15 [color="midnightblue",fontsize="10",style="solid",fontname="Helvetica"];
  Node41 -> Node22 [color="midnightblue",fontsize="10",style="solid",fontname="Helvetica"];
  Node41 -> Node6 [color="midnightblue",fontsize="10",style="solid",fontname="Helvetica"];
  Node1 -> Node33 [color="midnightblue",fontsize="10",style="solid",fontname="Helvetica"];
  Node1 -> Node47 [color="midnightblue",fontsize="10",style="solid",fontname="Helvetica"];
  Node47 [label="coreException.h",height=0.2,width=0.4,color="black", fillcolor="white", style="filled",URL="$coreException_8h.html"];
  Node47 -> Node19 [color="midnightblue",fontsize="10",style="solid",fontname="Helvetica"];
  Node47 -> Node6 [color="midnightblue",fontsize="10",style="solid",fontname="Helvetica"];
  Node47 -> Node45 [color="midnightblue",fontsize="10",style="solid",fontname="Helvetica"];
  Node47 -> Node11 [color="midnightblue",fontsize="10",style="solid",fontname="Helvetica"];
  Node47 -> Node12 [color="midnightblue",fontsize="10",style="solid",fontname="Helvetica"];
  Node47 -> Node48 [color="midnightblue",fontsize="10",style="solid",fontname="Helvetica"];
  Node48 [label="coreCreateExceptionMacros.h",height=0.2,width=0.4,color="black", fillcolor="white", style="filled",URL="$coreCreateExceptionMacros_8h.html"];
  Node47 -> Node49 [color="midnightblue",fontsize="10",style="solid",fontname="Helvetica"];
  Node49 [label="coreBaseExceptions.h",height=0.2,width=0.4,color="black", fillcolor="white", style="filled",URL="$coreBaseExceptions_8h.html"];
  Node49 -> Node48 [color="midnightblue",fontsize="10",style="solid",fontname="Helvetica"];
  Node47 -> Node50 [color="midnightblue",fontsize="10",style="solid",fontname="Helvetica"];
  Node50 [label="coreExceptionMacros.h",height=0.2,width=0.4,color="black", fillcolor="white", style="filled",URL="$coreExceptionMacros_8h.html"];
  Node1 -> Node40 [color="midnightblue",fontsize="10",style="solid",fontname="Helvetica"];
}
