digraph "Apps/Plugins/MITKPlugin/widgets/RenderingTree/corePointSetRenDataBuilder.h"
{
  edge [fontname="Helvetica",fontsize="10",labelfontname="Helvetica",labelfontsize="10"];
  node [fontname="Helvetica",fontsize="10",shape=record];
  Node1 [label="Apps/Plugins/MITKPlugin\l/widgets/RenderingTree\l/corePointSetRenDataBuilder.h",height=0.2,width=0.4,color="black", fillcolor="grey75", style="filled", fontcolor="black"];
  Node1 -> Node2 [dir="back",color="midnightblue",fontsize="10",style="solid",fontname="Helvetica"];
  Node2 [label="Apps/Plugins/MITKPlugin\l/widgets/Interactors/corePoint\lInteractor.cxx",height=0.2,width=0.4,color="black", fillcolor="white", style="filled",URL="$corePointInteractor_8cxx.html"];
  Node1 -> Node3 [dir="back",color="midnightblue",fontsize="10",style="solid",fontname="Helvetica"];
  Node3 [label="Apps/Plugins/MITKPlugin\l/widgets/RenderingTree\l/corePointSetRenDataBuilder.cxx",height=0.2,width=0.4,color="black", fillcolor="white", style="filled",URL="$corePointSetRenDataBuilder_8cxx.html"];
  Node1 -> Node4 [dir="back",color="midnightblue",fontsize="10",style="solid",fontname="Helvetica"];
  Node4 [label="Apps/Plugins/MITKPlugin\l/widgets/RenderingTree\l/coreRenDataBuilder.cxx",height=0.2,width=0.4,color="black", fillcolor="white", style="filled",URL="$coreRenDataBuilder_8cxx.html"];
  Node1 -> Node5 [dir="back",color="midnightblue",fontsize="10",style="solid",fontname="Helvetica"];
  Node5 [label="Apps/Plugins/MITKPlugin\l/widgets/RenderingTree\l/coreRenDataFactory.cxx",height=0.2,width=0.4,color="black", fillcolor="white", style="filled",URL="$coreRenDataFactory_8cxx.html"];
}
