digraph "Apps/Plugins/MITKPlugin/widgets/PointsTableWidget/corePointsTableWidget.cxx"
{
  edge [fontname="Helvetica",fontsize="10",labelfontname="Helvetica",labelfontsize="10"];
  node [fontname="Helvetica",fontsize="10",shape=record];
  Node1 [label="Apps/Plugins/MITKPlugin\l/widgets/PointsTableWidget\l/corePointsTableWidget.cxx",height=0.2,width=0.4,color="black", fillcolor="grey75", style="filled", fontcolor="black"];
  Node1 -> Node2 [color="midnightblue",fontsize="10",style="solid",fontname="Helvetica"];
  Node2 [label="wx/wxprec.h",height=0.2,width=0.4,color="grey75", fillcolor="white", style="filled"];
  Node1 -> Node3 [color="midnightblue",fontsize="10",style="solid",fontname="Helvetica"];
  Node3 [label="wx/wx.h",height=0.2,width=0.4,color="grey75", fillcolor="white", style="filled"];
  Node1 -> Node4 [color="midnightblue",fontsize="10",style="solid",fontname="Helvetica"];
  Node4 [label="wxUnicode.h",height=0.2,width=0.4,color="black", fillcolor="white", style="filled",URL="$wxUnicode_8h.html"];
  Node4 -> Node5 [color="midnightblue",fontsize="10",style="solid",fontname="Helvetica"];
  Node5 [label="TpExtLibWxWidgetsWin32Header.h",height=0.2,width=0.4,color="grey75", fillcolor="white", style="filled"];
  Node4 -> Node6 [color="midnightblue",fontsize="10",style="solid",fontname="Helvetica"];
  Node6 [label="string",height=0.2,width=0.4,color="grey75", fillcolor="white", style="filled"];
  Node4 -> Node7 [color="midnightblue",fontsize="10",style="solid",fontname="Helvetica"];
  Node7 [label="wx/string.h",height=0.2,width=0.4,color="grey75", fillcolor="white", style="filled"];
  Node1 -> Node8 [color="midnightblue",fontsize="10",style="solid",fontname="Helvetica"];
  Node8 [label="corePointsTableWidget.h",height=0.2,width=0.4,color="black", fillcolor="white", style="filled",URL="$corePointsTableWidget_8h.html"];
  Node8 -> Node9 [color="midnightblue",fontsize="10",style="solid",fontname="Helvetica"];
  Node9 [label="wx/panel.h",height=0.2,width=0.4,color="grey75", fillcolor="white", style="filled"];
  Node8 -> Node6 [color="midnightblue",fontsize="10",style="solid",fontname="Helvetica"];
  Node8 -> Node10 [color="midnightblue",fontsize="10",style="solid",fontname="Helvetica"];
  Node10 [label="corePointsTableWidgetUI.h",height=0.2,width=0.4,color="black", fillcolor="white", style="filled",URL="$corePointsTableWidgetUI_8h.html"];
  Node10 -> Node3 [color="midnightblue",fontsize="10",style="solid",fontname="Helvetica"];
  Node10 -> Node11 [color="midnightblue",fontsize="10",style="solid",fontname="Helvetica"];
  Node11 [label="wx/image.h",height=0.2,width=0.4,color="grey75", fillcolor="white", style="filled"];
  Node10 -> Node12 [color="midnightblue",fontsize="10",style="solid",fontname="Helvetica"];
  Node12 [label="wxID.h",height=0.2,width=0.4,color="black", fillcolor="white", style="filled",URL="$wxID_8h.html"];
  Node12 -> Node6 [color="midnightblue",fontsize="10",style="solid",fontname="Helvetica"];
  Node12 -> Node5 [color="midnightblue",fontsize="10",style="solid",fontname="Helvetica"];
  Node10 -> Node13 [color="midnightblue",fontsize="10",style="solid",fontname="Helvetica"];
  Node13 [label="wx/listctrl.h",height=0.2,width=0.4,color="grey75", fillcolor="white", style="filled"];
  Node8 -> Node14 [color="midnightblue",fontsize="10",style="solid",fontname="Helvetica"];
  Node14 [label="coreDataEntityHolder.h",height=0.2,width=0.4,color="black", fillcolor="white", style="filled",URL="$coreDataEntityHolder_8h.html"];
  Node14 -> Node15 [color="midnightblue",fontsize="10",style="solid",fontname="Helvetica"];
  Node15 [label="gmDataHandlingWin32Header.h",height=0.2,width=0.4,color="grey75", fillcolor="white", style="filled"];
  Node14 -> Node16 [color="midnightblue",fontsize="10",style="solid",fontname="Helvetica"];
  Node16 [label="coreDataEntity.h",height=0.2,width=0.4,color="red", fillcolor="white", style="filled",URL="$coreDataEntity_8h.html"];
  Node16 -> Node15 [color="midnightblue",fontsize="10",style="solid",fontname="Helvetica"];
  Node16 -> Node17 [color="midnightblue",fontsize="10",style="solid",fontname="Helvetica"];
  Node17 [label="coreObject.h",height=0.2,width=0.4,color="red", fillcolor="white", style="filled",URL="$coreObject_8h.html"];
  Node17 -> Node18 [color="midnightblue",fontsize="10",style="solid",fontname="Helvetica"];
  Node18 [label="gmCommonObjectsWin32Header.h",height=0.2,width=0.4,color="grey75", fillcolor="white", style="filled"];
  Node17 -> Node19 [color="midnightblue",fontsize="10",style="solid",fontname="Helvetica"];
  Node19 [label="coreCommonMacros.h",height=0.2,width=0.4,color="black", fillcolor="white", style="filled",URL="$coreCommonMacros_8h.html"];
  Node17 -> Node20 [color="midnightblue",fontsize="10",style="solid",fontname="Helvetica"];
  Node20 [label="coreSmartPointerMacros.h",height=0.2,width=0.4,color="red", fillcolor="white", style="filled",URL="$coreSmartPointerMacros_8h.html"];
  Node20 -> Node19 [color="midnightblue",fontsize="10",style="solid",fontname="Helvetica"];
  Node17 -> Node21 [color="midnightblue",fontsize="10",style="solid",fontname="Helvetica"];
  Node21 [label="blTagMap.h",height=0.2,width=0.4,color="red", fillcolor="white", style="filled",URL="$blTagMap_8h.html"];
  Node21 -> Node6 [color="midnightblue",fontsize="10",style="solid",fontname="Helvetica"];
  Node21 -> Node22 [color="midnightblue",fontsize="10",style="solid",fontname="Helvetica"];
  Node22 [label="map",height=0.2,width=0.4,color="grey75", fillcolor="white", style="filled"];
  Node17 -> Node23 [color="midnightblue",fontsize="10",style="solid",fontname="Helvetica"];
  Node23 [label="itkLightObject.h",height=0.2,width=0.4,color="grey75", fillcolor="white", style="filled"];
  Node16 -> Node6 [color="midnightblue",fontsize="10",style="solid",fontname="Helvetica"];
  Node16 -> Node14 [color="midnightblue",fontsize="10",style="solid",fontname="Helvetica"];
  Node14 -> Node24 [color="midnightblue",fontsize="10",style="solid",fontname="Helvetica"];
  Node24 [label="coreDataHolder.h",height=0.2,width=0.4,color="red", fillcolor="white", style="filled",URL="$coreDataHolder_8h.html"];
  Node24 -> Node18 [color="midnightblue",fontsize="10",style="solid",fontname="Helvetica"];
  Node24 -> Node24 [color="midnightblue",fontsize="10",style="solid",fontname="Helvetica"];
  Node8 -> Node25 [color="midnightblue",fontsize="10",style="solid",fontname="Helvetica"];
  Node25 [label="coreCommonDataTypes.h",height=0.2,width=0.4,color="black", fillcolor="white", style="filled",URL="$coreCommonDataTypes_8h.html"];
  Node25 -> Node24 [color="midnightblue",fontsize="10",style="solid",fontname="Helvetica"];
  Node8 -> Node26 [color="midnightblue",fontsize="10",style="solid",fontname="Helvetica"];
  Node26 [label="boost/signal.hpp",height=0.2,width=0.4,color="grey75", fillcolor="white", style="filled"];
  Node1 -> Node27 [color="midnightblue",fontsize="10",style="solid",fontname="Helvetica"];
  Node27 [label="coreKernel.h",height=0.2,width=0.4,color="black", fillcolor="white", style="filled",URL="$coreKernel_8h.html"];
  Node27 -> Node17 [color="midnightblue",fontsize="10",style="solid",fontname="Helvetica"];
  Node27 -> Node28 [color="midnightblue",fontsize="10",style="solid",fontname="Helvetica"];
  Node28 [label="coreEnvironment.h",height=0.2,width=0.4,color="black", fillcolor="white", style="filled",URL="$coreEnvironment_8h.html"];
  Node28 -> Node29 [color="midnightblue",fontsize="10",style="solid",fontname="Helvetica"];
  Node29 [label="gmKernelWin32Header.h",height=0.2,width=0.4,color="grey75", fillcolor="white", style="filled"];
  Node28 -> Node17 [color="midnightblue",fontsize="10",style="solid",fontname="Helvetica"];
  Node28 -> Node16 [color="midnightblue",fontsize="10",style="solid",fontname="Helvetica"];
  Node28 -> Node24 [color="midnightblue",fontsize="10",style="solid",fontname="Helvetica"];
  Node28 -> Node6 [color="midnightblue",fontsize="10",style="solid",fontname="Helvetica"];
  Node27 -> Node30 [color="midnightblue",fontsize="10",style="solid",fontname="Helvetica"];
  Node30 [label="coreBaseFactory.h",height=0.2,width=0.4,color="black", fillcolor="white", style="filled",URL="$coreBaseFactory_8h.html"];
  Node30 -> Node18 [color="midnightblue",fontsize="10",style="solid",fontname="Helvetica"];
  Node30 -> Node19 [color="midnightblue",fontsize="10",style="solid",fontname="Helvetica"];
  Node30 -> Node20 [color="midnightblue",fontsize="10",style="solid",fontname="Helvetica"];
  Node30 -> Node17 [color="midnightblue",fontsize="10",style="solid",fontname="Helvetica"];
  Node27 -> Node31 [color="midnightblue",fontsize="10",style="solid",fontname="Helvetica"];
  Node31 [label="coreBaseMainWindow.h",height=0.2,width=0.4,color="red", fillcolor="white", style="filled",URL="$coreBaseMainWindow_8h.html"];
  Node31 -> Node6 [color="midnightblue",fontsize="10",style="solid",fontname="Helvetica"];
  Node31 -> Node32 [color="midnightblue",fontsize="10",style="solid",fontname="Helvetica"];
  Node32 [label="coreWindowConfig.h",height=0.2,width=0.4,color="black", fillcolor="white", style="filled",URL="$coreWindowConfig_8h.html"];
  Node32 -> Node6 [color="midnightblue",fontsize="10",style="solid",fontname="Helvetica"];
  Node32 -> Node29 [color="midnightblue",fontsize="10",style="solid",fontname="Helvetica"];
  Node31 -> Node33 [color="midnightblue",fontsize="10",style="solid",fontname="Helvetica"];
  Node33 [label="/home/el1mc/src/bitbucket\l/cistib/cilab-gimiax/src\l/Apps/Gimias/Core/Kernel\l/src/coreReportExceptionMacros.h",height=0.2,width=0.4,color="grey75", fillcolor="white", style="filled"];
  Node1 -> Node34 [color="midnightblue",fontsize="10",style="solid",fontname="Helvetica"];
  Node34 [label="coreDataEntityHelper.h",height=0.2,width=0.4,color="black", fillcolor="white", style="filled",URL="$coreDataEntityHelper_8h.html"];
  Node34 -> Node29 [color="midnightblue",fontsize="10",style="solid",fontname="Helvetica"];
  Node34 -> Node17 [color="midnightblue",fontsize="10",style="solid",fontname="Helvetica"];
  Node34 -> Node16 [color="midnightblue",fontsize="10",style="solid",fontname="Helvetica"];
  Node34 -> Node35 [color="midnightblue",fontsize="10",style="solid",fontname="Helvetica"];
  Node35 [label="list",height=0.2,width=0.4,color="grey75", fillcolor="white", style="filled"];
  Node34 -> Node36 [color="midnightblue",fontsize="10",style="solid",fontname="Helvetica"];
  Node36 [label="coreDataEntityHelper.txx",height=0.2,width=0.4,color="grey75", fillcolor="white", style="filled"];
  Node1 -> Node37 [color="midnightblue",fontsize="10",style="solid",fontname="Helvetica"];
  Node37 [label="coreMultiRenderWindow.h",height=0.2,width=0.4,color="black", fillcolor="white", style="filled",URL="$coreMultiRenderWindow_8h.html"];
  Node37 -> Node38 [color="midnightblue",fontsize="10",style="solid",fontname="Helvetica"];
  Node38 [label="coreRenderWindowBase.h",height=0.2,width=0.4,color="red", fillcolor="white", style="filled",URL="$coreRenderWindowBase_8h.html"];
  Node38 -> Node39 [color="midnightblue",fontsize="10",style="solid",fontname="Helvetica"];
  Node39 [label="gmWidgetsWin32Header.h",height=0.2,width=0.4,color="grey75", fillcolor="white", style="filled"];
  Node38 -> Node17 [color="midnightblue",fontsize="10",style="solid",fontname="Helvetica"];
  Node38 -> Node14 [color="midnightblue",fontsize="10",style="solid",fontname="Helvetica"];
  Node38 -> Node21 [color="midnightblue",fontsize="10",style="solid",fontname="Helvetica"];
  Node1 -> Node40 [color="midnightblue",fontsize="10",style="solid",fontname="Helvetica"];
  Node40 [label="coreWxMitkGraphicalInterface.h",height=0.2,width=0.4,color="black", fillcolor="white", style="filled",URL="$coreWxMitkGraphicalInterface_8h.html"];
  Node40 -> Node17 [color="midnightblue",fontsize="10",style="solid",fontname="Helvetica"];
  Node40 -> Node32 [color="midnightblue",fontsize="10",style="solid",fontname="Helvetica"];
  Node40 -> Node41 [color="midnightblue",fontsize="10",style="solid",fontname="Helvetica"];
  Node41 [label="dynModuleExecutionImpl.h",height=0.2,width=0.4,color="red", fillcolor="white", style="filled",URL="$dynModuleExecutionImpl_8h.html"];
  Node41 -> Node35 [color="midnightblue",fontsize="10",style="solid",fontname="Helvetica"];
  Node41 -> Node22 [color="midnightblue",fontsize="10",style="solid",fontname="Helvetica"];
  Node41 -> Node21 [color="midnightblue",fontsize="10",style="solid",fontname="Helvetica"];
  Node40 -> Node22 [color="midnightblue",fontsize="10",style="solid",fontname="Helvetica"];
  Node40 -> Node6 [color="midnightblue",fontsize="10",style="solid",fontname="Helvetica"];
  Node1 -> Node33 [color="midnightblue",fontsize="10",style="solid",fontname="Helvetica"];
  Node1 -> Node42 [color="midnightblue",fontsize="10",style="solid",fontname="Helvetica"];
  Node42 [label="coreVTKPolyDataHolder.h",height=0.2,width=0.4,color="black", fillcolor="white", style="filled",URL="$coreVTKPolyDataHolder_8h.html"];
  Node42 -> Node43 [color="midnightblue",fontsize="10",style="solid",fontname="Helvetica"];
  Node43 [label="corePluginMacros.h",height=0.2,width=0.4,color="black", fillcolor="white", style="filled",URL="$corePluginMacros_8h.html"];
  Node42 -> Node24 [color="midnightblue",fontsize="10",style="solid",fontname="Helvetica"];
  Node42 -> Node44 [color="midnightblue",fontsize="10",style="solid",fontname="Helvetica"];
  Node44 [label="vtkPolyData.h",height=0.2,width=0.4,color="grey75", fillcolor="white", style="filled"];
  Node42 -> Node45 [color="midnightblue",fontsize="10",style="solid",fontname="Helvetica"];
  Node45 [label="vtkSmartPointer.h",height=0.2,width=0.4,color="grey75", fillcolor="white", style="filled"];
  Node1 -> Node46 [color="midnightblue",fontsize="10",style="solid",fontname="Helvetica"];
  Node46 [label="coreStyleManager.h",height=0.2,width=0.4,color="black", fillcolor="white", style="filled",URL="$coreStyleManager_8h.html"];
  Node46 -> Node39 [color="midnightblue",fontsize="10",style="solid",fontname="Helvetica"];
  Node46 -> Node17 [color="midnightblue",fontsize="10",style="solid",fontname="Helvetica"];
  Node46 -> Node47 [color="midnightblue",fontsize="10",style="solid",fontname="Helvetica"];
  Node47 [label="wx/font.h",height=0.2,width=0.4,color="grey75", fillcolor="white", style="filled"];
  Node46 -> Node48 [color="midnightblue",fontsize="10",style="solid",fontname="Helvetica"];
  Node48 [label="wx/colour.h",height=0.2,width=0.4,color="grey75", fillcolor="white", style="filled"];
  Node1 -> Node49 [color="midnightblue",fontsize="10",style="solid",fontname="Helvetica"];
  Node49 [label="vtkStringArray.h",height=0.2,width=0.4,color="grey75", fillcolor="white", style="filled"];
  Node1 -> Node50 [color="midnightblue",fontsize="10",style="solid",fontname="Helvetica"];
  Node50 [label="vtkPointData.h",height=0.2,width=0.4,color="grey75", fillcolor="white", style="filled"];
}
