digraph "Apps/Plugins/MeshEditorPlugin/processors/coreDRRParams.h"
{
  edge [fontname="Helvetica",fontsize="10",labelfontname="Helvetica",labelfontsize="10"];
  node [fontname="Helvetica",fontsize="10",shape=record];
  Node1 [label="Apps/Plugins/MeshEditorPlugin\l/processors/coreDRRParams.h",height=0.2,width=0.4,color="black", fillcolor="grey75", style="filled", fontcolor="black"];
  Node1 -> Node2 [dir="back",color="midnightblue",fontsize="10",style="solid",fontname="Helvetica"];
  Node2 [label="Apps/Plugins/MeshEditorPlugin\l/processors/coreDRRVisualization\lProcessor.h",height=0.2,width=0.4,color="black", fillcolor="white", style="filled",URL="$coreDRRVisualizationProcessor_8h.html"];
  Node2 -> Node3 [dir="back",color="midnightblue",fontsize="10",style="solid",fontname="Helvetica"];
  Node3 [label="Apps/Plugins/MeshEditorPlugin\l/processors/coreDRRVisualization\lProcessor.cxx",height=0.2,width=0.4,color="black", fillcolor="white", style="filled",URL="$coreDRRVisualizationProcessor_8cxx.html"];
  Node2 -> Node4 [dir="back",color="midnightblue",fontsize="10",style="solid",fontname="Helvetica"];
  Node4 [label="Apps/Plugins/MeshEditorPlugin\l/widgets/RadiographVisualization\l/ptRadiographVisualizationWidget.h",height=0.2,width=0.4,color="black", fillcolor="white", style="filled",URL="$ptRadiographVisualizationWidget_8h.html"];
  Node4 -> Node5 [dir="back",color="midnightblue",fontsize="10",style="solid",fontname="Helvetica"];
  Node5 [label="Apps/Plugins/MeshEditorPlugin\l/widgets/RadiographVisualization\l/ptRadiographVisualizationWidget.cxx",height=0.2,width=0.4,color="black", fillcolor="white", style="filled",URL="$ptRadiographVisualizationWidget_8cxx.html"];
}
