digraph "Apps/Gimias/Core/Filtering/src/coreBaseFilterOutputPort.h"
{
  edge [fontname="Helvetica",fontsize="10",labelfontname="Helvetica",labelfontsize="10"];
  node [fontname="Helvetica",fontsize="10",shape=record];
  Node1 [label="Apps/Gimias/Core/Filtering\l/src/coreBaseFilterOutputPort.h",height=0.2,width=0.4,color="black", fillcolor="grey75", style="filled", fontcolor="black"];
  Node1 -> Node2 [dir="back",color="midnightblue",fontsize="10",style="solid",fontname="Helvetica"];
  Node2 [label="Apps/Gimias/Core/Filtering\l/src/coreBaseFilter.h",height=0.2,width=0.4,color="black", fillcolor="white", style="filled",URL="$coreBaseFilter_8h.html"];
  Node2 -> Node3 [dir="back",color="midnightblue",fontsize="10",style="solid",fontname="Helvetica"];
  Node3 [label="Apps/Gimias/Core/Filtering\l/src/coreBaseFilter.cxx",height=0.2,width=0.4,color="black", fillcolor="white", style="filled",URL="$coreBaseFilter_8cxx.html"];
  Node2 -> Node4 [dir="back",color="midnightblue",fontsize="10",style="solid",fontname="Helvetica"];
  Node4 [label="Apps/Gimias/Core/Filtering\l/src/coreBaseProcessor.h",height=0.2,width=0.4,color="red", fillcolor="white", style="filled",URL="$coreBaseProcessor_8h.html"];
  Node4 -> Node5 [dir="back",color="midnightblue",fontsize="10",style="solid",fontname="Helvetica"];
  Node5 [label="Apps/Gimias/Core/Filtering\l/src/coreBaseProcessor.cxx",height=0.2,width=0.4,color="black", fillcolor="white", style="filled",URL="$coreBaseProcessor_8cxx.html"];
  Node4 -> Node6 [dir="back",color="midnightblue",fontsize="10",style="solid",fontname="Helvetica"];
  Node6 [label="Apps/Gimias/Core/IO\l/src/coreBaseIO.h",height=0.2,width=0.4,color="red", fillcolor="white", style="filled",URL="$coreBaseIO_8h.html"];
  Node4 -> Node7 [dir="back",color="midnightblue",fontsize="10",style="solid",fontname="Helvetica"];
  Node7 [label="Apps/Gimias/Core/IO\l/src/coreDataEntityReader.h",height=0.2,width=0.4,color="red", fillcolor="white", style="filled",URL="$coreDataEntityReader_8h.html"];
  Node7 -> Node8 [dir="back",color="midnightblue",fontsize="10",style="solid",fontname="Helvetica"];
  Node8 [label="Apps/Gimias/Core/Kernel\l/gmKernelPCH.h",height=0.2,width=0.4,color="black", fillcolor="white", style="filled",URL="$gmKernelPCH_8h.html"];
  Node7 -> Node9 [dir="back",color="midnightblue",fontsize="10",style="solid",fontname="Helvetica"];
  Node9 [label="Apps/Gimias/GUI/Widgets\l/gmWidgetsPCH.h",height=0.2,width=0.4,color="black", fillcolor="white", style="filled",URL="$gmWidgetsPCH_8h.html"];
  Node4 -> Node10 [dir="back",color="midnightblue",fontsize="10",style="solid",fontname="Helvetica"];
  Node10 [label="Apps/Gimias/Core/IO\l/src/coreDataEntityWriter.h",height=0.2,width=0.4,color="red", fillcolor="white", style="filled",URL="$coreDataEntityWriter_8h.html"];
  Node10 -> Node8 [dir="back",color="midnightblue",fontsize="10",style="solid",fontname="Helvetica"];
  Node10 -> Node9 [dir="back",color="midnightblue",fontsize="10",style="solid",fontname="Helvetica"];
  Node4 -> Node11 [dir="back",color="midnightblue",fontsize="10",style="solid",fontname="Helvetica"];
  Node11 [label="Apps/Gimias/Core/Kernel\l/src/coreBaseWindow.h",height=0.2,width=0.4,color="red", fillcolor="white", style="filled",URL="$coreBaseWindow_8h.html"];
  Node11 -> Node9 [dir="back",color="midnightblue",fontsize="10",style="solid",fontname="Helvetica"];
  Node11 -> Node12 [dir="back",color="midnightblue",fontsize="10",style="solid",fontname="Helvetica"];
  Node12 [label="Apps/Gimias/GUI/Widgets\l/src/ProcessingToolbox\l/coreProcessingWidget.h",height=0.2,width=0.4,color="red", fillcolor="white", style="filled",URL="$coreProcessingWidget_8h.html"];
  Node12 -> Node13 [dir="back",color="midnightblue",fontsize="10",style="solid",fontname="Helvetica"];
  Node13 [label="Apps/Plugins/ImageToolsPlugin\l/ImageToolsPluginPCH.h",height=0.2,width=0.4,color="black", fillcolor="white", style="filled",URL="$ImageToolsPluginPCH_8h.html"];
  Node12 -> Node14 [dir="back",color="midnightblue",fontsize="10",style="solid",fontname="Helvetica"];
  Node14 [label="Apps/Plugins/MeshEditorPlugin\l/MeshEditorPluginPCH.h",height=0.2,width=0.4,color="black", fillcolor="white", style="filled",URL="$MeshEditorPluginPCH_8h.html"];
  Node11 -> Node15 [dir="back",color="midnightblue",fontsize="10",style="solid",fontname="Helvetica"];
  Node15 [label="Apps/Plugins/MITKPlugin\l/MITKPluginPCH.h",height=0.2,width=0.4,color="black", fillcolor="white", style="filled",URL="$MITKPluginPCH_8h.html"];
  Node4 -> Node16 [dir="back",color="midnightblue",fontsize="10",style="solid",fontname="Helvetica"];
  Node16 [label="Apps/Gimias/Core/Kernel\l/src/coreProcessorOutputsObserver\lBuilder.h",height=0.2,width=0.4,color="red", fillcolor="white", style="filled",URL="$coreProcessorOutputsObserverBuilder_8h.html"];
  Node16 -> Node9 [dir="back",color="midnightblue",fontsize="10",style="solid",fontname="Helvetica"];
  Node16 -> Node12 [dir="back",color="midnightblue",fontsize="10",style="solid",fontname="Helvetica"];
  Node4 -> Node17 [dir="back",color="midnightblue",fontsize="10",style="solid",fontname="Helvetica"];
  Node17 [label="Apps/Gimias/Core/Kernel\l/src/corePluginProvider.h",height=0.2,width=0.4,color="red", fillcolor="white", style="filled",URL="$corePluginProvider_8h.html"];
  Node4 -> Node18 [dir="back",color="midnightblue",fontsize="10",style="solid",fontname="Helvetica"];
  Node18 [label="Apps/Gimias/Core/Kernel\l/src/coreProcessorThread.h",height=0.2,width=0.4,color="red", fillcolor="white", style="filled",URL="$coreProcessorThread_8h.html"];
  Node4 -> Node19 [dir="back",color="midnightblue",fontsize="10",style="solid",fontname="Helvetica"];
  Node19 [label="Apps/Gimias/Core/Processors\l/src/coreDynProcessor.h",height=0.2,width=0.4,color="red", fillcolor="white", style="filled",URL="$coreDynProcessor_8h.html"];
  Node4 -> Node20 [dir="back",color="midnightblue",fontsize="10",style="solid",fontname="Helvetica"];
  Node20 [label="Apps/Gimias/Core/Processors\l/src/coreModuleExecutionProcessor.cxx",height=0.2,width=0.4,color="black", fillcolor="white", style="filled",URL="$coreModuleExecutionProcessor_8cxx.html"];
  Node4 -> Node9 [dir="back",color="midnightblue",fontsize="10",style="solid",fontname="Helvetica"];
  Node4 -> Node21 [dir="back",color="midnightblue",fontsize="10",style="solid",fontname="Helvetica"];
  Node21 [label="Apps/Gimias/GUI/Widgets\l/src/ProcessorWidgetsBuilder\l/coreProcessorWidgetsBuilder.h",height=0.2,width=0.4,color="red", fillcolor="white", style="filled",URL="$coreProcessorWidgetsBuilder_8h.html"];
  Node4 -> Node22 [dir="back",color="midnightblue",fontsize="10",style="solid",fontname="Helvetica"];
  Node22 [label="Apps/Gimias/GUI/Widgets\l/src/Workflow/coreModuleExecution\lWorkflow.cxx",height=0.2,width=0.4,color="black", fillcolor="white", style="filled",URL="$coreModuleExecutionWorkflow_8cxx.html"];
  Node4 -> Node23 [dir="back",color="midnightblue",fontsize="10",style="solid",fontname="Helvetica"];
  Node23 [label="Apps/Plugins/GenericSegmentation\lPlugin/processors/ConnectedThreshold\lProcessor.h",height=0.2,width=0.4,color="red", fillcolor="white", style="filled",URL="$ConnectedThresholdProcessor_8h.html"];
  Node4 -> Node24 [dir="back",color="midnightblue",fontsize="10",style="solid",fontname="Helvetica"];
  Node24 [label="Apps/Plugins/GenericSegmentation\lPlugin/processors/gspPhilipsSegmented\lScarMeshProcessor.h",height=0.2,width=0.4,color="red", fillcolor="white", style="filled",URL="$gspPhilipsSegmentedScarMeshProcessor_8h.html"];
  Node4 -> Node25 [dir="back",color="midnightblue",fontsize="10",style="solid",fontname="Helvetica"];
  Node25 [label="Apps/Plugins/GenericSegmentation\lPlugin/processors/gspPropagateLandmarks\lProcessor.h",height=0.2,width=0.4,color="red", fillcolor="white", style="filled",URL="$gspPropagateLandmarksProcessor_8h.html"];
  Node4 -> Node26 [dir="back",color="midnightblue",fontsize="10",style="solid",fontname="Helvetica"];
  Node26 [label="Apps/Plugins/GenericSegmentation\lPlugin/processors/ManualCorrections\lProcessor.h",height=0.2,width=0.4,color="red", fillcolor="white", style="filled",URL="$ManualCorrectionsProcessor_8h.html"];
  Node4 -> Node27 [dir="back",color="midnightblue",fontsize="10",style="solid",fontname="Helvetica"];
  Node27 [label="Apps/Plugins/GenericSegmentation\lPlugin/processors/MaskImageToROIImage\lProcessor.h",height=0.2,width=0.4,color="red", fillcolor="white", style="filled",URL="$MaskImageToROIImageProcessor_8h.html"];
  Node4 -> Node13 [dir="back",color="midnightblue",fontsize="10",style="solid",fontname="Helvetica"];
  Node4 -> Node28 [dir="back",color="midnightblue",fontsize="10",style="solid",fontname="Helvetica"];
  Node28 [label="Apps/Plugins/ImageToolsPlugin\l/processors/coreVolumeClippingProcessor.h",height=0.2,width=0.4,color="red", fillcolor="white", style="filled",URL="$coreVolumeClippingProcessor_8h.html"];
  Node4 -> Node14 [dir="back",color="midnightblue",fontsize="10",style="solid",fontname="Helvetica"];
  Node4 -> Node29 [dir="back",color="midnightblue",fontsize="10",style="solid",fontname="Helvetica"];
  Node29 [label="Apps/Plugins/MeshEditorPlugin\l/processors/coreCloseHolesProcessor.h",height=0.2,width=0.4,color="red", fillcolor="white", style="filled",URL="$coreCloseHolesProcessor_8h.html"];
  Node4 -> Node30 [dir="back",color="midnightblue",fontsize="10",style="solid",fontname="Helvetica"];
  Node30 [label="Apps/Plugins/MeshEditorPlugin\l/processors/coreDRRVisualization\lProcessor.h",height=0.2,width=0.4,color="red", fillcolor="white", style="filled",URL="$coreDRRVisualizationProcessor_8h.html"];
  Node4 -> Node31 [dir="back",color="midnightblue",fontsize="10",style="solid",fontname="Helvetica"];
  Node31 [label="Apps/Plugins/MeshEditorPlugin\l/processors/coreExtractSurfacesProcessor.h",height=0.2,width=0.4,color="red", fillcolor="white", style="filled",URL="$coreExtractSurfacesProcessor_8h.html"];
  Node4 -> Node32 [dir="back",color="midnightblue",fontsize="10",style="solid",fontname="Helvetica"];
  Node32 [label="Apps/Plugins/MeshEditorPlugin\l/processors/coreMeshStatisticsProcessor.h",height=0.2,width=0.4,color="red", fillcolor="white", style="filled",URL="$coreMeshStatisticsProcessor_8h.html"];
  Node4 -> Node33 [dir="back",color="midnightblue",fontsize="10",style="solid",fontname="Helvetica"];
  Node33 [label="Apps/Plugins/MeshEditorPlugin\l/processors/coreNetgenProcessor.h",height=0.2,width=0.4,color="red", fillcolor="white", style="filled",URL="$coreNetgenProcessor_8h.html"];
  Node4 -> Node34 [dir="back",color="midnightblue",fontsize="10",style="solid",fontname="Helvetica"];
  Node34 [label="Apps/Plugins/MeshEditorPlugin\l/processors/coreRingCutProcessor.h",height=0.2,width=0.4,color="red", fillcolor="white", style="filled",URL="$coreRingCutProcessor_8h.html"];
  Node4 -> Node35 [dir="back",color="midnightblue",fontsize="10",style="solid",fontname="Helvetica"];
  Node35 [label="Apps/Plugins/MeshEditorPlugin\l/processors/coreShapeScaleProcessor.h",height=0.2,width=0.4,color="red", fillcolor="white", style="filled",URL="$coreShapeScaleProcessor_8h.html"];
  Node4 -> Node36 [dir="back",color="midnightblue",fontsize="10",style="solid",fontname="Helvetica"];
  Node36 [label="Apps/Plugins/MeshEditorPlugin\l/processors/coreSkeletonCutProcessor.h",height=0.2,width=0.4,color="red", fillcolor="white", style="filled",URL="$coreSkeletonCutProcessor_8h.html"];
  Node4 -> Node37 [dir="back",color="midnightblue",fontsize="10",style="solid",fontname="Helvetica"];
  Node37 [label="Apps/Plugins/MeshEditorPlugin\l/processors/coreSurfaceInteractor\lProcessor.h",height=0.2,width=0.4,color="red", fillcolor="white", style="filled",URL="$coreSurfaceInteractorProcessor_8h.html"];
  Node4 -> Node38 [dir="back",color="midnightblue",fontsize="10",style="solid",fontname="Helvetica"];
  Node38 [label="Apps/Plugins/MeshEditorPlugin\l/processors/coreTetraGenerationProcessor.h",height=0.2,width=0.4,color="red", fillcolor="white", style="filled",URL="$coreTetraGenerationProcessor_8h.html"];
  Node4 -> Node39 [dir="back",color="midnightblue",fontsize="10",style="solid",fontname="Helvetica"];
  Node39 [label="Apps/Plugins/MeshEditorPlugin\l/processors/coreThresholdProcessor.h",height=0.2,width=0.4,color="red", fillcolor="white", style="filled",URL="$coreThresholdProcessor_8h.html"];
  Node4 -> Node15 [dir="back",color="midnightblue",fontsize="10",style="solid",fontname="Helvetica"];
  Node4 -> Node40 [dir="back",color="midnightblue",fontsize="10",style="solid",fontname="Helvetica"];
  Node40 [label="Apps/Plugins/SceneViewPlugin\l/processors/coreExecuteCommandProcessor.h",height=0.2,width=0.4,color="red", fillcolor="white", style="filled",URL="$coreExecuteCommandProcessor_8h.html"];
  Node4 -> Node41 [dir="back",color="midnightblue",fontsize="10",style="solid",fontname="Helvetica"];
  Node41 [label="Apps/Plugins/SignalViewer\lPlugin/processors/coreDoubleBanana\lProcessor.h",height=0.2,width=0.4,color="red", fillcolor="white", style="filled",URL="$coreDoubleBananaProcessor_8h.html"];
  Node4 -> Node42 [dir="back",color="midnightblue",fontsize="10",style="solid",fontname="Helvetica"];
  Node42 [label="Apps/Plugins/SignalViewer\lPlugin/processors/coreSignalESEDPropagation\lProcessor.h",height=0.2,width=0.4,color="red", fillcolor="white", style="filled",URL="$coreSignalESEDPropagationProcessor_8h.html"];
  Node4 -> Node43 [dir="back",color="midnightblue",fontsize="10",style="solid",fontname="Helvetica"];
  Node43 [label="Apps/Plugins/SignalViewer\lPlugin/processors/coreSignalTime\lPropagationProcessor.h",height=0.2,width=0.4,color="red", fillcolor="white", style="filled",URL="$coreSignalTimePropagationProcessor_8h.html"];
  Node2 -> Node44 [dir="back",color="midnightblue",fontsize="10",style="solid",fontname="Helvetica"];
  Node44 [label="Apps/Gimias/Core/IO\l/gmIOPCH.h",height=0.2,width=0.4,color="black", fillcolor="white", style="filled",URL="$gmIOPCH_8h.html"];
  Node2 -> Node8 [dir="back",color="midnightblue",fontsize="10",style="solid",fontname="Helvetica"];
  Node2 -> Node45 [dir="back",color="midnightblue",fontsize="10",style="solid",fontname="Helvetica"];
  Node45 [label="Apps/Gimias/Core/Processors\l/gmProcessorsPCH.h",height=0.2,width=0.4,color="black", fillcolor="white", style="filled",URL="$gmProcessorsPCH_8h.html"];
  Node2 -> Node9 [dir="back",color="midnightblue",fontsize="10",style="solid",fontname="Helvetica"];
  Node2 -> Node12 [dir="back",color="midnightblue",fontsize="10",style="solid",fontname="Helvetica"];
  Node2 -> Node13 [dir="back",color="midnightblue",fontsize="10",style="solid",fontname="Helvetica"];
  Node2 -> Node28 [dir="back",color="midnightblue",fontsize="10",style="solid",fontname="Helvetica"];
  Node2 -> Node14 [dir="back",color="midnightblue",fontsize="10",style="solid",fontname="Helvetica"];
  Node2 -> Node29 [dir="back",color="midnightblue",fontsize="10",style="solid",fontname="Helvetica"];
  Node2 -> Node30 [dir="back",color="midnightblue",fontsize="10",style="solid",fontname="Helvetica"];
  Node2 -> Node31 [dir="back",color="midnightblue",fontsize="10",style="solid",fontname="Helvetica"];
  Node2 -> Node46 [dir="back",color="midnightblue",fontsize="10",style="solid",fontname="Helvetica"];
  Node46 [label="Apps/Plugins/MeshEditorPlugin\l/processors/coreMeshCreationProcessor.h",height=0.2,width=0.4,color="red", fillcolor="white", style="filled",URL="$coreMeshCreationProcessor_8h.html"];
  Node2 -> Node32 [dir="back",color="midnightblue",fontsize="10",style="solid",fontname="Helvetica"];
  Node2 -> Node33 [dir="back",color="midnightblue",fontsize="10",style="solid",fontname="Helvetica"];
  Node2 -> Node34 [dir="back",color="midnightblue",fontsize="10",style="solid",fontname="Helvetica"];
  Node2 -> Node35 [dir="back",color="midnightblue",fontsize="10",style="solid",fontname="Helvetica"];
  Node2 -> Node36 [dir="back",color="midnightblue",fontsize="10",style="solid",fontname="Helvetica"];
  Node2 -> Node37 [dir="back",color="midnightblue",fontsize="10",style="solid",fontname="Helvetica"];
  Node2 -> Node38 [dir="back",color="midnightblue",fontsize="10",style="solid",fontname="Helvetica"];
  Node2 -> Node39 [dir="back",color="midnightblue",fontsize="10",style="solid",fontname="Helvetica"];
  Node2 -> Node15 [dir="back",color="midnightblue",fontsize="10",style="solid",fontname="Helvetica"];
  Node2 -> Node47 [dir="back",color="midnightblue",fontsize="10",style="solid",fontname="Helvetica"];
  Node47 [label="Apps/Plugins/MITKPlugin\l/widgets/RenderingTree\l/coreRenDataBuilder.h",height=0.2,width=0.4,color="red", fillcolor="white", style="filled",URL="$coreRenDataBuilder_8h.html"];
  Node47 -> Node48 [dir="back",color="midnightblue",fontsize="10",style="solid",fontname="Helvetica"];
  Node48 [label="Apps/Plugins/MITKPlugin\l/widgets/RenderingTree\l/coreRenDataFactory.h",height=0.2,width=0.4,color="red", fillcolor="white", style="filled",URL="$coreRenDataFactory_8h.html"];
  Node2 -> Node48 [dir="back",color="midnightblue",fontsize="10",style="solid",fontname="Helvetica"];
  Node2 -> Node40 [dir="back",color="midnightblue",fontsize="10",style="solid",fontname="Helvetica"];
  Node2 -> Node41 [dir="back",color="midnightblue",fontsize="10",style="solid",fontname="Helvetica"];
  Node2 -> Node49 [dir="back",color="midnightblue",fontsize="10",style="solid",fontname="Helvetica"];
  Node49 [label="Apps/Plugins/SignalViewer\lPlugin/processors/coreLandmark\lSelectorProcessor.h",height=0.2,width=0.4,color="red", fillcolor="white", style="filled",URL="$coreLandmarkSelectorProcessor_8h.html"];
  Node2 -> Node42 [dir="back",color="midnightblue",fontsize="10",style="solid",fontname="Helvetica"];
  Node2 -> Node43 [dir="back",color="midnightblue",fontsize="10",style="solid",fontname="Helvetica"];
  Node1 -> Node50 [dir="back",color="midnightblue",fontsize="10",style="solid",fontname="Helvetica"];
  Node50 [label="Apps/Gimias/Core/Filtering\l/src/coreBaseFilterOutputPort.cxx",height=0.2,width=0.4,color="black", fillcolor="white", style="filled",URL="$coreBaseFilterOutputPort_8cxx.html"];
}
