digraph "Apps/Gimias/GUI/Widgets/src/Workflow/coreTreeWorkflow.h"
{
  edge [fontname="Helvetica",fontsize="10",labelfontname="Helvetica",labelfontsize="10"];
  node [fontname="Helvetica",fontsize="10",shape=record];
  Node1 [label="Apps/Gimias/GUI/Widgets\l/src/Workflow/coreTreeWorkflow.h",height=0.2,width=0.4,color="black", fillcolor="grey75", style="filled", fontcolor="black"];
  Node1 -> Node2 [dir="back",color="midnightblue",fontsize="10",style="solid",fontname="Helvetica"];
  Node2 [label="Apps/Gimias/GUI/Widgets\l/src/Workflow/coreTreeWorkflow.cpp",height=0.2,width=0.4,color="black", fillcolor="white", style="filled",URL="$coreTreeWorkflow_8cpp.html"];
  Node1 -> Node3 [dir="back",color="midnightblue",fontsize="10",style="solid",fontname="Helvetica"];
  Node3 [label="Apps/Gimias/GUI/Widgets\l/src/Workflow/coreWorkflowEditor\lWidgetUI.h",height=0.2,width=0.4,color="black", fillcolor="white", style="filled",URL="$coreWorkflowEditorWidgetUI_8h.html"];
  Node3 -> Node4 [dir="back",color="midnightblue",fontsize="10",style="solid",fontname="Helvetica"];
  Node4 [label="Apps/Gimias/GUI/Widgets\l/src/Workflow/coreWorkflowEditor\lWidget.h",height=0.2,width=0.4,color="black", fillcolor="white", style="filled",URL="$coreWorkflowEditorWidget_8h.html"];
  Node4 -> Node5 [dir="back",color="midnightblue",fontsize="10",style="solid",fontname="Helvetica"];
  Node5 [label="Apps/Gimias/GUI/Widgets\l/src/Workflow/coreWorkflowEditor\lWidget.cpp",height=0.2,width=0.4,color="black", fillcolor="white", style="filled",URL="$coreWorkflowEditorWidget_8cpp.html"];
  Node4 -> Node6 [dir="back",color="midnightblue",fontsize="10",style="solid",fontname="Helvetica"];
  Node6 [label="Apps/Gimias/GUI/Widgets\l/src/Workflow/coreWorkflowManager\lWidget.cpp",height=0.2,width=0.4,color="black", fillcolor="white", style="filled",URL="$coreWorkflowManagerWidget_8cpp.html"];
  Node4 -> Node7 [dir="back",color="midnightblue",fontsize="10",style="solid",fontname="Helvetica"];
  Node7 [label="Apps/Gimias/GUI/Widgets\l/src/wxMitkCoreMainWindow\l/coreWxMitkCoreMainWindow.cxx",height=0.2,width=0.4,color="black", fillcolor="white", style="filled",URL="$coreWxMitkCoreMainWindow_8cxx.html"];
  Node3 -> Node8 [dir="back",color="midnightblue",fontsize="10",style="solid",fontname="Helvetica"];
  Node8 [label="Apps/Gimias/GUI/Widgets\l/src/Workflow/coreWorkflowEditor\lWidgetUI.cpp",height=0.2,width=0.4,color="black", fillcolor="white", style="filled",URL="$coreWorkflowEditorWidgetUI_8cpp.html"];
}
