digraph "Apps/Plugins/ImageToolsPlugin/processors/coreJoinImagesProcessor.h"
{
  edge [fontname="Helvetica",fontsize="10",labelfontname="Helvetica",labelfontsize="10"];
  node [fontname="Helvetica",fontsize="10",shape=record];
  Node1 [label="Apps/Plugins/ImageToolsPlugin\l/processors/coreJoinImagesProcessor.h",height=0.2,width=0.4,color="black", fillcolor="grey75", style="filled", fontcolor="black"];
  Node1 -> Node2 [dir="back",color="midnightblue",fontsize="10",style="solid",fontname="Helvetica"];
  Node2 [label="Apps/Plugins/ImageToolsPlugin\l/processors/coreJoinImagesProcessor.cxx",height=0.2,width=0.4,color="black", fillcolor="white", style="filled",URL="$coreJoinImagesProcessor_8cxx.html"];
  Node1 -> Node3 [dir="back",color="midnightblue",fontsize="10",style="solid",fontname="Helvetica"];
  Node3 [label="Apps/Plugins/ImageToolsPlugin\l/widgets/JoinImagesWidget\l/JoinImagesWidget.h",height=0.2,width=0.4,color="black", fillcolor="white", style="filled",URL="$JoinImagesWidget_8h.html"];
  Node3 -> Node4 [dir="back",color="midnightblue",fontsize="10",style="solid",fontname="Helvetica"];
  Node4 [label="Apps/Plugins/ImageToolsPlugin\l/itWidgetCollective.cxx",height=0.2,width=0.4,color="black", fillcolor="white", style="filled",URL="$itWidgetCollective_8cxx.html"];
  Node3 -> Node5 [dir="back",color="midnightblue",fontsize="10",style="solid",fontname="Helvetica"];
  Node5 [label="Apps/Plugins/ImageToolsPlugin\l/widgets/JoinImagesWidget\l/JoinImagesWidget.cxx",height=0.2,width=0.4,color="black", fillcolor="white", style="filled",URL="$JoinImagesWidget_8cxx.html"];
}
