digraph "Apps/Gimias/GUI/Widgets/src/Environment/coreWxEnvironment.h"
{
  edge [fontname="Helvetica",fontsize="10",labelfontname="Helvetica",labelfontsize="10"];
  node [fontname="Helvetica",fontsize="10",shape=record];
  Node1 [label="Apps/Gimias/GUI/Widgets\l/src/Environment/coreWxEnvironment.h",height=0.2,width=0.4,color="black", fillcolor="grey75", style="filled", fontcolor="black"];
  Node1 -> Node2 [dir="back",color="midnightblue",fontsize="10",style="solid",fontname="Helvetica"];
  Node2 [label="Apps/Gimias/GUI/MainApp\l/src/coreMainApp.h",height=0.2,width=0.4,color="black", fillcolor="white", style="filled",URL="$coreMainApp_8h.html"];
  Node2 -> Node3 [dir="back",color="midnightblue",fontsize="10",style="solid",fontname="Helvetica"];
  Node3 [label="Apps/Gimias/GUI/MainApp\l/src/coreMainApp.cxx",height=0.2,width=0.4,color="black", fillcolor="white", style="filled",URL="$coreMainApp_8cxx.html"];
  Node1 -> Node4 [dir="back",color="midnightblue",fontsize="10",style="solid",fontname="Helvetica"];
  Node4 [label="Apps/Gimias/GUI/Widgets\l/src/Environment/coreWxEnvironment.cxx",height=0.2,width=0.4,color="black", fillcolor="white", style="filled",URL="$coreWxEnvironment_8cxx.html"];
  Node1 -> Node5 [dir="back",color="midnightblue",fontsize="10",style="solid",fontname="Helvetica"];
  Node5 [label="Apps/Plugins/MITKPlugin\l/MITKEventFilter.h",height=0.2,width=0.4,color="black", fillcolor="white", style="filled",URL="$MITKEventFilter_8h.html"];
  Node5 -> Node6 [dir="back",color="midnightblue",fontsize="10",style="solid",fontname="Helvetica"];
  Node6 [label="Apps/Plugins/MITKPlugin\l/MITKEventFilter.cxx",height=0.2,width=0.4,color="black", fillcolor="white", style="filled",URL="$MITKEventFilter_8cxx.html"];
  Node5 -> Node7 [dir="back",color="midnightblue",fontsize="10",style="solid",fontname="Helvetica"];
  Node7 [label="Apps/Plugins/MITKPlugin\l/MITKPluginWidgetCollective.h",height=0.2,width=0.4,color="black", fillcolor="white", style="filled",URL="$MITKPluginWidgetCollective_8h.html"];
  Node7 -> Node8 [dir="back",color="midnightblue",fontsize="10",style="solid",fontname="Helvetica"];
  Node8 [label="Apps/Plugins/MITKPlugin\l/MITKPlugin.h",height=0.2,width=0.4,color="black", fillcolor="white", style="filled",URL="$MITKPlugin_8h.html"];
  Node8 -> Node9 [dir="back",color="midnightblue",fontsize="10",style="solid",fontname="Helvetica"];
  Node9 [label="Apps/Plugins/MITKPlugin\l/MITKPlugin.cxx",height=0.2,width=0.4,color="black", fillcolor="white", style="filled",URL="$MITKPlugin_8cxx.html"];
  Node7 -> Node10 [dir="back",color="midnightblue",fontsize="10",style="solid",fontname="Helvetica"];
  Node10 [label="Apps/Plugins/MITKPlugin\l/MITKPluginWidgetCollective.cxx",height=0.2,width=0.4,color="black", fillcolor="white", style="filled",URL="$MITKPluginWidgetCollective_8cxx.html"];
  Node5 -> Node10 [dir="back",color="midnightblue",fontsize="10",style="solid",fontname="Helvetica"];
  Node1 -> Node11 [dir="back",color="midnightblue",fontsize="10",style="solid",fontname="Helvetica"];
  Node11 [label="Apps/Plugins/MITKPlugin\l/tests/coreDataEntityTest.cpp",height=0.2,width=0.4,color="black", fillcolor="white", style="filled",URL="$coreDataEntityTest_8cpp.html"];
  Node1 -> Node12 [dir="back",color="midnightblue",fontsize="10",style="solid",fontname="Helvetica"];
  Node12 [label="Apps/Plugins/MITKPlugin\l/tests/coreTestDataEntity.cpp",height=0.2,width=0.4,color="black", fillcolor="white", style="filled",URL="$coreTestDataEntity_8cpp.html"];
}
