digraph "Apps/Gimias/Core/DataHandling/src/coreDataEntityBuildersRegistration.h"
{
  edge [fontname="Helvetica",fontsize="10",labelfontname="Helvetica",labelfontsize="10"];
  node [fontname="Helvetica",fontsize="10",shape=record];
  Node1 [label="Apps/Gimias/Core/DataHandling\l/src/coreDataEntityBuildersRegistration.h",height=0.2,width=0.4,color="black", fillcolor="grey75", style="filled", fontcolor="black"];
  Node1 -> Node2 [dir="back",color="midnightblue",fontsize="10",style="solid",fontname="Helvetica"];
  Node2 [label="Apps/Gimias/Core/DataHandling\l/src/coreDataEntityBuildersRegistration.cxx",height=0.2,width=0.4,color="black", fillcolor="white", style="filled",URL="$coreDataEntityBuildersRegistration_8cxx.html"];
  Node1 -> Node3 [dir="back",color="midnightblue",fontsize="10",style="solid",fontname="Helvetica"];
  Node3 [label="Apps/Gimias/Core/Kernel\l/gmKernelPCH.h",height=0.2,width=0.4,color="black", fillcolor="white", style="filled",URL="$gmKernelPCH_8h.html"];
  Node1 -> Node4 [dir="back",color="midnightblue",fontsize="10",style="solid",fontname="Helvetica"];
  Node4 [label="Apps/Gimias/Core/Kernel\l/src/coreKernel.cxx",height=0.2,width=0.4,color="black", fillcolor="white", style="filled",URL="$coreKernel_8cxx.html"];
  Node1 -> Node5 [dir="back",color="midnightblue",fontsize="10",style="solid",fontname="Helvetica"];
  Node5 [label="Apps/Gimias/GUI/MainApp\l/gmMainAppPCH.h",height=0.2,width=0.4,color="black", fillcolor="white", style="filled",URL="$gmMainAppPCH_8h.html"];
  Node1 -> Node6 [dir="back",color="midnightblue",fontsize="10",style="solid",fontname="Helvetica"];
  Node6 [label="Apps/Gimias/GUI/MainApp\l/src/coreMainApp.cxx",height=0.2,width=0.4,color="black", fillcolor="white", style="filled",URL="$coreMainApp_8cxx.html"];
  Node1 -> Node7 [dir="back",color="midnightblue",fontsize="10",style="solid",fontname="Helvetica"];
  Node7 [label="Apps/Plugins/MITKPlugin\l/tests/coreDataEntityTest.cpp",height=0.2,width=0.4,color="black", fillcolor="white", style="filled",URL="$coreDataEntityTest_8cpp.html"];
}
