digraph "Apps/Gimias/GUI/Widgets/src/MultiRenderWindow/coreDataTreeHelper.h"
{
  edge [fontname="Helvetica",fontsize="10",labelfontname="Helvetica",labelfontsize="10"];
  node [fontname="Helvetica",fontsize="10",shape=record];
  Node1 [label="Apps/Gimias/GUI/Widgets\l/src/MultiRenderWindow\l/coreDataTreeHelper.h",height=0.2,width=0.4,color="black", fillcolor="grey75", style="filled", fontcolor="black"];
  Node1 -> Node2 [dir="back",color="midnightblue",fontsize="10",style="solid",fontname="Helvetica"];
  Node2 [label="Apps/Gimias/GUI/MainApp\l/gmMainAppPCH.h",height=0.2,width=0.4,color="black", fillcolor="white", style="filled",URL="$gmMainAppPCH_8h.html"];
  Node1 -> Node3 [dir="back",color="midnightblue",fontsize="10",style="solid",fontname="Helvetica"];
  Node3 [label="Apps/Gimias/GUI/MainApp\l/src/coreMainApp.cxx",height=0.2,width=0.4,color="black", fillcolor="white", style="filled",URL="$coreMainApp_8cxx.html"];
  Node1 -> Node4 [dir="back",color="midnightblue",fontsize="10",style="solid",fontname="Helvetica"];
  Node4 [label="Apps/Gimias/GUI/Widgets\l/src/MultiRenderWindow\l/coreDataTreeHelper.cxx",height=0.2,width=0.4,color="black", fillcolor="white", style="filled",URL="$coreDataTreeHelper_8cxx.html"];
  Node1 -> Node5 [dir="back",color="midnightblue",fontsize="10",style="solid",fontname="Helvetica"];
  Node5 [label="Apps/Gimias/GUI/Widgets\l/src/Workflow/coreModuleExecution\lWorkflow.cxx",height=0.2,width=0.4,color="black", fillcolor="white", style="filled",URL="$coreModuleExecutionWorkflow_8cxx.html"];
  Node1 -> Node6 [dir="back",color="midnightblue",fontsize="10",style="solid",fontname="Helvetica"];
  Node6 [label="Apps/Gimias/GUI/Widgets\l/src/wxMitkCoreMainWindow\l/coreMainMenu.cxx",height=0.2,width=0.4,color="black", fillcolor="white", style="filled",URL="$coreMainMenu_8cxx.html"];
  Node1 -> Node7 [dir="back",color="midnightblue",fontsize="10",style="solid",fontname="Helvetica"];
  Node7 [label="Apps/Plugins/GenericSegmentation\lPlugin/widgets/ConnectedThresholdWidget\l/ConnectedThresholdWidget.cpp",height=0.2,width=0.4,color="black", fillcolor="white", style="filled",URL="$ConnectedThresholdWidget_8cpp.html"];
  Node1 -> Node8 [dir="back",color="midnightblue",fontsize="10",style="solid",fontname="Helvetica"];
  Node8 [label="Apps/Plugins/GenericSegmentation\lPlugin/widgets/Generate3DRoiPanelWidget\l/GenerateSpherePanelWidget.cpp",height=0.2,width=0.4,color="black", fillcolor="white", style="filled",URL="$GenerateSpherePanelWidget_8cpp.html"];
  Node1 -> Node9 [dir="back",color="midnightblue",fontsize="10",style="solid",fontname="Helvetica"];
  Node9 [label="Apps/Plugins/GenericSegmentation\lPlugin/widgets/Generate3DRoiPanelWidget\l/SurfaceDeformationPanelWidget.cpp",height=0.2,width=0.4,color="black", fillcolor="white", style="filled",URL="$SurfaceDeformationPanelWidget_8cpp.html"];
  Node1 -> Node10 [dir="back",color="midnightblue",fontsize="10",style="solid",fontname="Helvetica"];
  Node10 [label="Apps/Plugins/GenericSegmentation\lPlugin/widgets/Generate3DRoiPanelWidget\l/SurfDeformInteractorHelper.cpp",height=0.2,width=0.4,color="black", fillcolor="white", style="filled",URL="$SurfDeformInteractorHelper_8cpp.html"];
  Node1 -> Node11 [dir="back",color="midnightblue",fontsize="10",style="solid",fontname="Helvetica"];
  Node11 [label="Apps/Plugins/GenericSegmentation\lPlugin/widgets/GenericSegmentation\lPluginBetweenModalitiesTransformPanelWidget\l/GenericSegmentationPluginBetweenModalitiesTransform\lPanelWidget.cpp",height=0.2,width=0.4,color="black", fillcolor="white", style="filled",URL="$GenericSegmentationPluginBetweenModalitiesTransformPanelWidget_8cpp.html"];
  Node1 -> Node12 [dir="back",color="midnightblue",fontsize="10",style="solid",fontname="Helvetica"];
  Node12 [label="Apps/Plugins/GenericSegmentation\lPlugin/widgets/GenericSegmentation\lPluginPhilipsSegmentedScarMeshPanelWidget\l/GenericSegmentationPluginPhilipsSegmentedScarMesh\lPanelWidget.cpp",height=0.2,width=0.4,color="black", fillcolor="white", style="filled",URL="$GenericSegmentationPluginPhilipsSegmentedScarMeshPanelWidget_8cpp.html"];
  Node1 -> Node13 [dir="back",color="midnightblue",fontsize="10",style="solid",fontname="Helvetica"];
  Node13 [label="Apps/Plugins/GenericSegmentation\lPlugin/widgets/GenericSegmentation\lPluginPropagateLandmarksPanelWidget\l/GenericSegmentationPluginPropagateLandmarks\lPanelWidget.cpp",height=0.2,width=0.4,color="black", fillcolor="white", style="filled",URL="$GenericSegmentationPluginPropagateLandmarksPanelWidget_8cpp.html"];
  Node1 -> Node14 [dir="back",color="midnightblue",fontsize="10",style="solid",fontname="Helvetica"];
  Node14 [label="Apps/Plugins/GenericSegmentation\lPlugin/widgets/gspPhilipsSegmented\lScarMeshPanelWidget/gspPhilipsSegmentedScar\lMeshPanelWidget.cpp",height=0.2,width=0.4,color="black", fillcolor="white", style="filled",URL="$gspPhilipsSegmentedScarMeshPanelWidget_8cpp.html"];
  Node1 -> Node15 [dir="back",color="midnightblue",fontsize="10",style="solid",fontname="Helvetica"];
  Node15 [label="Apps/Plugins/GenericSegmentation\lPlugin/widgets/gspPropagateLandmarks\lPanelWidget/gspPropagateLandmarksPanelWidget.cpp",height=0.2,width=0.4,color="black", fillcolor="white", style="filled",URL="$gspPropagateLandmarksPanelWidget_8cpp.html"];
  Node1 -> Node16 [dir="back",color="midnightblue",fontsize="10",style="solid",fontname="Helvetica"];
  Node16 [label="Apps/Plugins/GenericSegmentation\lPlugin/widgets/ManualCorrectionWidget\l/ManualCorrectionsPanelWidget.cpp",height=0.2,width=0.4,color="black", fillcolor="white", style="filled",URL="$ManualCorrectionsPanelWidget_8cpp.html"];
  Node1 -> Node17 [dir="back",color="midnightblue",fontsize="10",style="solid",fontname="Helvetica"];
  Node17 [label="Apps/Plugins/GenericSegmentation\lPlugin/widgets/MaskImageToROIImage\lWidget/MaskImageToROIImageWidget.cpp",height=0.2,width=0.4,color="black", fillcolor="white", style="filled",URL="$MaskImageToROIImageWidget_8cpp.html"];
  Node1 -> Node18 [dir="back",color="midnightblue",fontsize="10",style="solid",fontname="Helvetica"];
  Node18 [label="Apps/Plugins/GenericSegmentation\lPlugin/widgets/MoveDataPanelWidget\l/MoveDataPanelWidget.cpp",height=0.2,width=0.4,color="black", fillcolor="white", style="filled",URL="$MoveDataPanelWidget_8cpp.html"];
  Node1 -> Node19 [dir="back",color="midnightblue",fontsize="10",style="solid",fontname="Helvetica"];
  Node19 [label="Apps/Plugins/GenericSegmentation\lPlugin/widgets/MoveDataPanelWidget\l/MoveImageAndMeshInteractorHelper.cpp",height=0.2,width=0.4,color="black", fillcolor="white", style="filled",URL="$MoveImageAndMeshInteractorHelper_8cpp.html"];
  Node1 -> Node20 [dir="back",color="midnightblue",fontsize="10",style="solid",fontname="Helvetica"];
  Node20 [label="Apps/Plugins/GenericSegmentation\lPlugin/widgets/OtsuWidget\l/OtsuWidget.cpp",height=0.2,width=0.4,color="black", fillcolor="white", style="filled",URL="$OtsuWidget_8cpp.html"];
  Node1 -> Node21 [dir="back",color="midnightblue",fontsize="10",style="solid",fontname="Helvetica"];
  Node21 [label="Apps/Plugins/GenericSegmentation\lPlugin/widgets/RegionGrowWidget\l/RegionGrowWidget.cpp",height=0.2,width=0.4,color="black", fillcolor="white", style="filled",URL="$RegionGrowWidget_8cpp.html"];
  Node1 -> Node22 [dir="back",color="midnightblue",fontsize="10",style="solid",fontname="Helvetica"];
  Node22 [label="Apps/Plugins/GenericSegmentation\lPlugin/widgets/ThresholdPhilipsPanel\lWidget/ThresholdPhilipsPanelWidget.cpp",height=0.2,width=0.4,color="black", fillcolor="white", style="filled",URL="$ThresholdPhilipsPanelWidget_8cpp.html"];
  Node1 -> Node23 [dir="back",color="midnightblue",fontsize="10",style="solid",fontname="Helvetica"];
  Node23 [label="Apps/Plugins/GenericSegmentation\lPlugin/widgets/ThresholdWidget\l/ThresholdWidget.cpp",height=0.2,width=0.4,color="black", fillcolor="white", style="filled",URL="$ThresholdWidget_8cpp.html"];
  Node1 -> Node24 [dir="back",color="midnightblue",fontsize="10",style="solid",fontname="Helvetica"];
  Node24 [label="Apps/Plugins/GenericSegmentation\lPlugin/widgets/TransformationBoxWidget\l/TransformationBoxPanelWidget.cpp",height=0.2,width=0.4,color="black", fillcolor="white", style="filled",URL="$TransformationBoxPanelWidget_8cpp.html"];
  Node1 -> Node25 [dir="back",color="midnightblue",fontsize="10",style="solid",fontname="Helvetica"];
  Node25 [label="Apps/Plugins/GenericSegmentation\lPlugin/widgets/VtkConnectedThreshold\lWidget/VtkConnectedThresholdPanelWidget.cpp",height=0.2,width=0.4,color="black", fillcolor="white", style="filled",URL="$VtkConnectedThresholdPanelWidget_8cpp.html"];
  Node1 -> Node26 [dir="back",color="midnightblue",fontsize="10",style="solid",fontname="Helvetica"];
  Node26 [label="Apps/Plugins/ImageToolsPlugin\l/ImageToolsPluginPCH.h",height=0.2,width=0.4,color="black", fillcolor="white", style="filled",URL="$ImageToolsPluginPCH_8h.html"];
  Node1 -> Node27 [dir="back",color="midnightblue",fontsize="10",style="solid",fontname="Helvetica"];
  Node27 [label="Apps/Plugins/ImageToolsPlugin\l/widgets/ImageContrastWidget\l/coreImageContrastWidget.cxx",height=0.2,width=0.4,color="black", fillcolor="white", style="filled",URL="$coreImageContrastWidget_8cxx.html"];
  Node1 -> Node28 [dir="back",color="midnightblue",fontsize="10",style="solid",fontname="Helvetica"];
  Node28 [label="Apps/Plugins/ImageToolsPlugin\l/widgets/JoinImagesWidget\l/JoinImagesWidget.cxx",height=0.2,width=0.4,color="black", fillcolor="white", style="filled",URL="$JoinImagesWidget_8cxx.html"];
  Node1 -> Node29 [dir="back",color="midnightblue",fontsize="10",style="solid",fontname="Helvetica"];
  Node29 [label="Apps/Plugins/ImageToolsPlugin\l/widgets/SetSpacingWidget\l/ptSetSpacingWidget.cxx",height=0.2,width=0.4,color="black", fillcolor="white", style="filled",URL="$ptSetSpacingWidget_8cxx.html"];
  Node1 -> Node30 [dir="back",color="midnightblue",fontsize="10",style="solid",fontname="Helvetica"];
  Node30 [label="Apps/Plugins/ManualSegmentation\lPlugin/ManualSegmentationPluginPCH.h",height=0.2,width=0.4,color="black", fillcolor="white", style="filled",URL="$ManualSegmentationPluginPCH_8h.html"];
  Node1 -> Node31 [dir="back",color="midnightblue",fontsize="10",style="solid",fontname="Helvetica"];
  Node31 [label="Apps/Plugins/ManualSegmentation\lPlugin/processors/coreContourInteractor.cxx",height=0.2,width=0.4,color="black", fillcolor="white", style="filled",URL="$coreContourInteractor_8cxx.html"];
  Node1 -> Node32 [dir="back",color="midnightblue",fontsize="10",style="solid",fontname="Helvetica"];
  Node32 [label="Apps/Plugins/ManualSegmentation\lPlugin/processors/InteractiveSegmInteractor.cxx",height=0.2,width=0.4,color="black", fillcolor="white", style="filled",URL="$InteractiveSegmInteractor_8cxx.html"];
  Node1 -> Node33 [dir="back",color="midnightblue",fontsize="10",style="solid",fontname="Helvetica"];
  Node33 [label="Apps/Plugins/ManualSegmentation\lPlugin/widgets/ManualSegmentationWidget\l/ManualSegmentationPanelWidget.cpp",height=0.2,width=0.4,color="black", fillcolor="white", style="filled",URL="$ManualSegmentationPanelWidget_8cpp.html"];
  Node1 -> Node34 [dir="back",color="midnightblue",fontsize="10",style="solid",fontname="Helvetica"];
  Node34 [label="Apps/Plugins/ManualSegmentation\lPlugin/widgets/MultiLevelROIPanelWidget\l/MultiLevelROIPanelWidget.cpp",height=0.2,width=0.4,color="black", fillcolor="white", style="filled",URL="$MultiLevelROIPanelWidget_8cpp.html"];
  Node1 -> Node35 [dir="back",color="midnightblue",fontsize="10",style="solid",fontname="Helvetica"];
  Node35 [label="Apps/Plugins/MeshEditorPlugin\l/MeshEditorPluginPCH.h",height=0.2,width=0.4,color="black", fillcolor="white", style="filled",URL="$MeshEditorPluginPCH_8h.html"];
  Node1 -> Node36 [dir="back",color="midnightblue",fontsize="10",style="solid",fontname="Helvetica"];
  Node36 [label="Apps/Plugins/MeshEditorPlugin\l/processors/coreSurfaceInteractor.cxx",height=0.2,width=0.4,color="black", fillcolor="white", style="filled",URL="$coreSurfaceInteractor_8cxx.html"];
  Node1 -> Node37 [dir="back",color="midnightblue",fontsize="10",style="solid",fontname="Helvetica"];
  Node37 [label="Apps/Plugins/MeshEditorPlugin\l/widgets/BooleanOperationsWidget\l/BooleanOperationsPanelWidget.cpp",height=0.2,width=0.4,color="black", fillcolor="white", style="filled",URL="$BooleanOperationsPanelWidget_8cpp.html"];
  Node1 -> Node38 [dir="back",color="midnightblue",fontsize="10",style="solid",fontname="Helvetica"];
  Node38 [label="Apps/Plugins/MeshEditorPlugin\l/widgets/ExtractSurfacesWidget\l/ptExtractMainSurfacePanelWidget.cpp",height=0.2,width=0.4,color="black", fillcolor="white", style="filled",URL="$ExtractSurfacesWidget_2ptExtractMainSurfacePanelWidget_8cpp.html"];
  Node1 -> Node39 [dir="back",color="midnightblue",fontsize="10",style="solid",fontname="Helvetica"];
  Node39 [label="Apps/Plugins/MeshEditorPlugin\l/widgets/ManualNeckCuttingWidget\l/ManualNeckCuttingPanelWidget.cpp",height=0.2,width=0.4,color="black", fillcolor="white", style="filled",URL="$ManualNeckCuttingPanelWidget_8cpp.html"];
  Node1 -> Node40 [dir="back",color="midnightblue",fontsize="10",style="solid",fontname="Helvetica"];
  Node40 [label="Apps/Plugins/MeshEditorPlugin\l/widgets/RadiographVisualization\l/ptRadiographVisualizationWidget.cxx",height=0.2,width=0.4,color="black", fillcolor="white", style="filled",URL="$ptRadiographVisualizationWidget_8cxx.html"];
  Node1 -> Node41 [dir="back",color="midnightblue",fontsize="10",style="solid",fontname="Helvetica"];
  Node41 [label="Apps/Plugins/MeshEditorPlugin\l/widgets/SurfaceSelectorWidget\l/coreSurfaceSelectorWidget.cxx",height=0.2,width=0.4,color="black", fillcolor="white", style="filled",URL="$coreSurfaceSelectorWidget_8cxx.html"];
  Node1 -> Node42 [dir="back",color="midnightblue",fontsize="10",style="solid",fontname="Helvetica"];
  Node42 [label="Apps/Plugins/MITKPlugin\l/MITKPluginPCH.h",height=0.2,width=0.4,color="black", fillcolor="white", style="filled",URL="$MITKPluginPCH_8h.html"];
  Node1 -> Node43 [dir="back",color="midnightblue",fontsize="10",style="solid",fontname="Helvetica"];
  Node43 [label="Apps/Plugins/MITKPlugin\l/widgets/BoundingBoxWidget\l/coreBBoxWidget.cxx",height=0.2,width=0.4,color="black", fillcolor="white", style="filled",URL="$coreBBoxWidget_8cxx.html"];
  Node1 -> Node44 [dir="back",color="midnightblue",fontsize="10",style="solid",fontname="Helvetica"];
  Node44 [label="Apps/Plugins/MITKPlugin\l/widgets/CroppingWidget\l/ptCroppingWidget.cxx",height=0.2,width=0.4,color="black", fillcolor="white", style="filled",URL="$ptCroppingWidget_8cxx.html"];
  Node1 -> Node45 [dir="back",color="midnightblue",fontsize="10",style="solid",fontname="Helvetica"];
  Node45 [label="Apps/Plugins/MITKPlugin\l/widgets/LandmarkSelectorWidget\l/coreLandmarkSelectorWidget.cxx",height=0.2,width=0.4,color="black", fillcolor="white", style="filled",URL="$coreLandmarkSelectorWidget_8cxx.html"];
  Node1 -> Node46 [dir="back",color="midnightblue",fontsize="10",style="solid",fontname="Helvetica"];
  Node46 [label="Apps/Plugins/SandboxPlugin\l/SandboxPluginPCH.h",height=0.2,width=0.4,color="black", fillcolor="white", style="filled",URL="$SandboxPluginPCH_8h.html"];
  Node1 -> Node47 [dir="back",color="midnightblue",fontsize="10",style="solid",fontname="Helvetica"];
  Node47 [label="Apps/Plugins/SignalViewer\lPlugin/SignalViewerPluginPCH.h",height=0.2,width=0.4,color="black", fillcolor="white", style="filled",URL="$SignalViewerPluginPCH_8h.html"];
}
