digraph "Apps/Plugins/MITKPlugin/widgets/BoundingBoxWidget/coreBoundingBox.cxx"
{
  edge [fontname="Helvetica",fontsize="10",labelfontname="Helvetica",labelfontsize="10"];
  node [fontname="Helvetica",fontsize="10",shape=record];
  Node1 [label="Apps/Plugins/MITKPlugin\l/widgets/BoundingBoxWidget\l/coreBoundingBox.cxx",height=0.2,width=0.4,color="black", fillcolor="grey75", style="filled", fontcolor="black"];
  Node1 -> Node2 [color="midnightblue",fontsize="10",style="solid",fontname="Helvetica"];
  Node2 [label="coreBoundingBox.h",height=0.2,width=0.4,color="black", fillcolor="white", style="filled",URL="$coreBoundingBox_8h.html"];
  Node2 -> Node3 [color="midnightblue",fontsize="10",style="solid",fontname="Helvetica"];
  Node3 [label="itkImageBase.h",height=0.2,width=0.4,color="grey75", fillcolor="white", style="filled"];
  Node2 -> Node4 [color="midnightblue",fontsize="10",style="solid",fontname="Helvetica"];
  Node4 [label="itkImageRegion.h",height=0.2,width=0.4,color="grey75", fillcolor="white", style="filled"];
  Node2 -> Node5 [color="midnightblue",fontsize="10",style="solid",fontname="Helvetica"];
  Node5 [label="CILabItkMacros.h",height=0.2,width=0.4,color="black", fillcolor="white", style="filled",URL="$CILabItkMacros_8h.html"];
  Node2 -> Node6 [color="midnightblue",fontsize="10",style="solid",fontname="Helvetica"];
  Node6 [label="corePluginMacros.h",height=0.2,width=0.4,color="black", fillcolor="white", style="filled",URL="$corePluginMacros_8h.html"];
  Node1 -> Node7 [color="midnightblue",fontsize="10",style="solid",fontname="Helvetica"];
  Node7 [label="blNumericUtils.h",height=0.2,width=0.4,color="black", fillcolor="white", style="filled",URL="$blNumericUtils_8h.html"];
}
