digraph "Apps/Gimias/Core/Kernel/src/coreBaseWindowFactorySearch.h"
{
  edge [fontname="Helvetica",fontsize="10",labelfontname="Helvetica",labelfontsize="10"];
  node [fontname="Helvetica",fontsize="10",shape=record];
  Node1 [label="Apps/Gimias/Core/Kernel\l/src/coreBaseWindowFactorySearch.h",height=0.2,width=0.4,color="black", fillcolor="grey75", style="filled", fontcolor="black"];
  Node1 -> Node2 [dir="back",color="midnightblue",fontsize="10",style="solid",fontname="Helvetica"];
  Node2 [label="Apps/Gimias/Core/Kernel\l/src/coreBaseWindow.cxx",height=0.2,width=0.4,color="black", fillcolor="white", style="filled",URL="$coreBaseWindow_8cxx.html"];
  Node1 -> Node3 [dir="back",color="midnightblue",fontsize="10",style="solid",fontname="Helvetica"];
  Node3 [label="Apps/Gimias/Core/Kernel\l/src/coreBaseWindowFactorySearch.cxx",height=0.2,width=0.4,color="black", fillcolor="white", style="filled",URL="$coreBaseWindowFactorySearch_8cxx.html"];
  Node1 -> Node4 [dir="back",color="midnightblue",fontsize="10",style="solid",fontname="Helvetica"];
  Node4 [label="Apps/Gimias/GUI/Widgets\l/src/DataEntityInformation\l/coreDataEntityInformation.cxx",height=0.2,width=0.4,color="black", fillcolor="white", style="filled",URL="$coreDataEntityInformation_8cxx.html"];
  Node1 -> Node5 [dir="back",color="midnightblue",fontsize="10",style="solid",fontname="Helvetica"];
  Node5 [label="Apps/Gimias/GUI/Widgets\l/src/MultiRenderWindow\l/coreRenderWindowConfig.cxx",height=0.2,width=0.4,color="black", fillcolor="white", style="filled",URL="$coreRenderWindowConfig_8cxx.html"];
  Node1 -> Node6 [dir="back",color="midnightblue",fontsize="10",style="solid",fontname="Helvetica"];
  Node6 [label="Apps/Gimias/GUI/Widgets\l/src/MultiRenderWindow\l/coreRenderWindowContainer.cxx",height=0.2,width=0.4,color="black", fillcolor="white", style="filled",URL="$coreRenderWindowContainer_8cxx.html"];
  Node1 -> Node7 [dir="back",color="midnightblue",fontsize="10",style="solid",fontname="Helvetica"];
  Node7 [label="Apps/Gimias/GUI/Widgets\l/src/MultiRenderWindow\l/coreWorkingAreaStorage.cxx",height=0.2,width=0.4,color="black", fillcolor="white", style="filled",URL="$coreWorkingAreaStorage_8cxx.html"];
  Node1 -> Node8 [dir="back",color="midnightblue",fontsize="10",style="solid",fontname="Helvetica"];
  Node8 [label="Apps/Gimias/GUI/Widgets\l/src/Preferences/corePreferences\lDialog.cxx",height=0.2,width=0.4,color="black", fillcolor="white", style="filled",URL="$corePreferencesDialog_8cxx.html"];
  Node1 -> Node9 [dir="back",color="midnightblue",fontsize="10",style="solid",fontname="Helvetica"];
  Node9 [label="Apps/Gimias/GUI/Widgets\l/src/ProcessingToolbox\l/coreBaseToolboxWidget.cxx",height=0.2,width=0.4,color="black", fillcolor="white", style="filled",URL="$coreBaseToolboxWidget_8cxx.html"];
  Node1 -> Node10 [dir="back",color="midnightblue",fontsize="10",style="solid",fontname="Helvetica"];
  Node10 [label="Apps/Gimias/GUI/Widgets\l/src/ProfileWizard/corePlugin\lSelectorWidget.cxx",height=0.2,width=0.4,color="black", fillcolor="white", style="filled",URL="$corePluginSelectorWidget_8cxx.html"];
  Node1 -> Node11 [dir="back",color="midnightblue",fontsize="10",style="solid",fontname="Helvetica"];
  Node11 [label="Apps/Gimias/GUI/Widgets\l/src/Toolbar/coreToolbarRegistered\lWindows.cpp",height=0.2,width=0.4,color="black", fillcolor="white", style="filled",URL="$coreToolbarRegisteredWindows_8cpp.html"];
  Node1 -> Node12 [dir="back",color="midnightblue",fontsize="10",style="solid",fontname="Helvetica"];
  Node12 [label="Apps/Gimias/GUI/Widgets\l/src/VisualProperties\l/coreVisualProperties.cxx",height=0.2,width=0.4,color="black", fillcolor="white", style="filled",URL="$coreVisualProperties_8cxx.html"];
  Node1 -> Node13 [dir="back",color="midnightblue",fontsize="10",style="solid",fontname="Helvetica"];
  Node13 [label="Apps/Gimias/GUI/Widgets\l/src/Workflow/coreTreeWorkflow.cpp",height=0.2,width=0.4,color="black", fillcolor="white", style="filled",URL="$coreTreeWorkflow_8cpp.html"];
  Node1 -> Node14 [dir="back",color="midnightblue",fontsize="10",style="solid",fontname="Helvetica"];
  Node14 [label="Apps/Gimias/GUI/Widgets\l/src/wxMitkCoreMainWindow\l/coreMainMenu.cxx",height=0.2,width=0.4,color="black", fillcolor="white", style="filled",URL="$coreMainMenu_8cxx.html"];
  Node1 -> Node15 [dir="back",color="midnightblue",fontsize="10",style="solid",fontname="Helvetica"];
  Node15 [label="Apps/Gimias/GUI/Widgets\l/src/wxMitkCoreMainWindow\l/coreWxMitkCoreMainWindow.cxx",height=0.2,width=0.4,color="black", fillcolor="white", style="filled",URL="$coreWxMitkCoreMainWindow_8cxx.html"];
  Node1 -> Node16 [dir="back",color="midnightblue",fontsize="10",style="solid",fontname="Helvetica"];
  Node16 [label="Apps/Plugins/MeshEditorPlugin\l/widgets/MeshEditingWidget\l/MeshEditingWidget.cpp",height=0.2,width=0.4,color="black", fillcolor="white", style="filled",URL="$MeshEditingWidget_8cpp.html"];
  Node1 -> Node17 [dir="back",color="midnightblue",fontsize="10",style="solid",fontname="Helvetica"];
  Node17 [label="Apps/Plugins/MeshEditorPlugin\l/widgets/SurfaceSelectorWidget\l/coreSurfaceSelectorWidget.cxx",height=0.2,width=0.4,color="black", fillcolor="white", style="filled",URL="$coreSurfaceSelectorWidget_8cxx.html"];
}
