digraph "Apps/Plugins/MeshEditorPlugin/processors/coreSurfaceInteractorProcessor.cxx"
{
  edge [fontname="Helvetica",fontsize="10",labelfontname="Helvetica",labelfontsize="10"];
  node [fontname="Helvetica",fontsize="10",shape=record];
  Node1 [label="Apps/Plugins/MeshEditorPlugin\l/processors/coreSurfaceInteractor\lProcessor.cxx",height=0.2,width=0.4,color="black", fillcolor="grey75", style="filled", fontcolor="black"];
  Node1 -> Node2 [color="midnightblue",fontsize="10",style="solid",fontname="Helvetica"];
  Node2 [label="coreSurfaceInteractorProcessor.h",height=0.2,width=0.4,color="black", fillcolor="white", style="filled",URL="$coreSurfaceInteractorProcessor_8h.html"];
  Node2 -> Node3 [color="midnightblue",fontsize="10",style="solid",fontname="Helvetica"];
  Node3 [label="corePluginMacros.h",height=0.2,width=0.4,color="black", fillcolor="white", style="filled",URL="$corePluginMacros_8h.html"];
  Node2 -> Node4 [color="midnightblue",fontsize="10",style="solid",fontname="Helvetica"];
  Node4 [label="coreDataEntityHolder.h",height=0.2,width=0.4,color="red", fillcolor="white", style="filled",URL="$coreDataEntityHolder_8h.html"];
  Node4 -> Node5 [color="midnightblue",fontsize="10",style="solid",fontname="Helvetica"];
  Node5 [label="coreDataEntity.h",height=0.2,width=0.4,color="red", fillcolor="white", style="filled",URL="$coreDataEntity_8h.html"];
  Node5 -> Node6 [color="midnightblue",fontsize="10",style="solid",fontname="Helvetica"];
  Node6 [label="coreObject.h",height=0.2,width=0.4,color="red", fillcolor="white", style="filled",URL="$coreObject_8h.html"];
  Node6 -> Node7 [color="midnightblue",fontsize="10",style="solid",fontname="Helvetica"];
  Node7 [label="coreSmartPointerMacros.h",height=0.2,width=0.4,color="red", fillcolor="white", style="filled",URL="$coreSmartPointerMacros_8h.html"];
  Node7 -> Node8 [color="midnightblue",fontsize="10",style="solid",fontname="Helvetica"];
  Node8 [label="itkSmartPointer.h",height=0.2,width=0.4,color="grey75", fillcolor="white", style="filled"];
  Node5 -> Node9 [color="midnightblue",fontsize="10",style="solid",fontname="Helvetica"];
  Node9 [label="vector",height=0.2,width=0.4,color="grey75", fillcolor="white", style="filled"];
  Node5 -> Node4 [color="midnightblue",fontsize="10",style="solid",fontname="Helvetica"];
  Node2 -> Node7 [color="midnightblue",fontsize="10",style="solid",fontname="Helvetica"];
  Node2 -> Node10 [color="midnightblue",fontsize="10",style="solid",fontname="Helvetica"];
  Node10 [label="coreBaseFilter.h",height=0.2,width=0.4,color="red", fillcolor="white", style="filled",URL="$coreBaseFilter_8h.html"];
  Node10 -> Node6 [color="midnightblue",fontsize="10",style="solid",fontname="Helvetica"];
  Node10 -> Node5 [color="midnightblue",fontsize="10",style="solid",fontname="Helvetica"];
  Node2 -> Node11 [color="midnightblue",fontsize="10",style="solid",fontname="Helvetica"];
  Node11 [label="coreBaseProcessor.h",height=0.2,width=0.4,color="red", fillcolor="white", style="filled",URL="$coreBaseProcessor_8h.html"];
  Node11 -> Node6 [color="midnightblue",fontsize="10",style="solid",fontname="Helvetica"];
  Node11 -> Node5 [color="midnightblue",fontsize="10",style="solid",fontname="Helvetica"];
  Node11 -> Node10 [color="midnightblue",fontsize="10",style="solid",fontname="Helvetica"];
  Node2 -> Node12 [color="midnightblue",fontsize="10",style="solid",fontname="Helvetica"];
  Node12 [label="CILabExceptionMacros.h",height=0.2,width=0.4,color="red", fillcolor="white", style="filled",URL="$CILabExceptionMacros_8h.html"];
  Node2 -> Node13 [color="midnightblue",fontsize="10",style="solid",fontname="Helvetica"];
  Node13 [label="coreVTKProcessor.h",height=0.2,width=0.4,color="red", fillcolor="white", style="filled",URL="$coreVTKProcessor_8h.html"];
  Node13 -> Node11 [color="midnightblue",fontsize="10",style="solid",fontname="Helvetica"];
  Node13 -> Node14 [color="midnightblue",fontsize="10",style="solid",fontname="Helvetica"];
  Node14 [label="vtkSmartPointer.h",height=0.2,width=0.4,color="grey75", fillcolor="white", style="filled"];
  Node2 -> Node15 [color="midnightblue",fontsize="10",style="solid",fontname="Helvetica"];
  Node15 [label="meVTKSmoothFilter.h",height=0.2,width=0.4,color="red", fillcolor="white", style="filled",URL="$meVTKSmoothFilter_8h.html"];
  Node2 -> Node16 [color="midnightblue",fontsize="10",style="solid",fontname="Helvetica"];
  Node16 [label="meVTKLocalRefinerFilter.h",height=0.2,width=0.4,color="red", fillcolor="white", style="filled",URL="$meVTKLocalRefinerFilter_8h.html"];
  Node16 -> Node17 [color="midnightblue",fontsize="10",style="solid",fontname="Helvetica"];
  Node17 [label="vtkPolyData.h",height=0.2,width=0.4,color="grey75", fillcolor="white", style="filled"];
  Node16 -> Node14 [color="midnightblue",fontsize="10",style="solid",fontname="Helvetica"];
  Node2 -> Node18 [color="midnightblue",fontsize="10",style="solid",fontname="Helvetica"];
  Node18 [label="meVTKEdgeSwappingFilter.h",height=0.2,width=0.4,color="red", fillcolor="white", style="filled",URL="$meVTKEdgeSwappingFilter_8h.html"];
  Node18 -> Node17 [color="midnightblue",fontsize="10",style="solid",fontname="Helvetica"];
  Node18 -> Node14 [color="midnightblue",fontsize="10",style="solid",fontname="Helvetica"];
  Node2 -> Node19 [color="midnightblue",fontsize="10",style="solid",fontname="Helvetica"];
  Node19 [label="meVTKLoopSubdivisionRefiner\lFilter.h",height=0.2,width=0.4,color="red", fillcolor="white", style="filled",URL="$meVTKLoopSubdivisionRefinerFilter_8h.html"];
  Node19 -> Node17 [color="midnightblue",fontsize="10",style="solid",fontname="Helvetica"];
  Node19 -> Node14 [color="midnightblue",fontsize="10",style="solid",fontname="Helvetica"];
  Node1 -> Node20 [color="midnightblue",fontsize="10",style="solid",fontname="Helvetica"];
  Node20 [label="coreImageDataEntityMacros.h",height=0.2,width=0.4,color="black", fillcolor="white", style="filled",URL="$coreImageDataEntityMacros_8h.html"];
  Node20 -> Node3 [color="midnightblue",fontsize="10",style="solid",fontname="Helvetica"];
  Node20 -> Node12 [color="midnightblue",fontsize="10",style="solid",fontname="Helvetica"];
  Node20 -> Node21 [color="midnightblue",fontsize="10",style="solid",fontname="Helvetica"];
  Node21 [label="itkImage.h",height=0.2,width=0.4,color="grey75", fillcolor="white", style="filled"];
  Node20 -> Node22 [color="midnightblue",fontsize="10",style="solid",fontname="Helvetica"];
  Node22 [label="CILabNamespaceMacros.h",height=0.2,width=0.4,color="black", fillcolor="white", style="filled",URL="$CILabNamespaceMacros_8h.html"];
  Node20 -> Node23 [color="midnightblue",fontsize="10",style="solid",fontname="Helvetica"];
  Node23 [label="CILabAssertMacros.h",height=0.2,width=0.4,color="red", fillcolor="white", style="filled",URL="$CILabAssertMacros_8h.html"];
  Node20 -> Node24 [color="midnightblue",fontsize="10",style="solid",fontname="Helvetica"];
  Node24 [label="coreException.h",height=0.2,width=0.4,color="red", fillcolor="white", style="filled",URL="$coreException_8h.html"];
  Node24 -> Node25 [color="midnightblue",fontsize="10",style="solid",fontname="Helvetica"];
  Node25 [label="list",height=0.2,width=0.4,color="grey75", fillcolor="white", style="filled"];
  Node24 -> Node26 [color="midnightblue",fontsize="10",style="solid",fontname="Helvetica"];
  Node26 [label="coreCreateExceptionMacros.h",height=0.2,width=0.4,color="black", fillcolor="white", style="filled",URL="$coreCreateExceptionMacros_8h.html"];
  Node20 -> Node26 [color="midnightblue",fontsize="10",style="solid",fontname="Helvetica"];
  Node20 -> Node8 [color="midnightblue",fontsize="10",style="solid",fontname="Helvetica"];
  Node20 -> Node27 [color="midnightblue",fontsize="10",style="solid",fontname="Helvetica"];
  Node27 [label="itkVTKImageToImageFilter.h",height=0.2,width=0.4,color="red", fillcolor="white", style="filled",URL="$itkVTKImageToImageFilter_8h.html"];
  Node27 -> Node28 [color="midnightblue",fontsize="10",style="solid",fontname="Helvetica"];
  Node28 [label="BaseLibVTKWin32Header.h",height=0.2,width=0.4,color="grey75", fillcolor="white", style="filled"];
  Node27 -> Node29 [color="midnightblue",fontsize="10",style="solid",fontname="Helvetica"];
  Node29 [label="vtkImageData.h",height=0.2,width=0.4,color="grey75", fillcolor="white", style="filled"];
  Node20 -> Node30 [color="midnightblue",fontsize="10",style="solid",fontname="Helvetica"];
  Node30 [label="coreVTKImageDataHolder.h",height=0.2,width=0.4,color="red", fillcolor="white", style="filled",URL="$coreVTKImageDataHolder_8h.html"];
  Node30 -> Node3 [color="midnightblue",fontsize="10",style="solid",fontname="Helvetica"];
  Node30 -> Node29 [color="midnightblue",fontsize="10",style="solid",fontname="Helvetica"];
  Node30 -> Node14 [color="midnightblue",fontsize="10",style="solid",fontname="Helvetica"];
  Node1 -> Node31 [color="midnightblue",fontsize="10",style="solid",fontname="Helvetica"];
  Node31 [label="coreDataEntityHelper.h",height=0.2,width=0.4,color="black", fillcolor="white", style="filled",URL="$coreDataEntityHelper_8h.html"];
  Node31 -> Node32 [color="midnightblue",fontsize="10",style="solid",fontname="Helvetica"];
  Node32 [label="gmKernelWin32Header.h",height=0.2,width=0.4,color="grey75", fillcolor="white", style="filled"];
  Node31 -> Node6 [color="midnightblue",fontsize="10",style="solid",fontname="Helvetica"];
  Node31 -> Node5 [color="midnightblue",fontsize="10",style="solid",fontname="Helvetica"];
  Node31 -> Node25 [color="midnightblue",fontsize="10",style="solid",fontname="Helvetica"];
  Node31 -> Node33 [color="midnightblue",fontsize="10",style="solid",fontname="Helvetica"];
  Node33 [label="coreDataEntityHelper.txx",height=0.2,width=0.4,color="grey75", fillcolor="white", style="filled"];
  Node1 -> Node34 [color="midnightblue",fontsize="10",style="solid",fontname="Helvetica"];
  Node34 [label="coreReportExceptionMacros.h",height=0.2,width=0.4,color="black", fillcolor="white", style="filled",URL="$coreReportExceptionMacros_8h.html"];
  Node34 -> Node32 [color="midnightblue",fontsize="10",style="solid",fontname="Helvetica"];
  Node34 -> Node24 [color="midnightblue",fontsize="10",style="solid",fontname="Helvetica"];
  Node34 -> Node22 [color="midnightblue",fontsize="10",style="solid",fontname="Helvetica"];
  Node1 -> Node35 [color="midnightblue",fontsize="10",style="solid",fontname="Helvetica"];
  Node35 [label="vtkPointData.h",height=0.2,width=0.4,color="grey75", fillcolor="white", style="filled"];
  Node1 -> Node36 [color="midnightblue",fontsize="10",style="solid",fontname="Helvetica"];
  Node36 [label="vtkCellData.h",height=0.2,width=0.4,color="grey75", fillcolor="white", style="filled"];
  Node1 -> Node37 [color="midnightblue",fontsize="10",style="solid",fontname="Helvetica"];
  Node37 [label="blVTKHelperTools.h",height=0.2,width=0.4,color="black", fillcolor="white", style="filled",URL="$blVTKHelperTools_8h.html"];
  Node37 -> Node28 [color="midnightblue",fontsize="10",style="solid",fontname="Helvetica"];
  Node37 -> Node9 [color="midnightblue",fontsize="10",style="solid",fontname="Helvetica"];
  Node37 -> Node38 [color="midnightblue",fontsize="10",style="solid",fontname="Helvetica"];
  Node38 [label="vnl/vnl_vector.h",height=0.2,width=0.4,color="grey75", fillcolor="white", style="filled"];
  Node37 -> Node39 [color="midnightblue",fontsize="10",style="solid",fontname="Helvetica"];
  Node39 [label="blVTKHelperTools.txx",height=0.2,width=0.4,color="grey75", fillcolor="white", style="filled"];
  Node37 -> Node40 [color="midnightblue",fontsize="10",style="solid",fontname="Helvetica"];
  Node40 [label="stdexcept",height=0.2,width=0.4,color="grey75", fillcolor="white", style="filled"];
  Node37 -> Node35 [color="midnightblue",fontsize="10",style="solid",fontname="Helvetica"];
  Node37 -> Node17 [color="midnightblue",fontsize="10",style="solid",fontname="Helvetica"];
  Node37 -> Node41 [color="midnightblue",fontsize="10",style="solid",fontname="Helvetica"];
  Node41 [label="vtkAbstractArray.h",height=0.2,width=0.4,color="grey75", fillcolor="white", style="filled"];
  Node1 -> Node42 [color="midnightblue",fontsize="10",style="solid",fontname="Helvetica"];
  Node42 [label="blShapeUtils.h",height=0.2,width=0.4,color="red", fillcolor="white", style="filled",URL="$blShapeUtils_8h.html"];
  Node42 -> Node28 [color="midnightblue",fontsize="10",style="solid",fontname="Helvetica"];
  Node42 -> Node43 [color="midnightblue",fontsize="10",style="solid",fontname="Helvetica"];
  Node43 [label="vnl/vnl_cross_product\l_matrix.h",height=0.2,width=0.4,color="grey75", fillcolor="white", style="filled"];
  Node42 -> Node44 [color="midnightblue",fontsize="10",style="solid",fontname="Helvetica"];
  Node44 [label="vnl/algo/vnl_symmetric\l_eigensystem.h",height=0.2,width=0.4,color="grey75", fillcolor="white", style="filled"];
  Node42 -> Node14 [color="midnightblue",fontsize="10",style="solid",fontname="Helvetica"];
  Node42 -> Node29 [color="midnightblue",fontsize="10",style="solid",fontname="Helvetica"];
  Node42 -> Node45 [color="midnightblue",fontsize="10",style="solid",fontname="Helvetica"];
  Node45 [label="vtkShortArray.h",height=0.2,width=0.4,color="grey75", fillcolor="white", style="filled"];
  Node42 -> Node46 [color="midnightblue",fontsize="10",style="solid",fontname="Helvetica"];
  Node46 [label="vtkFloatArray.h",height=0.2,width=0.4,color="grey75", fillcolor="white", style="filled"];
  Node42 -> Node47 [color="midnightblue",fontsize="10",style="solid",fontname="Helvetica"];
  Node47 [label="vtkPlane.h",height=0.2,width=0.4,color="grey75", fillcolor="white", style="filled"];
  Node42 -> Node17 [color="midnightblue",fontsize="10",style="solid",fontname="Helvetica"];
  Node42 -> Node48 [color="midnightblue",fontsize="10",style="solid",fontname="Helvetica"];
  Node48 [label="vtkLookupTable.h",height=0.2,width=0.4,color="grey75", fillcolor="white", style="filled"];
  Node42 -> Node49 [color="midnightblue",fontsize="10",style="solid",fontname="Helvetica"];
  Node49 [label="vtkUnstructuredGrid.h",height=0.2,width=0.4,color="grey75", fillcolor="white", style="filled"];
  Node42 -> Node9 [color="midnightblue",fontsize="10",style="solid",fontname="Helvetica"];
  Node42 -> Node50 [color="midnightblue",fontsize="10",style="solid",fontname="Helvetica"];
  Node50 [label="map",height=0.2,width=0.4,color="grey75", fillcolor="white", style="filled"];
}
