digraph "Apps/Gimias/GUI/Widgets/src/MultiRenderWindow/coreRenderWindowConfig.cxx"
{
  edge [fontname="Helvetica",fontsize="10",labelfontname="Helvetica",labelfontsize="10"];
  node [fontname="Helvetica",fontsize="10",shape=record];
  Node1 [label="Apps/Gimias/GUI/Widgets\l/src/MultiRenderWindow\l/coreRenderWindowConfig.cxx",height=0.2,width=0.4,color="black", fillcolor="grey75", style="filled", fontcolor="black"];
  Node1 -> Node2 [color="midnightblue",fontsize="10",style="solid",fontname="Helvetica"];
  Node2 [label="coreRenderWindowConfig.h",height=0.2,width=0.4,color="black", fillcolor="white", style="filled",URL="$coreRenderWindowConfig_8h.html"];
  Node2 -> Node3 [color="midnightblue",fontsize="10",style="solid",fontname="Helvetica"];
  Node3 [label="gmWidgetsWin32Header.h",height=0.2,width=0.4,color="grey75", fillcolor="white", style="filled"];
  Node2 -> Node4 [color="midnightblue",fontsize="10",style="solid",fontname="Helvetica"];
  Node4 [label="coreRenderWindowConfigUI.h",height=0.2,width=0.4,color="black", fillcolor="white", style="filled",URL="$coreRenderWindowConfigUI_8h.html"];
  Node4 -> Node5 [color="midnightblue",fontsize="10",style="solid",fontname="Helvetica"];
  Node5 [label="wx/wx.h",height=0.2,width=0.4,color="grey75", fillcolor="white", style="filled"];
  Node4 -> Node6 [color="midnightblue",fontsize="10",style="solid",fontname="Helvetica"];
  Node6 [label="wx/image.h",height=0.2,width=0.4,color="grey75", fillcolor="white", style="filled"];
  Node4 -> Node7 [color="midnightblue",fontsize="10",style="solid",fontname="Helvetica"];
  Node7 [label="wxID.h",height=0.2,width=0.4,color="red", fillcolor="white", style="filled",URL="$wxID_8h.html"];
  Node7 -> Node8 [color="midnightblue",fontsize="10",style="solid",fontname="Helvetica"];
  Node8 [label="string",height=0.2,width=0.4,color="grey75", fillcolor="white", style="filled"];
  Node2 -> Node9 [color="midnightblue",fontsize="10",style="solid",fontname="Helvetica"];
  Node9 [label="coreBaseWindow.h",height=0.2,width=0.4,color="black", fillcolor="white", style="filled",URL="$coreBaseWindow_8h.html"];
  Node9 -> Node10 [color="midnightblue",fontsize="10",style="solid",fontname="Helvetica"];
  Node10 [label="gmKernelWin32Header.h",height=0.2,width=0.4,color="grey75", fillcolor="white", style="filled"];
  Node9 -> Node11 [color="midnightblue",fontsize="10",style="solid",fontname="Helvetica"];
  Node11 [label="coreRenderingTree.h",height=0.2,width=0.4,color="red", fillcolor="white", style="filled",URL="$coreRenderingTree_8h.html"];
  Node11 -> Node10 [color="midnightblue",fontsize="10",style="solid",fontname="Helvetica"];
  Node11 -> Node12 [color="midnightblue",fontsize="10",style="solid",fontname="Helvetica"];
  Node12 [label="coreObject.h",height=0.2,width=0.4,color="black", fillcolor="white", style="filled",URL="$coreObject_8h.html"];
  Node12 -> Node13 [color="midnightblue",fontsize="10",style="solid",fontname="Helvetica"];
  Node13 [label="gmCommonObjectsWin32Header.h",height=0.2,width=0.4,color="grey75", fillcolor="white", style="filled"];
  Node12 -> Node14 [color="midnightblue",fontsize="10",style="solid",fontname="Helvetica"];
  Node14 [label="coreCommonMacros.h",height=0.2,width=0.4,color="black", fillcolor="white", style="filled",URL="$coreCommonMacros_8h.html"];
  Node12 -> Node15 [color="midnightblue",fontsize="10",style="solid",fontname="Helvetica"];
  Node15 [label="coreSmartPointerMacros.h",height=0.2,width=0.4,color="red", fillcolor="white", style="filled",URL="$coreSmartPointerMacros_8h.html"];
  Node15 -> Node14 [color="midnightblue",fontsize="10",style="solid",fontname="Helvetica"];
  Node12 -> Node16 [color="midnightblue",fontsize="10",style="solid",fontname="Helvetica"];
  Node16 [label="blTagMap.h",height=0.2,width=0.4,color="red", fillcolor="white", style="filled",URL="$blTagMap_8h.html"];
  Node16 -> Node17 [color="midnightblue",fontsize="10",style="solid",fontname="Helvetica"];
  Node17 [label="CILabExceptionMacros.h",height=0.2,width=0.4,color="red", fillcolor="white", style="filled",URL="$CILabExceptionMacros_8h.html"];
  Node17 -> Node8 [color="midnightblue",fontsize="10",style="solid",fontname="Helvetica"];
  Node16 -> Node18 [color="midnightblue",fontsize="10",style="solid",fontname="Helvetica"];
  Node18 [label="boost/signals.hpp",height=0.2,width=0.4,color="grey75", fillcolor="white", style="filled"];
  Node16 -> Node19 [color="midnightblue",fontsize="10",style="solid",fontname="Helvetica"];
  Node19 [label="boost/bind.hpp",height=0.2,width=0.4,color="grey75", fillcolor="white", style="filled"];
  Node16 -> Node8 [color="midnightblue",fontsize="10",style="solid",fontname="Helvetica"];
  Node16 -> Node20 [color="midnightblue",fontsize="10",style="solid",fontname="Helvetica"];
  Node20 [label="map",height=0.2,width=0.4,color="grey75", fillcolor="white", style="filled"];
  Node12 -> Node21 [color="midnightblue",fontsize="10",style="solid",fontname="Helvetica"];
  Node21 [label="itkLightObject.h",height=0.2,width=0.4,color="grey75", fillcolor="white", style="filled"];
  Node12 -> Node22 [color="midnightblue",fontsize="10",style="solid",fontname="Helvetica"];
  Node22 [label="itkTimeStamp.h",height=0.2,width=0.4,color="grey75", fillcolor="white", style="filled"];
  Node12 -> Node18 [color="midnightblue",fontsize="10",style="solid",fontname="Helvetica"];
  Node12 -> Node19 [color="midnightblue",fontsize="10",style="solid",fontname="Helvetica"];
  Node11 -> Node23 [color="midnightblue",fontsize="10",style="solid",fontname="Helvetica"];
  Node23 [label="coreDataEntity.h",height=0.2,width=0.4,color="red", fillcolor="white", style="filled",URL="$coreDataEntity_8h.html"];
  Node23 -> Node12 [color="midnightblue",fontsize="10",style="solid",fontname="Helvetica"];
  Node23 -> Node8 [color="midnightblue",fontsize="10",style="solid",fontname="Helvetica"];
  Node23 -> Node18 [color="midnightblue",fontsize="10",style="solid",fontname="Helvetica"];
  Node23 -> Node24 [color="midnightblue",fontsize="10",style="solid",fontname="Helvetica"];
  Node24 [label="coreDataEntityHolder.h",height=0.2,width=0.4,color="red", fillcolor="white", style="filled",URL="$coreDataEntityHolder_8h.html"];
  Node24 -> Node23 [color="midnightblue",fontsize="10",style="solid",fontname="Helvetica"];
  Node24 -> Node25 [color="midnightblue",fontsize="10",style="solid",fontname="Helvetica"];
  Node25 [label="coreDataHolder.h",height=0.2,width=0.4,color="red", fillcolor="white", style="filled",URL="$coreDataHolder_8h.html"];
  Node25 -> Node13 [color="midnightblue",fontsize="10",style="solid",fontname="Helvetica"];
  Node25 -> Node26 [color="midnightblue",fontsize="10",style="solid",fontname="Helvetica"];
  Node26 [label="coreDataHolderBase.h",height=0.2,width=0.4,color="black", fillcolor="white", style="filled",URL="$coreDataHolderBase_8h.html"];
  Node26 -> Node13 [color="midnightblue",fontsize="10",style="solid",fontname="Helvetica"];
  Node26 -> Node12 [color="midnightblue",fontsize="10",style="solid",fontname="Helvetica"];
  Node26 -> Node19 [color="midnightblue",fontsize="10",style="solid",fontname="Helvetica"];
  Node26 -> Node18 [color="midnightblue",fontsize="10",style="solid",fontname="Helvetica"];
  Node25 -> Node19 [color="midnightblue",fontsize="10",style="solid",fontname="Helvetica"];
  Node25 -> Node18 [color="midnightblue",fontsize="10",style="solid",fontname="Helvetica"];
  Node25 -> Node25 [color="midnightblue",fontsize="10",style="solid",fontname="Helvetica"];
  Node11 -> Node18 [color="midnightblue",fontsize="10",style="solid",fontname="Helvetica"];
  Node11 -> Node20 [color="midnightblue",fontsize="10",style="solid",fontname="Helvetica"];
  Node9 -> Node27 [color="midnightblue",fontsize="10",style="solid",fontname="Helvetica"];
  Node27 [label="coreBaseProcessor.h",height=0.2,width=0.4,color="red", fillcolor="white", style="filled",URL="$coreBaseProcessor_8h.html"];
  Node27 -> Node12 [color="midnightblue",fontsize="10",style="solid",fontname="Helvetica"];
  Node27 -> Node25 [color="midnightblue",fontsize="10",style="solid",fontname="Helvetica"];
  Node27 -> Node23 [color="midnightblue",fontsize="10",style="solid",fontname="Helvetica"];
  Node9 -> Node28 [color="midnightblue",fontsize="10",style="solid",fontname="Helvetica"];
  Node28 [label="coreProcessorOutputObserver.h",height=0.2,width=0.4,color="black", fillcolor="white", style="filled",URL="$coreProcessorOutputObserver_8h.html"];
  Node28 -> Node10 [color="midnightblue",fontsize="10",style="solid",fontname="Helvetica"];
  Node28 -> Node12 [color="midnightblue",fontsize="10",style="solid",fontname="Helvetica"];
  Node28 -> Node11 [color="midnightblue",fontsize="10",style="solid",fontname="Helvetica"];
  Node9 -> Node29 [color="midnightblue",fontsize="10",style="solid",fontname="Helvetica"];
  Node29 [label="coreCommonDataTypes.h",height=0.2,width=0.4,color="black", fillcolor="white", style="filled",URL="$coreCommonDataTypes_8h.html"];
  Node29 -> Node25 [color="midnightblue",fontsize="10",style="solid",fontname="Helvetica"];
  Node9 -> Node30 [color="midnightblue",fontsize="10",style="solid",fontname="Helvetica"];
  Node30 [label="coreRenderingTreeManager.h",height=0.2,width=0.4,color="black", fillcolor="white", style="filled",URL="$coreRenderingTreeManager_8h.html"];
  Node30 -> Node10 [color="midnightblue",fontsize="10",style="solid",fontname="Helvetica"];
  Node30 -> Node12 [color="midnightblue",fontsize="10",style="solid",fontname="Helvetica"];
  Node30 -> Node23 [color="midnightblue",fontsize="10",style="solid",fontname="Helvetica"];
  Node30 -> Node11 [color="midnightblue",fontsize="10",style="solid",fontname="Helvetica"];
  Node9 -> Node31 [color="midnightblue",fontsize="10",style="solid",fontname="Helvetica"];
  Node31 [label="coreBaseWindowFactory.h",height=0.2,width=0.4,color="red", fillcolor="white", style="filled",URL="$coreBaseWindowFactory_8h.html"];
  Node31 -> Node12 [color="midnightblue",fontsize="10",style="solid",fontname="Helvetica"];
  Node31 -> Node9 [color="midnightblue",fontsize="10",style="solid",fontname="Helvetica"];
  Node31 -> Node32 [color="midnightblue",fontsize="10",style="solid",fontname="Helvetica"];
  Node32 [label="coreWindowConfig.h",height=0.2,width=0.4,color="black", fillcolor="white", style="filled",URL="$coreWindowConfig_8h.html"];
  Node32 -> Node8 [color="midnightblue",fontsize="10",style="solid",fontname="Helvetica"];
  Node32 -> Node10 [color="midnightblue",fontsize="10",style="solid",fontname="Helvetica"];
  Node9 -> Node16 [color="midnightblue",fontsize="10",style="solid",fontname="Helvetica"];
  Node9 -> Node32 [color="midnightblue",fontsize="10",style="solid",fontname="Helvetica"];
  Node2 -> Node33 [color="midnightblue",fontsize="10",style="solid",fontname="Helvetica"];
  Node33 [label="coreRenderWindowConfigBase.h",height=0.2,width=0.4,color="black", fillcolor="white", style="filled",URL="$coreRenderWindowConfigBase_8h.html"];
  Node33 -> Node9 [color="midnightblue",fontsize="10",style="solid",fontname="Helvetica"];
  Node1 -> Node34 [color="midnightblue",fontsize="10",style="solid",fontname="Helvetica"];
  Node34 [label="corePluginTab.h",height=0.2,width=0.4,color="black", fillcolor="white", style="filled",URL="$corePluginTab_8h.html"];
  Node34 -> Node12 [color="midnightblue",fontsize="10",style="solid",fontname="Helvetica"];
  Node34 -> Node35 [color="midnightblue",fontsize="10",style="solid",fontname="Helvetica"];
  Node35 [label="coreDataEntityList.h",height=0.2,width=0.4,color="black", fillcolor="white", style="filled",URL="$coreDataEntityList_8h.html"];
  Node35 -> Node10 [color="midnightblue",fontsize="10",style="solid",fontname="Helvetica"];
  Node35 -> Node12 [color="midnightblue",fontsize="10",style="solid",fontname="Helvetica"];
  Node35 -> Node23 [color="midnightblue",fontsize="10",style="solid",fontname="Helvetica"];
  Node35 -> Node24 [color="midnightblue",fontsize="10",style="solid",fontname="Helvetica"];
  Node35 -> Node36 [color="midnightblue",fontsize="10",style="solid",fontname="Helvetica"];
  Node36 [label="coreException.h",height=0.2,width=0.4,color="red", fillcolor="white", style="filled",URL="$coreException_8h.html"];
  Node36 -> Node8 [color="midnightblue",fontsize="10",style="solid",fontname="Helvetica"];
  Node36 -> Node13 [color="midnightblue",fontsize="10",style="solid",fontname="Helvetica"];
  Node36 -> Node14 [color="midnightblue",fontsize="10",style="solid",fontname="Helvetica"];
  Node36 -> Node37 [color="midnightblue",fontsize="10",style="solid",fontname="Helvetica"];
  Node37 [label="coreCreateExceptionMacros.h",height=0.2,width=0.4,color="black", fillcolor="white", style="filled",URL="$coreCreateExceptionMacros_8h.html"];
  Node35 -> Node17 [color="midnightblue",fontsize="10",style="solid",fontname="Helvetica"];
  Node35 -> Node37 [color="midnightblue",fontsize="10",style="solid",fontname="Helvetica"];
  Node35 -> Node18 [color="midnightblue",fontsize="10",style="solid",fontname="Helvetica"];
  Node35 -> Node20 [color="midnightblue",fontsize="10",style="solid",fontname="Helvetica"];
  Node34 -> Node30 [color="midnightblue",fontsize="10",style="solid",fontname="Helvetica"];
  Node34 -> Node25 [color="midnightblue",fontsize="10",style="solid",fontname="Helvetica"];
  Node34 -> Node23 [color="midnightblue",fontsize="10",style="solid",fontname="Helvetica"];
  Node34 -> Node38 [color="midnightblue",fontsize="10",style="solid",fontname="Helvetica"];
  Node38 [label="coreWorkingAreaManager.h",height=0.2,width=0.4,color="red", fillcolor="white", style="filled",URL="$coreWorkingAreaManager_8h.html"];
  Node38 -> Node3 [color="midnightblue",fontsize="10",style="solid",fontname="Helvetica"];
  Node38 -> Node39 [color="midnightblue",fontsize="10",style="solid",fontname="Helvetica"];
  Node39 [label="coreMultiRenderWindow.h",height=0.2,width=0.4,color="red", fillcolor="white", style="filled",URL="$coreMultiRenderWindow_8h.html"];
  Node38 -> Node29 [color="midnightblue",fontsize="10",style="solid",fontname="Helvetica"];
  Node38 -> Node9 [color="midnightblue",fontsize="10",style="solid",fontname="Helvetica"];
  Node38 -> Node7 [color="midnightblue",fontsize="10",style="solid",fontname="Helvetica"];
  Node34 -> Node9 [color="midnightblue",fontsize="10",style="solid",fontname="Helvetica"];
  Node34 -> Node32 [color="midnightblue",fontsize="10",style="solid",fontname="Helvetica"];
  Node34 -> Node40 [color="midnightblue",fontsize="10",style="solid",fontname="Helvetica"];
  Node40 [label="coreBasePluginTab.h",height=0.2,width=0.4,color="black", fillcolor="white", style="filled",URL="$coreBasePluginTab_8h.html"];
  Node40 -> Node12 [color="midnightblue",fontsize="10",style="solid",fontname="Helvetica"];
  Node40 -> Node9 [color="midnightblue",fontsize="10",style="solid",fontname="Helvetica"];
  Node40 -> Node32 [color="midnightblue",fontsize="10",style="solid",fontname="Helvetica"];
  Node34 -> Node41 [color="midnightblue",fontsize="10",style="solid",fontname="Helvetica"];
  Node41 [label="wx/panel.h",height=0.2,width=0.4,color="grey75", fillcolor="white", style="filled"];
  Node34 -> Node42 [color="midnightblue",fontsize="10",style="solid",fontname="Helvetica"];
  Node42 [label="wx/aui/aui.h",height=0.2,width=0.4,color="grey75", fillcolor="white", style="filled"];
  Node1 -> Node43 [color="midnightblue",fontsize="10",style="solid",fontname="Helvetica"];
  Node43 [label="coreRenderWindowContainer.h",height=0.2,width=0.4,color="black", fillcolor="white", style="filled",URL="$coreRenderWindowContainer_8h.html"];
  Node43 -> Node3 [color="midnightblue",fontsize="10",style="solid",fontname="Helvetica"];
  Node43 -> Node12 [color="midnightblue",fontsize="10",style="solid",fontname="Helvetica"];
  Node43 -> Node39 [color="midnightblue",fontsize="10",style="solid",fontname="Helvetica"];
  Node43 -> Node29 [color="midnightblue",fontsize="10",style="solid",fontname="Helvetica"];
  Node43 -> Node30 [color="midnightblue",fontsize="10",style="solid",fontname="Helvetica"];
  Node43 -> Node44 [color="midnightblue",fontsize="10",style="solid",fontname="Helvetica"];
  Node44 [label="coreRenderWindowLinker.h",height=0.2,width=0.4,color="red", fillcolor="white", style="filled",URL="$coreRenderWindowLinker_8h.html"];
  Node44 -> Node3 [color="midnightblue",fontsize="10",style="solid",fontname="Helvetica"];
  Node43 -> Node9 [color="midnightblue",fontsize="10",style="solid",fontname="Helvetica"];
  Node1 -> Node45 [color="midnightblue",fontsize="10",style="solid",fontname="Helvetica"];
  Node45 [label="coreWorkingAreaManagerWidget.h",height=0.2,width=0.4,color="black", fillcolor="white", style="filled",URL="$coreWorkingAreaManagerWidget_8h.html"];
  Node45 -> Node46 [color="midnightblue",fontsize="10",style="solid",fontname="Helvetica"];
  Node46 [label="coreWorkingAreaManagerWidgetUI.h",height=0.2,width=0.4,color="black", fillcolor="white", style="filled",URL="$coreWorkingAreaManagerWidgetUI_8h.html"];
  Node46 -> Node5 [color="midnightblue",fontsize="10",style="solid",fontname="Helvetica"];
  Node46 -> Node6 [color="midnightblue",fontsize="10",style="solid",fontname="Helvetica"];
  Node46 -> Node7 [color="midnightblue",fontsize="10",style="solid",fontname="Helvetica"];
  Node45 -> Node9 [color="midnightblue",fontsize="10",style="solid",fontname="Helvetica"];
  Node45 -> Node43 [color="midnightblue",fontsize="10",style="solid",fontname="Helvetica"];
  Node1 -> Node47 [color="midnightblue",fontsize="10",style="solid",fontname="Helvetica"];
  Node47 [label="coreBaseWindowFactories.h",height=0.2,width=0.4,color="black", fillcolor="white", style="filled",URL="$coreBaseWindowFactories_8h.html"];
  Node47 -> Node12 [color="midnightblue",fontsize="10",style="solid",fontname="Helvetica"];
  Node47 -> Node9 [color="midnightblue",fontsize="10",style="solid",fontname="Helvetica"];
  Node47 -> Node32 [color="midnightblue",fontsize="10",style="solid",fontname="Helvetica"];
  Node47 -> Node31 [color="midnightblue",fontsize="10",style="solid",fontname="Helvetica"];
  Node1 -> Node48 [color="midnightblue",fontsize="10",style="solid",fontname="Helvetica"];
  Node48 [label="coreWxMitkGraphicalInterface.h",height=0.2,width=0.4,color="black", fillcolor="white", style="filled",URL="$coreWxMitkGraphicalInterface_8h.html"];
  Node48 -> Node12 [color="midnightblue",fontsize="10",style="solid",fontname="Helvetica"];
  Node48 -> Node32 [color="midnightblue",fontsize="10",style="solid",fontname="Helvetica"];
  Node48 -> Node49 [color="midnightblue",fontsize="10",style="solid",fontname="Helvetica"];
  Node49 [label="dynModuleExecutionImpl.h",height=0.2,width=0.4,color="red", fillcolor="white", style="filled",URL="$dynModuleExecutionImpl_8h.html"];
  Node49 -> Node20 [color="midnightblue",fontsize="10",style="solid",fontname="Helvetica"];
  Node49 -> Node16 [color="midnightblue",fontsize="10",style="solid",fontname="Helvetica"];
  Node48 -> Node20 [color="midnightblue",fontsize="10",style="solid",fontname="Helvetica"];
  Node48 -> Node8 [color="midnightblue",fontsize="10",style="solid",fontname="Helvetica"];
  Node1 -> Node50 [color="midnightblue",fontsize="10",style="solid",fontname="Helvetica"];
  Node50 [label="coreBaseWindowFactorySearch.h",height=0.2,width=0.4,color="black", fillcolor="white", style="filled",URL="$coreBaseWindowFactorySearch_8h.html"];
  Node50 -> Node12 [color="midnightblue",fontsize="10",style="solid",fontname="Helvetica"];
  Node50 -> Node9 [color="midnightblue",fontsize="10",style="solid",fontname="Helvetica"];
  Node50 -> Node32 [color="midnightblue",fontsize="10",style="solid",fontname="Helvetica"];
  Node50 -> Node31 [color="midnightblue",fontsize="10",style="solid",fontname="Helvetica"];
}
