digraph "Apps/Gimias/GUI/Widgets/src/wxMitkCoreMainWindow/coreWorkingAreaFactory.h"
{
  edge [fontname="Helvetica",fontsize="10",labelfontname="Helvetica",labelfontsize="10"];
  node [fontname="Helvetica",fontsize="10",shape=record];
  Node1 [label="Apps/Gimias/GUI/Widgets\l/src/wxMitkCoreMainWindow\l/coreWorkingAreaFactory.h",height=0.2,width=0.4,color="black", fillcolor="grey75", style="filled", fontcolor="black"];
  Node1 -> Node2 [color="midnightblue",fontsize="10",style="solid",fontname="Helvetica"];
  Node2 [label="coreRenderWindowContainer.h",height=0.2,width=0.4,color="black", fillcolor="white", style="filled",URL="$coreRenderWindowContainer_8h.html"];
  Node2 -> Node3 [color="midnightblue",fontsize="10",style="solid",fontname="Helvetica"];
  Node3 [label="gmWidgetsWin32Header.h",height=0.2,width=0.4,color="grey75", fillcolor="white", style="filled"];
  Node2 -> Node4 [color="midnightblue",fontsize="10",style="solid",fontname="Helvetica"];
  Node4 [label="coreObject.h",height=0.2,width=0.4,color="black", fillcolor="white", style="filled",URL="$coreObject_8h.html"];
  Node4 -> Node5 [color="midnightblue",fontsize="10",style="solid",fontname="Helvetica"];
  Node5 [label="gmCommonObjectsWin32Header.h",height=0.2,width=0.4,color="grey75", fillcolor="white", style="filled"];
  Node4 -> Node6 [color="midnightblue",fontsize="10",style="solid",fontname="Helvetica"];
  Node6 [label="coreCommonMacros.h",height=0.2,width=0.4,color="black", fillcolor="white", style="filled",URL="$coreCommonMacros_8h.html"];
  Node4 -> Node7 [color="midnightblue",fontsize="10",style="solid",fontname="Helvetica"];
  Node7 [label="coreSmartPointerMacros.h",height=0.2,width=0.4,color="black", fillcolor="white", style="filled",URL="$coreSmartPointerMacros_8h.html"];
  Node7 -> Node6 [color="midnightblue",fontsize="10",style="solid",fontname="Helvetica"];
  Node7 -> Node8 [color="midnightblue",fontsize="10",style="solid",fontname="Helvetica"];
  Node8 [label="itkSmartPointer.h",height=0.2,width=0.4,color="grey75", fillcolor="white", style="filled"];
  Node4 -> Node9 [color="midnightblue",fontsize="10",style="solid",fontname="Helvetica"];
  Node9 [label="blTagMap.h",height=0.2,width=0.4,color="black", fillcolor="white", style="filled",URL="$blTagMap_8h.html"];
  Node9 -> Node10 [color="midnightblue",fontsize="10",style="solid",fontname="Helvetica"];
  Node10 [label="blLightObject.h",height=0.2,width=0.4,color="red", fillcolor="white", style="filled",URL="$blLightObject_8h.html"];
  Node9 -> Node11 [color="midnightblue",fontsize="10",style="solid",fontname="Helvetica"];
  Node11 [label="blTag.h",height=0.2,width=0.4,color="black", fillcolor="white", style="filled",URL="$blTag_8h.html"];
  Node11 -> Node10 [color="midnightblue",fontsize="10",style="solid",fontname="Helvetica"];
  Node11 -> Node12 [color="midnightblue",fontsize="10",style="solid",fontname="Helvetica"];
  Node12 [label="CILabExceptionMacros.h",height=0.2,width=0.4,color="red", fillcolor="white", style="filled",URL="$CILabExceptionMacros_8h.html"];
  Node12 -> Node13 [color="midnightblue",fontsize="10",style="solid",fontname="Helvetica"];
  Node13 [label="string",height=0.2,width=0.4,color="grey75", fillcolor="white", style="filled"];
  Node11 -> Node14 [color="midnightblue",fontsize="10",style="solid",fontname="Helvetica"];
  Node14 [label="boost/any.hpp",height=0.2,width=0.4,color="grey75", fillcolor="white", style="filled"];
  Node11 -> Node13 [color="midnightblue",fontsize="10",style="solid",fontname="Helvetica"];
  Node9 -> Node12 [color="midnightblue",fontsize="10",style="solid",fontname="Helvetica"];
  Node9 -> Node15 [color="midnightblue",fontsize="10",style="solid",fontname="Helvetica"];
  Node15 [label="boost/signals.hpp",height=0.2,width=0.4,color="grey75", fillcolor="white", style="filled"];
  Node9 -> Node16 [color="midnightblue",fontsize="10",style="solid",fontname="Helvetica"];
  Node16 [label="boost/bind.hpp",height=0.2,width=0.4,color="grey75", fillcolor="white", style="filled"];
  Node9 -> Node13 [color="midnightblue",fontsize="10",style="solid",fontname="Helvetica"];
  Node9 -> Node17 [color="midnightblue",fontsize="10",style="solid",fontname="Helvetica"];
  Node17 [label="map",height=0.2,width=0.4,color="grey75", fillcolor="white", style="filled"];
  Node4 -> Node18 [color="midnightblue",fontsize="10",style="solid",fontname="Helvetica"];
  Node18 [label="itkLightObject.h",height=0.2,width=0.4,color="grey75", fillcolor="white", style="filled"];
  Node4 -> Node19 [color="midnightblue",fontsize="10",style="solid",fontname="Helvetica"];
  Node19 [label="itkTimeStamp.h",height=0.2,width=0.4,color="grey75", fillcolor="white", style="filled"];
  Node4 -> Node15 [color="midnightblue",fontsize="10",style="solid",fontname="Helvetica"];
  Node4 -> Node16 [color="midnightblue",fontsize="10",style="solid",fontname="Helvetica"];
  Node2 -> Node20 [color="midnightblue",fontsize="10",style="solid",fontname="Helvetica"];
  Node20 [label="coreMultiRenderWindow.h",height=0.2,width=0.4,color="black", fillcolor="white", style="filled",URL="$coreMultiRenderWindow_8h.html"];
  Node20 -> Node21 [color="midnightblue",fontsize="10",style="solid",fontname="Helvetica"];
  Node21 [label="coreRenderWindowBase.h",height=0.2,width=0.4,color="black", fillcolor="white", style="filled",URL="$coreRenderWindowBase_8h.html"];
  Node21 -> Node3 [color="midnightblue",fontsize="10",style="solid",fontname="Helvetica"];
  Node21 -> Node4 [color="midnightblue",fontsize="10",style="solid",fontname="Helvetica"];
  Node21 -> Node22 [color="midnightblue",fontsize="10",style="solid",fontname="Helvetica"];
  Node22 [label="coreDataEntityHolder.h",height=0.2,width=0.4,color="black", fillcolor="white", style="filled",URL="$coreDataEntityHolder_8h.html"];
  Node22 -> Node23 [color="midnightblue",fontsize="10",style="solid",fontname="Helvetica"];
  Node23 [label="gmDataHandlingWin32Header.h",height=0.2,width=0.4,color="grey75", fillcolor="white", style="filled"];
  Node22 -> Node24 [color="midnightblue",fontsize="10",style="solid",fontname="Helvetica"];
  Node24 [label="coreDataEntity.h",height=0.2,width=0.4,color="black", fillcolor="white", style="filled",URL="$coreDataEntity_8h.html"];
  Node24 -> Node23 [color="midnightblue",fontsize="10",style="solid",fontname="Helvetica"];
  Node24 -> Node4 [color="midnightblue",fontsize="10",style="solid",fontname="Helvetica"];
  Node24 -> Node25 [color="midnightblue",fontsize="10",style="solid",fontname="Helvetica"];
  Node25 [label="coreDataEntityMetadata.h",height=0.2,width=0.4,color="black", fillcolor="white", style="filled",URL="$coreDataEntityMetadata_8h.html"];
  Node25 -> Node23 [color="midnightblue",fontsize="10",style="solid",fontname="Helvetica"];
  Node25 -> Node4 [color="midnightblue",fontsize="10",style="solid",fontname="Helvetica"];
  Node25 -> Node9 [color="midnightblue",fontsize="10",style="solid",fontname="Helvetica"];
  Node24 -> Node26 [color="midnightblue",fontsize="10",style="solid",fontname="Helvetica"];
  Node26 [label="coreDataEntityImpl.h",height=0.2,width=0.4,color="red", fillcolor="white", style="filled",URL="$coreDataEntityImpl_8h.html"];
  Node26 -> Node23 [color="midnightblue",fontsize="10",style="solid",fontname="Helvetica"];
  Node26 -> Node4 [color="midnightblue",fontsize="10",style="solid",fontname="Helvetica"];
  Node26 -> Node13 [color="midnightblue",fontsize="10",style="solid",fontname="Helvetica"];
  Node26 -> Node27 [color="midnightblue",fontsize="10",style="solid",fontname="Helvetica"];
  Node27 [label="vector",height=0.2,width=0.4,color="grey75", fillcolor="white", style="filled"];
  Node26 -> Node14 [color="midnightblue",fontsize="10",style="solid",fontname="Helvetica"];
  Node26 -> Node9 [color="midnightblue",fontsize="10",style="solid",fontname="Helvetica"];
  Node24 -> Node28 [color="midnightblue",fontsize="10",style="solid",fontname="Helvetica"];
  Node28 [label="coreDataEntityImplFactory.h",height=0.2,width=0.4,color="red", fillcolor="white", style="filled",URL="$coreDataEntityImplFactory_8h.html"];
  Node28 -> Node23 [color="midnightblue",fontsize="10",style="solid",fontname="Helvetica"];
  Node28 -> Node4 [color="midnightblue",fontsize="10",style="solid",fontname="Helvetica"];
  Node28 -> Node13 [color="midnightblue",fontsize="10",style="solid",fontname="Helvetica"];
  Node28 -> Node29 [color="midnightblue",fontsize="10",style="solid",fontname="Helvetica"];
  Node29 [label="typeinfo",height=0.2,width=0.4,color="grey75", fillcolor="white", style="filled"];
  Node28 -> Node27 [color="midnightblue",fontsize="10",style="solid",fontname="Helvetica"];
  Node28 -> Node14 [color="midnightblue",fontsize="10",style="solid",fontname="Helvetica"];
  Node28 -> Node9 [color="midnightblue",fontsize="10",style="solid",fontname="Helvetica"];
  Node28 -> Node26 [color="midnightblue",fontsize="10",style="solid",fontname="Helvetica"];
  Node28 -> Node30 [color="midnightblue",fontsize="10",style="solid",fontname="Helvetica"];
  Node30 [label="coreDataEntityTypes.h",height=0.2,width=0.4,color="black", fillcolor="white", style="filled",URL="$coreDataEntityTypes_8h.html"];
  Node24 -> Node30 [color="midnightblue",fontsize="10",style="solid",fontname="Helvetica"];
  Node24 -> Node31 [color="midnightblue",fontsize="10",style="solid",fontname="Helvetica"];
  Node31 [label="coreDataEntityPreview.h",height=0.2,width=0.4,color="black", fillcolor="white", style="filled",URL="$coreDataEntityPreview_8h.html"];
  Node31 -> Node23 [color="midnightblue",fontsize="10",style="solid",fontname="Helvetica"];
  Node31 -> Node4 [color="midnightblue",fontsize="10",style="solid",fontname="Helvetica"];
  Node24 -> Node13 [color="midnightblue",fontsize="10",style="solid",fontname="Helvetica"];
  Node24 -> Node27 [color="midnightblue",fontsize="10",style="solid",fontname="Helvetica"];
  Node24 -> Node29 [color="midnightblue",fontsize="10",style="solid",fontname="Helvetica"];
  Node24 -> Node15 [color="midnightblue",fontsize="10",style="solid",fontname="Helvetica"];
  Node24 -> Node14 [color="midnightblue",fontsize="10",style="solid",fontname="Helvetica"];
  Node24 -> Node32 [color="midnightblue",fontsize="10",style="solid",fontname="Helvetica"];
  Node32 [label="coreDataEntity.txx",height=0.2,width=0.4,color="grey75", fillcolor="white", style="filled"];
  Node24 -> Node22 [color="midnightblue",fontsize="10",style="solid",fontname="Helvetica"];
  Node22 -> Node33 [color="midnightblue",fontsize="10",style="solid",fontname="Helvetica"];
  Node33 [label="coreDataHolder.h",height=0.2,width=0.4,color="black", fillcolor="white", style="filled",URL="$coreDataHolder_8h.html"];
  Node33 -> Node5 [color="midnightblue",fontsize="10",style="solid",fontname="Helvetica"];
  Node33 -> Node34 [color="midnightblue",fontsize="10",style="solid",fontname="Helvetica"];
  Node34 [label="coreDataHolderBase.h",height=0.2,width=0.4,color="black", fillcolor="white", style="filled",URL="$coreDataHolderBase_8h.html"];
  Node34 -> Node5 [color="midnightblue",fontsize="10",style="solid",fontname="Helvetica"];
  Node34 -> Node4 [color="midnightblue",fontsize="10",style="solid",fontname="Helvetica"];
  Node34 -> Node16 [color="midnightblue",fontsize="10",style="solid",fontname="Helvetica"];
  Node34 -> Node15 [color="midnightblue",fontsize="10",style="solid",fontname="Helvetica"];
  Node33 -> Node16 [color="midnightblue",fontsize="10",style="solid",fontname="Helvetica"];
  Node33 -> Node15 [color="midnightblue",fontsize="10",style="solid",fontname="Helvetica"];
  Node33 -> Node35 [color="midnightblue",fontsize="10",style="solid",fontname="Helvetica"];
  Node35 [label="coreDataHolder.txx",height=0.2,width=0.4,color="grey75", fillcolor="white", style="filled"];
  Node33 -> Node33 [color="midnightblue",fontsize="10",style="solid",fontname="Helvetica"];
  Node33 -> Node36 [color="midnightblue",fontsize="10",style="solid",fontname="Helvetica"];
  Node36 [label="/home/el1mc/src/bitbucket\l/cistib/cilab-gimiax/src\l/Apps/Gimias/Core/CommonObjects\l/src/coreAssert.h",height=0.2,width=0.4,color="grey75", fillcolor="white", style="filled"];
  Node21 -> Node37 [color="midnightblue",fontsize="10",style="solid",fontname="Helvetica"];
  Node37 [label="coreRenderingTree.h",height=0.2,width=0.4,color="black", fillcolor="white", style="filled",URL="$coreRenderingTree_8h.html"];
  Node37 -> Node38 [color="midnightblue",fontsize="10",style="solid",fontname="Helvetica"];
  Node38 [label="gmKernelWin32Header.h",height=0.2,width=0.4,color="grey75", fillcolor="white", style="filled"];
  Node37 -> Node4 [color="midnightblue",fontsize="10",style="solid",fontname="Helvetica"];
  Node37 -> Node24 [color="midnightblue",fontsize="10",style="solid",fontname="Helvetica"];
  Node37 -> Node15 [color="midnightblue",fontsize="10",style="solid",fontname="Helvetica"];
  Node37 -> Node17 [color="midnightblue",fontsize="10",style="solid",fontname="Helvetica"];
  Node37 -> Node39 [color="midnightblue",fontsize="10",style="solid",fontname="Helvetica"];
  Node39 [label="coreRenderingTree.txx",height=0.2,width=0.4,color="grey75", fillcolor="white", style="filled"];
  Node21 -> Node9 [color="midnightblue",fontsize="10",style="solid",fontname="Helvetica"];
  Node21 -> Node40 [color="midnightblue",fontsize="10",style="solid",fontname="Helvetica"];
  Node40 [label="coreBaseWindow.h",height=0.2,width=0.4,color="black", fillcolor="white", style="filled",URL="$coreBaseWindow_8h.html"];
  Node40 -> Node38 [color="midnightblue",fontsize="10",style="solid",fontname="Helvetica"];
  Node40 -> Node37 [color="midnightblue",fontsize="10",style="solid",fontname="Helvetica"];
  Node40 -> Node41 [color="midnightblue",fontsize="10",style="solid",fontname="Helvetica"];
  Node41 [label="coreBaseProcessor.h",height=0.2,width=0.4,color="red", fillcolor="white", style="filled",URL="$coreBaseProcessor_8h.html"];
  Node41 -> Node4 [color="midnightblue",fontsize="10",style="solid",fontname="Helvetica"];
  Node41 -> Node33 [color="midnightblue",fontsize="10",style="solid",fontname="Helvetica"];
  Node41 -> Node24 [color="midnightblue",fontsize="10",style="solid",fontname="Helvetica"];
  Node40 -> Node42 [color="midnightblue",fontsize="10",style="solid",fontname="Helvetica"];
  Node42 [label="coreProcessorOutputObserver.h",height=0.2,width=0.4,color="black", fillcolor="white", style="filled",URL="$coreProcessorOutputObserver_8h.html"];
  Node42 -> Node38 [color="midnightblue",fontsize="10",style="solid",fontname="Helvetica"];
  Node42 -> Node4 [color="midnightblue",fontsize="10",style="solid",fontname="Helvetica"];
  Node42 -> Node37 [color="midnightblue",fontsize="10",style="solid",fontname="Helvetica"];
  Node40 -> Node43 [color="midnightblue",fontsize="10",style="solid",fontname="Helvetica"];
  Node43 [label="coreCommonDataTypes.h",height=0.2,width=0.4,color="black", fillcolor="white", style="filled",URL="$coreCommonDataTypes_8h.html"];
  Node43 -> Node33 [color="midnightblue",fontsize="10",style="solid",fontname="Helvetica"];
  Node40 -> Node44 [color="midnightblue",fontsize="10",style="solid",fontname="Helvetica"];
  Node44 [label="coreRenderingTreeManager.h",height=0.2,width=0.4,color="black", fillcolor="white", style="filled",URL="$coreRenderingTreeManager_8h.html"];
  Node44 -> Node38 [color="midnightblue",fontsize="10",style="solid",fontname="Helvetica"];
  Node44 -> Node4 [color="midnightblue",fontsize="10",style="solid",fontname="Helvetica"];
  Node44 -> Node24 [color="midnightblue",fontsize="10",style="solid",fontname="Helvetica"];
  Node44 -> Node37 [color="midnightblue",fontsize="10",style="solid",fontname="Helvetica"];
  Node40 -> Node45 [color="midnightblue",fontsize="10",style="solid",fontname="Helvetica"];
  Node45 [label="coreBaseWindowFactory.h",height=0.2,width=0.4,color="red", fillcolor="white", style="filled",URL="$coreBaseWindowFactory_8h.html"];
  Node45 -> Node4 [color="midnightblue",fontsize="10",style="solid",fontname="Helvetica"];
  Node45 -> Node40 [color="midnightblue",fontsize="10",style="solid",fontname="Helvetica"];
  Node45 -> Node46 [color="midnightblue",fontsize="10",style="solid",fontname="Helvetica"];
  Node46 [label="coreWindowConfig.h",height=0.2,width=0.4,color="black", fillcolor="white", style="filled",URL="$coreWindowConfig_8h.html"];
  Node46 -> Node13 [color="midnightblue",fontsize="10",style="solid",fontname="Helvetica"];
  Node46 -> Node38 [color="midnightblue",fontsize="10",style="solid",fontname="Helvetica"];
  Node45 -> Node29 [color="midnightblue",fontsize="10",style="solid",fontname="Helvetica"];
  Node40 -> Node9 [color="midnightblue",fontsize="10",style="solid",fontname="Helvetica"];
  Node40 -> Node46 [color="midnightblue",fontsize="10",style="solid",fontname="Helvetica"];
  Node21 -> Node47 [color="midnightblue",fontsize="10",style="solid",fontname="Helvetica"];
  Node47 [label="coreCamera3D.h",height=0.2,width=0.4,color="black", fillcolor="white", style="filled",URL="$coreCamera3D_8h.html"];
  Node47 -> Node3 [color="midnightblue",fontsize="10",style="solid",fontname="Helvetica"];
  Node47 -> Node4 [color="midnightblue",fontsize="10",style="solid",fontname="Helvetica"];
  Node21 -> Node48 [color="midnightblue",fontsize="10",style="solid",fontname="Helvetica"];
  Node48 [label="coreSlicePlane.h",height=0.2,width=0.4,color="black", fillcolor="white", style="filled",URL="$coreSlicePlane_8h.html"];
  Node48 -> Node3 [color="midnightblue",fontsize="10",style="solid",fontname="Helvetica"];
  Node48 -> Node4 [color="midnightblue",fontsize="10",style="solid",fontname="Helvetica"];
  Node21 -> Node49 [color="midnightblue",fontsize="10",style="solid",fontname="Helvetica"];
  Node49 [label="coreDisplay2D.h",height=0.2,width=0.4,color="black", fillcolor="white", style="filled",URL="$coreDisplay2D_8h.html"];
  Node49 -> Node3 [color="midnightblue",fontsize="10",style="solid",fontname="Helvetica"];
  Node49 -> Node4 [color="midnightblue",fontsize="10",style="solid",fontname="Helvetica"];
  Node2 -> Node43 [color="midnightblue",fontsize="10",style="solid",fontname="Helvetica"];
  Node2 -> Node44 [color="midnightblue",fontsize="10",style="solid",fontname="Helvetica"];
  Node2 -> Node50 [color="midnightblue",fontsize="10",style="solid",fontname="Helvetica"];
  Node50 [label="coreRenderWindowLinker.h",height=0.2,width=0.4,color="black", fillcolor="white", style="filled",URL="$coreRenderWindowLinker_8h.html"];
  Node50 -> Node3 [color="midnightblue",fontsize="10",style="solid",fontname="Helvetica"];
  Node50 -> Node47 [color="midnightblue",fontsize="10",style="solid",fontname="Helvetica"];
  Node50 -> Node48 [color="midnightblue",fontsize="10",style="solid",fontname="Helvetica"];
  Node50 -> Node49 [color="midnightblue",fontsize="10",style="solid",fontname="Helvetica"];
  Node2 -> Node40 [color="midnightblue",fontsize="10",style="solid",fontname="Helvetica"];
}
