digraph "Apps/Gimias/GUI/Widgets/src/Workflow/coreWorkflowManagerWidget.cpp"
{
  edge [fontname="Helvetica",fontsize="10",labelfontname="Helvetica",labelfontsize="10"];
  node [fontname="Helvetica",fontsize="10",shape=record];
  Node1 [label="Apps/Gimias/GUI/Widgets\l/src/Workflow/coreWorkflowManager\lWidget.cpp",height=0.2,width=0.4,color="black", fillcolor="grey75", style="filled", fontcolor="black"];
  Node1 -> Node2 [color="midnightblue",fontsize="10",style="solid",fontname="Helvetica"];
  Node2 [label="coreWorkflowManagerWidget.h",height=0.2,width=0.4,color="black", fillcolor="white", style="filled",URL="$coreWorkflowManagerWidget_8h.html"];
  Node2 -> Node3 [color="midnightblue",fontsize="10",style="solid",fontname="Helvetica"];
  Node3 [label="coreWorkflowManagerWidgetUI.h",height=0.2,width=0.4,color="black", fillcolor="white", style="filled",URL="$coreWorkflowManagerWidgetUI_8h.html"];
  Node3 -> Node4 [color="midnightblue",fontsize="10",style="solid",fontname="Helvetica"];
  Node4 [label="wx/wx.h",height=0.2,width=0.4,color="grey75", fillcolor="white", style="filled"];
  Node3 -> Node5 [color="midnightblue",fontsize="10",style="solid",fontname="Helvetica"];
  Node5 [label="wx/image.h",height=0.2,width=0.4,color="grey75", fillcolor="white", style="filled"];
  Node3 -> Node6 [color="midnightblue",fontsize="10",style="solid",fontname="Helvetica"];
  Node6 [label="wx/treectrl.h",height=0.2,width=0.4,color="grey75", fillcolor="white", style="filled"];
  Node3 -> Node7 [color="midnightblue",fontsize="10",style="solid",fontname="Helvetica"];
  Node7 [label="wxID.h",height=0.2,width=0.4,color="black", fillcolor="white", style="filled",URL="$wxID_8h.html"];
  Node7 -> Node8 [color="midnightblue",fontsize="10",style="solid",fontname="Helvetica"];
  Node8 [label="string",height=0.2,width=0.4,color="grey75", fillcolor="white", style="filled"];
  Node7 -> Node9 [color="midnightblue",fontsize="10",style="solid",fontname="Helvetica"];
  Node9 [label="TpExtLibWxWidgetsWin32Header.h",height=0.2,width=0.4,color="grey75", fillcolor="white", style="filled"];
  Node1 -> Node10 [color="midnightblue",fontsize="10",style="solid",fontname="Helvetica"];
  Node10 [label="coreWorkflowManager.h",height=0.2,width=0.4,color="black", fillcolor="white", style="filled",URL="$coreWorkflowManager_8h.html"];
  Node10 -> Node11 [color="midnightblue",fontsize="10",style="solid",fontname="Helvetica"];
  Node11 [label="gmKernelWin32Header.h",height=0.2,width=0.4,color="grey75", fillcolor="white", style="filled"];
  Node10 -> Node12 [color="midnightblue",fontsize="10",style="solid",fontname="Helvetica"];
  Node12 [label="coreObject.h",height=0.2,width=0.4,color="black", fillcolor="white", style="filled",URL="$coreObject_8h.html"];
  Node12 -> Node13 [color="midnightblue",fontsize="10",style="solid",fontname="Helvetica"];
  Node13 [label="gmCommonObjectsWin32Header.h",height=0.2,width=0.4,color="grey75", fillcolor="white", style="filled"];
  Node12 -> Node14 [color="midnightblue",fontsize="10",style="solid",fontname="Helvetica"];
  Node14 [label="coreCommonMacros.h",height=0.2,width=0.4,color="black", fillcolor="white", style="filled",URL="$coreCommonMacros_8h.html"];
  Node12 -> Node15 [color="midnightblue",fontsize="10",style="solid",fontname="Helvetica"];
  Node15 [label="coreSmartPointerMacros.h",height=0.2,width=0.4,color="black", fillcolor="white", style="filled",URL="$coreSmartPointerMacros_8h.html"];
  Node15 -> Node14 [color="midnightblue",fontsize="10",style="solid",fontname="Helvetica"];
  Node15 -> Node16 [color="midnightblue",fontsize="10",style="solid",fontname="Helvetica"];
  Node16 [label="itkSmartPointer.h",height=0.2,width=0.4,color="grey75", fillcolor="white", style="filled"];
  Node12 -> Node17 [color="midnightblue",fontsize="10",style="solid",fontname="Helvetica"];
  Node17 [label="blTagMap.h",height=0.2,width=0.4,color="black", fillcolor="white", style="filled",URL="$blTagMap_8h.html"];
  Node17 -> Node18 [color="midnightblue",fontsize="10",style="solid",fontname="Helvetica"];
  Node18 [label="blLightObject.h",height=0.2,width=0.4,color="black", fillcolor="white", style="filled",URL="$blLightObject_8h.html"];
  Node18 -> Node19 [color="midnightblue",fontsize="10",style="solid",fontname="Helvetica"];
  Node19 [label="blMacro.h",height=0.2,width=0.4,color="black", fillcolor="white", style="filled",URL="$blMacro_8h.html"];
  Node18 -> Node20 [color="midnightblue",fontsize="10",style="solid",fontname="Helvetica"];
  Node20 [label="blSmartPointer.h",height=0.2,width=0.4,color="black", fillcolor="white", style="filled",URL="$blSmartPointer_8h.html"];
  Node18 -> Node21 [color="midnightblue",fontsize="10",style="solid",fontname="Helvetica"];
  Node21 [label="BaseLibWin32Header.h",height=0.2,width=0.4,color="grey75", fillcolor="white", style="filled"];
  Node17 -> Node22 [color="midnightblue",fontsize="10",style="solid",fontname="Helvetica"];
  Node22 [label="blTag.h",height=0.2,width=0.4,color="red", fillcolor="white", style="filled",URL="$blTag_8h.html"];
  Node22 -> Node18 [color="midnightblue",fontsize="10",style="solid",fontname="Helvetica"];
  Node22 -> Node23 [color="midnightblue",fontsize="10",style="solid",fontname="Helvetica"];
  Node23 [label="CILabExceptionMacros.h",height=0.2,width=0.4,color="red", fillcolor="white", style="filled",URL="$CILabExceptionMacros_8h.html"];
  Node23 -> Node8 [color="midnightblue",fontsize="10",style="solid",fontname="Helvetica"];
  Node22 -> Node8 [color="midnightblue",fontsize="10",style="solid",fontname="Helvetica"];
  Node17 -> Node23 [color="midnightblue",fontsize="10",style="solid",fontname="Helvetica"];
  Node17 -> Node24 [color="midnightblue",fontsize="10",style="solid",fontname="Helvetica"];
  Node24 [label="boost/signals.hpp",height=0.2,width=0.4,color="grey75", fillcolor="white", style="filled"];
  Node17 -> Node25 [color="midnightblue",fontsize="10",style="solid",fontname="Helvetica"];
  Node25 [label="boost/bind.hpp",height=0.2,width=0.4,color="grey75", fillcolor="white", style="filled"];
  Node17 -> Node8 [color="midnightblue",fontsize="10",style="solid",fontname="Helvetica"];
  Node17 -> Node26 [color="midnightblue",fontsize="10",style="solid",fontname="Helvetica"];
  Node26 [label="map",height=0.2,width=0.4,color="grey75", fillcolor="white", style="filled"];
  Node12 -> Node27 [color="midnightblue",fontsize="10",style="solid",fontname="Helvetica"];
  Node27 [label="itkLightObject.h",height=0.2,width=0.4,color="grey75", fillcolor="white", style="filled"];
  Node12 -> Node28 [color="midnightblue",fontsize="10",style="solid",fontname="Helvetica"];
  Node28 [label="itkTimeStamp.h",height=0.2,width=0.4,color="grey75", fillcolor="white", style="filled"];
  Node12 -> Node24 [color="midnightblue",fontsize="10",style="solid",fontname="Helvetica"];
  Node12 -> Node25 [color="midnightblue",fontsize="10",style="solid",fontname="Helvetica"];
  Node10 -> Node29 [color="midnightblue",fontsize="10",style="solid",fontname="Helvetica"];
  Node29 [label="coreWorkflow.h",height=0.2,width=0.4,color="black", fillcolor="white", style="filled",URL="$coreWorkflow_8h.html"];
  Node29 -> Node30 [color="midnightblue",fontsize="10",style="solid",fontname="Helvetica"];
  Node30 [label="gmWorkflowWin32Header.h",height=0.2,width=0.4,color="grey75", fillcolor="white", style="filled"];
  Node29 -> Node12 [color="midnightblue",fontsize="10",style="solid",fontname="Helvetica"];
  Node29 -> Node31 [color="midnightblue",fontsize="10",style="solid",fontname="Helvetica"];
  Node31 [label="coreWorkflowStep.h",height=0.2,width=0.4,color="black", fillcolor="white", style="filled",URL="$coreWorkflowStep_8h.html"];
  Node31 -> Node30 [color="midnightblue",fontsize="10",style="solid",fontname="Helvetica"];
  Node31 -> Node12 [color="midnightblue",fontsize="10",style="solid",fontname="Helvetica"];
  Node31 -> Node32 [color="midnightblue",fontsize="10",style="solid",fontname="Helvetica"];
  Node32 [label="coreWorkflowSubStep.h",height=0.2,width=0.4,color="black", fillcolor="white", style="filled",URL="$coreWorkflowSubStep_8h.html"];
  Node32 -> Node30 [color="midnightblue",fontsize="10",style="solid",fontname="Helvetica"];
  Node32 -> Node12 [color="midnightblue",fontsize="10",style="solid",fontname="Helvetica"];
  Node31 -> Node17 [color="midnightblue",fontsize="10",style="solid",fontname="Helvetica"];
  Node10 -> Node33 [color="midnightblue",fontsize="10",style="solid",fontname="Helvetica"];
  Node33 [label="coreDataHolder.h",height=0.2,width=0.4,color="black", fillcolor="white", style="filled",URL="$coreDataHolder_8h.html"];
  Node33 -> Node13 [color="midnightblue",fontsize="10",style="solid",fontname="Helvetica"];
  Node33 -> Node34 [color="midnightblue",fontsize="10",style="solid",fontname="Helvetica"];
  Node34 [label="coreDataHolderBase.h",height=0.2,width=0.4,color="black", fillcolor="white", style="filled",URL="$coreDataHolderBase_8h.html"];
  Node34 -> Node13 [color="midnightblue",fontsize="10",style="solid",fontname="Helvetica"];
  Node34 -> Node12 [color="midnightblue",fontsize="10",style="solid",fontname="Helvetica"];
  Node34 -> Node25 [color="midnightblue",fontsize="10",style="solid",fontname="Helvetica"];
  Node34 -> Node24 [color="midnightblue",fontsize="10",style="solid",fontname="Helvetica"];
  Node33 -> Node25 [color="midnightblue",fontsize="10",style="solid",fontname="Helvetica"];
  Node33 -> Node24 [color="midnightblue",fontsize="10",style="solid",fontname="Helvetica"];
  Node33 -> Node35 [color="midnightblue",fontsize="10",style="solid",fontname="Helvetica"];
  Node35 [label="coreDataHolder.txx",height=0.2,width=0.4,color="grey75", fillcolor="white", style="filled"];
  Node33 -> Node33 [color="midnightblue",fontsize="10",style="solid",fontname="Helvetica"];
  Node33 -> Node36 [color="midnightblue",fontsize="10",style="solid",fontname="Helvetica"];
  Node36 [label="/home/el1mc/src/bitbucket\l/cistib/cilab-gimiax/src\l/Apps/Gimias/Core/CommonObjects\l/src/coreAssert.h",height=0.2,width=0.4,color="grey75", fillcolor="white", style="filled"];
  Node1 -> Node37 [color="midnightblue",fontsize="10",style="solid",fontname="Helvetica"];
  Node37 [label="coreWorkflowEditorWidget.h",height=0.2,width=0.4,color="black", fillcolor="white", style="filled",URL="$coreWorkflowEditorWidget_8h.html"];
  Node37 -> Node38 [color="midnightblue",fontsize="10",style="solid",fontname="Helvetica"];
  Node38 [label="coreWorkflowEditorWidgetUI.h",height=0.2,width=0.4,color="black", fillcolor="white", style="filled",URL="$coreWorkflowEditorWidgetUI_8h.html"];
  Node38 -> Node4 [color="midnightblue",fontsize="10",style="solid",fontname="Helvetica"];
  Node38 -> Node5 [color="midnightblue",fontsize="10",style="solid",fontname="Helvetica"];
  Node38 -> Node6 [color="midnightblue",fontsize="10",style="solid",fontname="Helvetica"];
  Node38 -> Node7 [color="midnightblue",fontsize="10",style="solid",fontname="Helvetica"];
  Node38 -> Node39 [color="midnightblue",fontsize="10",style="solid",fontname="Helvetica"];
  Node39 [label="blwxTreeCtrl.h",height=0.2,width=0.4,color="black", fillcolor="white", style="filled",URL="$blwxTreeCtrl_8h.html"];
  Node39 -> Node9 [color="midnightblue",fontsize="10",style="solid",fontname="Helvetica"];
  Node39 -> Node6 [color="midnightblue",fontsize="10",style="solid",fontname="Helvetica"];
  Node38 -> Node40 [color="midnightblue",fontsize="10",style="solid",fontname="Helvetica"];
  Node40 [label="coreTreeWorkflow.h",height=0.2,width=0.4,color="black", fillcolor="white", style="filled",URL="$coreTreeWorkflow_8h.html"];
  Node40 -> Node29 [color="midnightblue",fontsize="10",style="solid",fontname="Helvetica"];
  Node40 -> Node41 [color="midnightblue",fontsize="10",style="solid",fontname="Helvetica"];
  Node41 [label="coreBaseTreeWorkflow.h",height=0.2,width=0.4,color="red", fillcolor="white", style="filled",URL="$coreBaseTreeWorkflow_8h.html"];
  Node38 -> Node42 [color="midnightblue",fontsize="10",style="solid",fontname="Helvetica"];
  Node42 [label="coreTreeRegisteredWindows.h",height=0.2,width=0.4,color="black", fillcolor="white", style="filled",URL="$coreTreeRegisteredWindows_8h.html"];
  Node42 -> Node29 [color="midnightblue",fontsize="10",style="solid",fontname="Helvetica"];
  Node42 -> Node41 [color="midnightblue",fontsize="10",style="solid",fontname="Helvetica"];
  Node37 -> Node29 [color="midnightblue",fontsize="10",style="solid",fontname="Helvetica"];
  Node1 -> Node43 [color="midnightblue",fontsize="10",style="solid",fontname="Helvetica"];
  Node43 [label="coreWxMitkGraphicalInterface.h",height=0.2,width=0.4,color="black", fillcolor="white", style="filled",URL="$coreWxMitkGraphicalInterface_8h.html"];
  Node43 -> Node12 [color="midnightblue",fontsize="10",style="solid",fontname="Helvetica"];
  Node43 -> Node44 [color="midnightblue",fontsize="10",style="solid",fontname="Helvetica"];
  Node44 [label="coreWindowConfig.h",height=0.2,width=0.4,color="black", fillcolor="white", style="filled",URL="$coreWindowConfig_8h.html"];
  Node44 -> Node8 [color="midnightblue",fontsize="10",style="solid",fontname="Helvetica"];
  Node44 -> Node11 [color="midnightblue",fontsize="10",style="solid",fontname="Helvetica"];
  Node43 -> Node45 [color="midnightblue",fontsize="10",style="solid",fontname="Helvetica"];
  Node45 [label="dynModuleExecutionImpl.h",height=0.2,width=0.4,color="black", fillcolor="white", style="filled",URL="$dynModuleExecutionImpl_8h.html"];
  Node45 -> Node46 [color="midnightblue",fontsize="10",style="solid",fontname="Helvetica"];
  Node46 [label="DynLibWin32Header.h",height=0.2,width=0.4,color="grey75", fillcolor="white", style="filled"];
  Node45 -> Node47 [color="midnightblue",fontsize="10",style="solid",fontname="Helvetica"];
  Node47 [label="ModuleDescription.h",height=0.2,width=0.4,color="grey75", fillcolor="white", style="filled"];
  Node45 -> Node18 [color="midnightblue",fontsize="10",style="solid",fontname="Helvetica"];
  Node45 -> Node48 [color="midnightblue",fontsize="10",style="solid",fontname="Helvetica"];
  Node48 [label="list",height=0.2,width=0.4,color="grey75", fillcolor="white", style="filled"];
  Node45 -> Node26 [color="midnightblue",fontsize="10",style="solid",fontname="Helvetica"];
  Node45 -> Node49 [color="midnightblue",fontsize="10",style="solid",fontname="Helvetica"];
  Node49 [label="dynUpdateCallback.h",height=0.2,width=0.4,color="black", fillcolor="white", style="filled",URL="$dynUpdateCallback_8h.html"];
  Node49 -> Node46 [color="midnightblue",fontsize="10",style="solid",fontname="Helvetica"];
  Node49 -> Node27 [color="midnightblue",fontsize="10",style="solid",fontname="Helvetica"];
  Node45 -> Node17 [color="midnightblue",fontsize="10",style="solid",fontname="Helvetica"];
  Node43 -> Node26 [color="midnightblue",fontsize="10",style="solid",fontname="Helvetica"];
  Node43 -> Node8 [color="midnightblue",fontsize="10",style="solid",fontname="Helvetica"];
  Node1 -> Node50 [color="midnightblue",fontsize="10",style="solid",fontname="Helvetica"];
  Node50 [label="GenericWorkflow.xpm",height=0.2,width=0.4,color="grey75", fillcolor="white", style="filled"];
}
