digraph "Apps/Gimias/GUI/Widgets/src/Workflow/coreEmptyToolWidget.cpp"
{
  edge [fontname="Helvetica",fontsize="10",labelfontname="Helvetica",labelfontsize="10"];
  node [fontname="Helvetica",fontsize="10",shape=record];
  Node1 [label="Apps/Gimias/GUI/Widgets\l/src/Workflow/coreEmptyToolWidget.cpp",height=0.2,width=0.4,color="black", fillcolor="grey75", style="filled", fontcolor="black"];
  Node1 -> Node2 [color="midnightblue",fontsize="10",style="solid",fontname="Helvetica"];
  Node2 [label="coreEmptyToolWidget.h",height=0.2,width=0.4,color="black", fillcolor="white", style="filled",URL="$coreEmptyToolWidget_8h.html"];
  Node2 -> Node3 [color="midnightblue",fontsize="10",style="solid",fontname="Helvetica"];
  Node3 [label="coreProcessingWidget.h",height=0.2,width=0.4,color="black", fillcolor="white", style="filled",URL="$coreProcessingWidget_8h.html"];
  Node3 -> Node4 [color="midnightblue",fontsize="10",style="solid",fontname="Helvetica"];
  Node4 [label="wx/wx.h",height=0.2,width=0.4,color="grey75", fillcolor="white", style="filled"];
  Node3 -> Node5 [color="midnightblue",fontsize="10",style="solid",fontname="Helvetica"];
  Node5 [label="wx/image.h",height=0.2,width=0.4,color="grey75", fillcolor="white", style="filled"];
  Node3 -> Node6 [color="midnightblue",fontsize="10",style="solid",fontname="Helvetica"];
  Node6 [label="coreDataEntityHolder.h",height=0.2,width=0.4,color="black", fillcolor="white", style="filled",URL="$coreDataEntityHolder_8h.html"];
  Node6 -> Node7 [color="midnightblue",fontsize="10",style="solid",fontname="Helvetica"];
  Node7 [label="gmDataHandlingWin32Header.h",height=0.2,width=0.4,color="grey75", fillcolor="white", style="filled"];
  Node6 -> Node8 [color="midnightblue",fontsize="10",style="solid",fontname="Helvetica"];
  Node8 [label="coreDataEntity.h",height=0.2,width=0.4,color="red", fillcolor="white", style="filled",URL="$coreDataEntity_8h.html"];
  Node8 -> Node7 [color="midnightblue",fontsize="10",style="solid",fontname="Helvetica"];
  Node8 -> Node9 [color="midnightblue",fontsize="10",style="solid",fontname="Helvetica"];
  Node9 [label="coreObject.h",height=0.2,width=0.4,color="red", fillcolor="white", style="filled",URL="$coreObject_8h.html"];
  Node9 -> Node10 [color="midnightblue",fontsize="10",style="solid",fontname="Helvetica"];
  Node10 [label="coreSmartPointerMacros.h",height=0.2,width=0.4,color="red", fillcolor="white", style="filled",URL="$coreSmartPointerMacros_8h.html"];
  Node9 -> Node11 [color="midnightblue",fontsize="10",style="solid",fontname="Helvetica"];
  Node11 [label="blTagMap.h",height=0.2,width=0.4,color="red", fillcolor="white", style="filled",URL="$blTagMap_8h.html"];
  Node11 -> Node12 [color="midnightblue",fontsize="10",style="solid",fontname="Helvetica"];
  Node12 [label="boost/signals.hpp",height=0.2,width=0.4,color="grey75", fillcolor="white", style="filled"];
  Node11 -> Node13 [color="midnightblue",fontsize="10",style="solid",fontname="Helvetica"];
  Node13 [label="string",height=0.2,width=0.4,color="grey75", fillcolor="white", style="filled"];
  Node11 -> Node14 [color="midnightblue",fontsize="10",style="solid",fontname="Helvetica"];
  Node14 [label="map",height=0.2,width=0.4,color="grey75", fillcolor="white", style="filled"];
  Node9 -> Node12 [color="midnightblue",fontsize="10",style="solid",fontname="Helvetica"];
  Node8 -> Node15 [color="midnightblue",fontsize="10",style="solid",fontname="Helvetica"];
  Node15 [label="coreDataEntityMetadata.h",height=0.2,width=0.4,color="black", fillcolor="white", style="filled",URL="$coreDataEntityMetadata_8h.html"];
  Node15 -> Node7 [color="midnightblue",fontsize="10",style="solid",fontname="Helvetica"];
  Node15 -> Node9 [color="midnightblue",fontsize="10",style="solid",fontname="Helvetica"];
  Node15 -> Node11 [color="midnightblue",fontsize="10",style="solid",fontname="Helvetica"];
  Node8 -> Node16 [color="midnightblue",fontsize="10",style="solid",fontname="Helvetica"];
  Node16 [label="coreDataEntityImpl.h",height=0.2,width=0.4,color="red", fillcolor="white", style="filled",URL="$coreDataEntityImpl_8h.html"];
  Node16 -> Node7 [color="midnightblue",fontsize="10",style="solid",fontname="Helvetica"];
  Node16 -> Node9 [color="midnightblue",fontsize="10",style="solid",fontname="Helvetica"];
  Node16 -> Node13 [color="midnightblue",fontsize="10",style="solid",fontname="Helvetica"];
  Node16 -> Node11 [color="midnightblue",fontsize="10",style="solid",fontname="Helvetica"];
  Node8 -> Node17 [color="midnightblue",fontsize="10",style="solid",fontname="Helvetica"];
  Node17 [label="coreDataEntityImplFactory.h",height=0.2,width=0.4,color="red", fillcolor="white", style="filled",URL="$coreDataEntityImplFactory_8h.html"];
  Node17 -> Node7 [color="midnightblue",fontsize="10",style="solid",fontname="Helvetica"];
  Node17 -> Node9 [color="midnightblue",fontsize="10",style="solid",fontname="Helvetica"];
  Node17 -> Node13 [color="midnightblue",fontsize="10",style="solid",fontname="Helvetica"];
  Node17 -> Node11 [color="midnightblue",fontsize="10",style="solid",fontname="Helvetica"];
  Node17 -> Node16 [color="midnightblue",fontsize="10",style="solid",fontname="Helvetica"];
  Node17 -> Node18 [color="midnightblue",fontsize="10",style="solid",fontname="Helvetica"];
  Node18 [label="coreDataEntityTypes.h",height=0.2,width=0.4,color="black", fillcolor="white", style="filled",URL="$coreDataEntityTypes_8h.html"];
  Node8 -> Node18 [color="midnightblue",fontsize="10",style="solid",fontname="Helvetica"];
  Node8 -> Node19 [color="midnightblue",fontsize="10",style="solid",fontname="Helvetica"];
  Node19 [label="coreDataEntityPreview.h",height=0.2,width=0.4,color="black", fillcolor="white", style="filled",URL="$coreDataEntityPreview_8h.html"];
  Node19 -> Node7 [color="midnightblue",fontsize="10",style="solid",fontname="Helvetica"];
  Node19 -> Node9 [color="midnightblue",fontsize="10",style="solid",fontname="Helvetica"];
  Node8 -> Node13 [color="midnightblue",fontsize="10",style="solid",fontname="Helvetica"];
  Node8 -> Node12 [color="midnightblue",fontsize="10",style="solid",fontname="Helvetica"];
  Node8 -> Node6 [color="midnightblue",fontsize="10",style="solid",fontname="Helvetica"];
  Node6 -> Node20 [color="midnightblue",fontsize="10",style="solid",fontname="Helvetica"];
  Node20 [label="coreDataHolder.h",height=0.2,width=0.4,color="red", fillcolor="white", style="filled",URL="$coreDataHolder_8h.html"];
  Node20 -> Node12 [color="midnightblue",fontsize="10",style="solid",fontname="Helvetica"];
  Node20 -> Node20 [color="midnightblue",fontsize="10",style="solid",fontname="Helvetica"];
  Node3 -> Node21 [color="midnightblue",fontsize="10",style="solid",fontname="Helvetica"];
  Node21 [label="coreRenderingTree.h",height=0.2,width=0.4,color="black", fillcolor="white", style="filled",URL="$coreRenderingTree_8h.html"];
  Node21 -> Node22 [color="midnightblue",fontsize="10",style="solid",fontname="Helvetica"];
  Node22 [label="gmKernelWin32Header.h",height=0.2,width=0.4,color="grey75", fillcolor="white", style="filled"];
  Node21 -> Node9 [color="midnightblue",fontsize="10",style="solid",fontname="Helvetica"];
  Node21 -> Node8 [color="midnightblue",fontsize="10",style="solid",fontname="Helvetica"];
  Node21 -> Node12 [color="midnightblue",fontsize="10",style="solid",fontname="Helvetica"];
  Node21 -> Node14 [color="midnightblue",fontsize="10",style="solid",fontname="Helvetica"];
  Node21 -> Node23 [color="midnightblue",fontsize="10",style="solid",fontname="Helvetica"];
  Node23 [label="coreRenderingTree.txx",height=0.2,width=0.4,color="grey75", fillcolor="white", style="filled"];
  Node3 -> Node24 [color="midnightblue",fontsize="10",style="solid",fontname="Helvetica"];
  Node24 [label="coreDataEntityListBrowser.h",height=0.2,width=0.4,color="black", fillcolor="white", style="filled",URL="$coreDataEntityListBrowser_8h.html"];
  Node24 -> Node25 [color="midnightblue",fontsize="10",style="solid",fontname="Helvetica"];
  Node25 [label="gmWidgetsWin32Header.h",height=0.2,width=0.4,color="grey75", fillcolor="white", style="filled"];
  Node24 -> Node9 [color="midnightblue",fontsize="10",style="solid",fontname="Helvetica"];
  Node24 -> Node26 [color="midnightblue",fontsize="10",style="solid",fontname="Helvetica"];
  Node26 [label="coreDataEntityList.h",height=0.2,width=0.4,color="red", fillcolor="white", style="filled",URL="$coreDataEntityList_8h.html"];
  Node26 -> Node22 [color="midnightblue",fontsize="10",style="solid",fontname="Helvetica"];
  Node26 -> Node9 [color="midnightblue",fontsize="10",style="solid",fontname="Helvetica"];
  Node26 -> Node8 [color="midnightblue",fontsize="10",style="solid",fontname="Helvetica"];
  Node26 -> Node6 [color="midnightblue",fontsize="10",style="solid",fontname="Helvetica"];
  Node26 -> Node12 [color="midnightblue",fontsize="10",style="solid",fontname="Helvetica"];
  Node26 -> Node14 [color="midnightblue",fontsize="10",style="solid",fontname="Helvetica"];
  Node24 -> Node20 [color="midnightblue",fontsize="10",style="solid",fontname="Helvetica"];
  Node24 -> Node12 [color="midnightblue",fontsize="10",style="solid",fontname="Helvetica"];
  Node24 -> Node21 [color="midnightblue",fontsize="10",style="solid",fontname="Helvetica"];
  Node24 -> Node27 [color="midnightblue",fontsize="10",style="solid",fontname="Helvetica"];
  Node27 [label="coreBaseWindow.h",height=0.2,width=0.4,color="black", fillcolor="white", style="filled",URL="$coreBaseWindow_8h.html"];
  Node27 -> Node22 [color="midnightblue",fontsize="10",style="solid",fontname="Helvetica"];
  Node27 -> Node21 [color="midnightblue",fontsize="10",style="solid",fontname="Helvetica"];
  Node27 -> Node28 [color="midnightblue",fontsize="10",style="solid",fontname="Helvetica"];
  Node28 [label="coreBaseProcessor.h",height=0.2,width=0.4,color="red", fillcolor="white", style="filled",URL="$coreBaseProcessor_8h.html"];
  Node28 -> Node9 [color="midnightblue",fontsize="10",style="solid",fontname="Helvetica"];
  Node28 -> Node20 [color="midnightblue",fontsize="10",style="solid",fontname="Helvetica"];
  Node28 -> Node8 [color="midnightblue",fontsize="10",style="solid",fontname="Helvetica"];
  Node28 -> Node29 [color="midnightblue",fontsize="10",style="solid",fontname="Helvetica"];
  Node29 [label="coreBaseFilter.h",height=0.2,width=0.4,color="black", fillcolor="white", style="filled",URL="$coreBaseFilter_8h.html"];
  Node29 -> Node9 [color="midnightblue",fontsize="10",style="solid",fontname="Helvetica"];
  Node29 -> Node20 [color="midnightblue",fontsize="10",style="solid",fontname="Helvetica"];
  Node29 -> Node8 [color="midnightblue",fontsize="10",style="solid",fontname="Helvetica"];
  Node29 -> Node30 [color="midnightblue",fontsize="10",style="solid",fontname="Helvetica"];
  Node30 [label="coreBaseFilterInputPort.h",height=0.2,width=0.4,color="red", fillcolor="white", style="filled",URL="$coreBaseFilterInputPort_8h.html"];
  Node30 -> Node9 [color="midnightblue",fontsize="10",style="solid",fontname="Helvetica"];
  Node29 -> Node31 [color="midnightblue",fontsize="10",style="solid",fontname="Helvetica"];
  Node31 [label="coreBaseFilterOutputPort.h",height=0.2,width=0.4,color="red", fillcolor="white", style="filled",URL="$coreBaseFilterOutputPort_8h.html"];
  Node31 -> Node9 [color="midnightblue",fontsize="10",style="solid",fontname="Helvetica"];
  Node31 -> Node11 [color="midnightblue",fontsize="10",style="solid",fontname="Helvetica"];
  Node29 -> Node32 [color="midnightblue",fontsize="10",style="solid",fontname="Helvetica"];
  Node32 [label="coreUpdateCallback.h",height=0.2,width=0.4,color="red", fillcolor="white", style="filled",URL="$coreUpdateCallback_8h.html"];
  Node32 -> Node9 [color="midnightblue",fontsize="10",style="solid",fontname="Helvetica"];
  Node29 -> Node33 [color="midnightblue",fontsize="10",style="solid",fontname="Helvetica"];
  Node33 [label="coreBaseFilter.txx",height=0.2,width=0.4,color="grey75", fillcolor="white", style="filled"];
  Node27 -> Node34 [color="midnightblue",fontsize="10",style="solid",fontname="Helvetica"];
  Node34 [label="coreProcessorOutputObserver.h",height=0.2,width=0.4,color="black", fillcolor="white", style="filled",URL="$coreProcessorOutputObserver_8h.html"];
  Node34 -> Node22 [color="midnightblue",fontsize="10",style="solid",fontname="Helvetica"];
  Node34 -> Node9 [color="midnightblue",fontsize="10",style="solid",fontname="Helvetica"];
  Node34 -> Node21 [color="midnightblue",fontsize="10",style="solid",fontname="Helvetica"];
  Node27 -> Node35 [color="midnightblue",fontsize="10",style="solid",fontname="Helvetica"];
  Node35 [label="coreCommonDataTypes.h",height=0.2,width=0.4,color="black", fillcolor="white", style="filled",URL="$coreCommonDataTypes_8h.html"];
  Node35 -> Node20 [color="midnightblue",fontsize="10",style="solid",fontname="Helvetica"];
  Node27 -> Node36 [color="midnightblue",fontsize="10",style="solid",fontname="Helvetica"];
  Node36 [label="coreRenderingTreeManager.h",height=0.2,width=0.4,color="black", fillcolor="white", style="filled",URL="$coreRenderingTreeManager_8h.html"];
  Node36 -> Node22 [color="midnightblue",fontsize="10",style="solid",fontname="Helvetica"];
  Node36 -> Node9 [color="midnightblue",fontsize="10",style="solid",fontname="Helvetica"];
  Node36 -> Node8 [color="midnightblue",fontsize="10",style="solid",fontname="Helvetica"];
  Node36 -> Node21 [color="midnightblue",fontsize="10",style="solid",fontname="Helvetica"];
  Node27 -> Node37 [color="midnightblue",fontsize="10",style="solid",fontname="Helvetica"];
  Node37 [label="coreBaseWindowFactory.h",height=0.2,width=0.4,color="red", fillcolor="white", style="filled",URL="$coreBaseWindowFactory_8h.html"];
  Node37 -> Node9 [color="midnightblue",fontsize="10",style="solid",fontname="Helvetica"];
  Node37 -> Node27 [color="midnightblue",fontsize="10",style="solid",fontname="Helvetica"];
  Node37 -> Node38 [color="midnightblue",fontsize="10",style="solid",fontname="Helvetica"];
  Node38 [label="coreWindowConfig.h",height=0.2,width=0.4,color="black", fillcolor="white", style="filled",URL="$coreWindowConfig_8h.html"];
  Node38 -> Node13 [color="midnightblue",fontsize="10",style="solid",fontname="Helvetica"];
  Node38 -> Node22 [color="midnightblue",fontsize="10",style="solid",fontname="Helvetica"];
  Node27 -> Node11 [color="midnightblue",fontsize="10",style="solid",fontname="Helvetica"];
  Node27 -> Node38 [color="midnightblue",fontsize="10",style="solid",fontname="Helvetica"];
  Node24 -> Node39 [color="midnightblue",fontsize="10",style="solid",fontname="Helvetica"];
  Node39 [label="wx/treebase.h",height=0.2,width=0.4,color="grey75", fillcolor="white", style="filled"];
  Node24 -> Node40 [color="midnightblue",fontsize="10",style="solid",fontname="Helvetica"];
  Node40 [label="wx/panel.h",height=0.2,width=0.4,color="grey75", fillcolor="white", style="filled"];
  Node24 -> Node41 [color="midnightblue",fontsize="10",style="solid",fontname="Helvetica"];
  Node41 [label="wxID.h",height=0.2,width=0.4,color="red", fillcolor="white", style="filled",URL="$wxID_8h.html"];
  Node41 -> Node13 [color="midnightblue",fontsize="10",style="solid",fontname="Helvetica"];
  Node3 -> Node29 [color="midnightblue",fontsize="10",style="solid",fontname="Helvetica"];
  Node3 -> Node34 [color="midnightblue",fontsize="10",style="solid",fontname="Helvetica"];
  Node3 -> Node42 [color="midnightblue",fontsize="10",style="solid",fontname="Helvetica"];
  Node42 [label="coreProcessorOutputsObserver\lBuilder.h",height=0.2,width=0.4,color="black", fillcolor="white", style="filled",URL="$coreProcessorOutputsObserverBuilder_8h.html"];
  Node42 -> Node22 [color="midnightblue",fontsize="10",style="solid",fontname="Helvetica"];
  Node42 -> Node28 [color="midnightblue",fontsize="10",style="solid",fontname="Helvetica"];
  Node42 -> Node34 [color="midnightblue",fontsize="10",style="solid",fontname="Helvetica"];
  Node42 -> Node10 [color="midnightblue",fontsize="10",style="solid",fontname="Helvetica"];
  Node42 -> Node21 [color="midnightblue",fontsize="10",style="solid",fontname="Helvetica"];
  Node42 -> Node9 [color="midnightblue",fontsize="10",style="solid",fontname="Helvetica"];
  Node3 -> Node43 [color="midnightblue",fontsize="10",style="solid",fontname="Helvetica"];
  Node43 [label="coreUserHelperWidget.h",height=0.2,width=0.4,color="black", fillcolor="white", style="filled",URL="$coreUserHelperWidget_8h.html"];
  Node43 -> Node25 [color="midnightblue",fontsize="10",style="solid",fontname="Helvetica"];
  Node43 -> Node40 [color="midnightblue",fontsize="10",style="solid",fontname="Helvetica"];
  Node43 -> Node13 [color="midnightblue",fontsize="10",style="solid",fontname="Helvetica"];
  Node43 -> Node44 [color="midnightblue",fontsize="10",style="solid",fontname="Helvetica"];
  Node44 [label="coreUserHelperWidgetUI.h",height=0.2,width=0.4,color="black", fillcolor="white", style="filled",URL="$coreUserHelperWidgetUI_8h.html"];
  Node44 -> Node4 [color="midnightblue",fontsize="10",style="solid",fontname="Helvetica"];
  Node44 -> Node5 [color="midnightblue",fontsize="10",style="solid",fontname="Helvetica"];
  Node43 -> Node27 [color="midnightblue",fontsize="10",style="solid",fontname="Helvetica"];
  Node43 -> Node41 [color="midnightblue",fontsize="10",style="solid",fontname="Helvetica"];
  Node3 -> Node27 [color="midnightblue",fontsize="10",style="solid",fontname="Helvetica"];
  Node3 -> Node45 [color="midnightblue",fontsize="10",style="solid",fontname="Helvetica"];
  Node45 [label="coreSelectionToolWidget.h",height=0.2,width=0.4,color="black", fillcolor="white", style="filled",URL="$coreSelectionToolWidget_8h.html"];
  Node45 -> Node25 [color="midnightblue",fontsize="10",style="solid",fontname="Helvetica"];
  Node45 -> Node27 [color="midnightblue",fontsize="10",style="solid",fontname="Helvetica"];
  Node3 -> Node46 [color="midnightblue",fontsize="10",style="solid",fontname="Helvetica"];
  Node46 [label="coreSelectionToolboxWidget.h",height=0.2,width=0.4,color="black", fillcolor="white", style="filled",URL="$coreSelectionToolboxWidget_8h.html"];
  Node46 -> Node27 [color="midnightblue",fontsize="10",style="solid",fontname="Helvetica"];
  Node46 -> Node45 [color="midnightblue",fontsize="10",style="solid",fontname="Helvetica"];
  Node46 -> Node47 [color="midnightblue",fontsize="10",style="solid",fontname="Helvetica"];
  Node47 [label="coreBaseToolboxWidget.h",height=0.2,width=0.4,color="black", fillcolor="white", style="filled",URL="$coreBaseToolboxWidget_8h.html"];
  Node47 -> Node27 [color="midnightblue",fontsize="10",style="solid",fontname="Helvetica"];
  Node3 -> Node48 [color="midnightblue",fontsize="10",style="solid",fontname="Helvetica"];
  Node48 [label="corePluginTabFactory.h",height=0.2,width=0.4,color="black", fillcolor="white", style="filled",URL="$corePluginTabFactory_8h.html"];
  Node48 -> Node49 [color="midnightblue",fontsize="10",style="solid",fontname="Helvetica"];
  Node49 [label="corePluginTab.h",height=0.2,width=0.4,color="red", fillcolor="white", style="filled",URL="$corePluginTab_8h.html"];
  Node49 -> Node9 [color="midnightblue",fontsize="10",style="solid",fontname="Helvetica"];
  Node49 -> Node26 [color="midnightblue",fontsize="10",style="solid",fontname="Helvetica"];
  Node49 -> Node36 [color="midnightblue",fontsize="10",style="solid",fontname="Helvetica"];
  Node49 -> Node20 [color="midnightblue",fontsize="10",style="solid",fontname="Helvetica"];
  Node49 -> Node8 [color="midnightblue",fontsize="10",style="solid",fontname="Helvetica"];
  Node49 -> Node27 [color="midnightblue",fontsize="10",style="solid",fontname="Helvetica"];
  Node49 -> Node38 [color="midnightblue",fontsize="10",style="solid",fontname="Helvetica"];
  Node49 -> Node40 [color="midnightblue",fontsize="10",style="solid",fontname="Helvetica"];
  Node48 -> Node9 [color="midnightblue",fontsize="10",style="solid",fontname="Helvetica"];
  Node2 -> Node50 [color="midnightblue",fontsize="10",style="solid",fontname="Helvetica"];
  Node50 [label="coreEmptyToolWidgetUI.h",height=0.2,width=0.4,color="black", fillcolor="white", style="filled",URL="$coreEmptyToolWidgetUI_8h.html"];
  Node50 -> Node4 [color="midnightblue",fontsize="10",style="solid",fontname="Helvetica"];
  Node50 -> Node5 [color="midnightblue",fontsize="10",style="solid",fontname="Helvetica"];
}
