digraph "Apps/Gimias/Core/DataHandling/src/coreMultipleDataEntityImpl.h"
{
  edge [fontname="Helvetica",fontsize="10",labelfontname="Helvetica",labelfontsize="10"];
  node [fontname="Helvetica",fontsize="10",shape=record];
  Node1 [label="Apps/Gimias/Core/DataHandling\l/src/coreMultipleDataEntityImpl.h",height=0.2,width=0.4,color="black", fillcolor="grey75", style="filled", fontcolor="black"];
  Node1 -> Node2 [dir="back",color="midnightblue",fontsize="10",style="solid",fontname="Helvetica"];
  Node2 [label="Apps/Gimias/Core/DataHandling\l/src/coreDataEntity.cxx",height=0.2,width=0.4,color="black", fillcolor="white", style="filled",URL="$coreDataEntity_8cxx.html"];
  Node1 -> Node3 [dir="back",color="midnightblue",fontsize="10",style="solid",fontname="Helvetica"];
  Node3 [label="Apps/Gimias/Core/DataHandling\l/src/coreDataEntityBuildersRegistration.cxx",height=0.2,width=0.4,color="black", fillcolor="white", style="filled",URL="$coreDataEntityBuildersRegistration_8cxx.html"];
  Node1 -> Node4 [dir="back",color="midnightblue",fontsize="10",style="solid",fontname="Helvetica"];
  Node4 [label="Apps/Gimias/Core/DataHandling\l/src/coreMultipleDataEntityImpl.cxx",height=0.2,width=0.4,color="black", fillcolor="white", style="filled",URL="$coreMultipleDataEntityImpl_8cxx.html"];
}
