digraph "Apps/Gimias/GUI/Widgets/src/Toolbar/coreToolbarIO.h"
{
  edge [fontname="Helvetica",fontsize="10",labelfontname="Helvetica",labelfontsize="10"];
  node [fontname="Helvetica",fontsize="10",shape=record];
  Node1 [label="Apps/Gimias/GUI/Widgets\l/src/Toolbar/coreToolbarIO.h",height=0.2,width=0.4,color="black", fillcolor="grey75", style="filled", fontcolor="black"];
  Node1 -> Node2 [dir="back",color="midnightblue",fontsize="10",style="solid",fontname="Helvetica"];
  Node2 [label="Apps/Gimias/GUI/Widgets\l/src/PluginTab/corePluginTab\lFactory.cxx",height=0.2,width=0.4,color="black", fillcolor="white", style="filled",URL="$corePluginTabFactory_8cxx.html"];
  Node1 -> Node3 [dir="back",color="midnightblue",fontsize="10",style="solid",fontname="Helvetica"];
  Node3 [label="Apps/Gimias/GUI/Widgets\l/src/Toolbar/coreToolbarIO.cpp",height=0.2,width=0.4,color="black", fillcolor="white", style="filled",URL="$coreToolbarIO_8cpp.html"];
  Node1 -> Node4 [dir="back",color="midnightblue",fontsize="10",style="solid",fontname="Helvetica"];
  Node4 [label="Apps/Plugins/DicomPlugin\l/widgets/DicomConnectToPACSWidget\l/DicomConnectToPacsDialogWidget.cpp",height=0.2,width=0.4,color="black", fillcolor="white", style="filled",URL="$DicomConnectToPacsDialogWidget_8cpp.html"];
}
