digraph "Apps/Plugins/MITKPlugin/widgets/RenderingTree/coreDataTreeMITKHelper.h"
{
  edge [fontname="Helvetica",fontsize="10",labelfontname="Helvetica",labelfontsize="10"];
  node [fontname="Helvetica",fontsize="10",shape=record];
  Node1 [label="Apps/Plugins/MITKPlugin\l/widgets/RenderingTree\l/coreDataTreeMITKHelper.h",height=0.2,width=0.4,color="black", fillcolor="grey75", style="filled", fontcolor="black"];
  Node1 -> Node2 [dir="back",color="midnightblue",fontsize="10",style="solid",fontname="Helvetica"];
  Node2 [label="Apps/Plugins/GenericSegmentation\lPlugin/widgets/ConnectedThresholdWidget\l/ConnectedThresholdWidget.cpp",height=0.2,width=0.4,color="black", fillcolor="white", style="filled",URL="$ConnectedThresholdWidget_8cpp.html"];
  Node1 -> Node3 [dir="back",color="midnightblue",fontsize="10",style="solid",fontname="Helvetica"];
  Node3 [label="Apps/Plugins/GenericSegmentation\lPlugin/widgets/RegionGrowWidget\l/RegionGrowWidget.cpp",height=0.2,width=0.4,color="black", fillcolor="white", style="filled",URL="$RegionGrowWidget_8cpp.html"];
  Node1 -> Node4 [dir="back",color="midnightblue",fontsize="10",style="solid",fontname="Helvetica"];
  Node4 [label="Apps/Plugins/GenericSegmentation\lPlugin/widgets/VtkConnectedThreshold\lWidget/VtkConnectedThresholdPanelWidget.cpp",height=0.2,width=0.4,color="black", fillcolor="white", style="filled",URL="$VtkConnectedThresholdPanelWidget_8cpp.html"];
  Node1 -> Node5 [dir="back",color="midnightblue",fontsize="10",style="solid",fontname="Helvetica"];
  Node5 [label="Apps/Plugins/MeshEditorPlugin\l/processors/coreSurfaceInteractor.cxx",height=0.2,width=0.4,color="black", fillcolor="white", style="filled",URL="$coreSurfaceInteractor_8cxx.html"];
  Node1 -> Node6 [dir="back",color="midnightblue",fontsize="10",style="solid",fontname="Helvetica"];
  Node6 [label="Apps/Plugins/MeshEditorPlugin\l/processors/coreSurfaceInteractor\lBrushSelect.cxx",height=0.2,width=0.4,color="black", fillcolor="white", style="filled",URL="$coreSurfaceInteractorBrushSelect_8cxx.html"];
  Node1 -> Node7 [dir="back",color="midnightblue",fontsize="10",style="solid",fontname="Helvetica"];
  Node7 [label="Apps/Plugins/MeshEditorPlugin\l/processors/coreSurfaceInteractor\lSphereSelect.cxx",height=0.2,width=0.4,color="black", fillcolor="white", style="filled",URL="$coreSurfaceInteractorSphereSelect_8cxx.html"];
  Node1 -> Node8 [dir="back",color="midnightblue",fontsize="10",style="solid",fontname="Helvetica"];
  Node8 [label="Apps/Plugins/MeshEditorPlugin\l/processors/coreSurfaceInteractor\lTriangleSelect.cxx",height=0.2,width=0.4,color="black", fillcolor="white", style="filled",URL="$coreSurfaceInteractorTriangleSelect_8cxx.html"];
  Node1 -> Node9 [dir="back",color="midnightblue",fontsize="10",style="solid",fontname="Helvetica"];
  Node9 [label="Apps/Plugins/MeshEditorPlugin\l/widgets/BooleanOperationsWidget\l/BooleanOperationsPanelWidget.cpp",height=0.2,width=0.4,color="black", fillcolor="white", style="filled",URL="$BooleanOperationsPanelWidget_8cpp.html"];
  Node1 -> Node10 [dir="back",color="midnightblue",fontsize="10",style="solid",fontname="Helvetica"];
  Node10 [label="Apps/Plugins/MeshEditorPlugin\l/widgets/ManualNeckCuttingWidget\l/ManualNeckCuttingPanelWidget.cpp",height=0.2,width=0.4,color="black", fillcolor="white", style="filled",URL="$ManualNeckCuttingPanelWidget_8cpp.html"];
  Node1 -> Node11 [dir="back",color="midnightblue",fontsize="10",style="solid",fontname="Helvetica"];
  Node11 [label="Apps/Plugins/MeshEditorPlugin\l/widgets/RingCutWidget/ptRingCut\lPanelWidget.cpp",height=0.2,width=0.4,color="black", fillcolor="white", style="filled",URL="$RingCutWidget_2ptRingCutPanelWidget_8cpp.html"];
  Node1 -> Node12 [dir="back",color="midnightblue",fontsize="10",style="solid",fontname="Helvetica"];
  Node12 [label="Apps/Plugins/MeshEditorPlugin\l/widgets/SurfaceSelectorWidget\l/coreSurfaceSelectorWidget.cxx",height=0.2,width=0.4,color="black", fillcolor="white", style="filled",URL="$coreSurfaceSelectorWidget_8cxx.html"];
  Node1 -> Node13 [dir="back",color="midnightblue",fontsize="10",style="solid",fontname="Helvetica"];
  Node13 [label="Apps/Plugins/MeshEditorPlugin\l/widgets/ToolsProcessorWidget\l/ptExtractScalarWidget.cpp",height=0.2,width=0.4,color="black", fillcolor="white", style="filled",URL="$ToolsProcessorWidget_2ptExtractScalarWidget_8cpp.html"];
  Node1 -> Node14 [dir="back",color="midnightblue",fontsize="10",style="solid",fontname="Helvetica"];
  Node14 [label="Apps/Plugins/MeshEditorPlugin\l/widgets/ToolsProcessorWidget\l/ptRingCutPanelWidget.cpp",height=0.2,width=0.4,color="black", fillcolor="white", style="filled",URL="$ToolsProcessorWidget_2ptRingCutPanelWidget_8cpp.html"];
  Node1 -> Node15 [dir="back",color="midnightblue",fontsize="10",style="solid",fontname="Helvetica"];
  Node15 [label="Apps/Plugins/MeshEditorPlugin\l/widgets/ToolsProcessorWidget\l/ptVolumeClosingPanelWidget.cpp",height=0.2,width=0.4,color="black", fillcolor="white", style="filled",URL="$ptVolumeClosingPanelWidget_8cpp.html"];
  Node1 -> Node16 [dir="back",color="midnightblue",fontsize="10",style="solid",fontname="Helvetica"];
  Node16 [label="Apps/Plugins/MeshEditorPlugin\l/widgets/VolumeClosingWidget\l/VolumeClosingPanelWidget.cpp",height=0.2,width=0.4,color="black", fillcolor="white", style="filled",URL="$VolumeClosingPanelWidget_8cpp.html"];
  Node1 -> Node17 [dir="back",color="midnightblue",fontsize="10",style="solid",fontname="Helvetica"];
  Node17 [label="Apps/Plugins/MITKPlugin\l/processors/ITKImage/coreITKImage\lReader.cxx",height=0.2,width=0.4,color="black", fillcolor="white", style="filled",URL="$coreITKImageReader_8cxx.html"];
  Node1 -> Node18 [dir="back",color="midnightblue",fontsize="10",style="solid",fontname="Helvetica"];
  Node18 [label="Apps/Plugins/MITKPlugin\l/processors/VTKImageData\l/coreVTKImageDataReader.cxx",height=0.2,width=0.4,color="black", fillcolor="white", style="filled",URL="$coreVTKImageDataReader_8cxx.html"];
  Node1 -> Node19 [dir="back",color="midnightblue",fontsize="10",style="solid",fontname="Helvetica"];
  Node19 [label="Apps/Plugins/MITKPlugin\l/processors/VTKPolyData\l/coreVTKPolyDataReader.cxx",height=0.2,width=0.4,color="black", fillcolor="white", style="filled",URL="$coreVTKPolyDataReader_8cxx.html"];
  Node1 -> Node20 [dir="back",color="midnightblue",fontsize="10",style="solid",fontname="Helvetica"];
  Node20 [label="Apps/Plugins/MITKPlugin\l/widgets/RenderingTree\l/coreDataTreeMITKHelper.cxx",height=0.2,width=0.4,color="black", fillcolor="white", style="filled",URL="$coreDataTreeMITKHelper_8cxx.html"];
  Node1 -> Node21 [dir="back",color="midnightblue",fontsize="10",style="solid",fontname="Helvetica"];
  Node21 [label="Apps/Plugins/MITKPlugin\l/widgets/RenderingTree\l/corePointSetRenDataBuilder.cxx",height=0.2,width=0.4,color="black", fillcolor="white", style="filled",URL="$corePointSetRenDataBuilder_8cxx.html"];
  Node1 -> Node22 [dir="back",color="midnightblue",fontsize="10",style="solid",fontname="Helvetica"];
  Node22 [label="Apps/Plugins/MITKPlugin\l/widgets/RenderingTree\l/coreVTKImageDataRenDataBuilder.cxx",height=0.2,width=0.4,color="black", fillcolor="white", style="filled",URL="$coreVTKImageDataRenDataBuilder_8cxx.html"];
  Node1 -> Node23 [dir="back",color="midnightblue",fontsize="10",style="solid",fontname="Helvetica"];
  Node23 [label="Apps/Plugins/MITKPlugin\l/widgets/RenderingTree\l/coreVTKPolyDataRenDataBuilder.cxx",height=0.2,width=0.4,color="black", fillcolor="white", style="filled",URL="$coreVTKPolyDataRenDataBuilder_8cxx.html"];
  Node1 -> Node24 [dir="back",color="midnightblue",fontsize="10",style="solid",fontname="Helvetica"];
  Node24 [label="Apps/Plugins/MITKPlugin\l/widgets/RenderingTree\l/coreVTKUnstructuredGridRenData\lBuilder.cxx",height=0.2,width=0.4,color="black", fillcolor="white", style="filled",URL="$coreVTKUnstructuredGridRenDataBuilder_8cxx.html"];
  Node1 -> Node25 [dir="back",color="midnightblue",fontsize="10",style="solid",fontname="Helvetica"];
  Node25 [label="Apps/Plugins/MITKPlugin\l/widgets/RenderWindow\l/coreMultiRenderWindowEventHandler.cxx",height=0.2,width=0.4,color="black", fillcolor="white", style="filled",URL="$coreMultiRenderWindowEventHandler_8cxx.html"];
  Node1 -> Node26 [dir="back",color="midnightblue",fontsize="10",style="solid",fontname="Helvetica"];
  Node26 [label="Apps/Plugins/MITKPlugin\l/widgets/RenderWindow\l/coreRenderingTreeMITK.cxx",height=0.2,width=0.4,color="black", fillcolor="white", style="filled",URL="$coreRenderingTreeMITK_8cxx.html"];
}
