digraph "Apps/Gimias/Core/Processors/src/coreDynProcessor.h"
{
  edge [fontname="Helvetica",fontsize="10",labelfontname="Helvetica",labelfontsize="10"];
  node [fontname="Helvetica",fontsize="10",shape=record];
  Node1 [label="Apps/Gimias/Core/Processors\l/src/coreDynProcessor.h",height=0.2,width=0.4,color="black", fillcolor="grey75", style="filled", fontcolor="black"];
  Node1 -> Node2 [dir="back",color="midnightblue",fontsize="10",style="solid",fontname="Helvetica"];
  Node2 [label="Apps/Gimias/Core/Processors\l/src/coreDynDataTransferBase.h",height=0.2,width=0.4,color="black", fillcolor="white", style="filled",URL="$coreDynDataTransferBase_8h.html"];
  Node2 -> Node3 [dir="back",color="midnightblue",fontsize="10",style="solid",fontname="Helvetica"];
  Node3 [label="Apps/Gimias/Core/Processors\l/src/coreDynDataTransferBase.cxx",height=0.2,width=0.4,color="black", fillcolor="white", style="filled",URL="$coreDynDataTransferBase_8cxx.html"];
  Node2 -> Node4 [dir="back",color="midnightblue",fontsize="10",style="solid",fontname="Helvetica"];
  Node4 [label="Apps/Gimias/Core/Processors\l/src/coreDynDataTransferCLP.h",height=0.2,width=0.4,color="black", fillcolor="white", style="filled",URL="$coreDynDataTransferCLP_8h.html"];
  Node4 -> Node5 [dir="back",color="midnightblue",fontsize="10",style="solid",fontname="Helvetica"];
  Node5 [label="Apps/Gimias/Core/Processors\l/src/coreDynDataTransferCLP.cxx",height=0.2,width=0.4,color="black", fillcolor="white", style="filled",URL="$coreDynDataTransferCLP_8cxx.html"];
  Node4 -> Node6 [dir="back",color="midnightblue",fontsize="10",style="solid",fontname="Helvetica"];
  Node6 [label="Apps/Gimias/Core/Processors\l/src/coreDynDataTransferCLPShared.h",height=0.2,width=0.4,color="black", fillcolor="white", style="filled",URL="$coreDynDataTransferCLPShared_8h.html"];
  Node6 -> Node7 [dir="back",color="midnightblue",fontsize="10",style="solid",fontname="Helvetica"];
  Node7 [label="Apps/Gimias/Core/Processors\l/src/coreDynDataTransferCLPShared.cxx",height=0.2,width=0.4,color="black", fillcolor="white", style="filled",URL="$coreDynDataTransferCLPShared_8cxx.html"];
  Node6 -> Node8 [dir="back",color="midnightblue",fontsize="10",style="solid",fontname="Helvetica"];
  Node8 [label="Apps/Gimias/Core/Processors\l/src/coreDynProcessor.cxx",height=0.2,width=0.4,color="black", fillcolor="white", style="filled",URL="$coreDynProcessor_8cxx.html"];
  Node4 -> Node9 [dir="back",color="midnightblue",fontsize="10",style="solid",fontname="Helvetica"];
  Node9 [label="Apps/Gimias/Core/Processors\l/src/coreDynDataTransferExternalApp.h",height=0.2,width=0.4,color="black", fillcolor="white", style="filled",URL="$coreDynDataTransferExternalApp_8h.html"];
  Node9 -> Node10 [dir="back",color="midnightblue",fontsize="10",style="solid",fontname="Helvetica"];
  Node10 [label="Apps/Gimias/Core/Processors\l/src/coreDynDataTransferExternal\lApp.cxx",height=0.2,width=0.4,color="black", fillcolor="white", style="filled",URL="$coreDynDataTransferExternalApp_8cxx.html"];
  Node9 -> Node8 [dir="back",color="midnightblue",fontsize="10",style="solid",fontname="Helvetica"];
  Node4 -> Node8 [dir="back",color="midnightblue",fontsize="10",style="solid",fontname="Helvetica"];
  Node2 -> Node11 [dir="back",color="midnightblue",fontsize="10",style="solid",fontname="Helvetica"];
  Node11 [label="Apps/Gimias/Core/Processors\l/src/coreDynDataTransferDLL.h",height=0.2,width=0.4,color="black", fillcolor="white", style="filled",URL="$coreDynDataTransferDLL_8h.html"];
  Node11 -> Node12 [dir="back",color="midnightblue",fontsize="10",style="solid",fontname="Helvetica"];
  Node12 [label="Apps/Gimias/Core/Processors\l/src/coreDynDataTransferDLL.cxx",height=0.2,width=0.4,color="black", fillcolor="white", style="filled",URL="$coreDynDataTransferDLL_8cxx.html"];
  Node11 -> Node8 [dir="back",color="midnightblue",fontsize="10",style="solid",fontname="Helvetica"];
  Node2 -> Node13 [dir="back",color="midnightblue",fontsize="10",style="solid",fontname="Helvetica"];
  Node13 [label="Apps/Gimias/Core/Processors\l/src/coreDynDataTransferProcessor.h",height=0.2,width=0.4,color="black", fillcolor="white", style="filled",URL="$coreDynDataTransferProcessor_8h.html"];
  Node13 -> Node14 [dir="back",color="midnightblue",fontsize="10",style="solid",fontname="Helvetica"];
  Node14 [label="Apps/Gimias/Core/Processors\l/src/coreDynDataTransferProcessor.cxx",height=0.2,width=0.4,color="black", fillcolor="white", style="filled",URL="$coreDynDataTransferProcessor_8cxx.html"];
  Node13 -> Node8 [dir="back",color="midnightblue",fontsize="10",style="solid",fontname="Helvetica"];
  Node13 -> Node15 [dir="back",color="midnightblue",fontsize="10",style="solid",fontname="Helvetica"];
  Node15 [label="Apps/Gimias/GUI/Widgets\l/src/Workflow/coreDynDataTransfer\lWorkflow.h",height=0.2,width=0.4,color="black", fillcolor="white", style="filled",URL="$coreDynDataTransferWorkflow_8h.html"];
  Node15 -> Node16 [dir="back",color="midnightblue",fontsize="10",style="solid",fontname="Helvetica"];
  Node16 [label="Apps/Gimias/GUI/Widgets\l/src/PluginTab/corePluginTab\lFactory.cxx",height=0.2,width=0.4,color="black", fillcolor="white", style="filled",URL="$corePluginTabFactory_8cxx.html"];
  Node15 -> Node17 [dir="back",color="midnightblue",fontsize="10",style="solid",fontname="Helvetica"];
  Node17 [label="Apps/Gimias/GUI/Widgets\l/src/Workflow/coreDynDataTransfer\lWorkflow.cxx",height=0.2,width=0.4,color="black", fillcolor="white", style="filled",URL="$coreDynDataTransferWorkflow_8cxx.html"];
  Node2 -> Node8 [dir="back",color="midnightblue",fontsize="10",style="solid",fontname="Helvetica"];
  Node2 -> Node16 [dir="back",color="midnightblue",fontsize="10",style="solid",fontname="Helvetica"];
  Node2 -> Node15 [dir="back",color="midnightblue",fontsize="10",style="solid",fontname="Helvetica"];
  Node2 -> Node18 [dir="back",color="midnightblue",fontsize="10",style="solid",fontname="Helvetica"];
  Node18 [label="Apps/Gimias/GUI/Widgets\l/src/wxMitkCoreMainWindow\l/coreWxMitkCoreMainWindow.cxx",height=0.2,width=0.4,color="black", fillcolor="white", style="filled",URL="$coreWxMitkCoreMainWindow_8cxx.html"];
  Node1 -> Node8 [dir="back",color="midnightblue",fontsize="10",style="solid",fontname="Helvetica"];
  Node1 -> Node19 [dir="back",color="midnightblue",fontsize="10",style="solid",fontname="Helvetica"];
  Node19 [label="Apps/Gimias/GUI/Widgets\l/src/CustomApplicationWizard\l/coreCustomApplicationWizard.cxx",height=0.2,width=0.4,color="black", fillcolor="white", style="filled",URL="$coreCustomApplicationWizard_8cxx.html"];
  Node1 -> Node20 [dir="back",color="midnightblue",fontsize="10",style="solid",fontname="Helvetica"];
  Node20 [label="Apps/Gimias/GUI/Widgets\l/src/ProcessingToolbox\l/coreDynProcessingWidget.h",height=0.2,width=0.4,color="black", fillcolor="white", style="filled",URL="$coreDynProcessingWidget_8h.html"];
  Node20 -> Node21 [dir="back",color="midnightblue",fontsize="10",style="solid",fontname="Helvetica"];
  Node21 [label="Apps/Gimias/GUI/Widgets\l/src/ProcessingToolbox\l/coreDynProcessingWidget.cpp",height=0.2,width=0.4,color="black", fillcolor="white", style="filled",URL="$coreDynProcessingWidget_8cpp.html"];
  Node20 -> Node22 [dir="back",color="midnightblue",fontsize="10",style="solid",fontname="Helvetica"];
  Node22 [label="Apps/Gimias/GUI/Widgets\l/src/ProcessingToolbox\l/coreDynProcessingWidgetFactory.h",height=0.2,width=0.4,color="black", fillcolor="white", style="filled",URL="$coreDynProcessingWidgetFactory_8h.html"];
  Node22 -> Node23 [dir="back",color="midnightblue",fontsize="10",style="solid",fontname="Helvetica"];
  Node23 [label="Apps/Gimias/GUI/Widgets\l/src/ProcessingToolbox\l/coreDynProcessingWidgetFactory.cpp",height=0.2,width=0.4,color="black", fillcolor="white", style="filled",URL="$coreDynProcessingWidgetFactory_8cpp.html"];
  Node22 -> Node18 [dir="back",color="midnightblue",fontsize="10",style="solid",fontname="Helvetica"];
  Node1 -> Node24 [dir="back",color="midnightblue",fontsize="10",style="solid",fontname="Helvetica"];
  Node24 [label="Apps/Gimias/GUI/Widgets\l/src/ProcessingToolbox\l/coreSimpleProcessingWidget.cpp",height=0.2,width=0.4,color="black", fillcolor="white", style="filled",URL="$coreSimpleProcessingWidget_8cpp.html"];
}
