digraph "Apps/Plugins/MITKPlugin/widgets/VisualProps/coreVolumeMeshMaterialPropertiesWidget.cxx"
{
  edge [fontname="Helvetica",fontsize="10",labelfontname="Helvetica",labelfontsize="10"];
  node [fontname="Helvetica",fontsize="10",shape=record];
  Node1 [label="Apps/Plugins/MITKPlugin\l/widgets/VisualProps/coreVolume\lMeshMaterialPropertiesWidget.cxx",height=0.2,width=0.4,color="black", fillcolor="grey75", style="filled", fontcolor="black"];
  Node1 -> Node2 [color="midnightblue",fontsize="10",style="solid",fontname="Helvetica"];
  Node2 [label="coreVolumeMeshMaterialProperties\lWidget.h",height=0.2,width=0.4,color="black", fillcolor="white", style="filled",URL="$coreVolumeMeshMaterialPropertiesWidget_8h.html"];
  Node2 -> Node3 [color="midnightblue",fontsize="10",style="solid",fontname="Helvetica"];
  Node3 [label="coreObject.h",height=0.2,width=0.4,color="black", fillcolor="white", style="filled",URL="$coreObject_8h.html"];
  Node3 -> Node4 [color="midnightblue",fontsize="10",style="solid",fontname="Helvetica"];
  Node4 [label="gmCommonObjectsWin32Header.h",height=0.2,width=0.4,color="grey75", fillcolor="white", style="filled"];
  Node3 -> Node5 [color="midnightblue",fontsize="10",style="solid",fontname="Helvetica"];
  Node5 [label="coreCommonMacros.h",height=0.2,width=0.4,color="black", fillcolor="white", style="filled",URL="$coreCommonMacros_8h.html"];
  Node3 -> Node6 [color="midnightblue",fontsize="10",style="solid",fontname="Helvetica"];
  Node6 [label="coreSmartPointerMacros.h",height=0.2,width=0.4,color="red", fillcolor="white", style="filled",URL="$coreSmartPointerMacros_8h.html"];
  Node6 -> Node5 [color="midnightblue",fontsize="10",style="solid",fontname="Helvetica"];
  Node3 -> Node7 [color="midnightblue",fontsize="10",style="solid",fontname="Helvetica"];
  Node7 [label="blTagMap.h",height=0.2,width=0.4,color="red", fillcolor="white", style="filled",URL="$blTagMap_8h.html"];
  Node7 -> Node8 [color="midnightblue",fontsize="10",style="solid",fontname="Helvetica"];
  Node8 [label="boost/signals.hpp",height=0.2,width=0.4,color="grey75", fillcolor="white", style="filled"];
  Node7 -> Node9 [color="midnightblue",fontsize="10",style="solid",fontname="Helvetica"];
  Node9 [label="boost/bind.hpp",height=0.2,width=0.4,color="grey75", fillcolor="white", style="filled"];
  Node7 -> Node10 [color="midnightblue",fontsize="10",style="solid",fontname="Helvetica"];
  Node10 [label="string",height=0.2,width=0.4,color="grey75", fillcolor="white", style="filled"];
  Node3 -> Node11 [color="midnightblue",fontsize="10",style="solid",fontname="Helvetica"];
  Node11 [label="itkLightObject.h",height=0.2,width=0.4,color="grey75", fillcolor="white", style="filled"];
  Node3 -> Node12 [color="midnightblue",fontsize="10",style="solid",fontname="Helvetica"];
  Node12 [label="itkTimeStamp.h",height=0.2,width=0.4,color="grey75", fillcolor="white", style="filled"];
  Node3 -> Node8 [color="midnightblue",fontsize="10",style="solid",fontname="Helvetica"];
  Node3 -> Node9 [color="midnightblue",fontsize="10",style="solid",fontname="Helvetica"];
  Node2 -> Node13 [color="midnightblue",fontsize="10",style="solid",fontname="Helvetica"];
  Node13 [label="coreDataHolder.h",height=0.2,width=0.4,color="black", fillcolor="white", style="filled",URL="$coreDataHolder_8h.html"];
  Node13 -> Node4 [color="midnightblue",fontsize="10",style="solid",fontname="Helvetica"];
  Node13 -> Node14 [color="midnightblue",fontsize="10",style="solid",fontname="Helvetica"];
  Node14 [label="coreDataHolderBase.h",height=0.2,width=0.4,color="black", fillcolor="white", style="filled",URL="$coreDataHolderBase_8h.html"];
  Node14 -> Node4 [color="midnightblue",fontsize="10",style="solid",fontname="Helvetica"];
  Node14 -> Node3 [color="midnightblue",fontsize="10",style="solid",fontname="Helvetica"];
  Node14 -> Node9 [color="midnightblue",fontsize="10",style="solid",fontname="Helvetica"];
  Node14 -> Node8 [color="midnightblue",fontsize="10",style="solid",fontname="Helvetica"];
  Node13 -> Node9 [color="midnightblue",fontsize="10",style="solid",fontname="Helvetica"];
  Node13 -> Node8 [color="midnightblue",fontsize="10",style="solid",fontname="Helvetica"];
  Node13 -> Node15 [color="midnightblue",fontsize="10",style="solid",fontname="Helvetica"];
  Node15 [label="coreDataHolder.txx",height=0.2,width=0.4,color="grey75", fillcolor="white", style="filled"];
  Node13 -> Node13 [color="midnightblue",fontsize="10",style="solid",fontname="Helvetica"];
  Node13 -> Node16 [color="midnightblue",fontsize="10",style="solid",fontname="Helvetica"];
  Node16 [label="/home/el1mc/src/bitbucket\l/cistib/cilab-gimiax/src\l/Apps/Gimias/Core/CommonObjects\l/src/coreAssert.h",height=0.2,width=0.4,color="grey75", fillcolor="white", style="filled"];
  Node2 -> Node17 [color="midnightblue",fontsize="10",style="solid",fontname="Helvetica"];
  Node17 [label="wxMitkMaterialEditorWidget.h",height=0.2,width=0.4,color="red", fillcolor="white", style="filled",URL="$wxMitkMaterialEditorWidget_8h.html"];
  Node17 -> Node18 [color="midnightblue",fontsize="10",style="solid",fontname="Helvetica"];
  Node18 [label="wxMitkWidgetsWin32Header.h",height=0.2,width=0.4,color="grey75", fillcolor="white", style="filled"];
  Node17 -> Node19 [color="midnightblue",fontsize="10",style="solid",fontname="Helvetica"];
  Node19 [label="mitkDataTreeNode.h",height=0.2,width=0.4,color="grey75", fillcolor="white", style="filled"];
  Node2 -> Node19 [color="midnightblue",fontsize="10",style="solid",fontname="Helvetica"];
  Node2 -> Node20 [color="midnightblue",fontsize="10",style="solid",fontname="Helvetica"];
  Node20 [label="coreVisualProperties.h",height=0.2,width=0.4,color="red", fillcolor="white", style="filled",URL="$coreVisualProperties_8h.html"];
  Node20 -> Node3 [color="midnightblue",fontsize="10",style="solid",fontname="Helvetica"];
  Node20 -> Node13 [color="midnightblue",fontsize="10",style="solid",fontname="Helvetica"];
  Node20 -> Node21 [color="midnightblue",fontsize="10",style="solid",fontname="Helvetica"];
  Node21 [label="coreRenderingTree.h",height=0.2,width=0.4,color="red", fillcolor="white", style="filled",URL="$coreRenderingTree_8h.html"];
  Node21 -> Node22 [color="midnightblue",fontsize="10",style="solid",fontname="Helvetica"];
  Node22 [label="gmKernelWin32Header.h",height=0.2,width=0.4,color="grey75", fillcolor="white", style="filled"];
  Node21 -> Node3 [color="midnightblue",fontsize="10",style="solid",fontname="Helvetica"];
  Node21 -> Node23 [color="midnightblue",fontsize="10",style="solid",fontname="Helvetica"];
  Node23 [label="coreDataEntity.h",height=0.2,width=0.4,color="black", fillcolor="white", style="filled",URL="$coreDataEntity_8h.html"];
  Node23 -> Node24 [color="midnightblue",fontsize="10",style="solid",fontname="Helvetica"];
  Node24 [label="gmDataHandlingWin32Header.h",height=0.2,width=0.4,color="grey75", fillcolor="white", style="filled"];
  Node23 -> Node3 [color="midnightblue",fontsize="10",style="solid",fontname="Helvetica"];
  Node23 -> Node25 [color="midnightblue",fontsize="10",style="solid",fontname="Helvetica"];
  Node25 [label="coreDataEntityMetadata.h",height=0.2,width=0.4,color="black", fillcolor="white", style="filled",URL="$coreDataEntityMetadata_8h.html"];
  Node25 -> Node24 [color="midnightblue",fontsize="10",style="solid",fontname="Helvetica"];
  Node25 -> Node3 [color="midnightblue",fontsize="10",style="solid",fontname="Helvetica"];
  Node25 -> Node7 [color="midnightblue",fontsize="10",style="solid",fontname="Helvetica"];
  Node23 -> Node26 [color="midnightblue",fontsize="10",style="solid",fontname="Helvetica"];
  Node26 [label="coreDataEntityImpl.h",height=0.2,width=0.4,color="red", fillcolor="white", style="filled",URL="$coreDataEntityImpl_8h.html"];
  Node26 -> Node24 [color="midnightblue",fontsize="10",style="solid",fontname="Helvetica"];
  Node26 -> Node3 [color="midnightblue",fontsize="10",style="solid",fontname="Helvetica"];
  Node26 -> Node10 [color="midnightblue",fontsize="10",style="solid",fontname="Helvetica"];
  Node26 -> Node27 [color="midnightblue",fontsize="10",style="solid",fontname="Helvetica"];
  Node27 [label="vector",height=0.2,width=0.4,color="grey75", fillcolor="white", style="filled"];
  Node26 -> Node28 [color="midnightblue",fontsize="10",style="solid",fontname="Helvetica"];
  Node28 [label="boost/any.hpp",height=0.2,width=0.4,color="grey75", fillcolor="white", style="filled"];
  Node26 -> Node7 [color="midnightblue",fontsize="10",style="solid",fontname="Helvetica"];
  Node23 -> Node29 [color="midnightblue",fontsize="10",style="solid",fontname="Helvetica"];
  Node29 [label="coreDataEntityImplFactory.h",height=0.2,width=0.4,color="red", fillcolor="white", style="filled",URL="$coreDataEntityImplFactory_8h.html"];
  Node29 -> Node24 [color="midnightblue",fontsize="10",style="solid",fontname="Helvetica"];
  Node29 -> Node3 [color="midnightblue",fontsize="10",style="solid",fontname="Helvetica"];
  Node29 -> Node10 [color="midnightblue",fontsize="10",style="solid",fontname="Helvetica"];
  Node29 -> Node30 [color="midnightblue",fontsize="10",style="solid",fontname="Helvetica"];
  Node30 [label="typeinfo",height=0.2,width=0.4,color="grey75", fillcolor="white", style="filled"];
  Node29 -> Node27 [color="midnightblue",fontsize="10",style="solid",fontname="Helvetica"];
  Node29 -> Node28 [color="midnightblue",fontsize="10",style="solid",fontname="Helvetica"];
  Node29 -> Node7 [color="midnightblue",fontsize="10",style="solid",fontname="Helvetica"];
  Node29 -> Node26 [color="midnightblue",fontsize="10",style="solid",fontname="Helvetica"];
  Node29 -> Node31 [color="midnightblue",fontsize="10",style="solid",fontname="Helvetica"];
  Node31 [label="coreDataEntityTypes.h",height=0.2,width=0.4,color="black", fillcolor="white", style="filled",URL="$coreDataEntityTypes_8h.html"];
  Node23 -> Node31 [color="midnightblue",fontsize="10",style="solid",fontname="Helvetica"];
  Node23 -> Node32 [color="midnightblue",fontsize="10",style="solid",fontname="Helvetica"];
  Node32 [label="coreDataEntityPreview.h",height=0.2,width=0.4,color="black", fillcolor="white", style="filled",URL="$coreDataEntityPreview_8h.html"];
  Node32 -> Node24 [color="midnightblue",fontsize="10",style="solid",fontname="Helvetica"];
  Node32 -> Node3 [color="midnightblue",fontsize="10",style="solid",fontname="Helvetica"];
  Node23 -> Node10 [color="midnightblue",fontsize="10",style="solid",fontname="Helvetica"];
  Node23 -> Node27 [color="midnightblue",fontsize="10",style="solid",fontname="Helvetica"];
  Node23 -> Node30 [color="midnightblue",fontsize="10",style="solid",fontname="Helvetica"];
  Node23 -> Node8 [color="midnightblue",fontsize="10",style="solid",fontname="Helvetica"];
  Node23 -> Node28 [color="midnightblue",fontsize="10",style="solid",fontname="Helvetica"];
  Node23 -> Node33 [color="midnightblue",fontsize="10",style="solid",fontname="Helvetica"];
  Node33 [label="coreDataEntity.txx",height=0.2,width=0.4,color="grey75", fillcolor="white", style="filled"];
  Node23 -> Node34 [color="midnightblue",fontsize="10",style="solid",fontname="Helvetica"];
  Node34 [label="coreDataEntityHolder.h",height=0.2,width=0.4,color="black", fillcolor="white", style="filled",URL="$coreDataEntityHolder_8h.html"];
  Node34 -> Node24 [color="midnightblue",fontsize="10",style="solid",fontname="Helvetica"];
  Node34 -> Node23 [color="midnightblue",fontsize="10",style="solid",fontname="Helvetica"];
  Node34 -> Node13 [color="midnightblue",fontsize="10",style="solid",fontname="Helvetica"];
  Node21 -> Node8 [color="midnightblue",fontsize="10",style="solid",fontname="Helvetica"];
  Node1 -> Node23 [color="midnightblue",fontsize="10",style="solid",fontname="Helvetica"];
  Node1 -> Node35 [color="midnightblue",fontsize="10",style="solid",fontname="Helvetica"];
  Node35 [label="coreDataEntityHelper.h",height=0.2,width=0.4,color="black", fillcolor="white", style="filled",URL="$coreDataEntityHelper_8h.html"];
  Node35 -> Node22 [color="midnightblue",fontsize="10",style="solid",fontname="Helvetica"];
  Node35 -> Node3 [color="midnightblue",fontsize="10",style="solid",fontname="Helvetica"];
  Node35 -> Node23 [color="midnightblue",fontsize="10",style="solid",fontname="Helvetica"];
  Node35 -> Node36 [color="midnightblue",fontsize="10",style="solid",fontname="Helvetica"];
  Node36 [label="list",height=0.2,width=0.4,color="grey75", fillcolor="white", style="filled"];
  Node35 -> Node37 [color="midnightblue",fontsize="10",style="solid",fontname="Helvetica"];
  Node37 [label="coreDataEntityHelper.txx",height=0.2,width=0.4,color="grey75", fillcolor="white", style="filled"];
  Node1 -> Node37 [color="midnightblue",fontsize="10",style="solid",fontname="Helvetica"];
  Node1 -> Node34 [color="midnightblue",fontsize="10",style="solid",fontname="Helvetica"];
  Node1 -> Node16 [color="midnightblue",fontsize="10",style="solid",fontname="Helvetica"];
  Node1 -> Node38 [color="midnightblue",fontsize="10",style="solid",fontname="Helvetica"];
  Node38 [label="coreVTKUnstructuredGridHolder.h",height=0.2,width=0.4,color="black", fillcolor="white", style="filled",URL="$coreVTKUnstructuredGridHolder_8h.html"];
  Node38 -> Node39 [color="midnightblue",fontsize="10",style="solid",fontname="Helvetica"];
  Node39 [label="corePluginMacros.h",height=0.2,width=0.4,color="black", fillcolor="white", style="filled",URL="$corePluginMacros_8h.html"];
  Node38 -> Node13 [color="midnightblue",fontsize="10",style="solid",fontname="Helvetica"];
  Node38 -> Node40 [color="midnightblue",fontsize="10",style="solid",fontname="Helvetica"];
  Node40 [label="vtkUnstructuredGrid.h",height=0.2,width=0.4,color="grey75", fillcolor="white", style="filled"];
  Node38 -> Node41 [color="midnightblue",fontsize="10",style="solid",fontname="Helvetica"];
  Node41 [label="vtkSmartPointer.h",height=0.2,width=0.4,color="grey75", fillcolor="white", style="filled"];
  Node1 -> Node42 [color="midnightblue",fontsize="10",style="solid",fontname="Helvetica"];
  Node42 [label="coreRenderingTreeMITK.h",height=0.2,width=0.4,color="black", fillcolor="white", style="filled",URL="$coreRenderingTreeMITK_8h.html"];
  Node42 -> Node21 [color="midnightblue",fontsize="10",style="solid",fontname="Helvetica"];
  Node42 -> Node43 [color="midnightblue",fontsize="10",style="solid",fontname="Helvetica"];
  Node43 [label="mitkDataStorage.h",height=0.2,width=0.4,color="grey75", fillcolor="white", style="filled"];
  Node42 -> Node44 [color="midnightblue",fontsize="10",style="solid",fontname="Helvetica"];
  Node44 [label="blMITKUtils.h",height=0.2,width=0.4,color="red", fillcolor="white", style="filled",URL="$blMITKUtils_8h.html"];
  Node44 -> Node27 [color="midnightblue",fontsize="10",style="solid",fontname="Helvetica"];
  Node44 -> Node19 [color="midnightblue",fontsize="10",style="solid",fontname="Helvetica"];
  Node42 -> Node45 [color="midnightblue",fontsize="10",style="solid",fontname="Helvetica"];
  Node45 [label="coreLevelWindowManager.h",height=0.2,width=0.4,color="black", fillcolor="white", style="filled",URL="$coreLevelWindowManager_8h.html"];
  Node45 -> Node3 [color="midnightblue",fontsize="10",style="solid",fontname="Helvetica"];
  Node1 -> Node46 [color="midnightblue",fontsize="10",style="solid",fontname="Helvetica"];
  Node46 [label="coreMultiRenderWindowMITK.h",height=0.2,width=0.4,color="black", fillcolor="white", style="filled",URL="$coreMultiRenderWindowMITK_8h.html"];
  Node46 -> Node47 [color="midnightblue",fontsize="10",style="solid",fontname="Helvetica"];
  Node47 [label="coreMultiRenderWindow.h",height=0.2,width=0.4,color="red", fillcolor="white", style="filled",URL="$coreMultiRenderWindow_8h.html"];
  Node46 -> Node42 [color="midnightblue",fontsize="10",style="solid",fontname="Helvetica"];
  Node46 -> Node48 [color="midnightblue",fontsize="10",style="solid",fontname="Helvetica"];
  Node48 [label="coreCommonDataTypes.h",height=0.2,width=0.4,color="black", fillcolor="white", style="filled",URL="$coreCommonDataTypes_8h.html"];
  Node48 -> Node13 [color="midnightblue",fontsize="10",style="solid",fontname="Helvetica"];
  Node46 -> Node49 [color="midnightblue",fontsize="10",style="solid",fontname="Helvetica"];
  Node49 [label="coreMultiRenderWindowOverlay.h",height=0.2,width=0.4,color="red", fillcolor="white", style="filled",URL="$coreMultiRenderWindowOverlay_8h.html"];
  Node49 -> Node3 [color="midnightblue",fontsize="10",style="solid",fontname="Helvetica"];
  Node49 -> Node34 [color="midnightblue",fontsize="10",style="solid",fontname="Helvetica"];
  Node46 -> Node19 [color="midnightblue",fontsize="10",style="solid",fontname="Helvetica"];
  Node46 -> Node50 [color="midnightblue",fontsize="10",style="solid",fontname="Helvetica"];
  Node50 [label="wxMitkMultiRenderWindow.h",height=0.2,width=0.4,color="red", fillcolor="white", style="filled",URL="$wxMitkMultiRenderWindow_8h.html"];
  Node50 -> Node18 [color="midnightblue",fontsize="10",style="solid",fontname="Helvetica"];
  Node50 -> Node10 [color="midnightblue",fontsize="10",style="solid",fontname="Helvetica"];
  Node50 -> Node11 [color="midnightblue",fontsize="10",style="solid",fontname="Helvetica"];
}
