digraph "Apps/Gimias/GUI/Widgets/src/DataEntityListBrowser/coreDataEntityListBrowser.h"
{
  edge [fontname="Helvetica",fontsize="10",labelfontname="Helvetica",labelfontsize="10"];
  node [fontname="Helvetica",fontsize="10",shape=record];
  Node1 [label="Apps/Gimias/GUI/Widgets\l/src/DataEntityListBrowser\l/coreDataEntityListBrowser.h",height=0.2,width=0.4,color="black", fillcolor="grey75", style="filled", fontcolor="black"];
  Node1 -> Node2 [color="midnightblue",fontsize="10",style="solid",fontname="Helvetica"];
  Node2 [label="gmWidgetsWin32Header.h",height=0.2,width=0.4,color="grey75", fillcolor="white", style="filled"];
  Node1 -> Node3 [color="midnightblue",fontsize="10",style="solid",fontname="Helvetica"];
  Node3 [label="coreObject.h",height=0.2,width=0.4,color="black", fillcolor="white", style="filled",URL="$coreObject_8h.html"];
  Node3 -> Node4 [color="midnightblue",fontsize="10",style="solid",fontname="Helvetica"];
  Node4 [label="gmCommonObjectsWin32Header.h",height=0.2,width=0.4,color="grey75", fillcolor="white", style="filled"];
  Node3 -> Node5 [color="midnightblue",fontsize="10",style="solid",fontname="Helvetica"];
  Node5 [label="coreCommonMacros.h",height=0.2,width=0.4,color="black", fillcolor="white", style="filled",URL="$coreCommonMacros_8h.html"];
  Node3 -> Node6 [color="midnightblue",fontsize="10",style="solid",fontname="Helvetica"];
  Node6 [label="coreSmartPointerMacros.h",height=0.2,width=0.4,color="black", fillcolor="white", style="filled",URL="$coreSmartPointerMacros_8h.html"];
  Node6 -> Node5 [color="midnightblue",fontsize="10",style="solid",fontname="Helvetica"];
  Node6 -> Node7 [color="midnightblue",fontsize="10",style="solid",fontname="Helvetica"];
  Node7 [label="itkSmartPointer.h",height=0.2,width=0.4,color="grey75", fillcolor="white", style="filled"];
  Node3 -> Node8 [color="midnightblue",fontsize="10",style="solid",fontname="Helvetica"];
  Node8 [label="blTagMap.h",height=0.2,width=0.4,color="black", fillcolor="white", style="filled",URL="$blTagMap_8h.html"];
  Node8 -> Node9 [color="midnightblue",fontsize="10",style="solid",fontname="Helvetica"];
  Node9 [label="blLightObject.h",height=0.2,width=0.4,color="red", fillcolor="white", style="filled",URL="$blLightObject_8h.html"];
  Node8 -> Node10 [color="midnightblue",fontsize="10",style="solid",fontname="Helvetica"];
  Node10 [label="blTag.h",height=0.2,width=0.4,color="black", fillcolor="white", style="filled",URL="$blTag_8h.html"];
  Node10 -> Node9 [color="midnightblue",fontsize="10",style="solid",fontname="Helvetica"];
  Node10 -> Node11 [color="midnightblue",fontsize="10",style="solid",fontname="Helvetica"];
  Node11 [label="CILabExceptionMacros.h",height=0.2,width=0.4,color="red", fillcolor="white", style="filled",URL="$CILabExceptionMacros_8h.html"];
  Node11 -> Node12 [color="midnightblue",fontsize="10",style="solid",fontname="Helvetica"];
  Node12 [label="string",height=0.2,width=0.4,color="grey75", fillcolor="white", style="filled"];
  Node10 -> Node13 [color="midnightblue",fontsize="10",style="solid",fontname="Helvetica"];
  Node13 [label="boost/any.hpp",height=0.2,width=0.4,color="grey75", fillcolor="white", style="filled"];
  Node10 -> Node12 [color="midnightblue",fontsize="10",style="solid",fontname="Helvetica"];
  Node8 -> Node11 [color="midnightblue",fontsize="10",style="solid",fontname="Helvetica"];
  Node8 -> Node14 [color="midnightblue",fontsize="10",style="solid",fontname="Helvetica"];
  Node14 [label="boost/signals.hpp",height=0.2,width=0.4,color="grey75", fillcolor="white", style="filled"];
  Node8 -> Node15 [color="midnightblue",fontsize="10",style="solid",fontname="Helvetica"];
  Node15 [label="boost/bind.hpp",height=0.2,width=0.4,color="grey75", fillcolor="white", style="filled"];
  Node8 -> Node12 [color="midnightblue",fontsize="10",style="solid",fontname="Helvetica"];
  Node8 -> Node16 [color="midnightblue",fontsize="10",style="solid",fontname="Helvetica"];
  Node16 [label="map",height=0.2,width=0.4,color="grey75", fillcolor="white", style="filled"];
  Node3 -> Node17 [color="midnightblue",fontsize="10",style="solid",fontname="Helvetica"];
  Node17 [label="itkLightObject.h",height=0.2,width=0.4,color="grey75", fillcolor="white", style="filled"];
  Node3 -> Node18 [color="midnightblue",fontsize="10",style="solid",fontname="Helvetica"];
  Node18 [label="itkTimeStamp.h",height=0.2,width=0.4,color="grey75", fillcolor="white", style="filled"];
  Node3 -> Node14 [color="midnightblue",fontsize="10",style="solid",fontname="Helvetica"];
  Node3 -> Node15 [color="midnightblue",fontsize="10",style="solid",fontname="Helvetica"];
  Node1 -> Node19 [color="midnightblue",fontsize="10",style="solid",fontname="Helvetica"];
  Node19 [label="coreDataEntityList.h",height=0.2,width=0.4,color="black", fillcolor="white", style="filled",URL="$coreDataEntityList_8h.html"];
  Node19 -> Node20 [color="midnightblue",fontsize="10",style="solid",fontname="Helvetica"];
  Node20 [label="gmKernelWin32Header.h",height=0.2,width=0.4,color="grey75", fillcolor="white", style="filled"];
  Node19 -> Node3 [color="midnightblue",fontsize="10",style="solid",fontname="Helvetica"];
  Node19 -> Node21 [color="midnightblue",fontsize="10",style="solid",fontname="Helvetica"];
  Node21 [label="coreDataEntity.h",height=0.2,width=0.4,color="black", fillcolor="white", style="filled",URL="$coreDataEntity_8h.html"];
  Node21 -> Node22 [color="midnightblue",fontsize="10",style="solid",fontname="Helvetica"];
  Node22 [label="gmDataHandlingWin32Header.h",height=0.2,width=0.4,color="grey75", fillcolor="white", style="filled"];
  Node21 -> Node3 [color="midnightblue",fontsize="10",style="solid",fontname="Helvetica"];
  Node21 -> Node23 [color="midnightblue",fontsize="10",style="solid",fontname="Helvetica"];
  Node23 [label="coreDataEntityMetadata.h",height=0.2,width=0.4,color="black", fillcolor="white", style="filled",URL="$coreDataEntityMetadata_8h.html"];
  Node23 -> Node22 [color="midnightblue",fontsize="10",style="solid",fontname="Helvetica"];
  Node23 -> Node3 [color="midnightblue",fontsize="10",style="solid",fontname="Helvetica"];
  Node23 -> Node8 [color="midnightblue",fontsize="10",style="solid",fontname="Helvetica"];
  Node21 -> Node24 [color="midnightblue",fontsize="10",style="solid",fontname="Helvetica"];
  Node24 [label="coreDataEntityImpl.h",height=0.2,width=0.4,color="red", fillcolor="white", style="filled",URL="$coreDataEntityImpl_8h.html"];
  Node24 -> Node22 [color="midnightblue",fontsize="10",style="solid",fontname="Helvetica"];
  Node24 -> Node3 [color="midnightblue",fontsize="10",style="solid",fontname="Helvetica"];
  Node24 -> Node12 [color="midnightblue",fontsize="10",style="solid",fontname="Helvetica"];
  Node24 -> Node25 [color="midnightblue",fontsize="10",style="solid",fontname="Helvetica"];
  Node25 [label="vector",height=0.2,width=0.4,color="grey75", fillcolor="white", style="filled"];
  Node24 -> Node13 [color="midnightblue",fontsize="10",style="solid",fontname="Helvetica"];
  Node24 -> Node8 [color="midnightblue",fontsize="10",style="solid",fontname="Helvetica"];
  Node24 -> Node26 [color="midnightblue",fontsize="10",style="solid",fontname="Helvetica"];
  Node26 [label="coreException.h",height=0.2,width=0.4,color="red", fillcolor="white", style="filled",URL="$coreException_8h.html"];
  Node26 -> Node12 [color="midnightblue",fontsize="10",style="solid",fontname="Helvetica"];
  Node26 -> Node4 [color="midnightblue",fontsize="10",style="solid",fontname="Helvetica"];
  Node26 -> Node5 [color="midnightblue",fontsize="10",style="solid",fontname="Helvetica"];
  Node26 -> Node27 [color="midnightblue",fontsize="10",style="solid",fontname="Helvetica"];
  Node27 [label="coreCreateExceptionMacros.h",height=0.2,width=0.4,color="black", fillcolor="white", style="filled",URL="$coreCreateExceptionMacros_8h.html"];
  Node21 -> Node28 [color="midnightblue",fontsize="10",style="solid",fontname="Helvetica"];
  Node28 [label="coreDataEntityImplFactory.h",height=0.2,width=0.4,color="red", fillcolor="white", style="filled",URL="$coreDataEntityImplFactory_8h.html"];
  Node28 -> Node22 [color="midnightblue",fontsize="10",style="solid",fontname="Helvetica"];
  Node28 -> Node3 [color="midnightblue",fontsize="10",style="solid",fontname="Helvetica"];
  Node28 -> Node12 [color="midnightblue",fontsize="10",style="solid",fontname="Helvetica"];
  Node28 -> Node29 [color="midnightblue",fontsize="10",style="solid",fontname="Helvetica"];
  Node29 [label="typeinfo",height=0.2,width=0.4,color="grey75", fillcolor="white", style="filled"];
  Node28 -> Node25 [color="midnightblue",fontsize="10",style="solid",fontname="Helvetica"];
  Node28 -> Node13 [color="midnightblue",fontsize="10",style="solid",fontname="Helvetica"];
  Node28 -> Node8 [color="midnightblue",fontsize="10",style="solid",fontname="Helvetica"];
  Node28 -> Node24 [color="midnightblue",fontsize="10",style="solid",fontname="Helvetica"];
  Node28 -> Node30 [color="midnightblue",fontsize="10",style="solid",fontname="Helvetica"];
  Node30 [label="coreDataEntityTypes.h",height=0.2,width=0.4,color="black", fillcolor="white", style="filled",URL="$coreDataEntityTypes_8h.html"];
  Node21 -> Node30 [color="midnightblue",fontsize="10",style="solid",fontname="Helvetica"];
  Node21 -> Node31 [color="midnightblue",fontsize="10",style="solid",fontname="Helvetica"];
  Node31 [label="coreDataEntityPreview.h",height=0.2,width=0.4,color="black", fillcolor="white", style="filled",URL="$coreDataEntityPreview_8h.html"];
  Node31 -> Node22 [color="midnightblue",fontsize="10",style="solid",fontname="Helvetica"];
  Node31 -> Node3 [color="midnightblue",fontsize="10",style="solid",fontname="Helvetica"];
  Node21 -> Node12 [color="midnightblue",fontsize="10",style="solid",fontname="Helvetica"];
  Node21 -> Node25 [color="midnightblue",fontsize="10",style="solid",fontname="Helvetica"];
  Node21 -> Node29 [color="midnightblue",fontsize="10",style="solid",fontname="Helvetica"];
  Node21 -> Node14 [color="midnightblue",fontsize="10",style="solid",fontname="Helvetica"];
  Node21 -> Node13 [color="midnightblue",fontsize="10",style="solid",fontname="Helvetica"];
  Node21 -> Node32 [color="midnightblue",fontsize="10",style="solid",fontname="Helvetica"];
  Node32 [label="coreDataEntity.txx",height=0.2,width=0.4,color="grey75", fillcolor="white", style="filled"];
  Node21 -> Node33 [color="midnightblue",fontsize="10",style="solid",fontname="Helvetica"];
  Node33 [label="coreDataEntityHolder.h",height=0.2,width=0.4,color="black", fillcolor="white", style="filled",URL="$coreDataEntityHolder_8h.html"];
  Node33 -> Node22 [color="midnightblue",fontsize="10",style="solid",fontname="Helvetica"];
  Node33 -> Node21 [color="midnightblue",fontsize="10",style="solid",fontname="Helvetica"];
  Node33 -> Node34 [color="midnightblue",fontsize="10",style="solid",fontname="Helvetica"];
  Node34 [label="coreDataHolder.h",height=0.2,width=0.4,color="black", fillcolor="white", style="filled",URL="$coreDataHolder_8h.html"];
  Node34 -> Node4 [color="midnightblue",fontsize="10",style="solid",fontname="Helvetica"];
  Node34 -> Node35 [color="midnightblue",fontsize="10",style="solid",fontname="Helvetica"];
  Node35 [label="coreDataHolderBase.h",height=0.2,width=0.4,color="black", fillcolor="white", style="filled",URL="$coreDataHolderBase_8h.html"];
  Node35 -> Node4 [color="midnightblue",fontsize="10",style="solid",fontname="Helvetica"];
  Node35 -> Node3 [color="midnightblue",fontsize="10",style="solid",fontname="Helvetica"];
  Node35 -> Node15 [color="midnightblue",fontsize="10",style="solid",fontname="Helvetica"];
  Node35 -> Node14 [color="midnightblue",fontsize="10",style="solid",fontname="Helvetica"];
  Node34 -> Node15 [color="midnightblue",fontsize="10",style="solid",fontname="Helvetica"];
  Node34 -> Node14 [color="midnightblue",fontsize="10",style="solid",fontname="Helvetica"];
  Node34 -> Node36 [color="midnightblue",fontsize="10",style="solid",fontname="Helvetica"];
  Node36 [label="coreDataHolder.txx",height=0.2,width=0.4,color="grey75", fillcolor="white", style="filled"];
  Node34 -> Node34 [color="midnightblue",fontsize="10",style="solid",fontname="Helvetica"];
  Node34 -> Node37 [color="midnightblue",fontsize="10",style="solid",fontname="Helvetica"];
  Node37 [label="/home/el1mc/src/bitbucket\l/cistib/cilab-gimiax/src\l/Apps/Gimias/Core/CommonObjects\l/src/coreAssert.h",height=0.2,width=0.4,color="grey75", fillcolor="white", style="filled"];
  Node19 -> Node33 [color="midnightblue",fontsize="10",style="solid",fontname="Helvetica"];
  Node19 -> Node26 [color="midnightblue",fontsize="10",style="solid",fontname="Helvetica"];
  Node19 -> Node11 [color="midnightblue",fontsize="10",style="solid",fontname="Helvetica"];
  Node19 -> Node27 [color="midnightblue",fontsize="10",style="solid",fontname="Helvetica"];
  Node19 -> Node14 [color="midnightblue",fontsize="10",style="solid",fontname="Helvetica"];
  Node19 -> Node16 [color="midnightblue",fontsize="10",style="solid",fontname="Helvetica"];
  Node1 -> Node34 [color="midnightblue",fontsize="10",style="solid",fontname="Helvetica"];
  Node1 -> Node14 [color="midnightblue",fontsize="10",style="solid",fontname="Helvetica"];
  Node1 -> Node38 [color="midnightblue",fontsize="10",style="solid",fontname="Helvetica"];
  Node38 [label="coreRenderingTree.h",height=0.2,width=0.4,color="black", fillcolor="white", style="filled",URL="$coreRenderingTree_8h.html"];
  Node38 -> Node20 [color="midnightblue",fontsize="10",style="solid",fontname="Helvetica"];
  Node38 -> Node3 [color="midnightblue",fontsize="10",style="solid",fontname="Helvetica"];
  Node38 -> Node21 [color="midnightblue",fontsize="10",style="solid",fontname="Helvetica"];
  Node38 -> Node14 [color="midnightblue",fontsize="10",style="solid",fontname="Helvetica"];
  Node38 -> Node16 [color="midnightblue",fontsize="10",style="solid",fontname="Helvetica"];
  Node38 -> Node39 [color="midnightblue",fontsize="10",style="solid",fontname="Helvetica"];
  Node39 [label="coreRenderingTree.txx",height=0.2,width=0.4,color="grey75", fillcolor="white", style="filled"];
  Node1 -> Node40 [color="midnightblue",fontsize="10",style="solid",fontname="Helvetica"];
  Node40 [label="coreBaseWindow.h",height=0.2,width=0.4,color="black", fillcolor="white", style="filled",URL="$coreBaseWindow_8h.html"];
  Node40 -> Node20 [color="midnightblue",fontsize="10",style="solid",fontname="Helvetica"];
  Node40 -> Node38 [color="midnightblue",fontsize="10",style="solid",fontname="Helvetica"];
  Node40 -> Node41 [color="midnightblue",fontsize="10",style="solid",fontname="Helvetica"];
  Node41 [label="coreBaseProcessor.h",height=0.2,width=0.4,color="red", fillcolor="white", style="filled",URL="$coreBaseProcessor_8h.html"];
  Node41 -> Node3 [color="midnightblue",fontsize="10",style="solid",fontname="Helvetica"];
  Node41 -> Node34 [color="midnightblue",fontsize="10",style="solid",fontname="Helvetica"];
  Node41 -> Node21 [color="midnightblue",fontsize="10",style="solid",fontname="Helvetica"];
  Node40 -> Node42 [color="midnightblue",fontsize="10",style="solid",fontname="Helvetica"];
  Node42 [label="coreProcessorOutputObserver.h",height=0.2,width=0.4,color="black", fillcolor="white", style="filled",URL="$coreProcessorOutputObserver_8h.html"];
  Node42 -> Node20 [color="midnightblue",fontsize="10",style="solid",fontname="Helvetica"];
  Node42 -> Node3 [color="midnightblue",fontsize="10",style="solid",fontname="Helvetica"];
  Node42 -> Node38 [color="midnightblue",fontsize="10",style="solid",fontname="Helvetica"];
  Node40 -> Node43 [color="midnightblue",fontsize="10",style="solid",fontname="Helvetica"];
  Node43 [label="coreCommonDataTypes.h",height=0.2,width=0.4,color="black", fillcolor="white", style="filled",URL="$coreCommonDataTypes_8h.html"];
  Node43 -> Node34 [color="midnightblue",fontsize="10",style="solid",fontname="Helvetica"];
  Node40 -> Node44 [color="midnightblue",fontsize="10",style="solid",fontname="Helvetica"];
  Node44 [label="coreRenderingTreeManager.h",height=0.2,width=0.4,color="black", fillcolor="white", style="filled",URL="$coreRenderingTreeManager_8h.html"];
  Node44 -> Node20 [color="midnightblue",fontsize="10",style="solid",fontname="Helvetica"];
  Node44 -> Node3 [color="midnightblue",fontsize="10",style="solid",fontname="Helvetica"];
  Node44 -> Node21 [color="midnightblue",fontsize="10",style="solid",fontname="Helvetica"];
  Node44 -> Node38 [color="midnightblue",fontsize="10",style="solid",fontname="Helvetica"];
  Node40 -> Node45 [color="midnightblue",fontsize="10",style="solid",fontname="Helvetica"];
  Node45 [label="coreBaseWindowFactory.h",height=0.2,width=0.4,color="red", fillcolor="white", style="filled",URL="$coreBaseWindowFactory_8h.html"];
  Node45 -> Node3 [color="midnightblue",fontsize="10",style="solid",fontname="Helvetica"];
  Node45 -> Node40 [color="midnightblue",fontsize="10",style="solid",fontname="Helvetica"];
  Node45 -> Node46 [color="midnightblue",fontsize="10",style="solid",fontname="Helvetica"];
  Node46 [label="coreWindowConfig.h",height=0.2,width=0.4,color="black", fillcolor="white", style="filled",URL="$coreWindowConfig_8h.html"];
  Node46 -> Node12 [color="midnightblue",fontsize="10",style="solid",fontname="Helvetica"];
  Node46 -> Node20 [color="midnightblue",fontsize="10",style="solid",fontname="Helvetica"];
  Node45 -> Node29 [color="midnightblue",fontsize="10",style="solid",fontname="Helvetica"];
  Node40 -> Node8 [color="midnightblue",fontsize="10",style="solid",fontname="Helvetica"];
  Node40 -> Node46 [color="midnightblue",fontsize="10",style="solid",fontname="Helvetica"];
  Node1 -> Node47 [color="midnightblue",fontsize="10",style="solid",fontname="Helvetica"];
  Node47 [label="wx/treebase.h",height=0.2,width=0.4,color="grey75", fillcolor="white", style="filled"];
  Node1 -> Node48 [color="midnightblue",fontsize="10",style="solid",fontname="Helvetica"];
  Node48 [label="wx/panel.h",height=0.2,width=0.4,color="grey75", fillcolor="white", style="filled"];
  Node1 -> Node49 [color="midnightblue",fontsize="10",style="solid",fontname="Helvetica"];
  Node49 [label="wxID.h",height=0.2,width=0.4,color="black", fillcolor="white", style="filled",URL="$wxID_8h.html"];
  Node49 -> Node12 [color="midnightblue",fontsize="10",style="solid",fontname="Helvetica"];
  Node49 -> Node50 [color="midnightblue",fontsize="10",style="solid",fontname="Helvetica"];
  Node50 [label="TpExtLibWxWidgetsWin32Header.h",height=0.2,width=0.4,color="grey75", fillcolor="white", style="filled"];
}
