digraph "Apps/Gimias/Core/Kernel/src/coreBaseWorkingAreaStorage.h"
{
  edge [fontname="Helvetica",fontsize="10",labelfontname="Helvetica",labelfontsize="10"];
  node [fontname="Helvetica",fontsize="10",shape=record];
  Node1 [label="Apps/Gimias/Core/Kernel\l/src/coreBaseWorkingAreaStorage.h",height=0.2,width=0.4,color="black", fillcolor="grey75", style="filled", fontcolor="black"];
  Node1 -> Node2 [dir="back",color="midnightblue",fontsize="10",style="solid",fontname="Helvetica"];
  Node2 [label="Apps/Gimias/Core/Kernel\l/src/coreWxMitkGraphicalInterface.cxx",height=0.2,width=0.4,color="black", fillcolor="white", style="filled",URL="$coreWxMitkGraphicalInterface_8cxx.html"];
  Node1 -> Node3 [dir="back",color="midnightblue",fontsize="10",style="solid",fontname="Helvetica"];
  Node3 [label="Apps/Gimias/GUI/Widgets\l/gmWidgetsPCH.h",height=0.2,width=0.4,color="black", fillcolor="white", style="filled",URL="$gmWidgetsPCH_8h.html"];
  Node1 -> Node4 [dir="back",color="midnightblue",fontsize="10",style="solid",fontname="Helvetica"];
  Node4 [label="Apps/Gimias/GUI/Widgets\l/src/MultiRenderWindow\l/coreWorkingAreaStorage.h",height=0.2,width=0.4,color="black", fillcolor="white", style="filled",URL="$coreWorkingAreaStorage_8h.html"];
  Node4 -> Node5 [dir="back",color="midnightblue",fontsize="10",style="solid",fontname="Helvetica"];
  Node5 [label="Apps/Gimias/GUI/Widgets\l/src/MultiRenderWindow\l/coreWorkingAreaStorage.cxx",height=0.2,width=0.4,color="black", fillcolor="white", style="filled",URL="$coreWorkingAreaStorage_8cxx.html"];
  Node4 -> Node6 [dir="back",color="midnightblue",fontsize="10",style="solid",fontname="Helvetica"];
  Node6 [label="Apps/Gimias/GUI/Widgets\l/src/wxMitkCoreMainWindow\l/coreWxMitkCoreMainWindow.h",height=0.2,width=0.4,color="black", fillcolor="white", style="filled",URL="$coreWxMitkCoreMainWindow_8h.html"];
  Node6 -> Node7 [dir="back",color="midnightblue",fontsize="10",style="solid",fontname="Helvetica"];
  Node7 [label="Apps/Gimias/GUI/MainApp\l/src/coreMainApp.cxx",height=0.2,width=0.4,color="black", fillcolor="white", style="filled",URL="$coreMainApp_8cxx.html"];
  Node6 -> Node8 [dir="back",color="midnightblue",fontsize="10",style="solid",fontname="Helvetica"];
  Node8 [label="Apps/Gimias/GUI/Widgets\l/src/WidgetCollective\l/coreWidgetCollective.cxx",height=0.2,width=0.4,color="black", fillcolor="white", style="filled",URL="$coreWidgetCollective_8cxx.html"];
  Node6 -> Node9 [dir="back",color="midnightblue",fontsize="10",style="solid",fontname="Helvetica"];
  Node9 [label="Apps/Gimias/GUI/Widgets\l/src/Workflow/coreModuleExecution\lWorkflow.cxx",height=0.2,width=0.4,color="black", fillcolor="white", style="filled",URL="$coreModuleExecutionWorkflow_8cxx.html"];
  Node6 -> Node10 [dir="back",color="midnightblue",fontsize="10",style="solid",fontname="Helvetica"];
  Node10 [label="Apps/Gimias/GUI/Widgets\l/src/Workflow/coreWorkflowNavigation\lWidget.cxx",height=0.2,width=0.4,color="black", fillcolor="white", style="filled",URL="$coreWorkflowNavigationWidget_8cxx.html"];
  Node6 -> Node11 [dir="back",color="midnightblue",fontsize="10",style="solid",fontname="Helvetica"];
  Node11 [label="Apps/Gimias/GUI/Widgets\l/src/wxMitkCoreMainWindow\l/coreMainMenu.cxx",height=0.2,width=0.4,color="black", fillcolor="white", style="filled",URL="$coreMainMenu_8cxx.html"];
  Node6 -> Node12 [dir="back",color="midnightblue",fontsize="10",style="solid",fontname="Helvetica"];
  Node12 [label="Apps/Gimias/GUI/Widgets\l/src/wxMitkCoreMainWindow\l/coreWxMitkCoreMainWindow.cxx",height=0.2,width=0.4,color="black", fillcolor="white", style="filled",URL="$coreWxMitkCoreMainWindow_8cxx.html"];
  Node6 -> Node13 [dir="back",color="midnightblue",fontsize="10",style="solid",fontname="Helvetica"];
  Node13 [label="Apps/Plugins/DicomPlugin\l/DicomPluginWidgetCollective.cxx",height=0.2,width=0.4,color="black", fillcolor="white", style="filled",URL="$DicomPluginWidgetCollective_8cxx.html"];
  Node6 -> Node14 [dir="back",color="midnightblue",fontsize="10",style="solid",fontname="Helvetica"];
  Node14 [label="Apps/Plugins/DicomPlugin\l/widgets/DicomConnectToPACSWidget\l/DicomConnectToPacsDialogWidget.cpp",height=0.2,width=0.4,color="black", fillcolor="white", style="filled",URL="$DicomConnectToPacsDialogWidget_8cpp.html"];
  Node6 -> Node15 [dir="back",color="midnightblue",fontsize="10",style="solid",fontname="Helvetica"];
  Node15 [label="Apps/Plugins/DicomPlugin\l/widgets/DicomWorkingAreaWidget\l/DicomWorkingAreaPanelWidget.cpp",height=0.2,width=0.4,color="black", fillcolor="white", style="filled",URL="$DicomWorkingAreaPanelWidget_8cpp.html"];
  Node6 -> Node16 [dir="back",color="midnightblue",fontsize="10",style="solid",fontname="Helvetica"];
  Node16 [label="Apps/Plugins/GenericSegmentation\lPlugin/GenericSegmentationPlugin.cxx",height=0.2,width=0.4,color="black", fillcolor="white", style="filled",URL="$GenericSegmentationPlugin_8cxx.html"];
  Node6 -> Node17 [dir="back",color="midnightblue",fontsize="10",style="solid",fontname="Helvetica"];
  Node17 [label="Apps/Plugins/MITKPlugin\l/widgets/RenderWindow\l/coreMultiRenderWindowMITK.cxx",height=0.2,width=0.4,color="black", fillcolor="white", style="filled",URL="$coreMultiRenderWindowMITK_8cxx.html"];
  Node6 -> Node18 [dir="back",color="midnightblue",fontsize="10",style="solid",fontname="Helvetica"];
  Node18 [label="Apps/Plugins/SignalViewer\lPlugin/SignalViewerPluginPCH.h",height=0.2,width=0.4,color="black", fillcolor="white", style="filled",URL="$SignalViewerPluginPCH_8h.html"];
}
