digraph "Apps/Gimias/GUI/Widgets/src/ProcessingToolbox/coreDynProcessingWidget.h"
{
  edge [fontname="Helvetica",fontsize="10",labelfontname="Helvetica",labelfontsize="10"];
  node [fontname="Helvetica",fontsize="10",shape=record];
  Node1 [label="Apps/Gimias/GUI/Widgets\l/src/ProcessingToolbox\l/coreDynProcessingWidget.h",height=0.2,width=0.4,color="black", fillcolor="grey75", style="filled", fontcolor="black"];
  Node1 -> Node2 [dir="back",color="midnightblue",fontsize="10",style="solid",fontname="Helvetica"];
  Node2 [label="Apps/Gimias/GUI/Widgets\l/src/ProcessingToolbox\l/coreDynProcessingWidget.cpp",height=0.2,width=0.4,color="black", fillcolor="white", style="filled",URL="$coreDynProcessingWidget_8cpp.html"];
  Node1 -> Node3 [dir="back",color="midnightblue",fontsize="10",style="solid",fontname="Helvetica"];
  Node3 [label="Apps/Gimias/GUI/Widgets\l/src/ProcessingToolbox\l/coreDynProcessingWidgetFactory.h",height=0.2,width=0.4,color="black", fillcolor="white", style="filled",URL="$coreDynProcessingWidgetFactory_8h.html"];
  Node3 -> Node4 [dir="back",color="midnightblue",fontsize="10",style="solid",fontname="Helvetica"];
  Node4 [label="Apps/Gimias/GUI/Widgets\l/src/ProcessingToolbox\l/coreDynProcessingWidgetFactory.cpp",height=0.2,width=0.4,color="black", fillcolor="white", style="filled",URL="$coreDynProcessingWidgetFactory_8cpp.html"];
  Node3 -> Node5 [dir="back",color="midnightblue",fontsize="10",style="solid",fontname="Helvetica"];
  Node5 [label="Apps/Gimias/GUI/Widgets\l/src/wxMitkCoreMainWindow\l/coreWxMitkCoreMainWindow.cxx",height=0.2,width=0.4,color="black", fillcolor="white", style="filled",URL="$coreWxMitkCoreMainWindow_8cxx.html"];
}
