digraph "Apps/Gimias/GUI/Widgets/src/CustomApplicationWizard/coreCustomApplicationWizardUI.h"
{
  edge [fontname="Helvetica",fontsize="10",labelfontname="Helvetica",labelfontsize="10"];
  node [fontname="Helvetica",fontsize="10",shape=record];
  Node1 [label="Apps/Gimias/GUI/Widgets\l/src/CustomApplicationWizard\l/coreCustomApplicationWizardUI.h",height=0.2,width=0.4,color="black", fillcolor="grey75", style="filled", fontcolor="black"];
  Node1 -> Node2 [dir="back",color="midnightblue",fontsize="10",style="solid",fontname="Helvetica"];
  Node2 [label="Apps/Gimias/GUI/Widgets\l/src/CustomApplicationWizard\l/coreCustomApplicationWizard.h",height=0.2,width=0.4,color="black", fillcolor="white", style="filled",URL="$coreCustomApplicationWizard_8h.html"];
  Node2 -> Node3 [dir="back",color="midnightblue",fontsize="10",style="solid",fontname="Helvetica"];
  Node3 [label="Apps/Gimias/GUI/Widgets\l/src/CustomApplicationWizard\l/coreCustomApplicationManagerWidget.h",height=0.2,width=0.4,color="black", fillcolor="white", style="filled",URL="$coreCustomApplicationManagerWidget_8h.html"];
  Node3 -> Node4 [dir="back",color="midnightblue",fontsize="10",style="solid",fontname="Helvetica"];
  Node4 [label="Apps/Gimias/GUI/Widgets\l/src/CustomApplicationWizard\l/coreCustomApplicationManagerWidget.cpp",height=0.2,width=0.4,color="black", fillcolor="white", style="filled",URL="$coreCustomApplicationManagerWidget_8cpp.html"];
  Node3 -> Node5 [dir="back",color="midnightblue",fontsize="10",style="solid",fontname="Helvetica"];
  Node5 [label="Apps/Gimias/GUI/Widgets\l/src/wxMitkCoreMainWindow\l/coreWxMitkCoreMainWindow.cxx",height=0.2,width=0.4,color="black", fillcolor="white", style="filled",URL="$coreWxMitkCoreMainWindow_8cxx.html"];
  Node2 -> Node6 [dir="back",color="midnightblue",fontsize="10",style="solid",fontname="Helvetica"];
  Node6 [label="Apps/Gimias/GUI/Widgets\l/src/CustomApplicationWizard\l/coreCustomApplicationWizard.cxx",height=0.2,width=0.4,color="black", fillcolor="white", style="filled",URL="$coreCustomApplicationWizard_8cxx.html"];
  Node1 -> Node7 [dir="back",color="midnightblue",fontsize="10",style="solid",fontname="Helvetica"];
  Node7 [label="Apps/Gimias/GUI/Widgets\l/src/CustomApplicationWizard\l/coreCustomApplicationWizardUI.cpp",height=0.2,width=0.4,color="black", fillcolor="white", style="filled",URL="$coreCustomApplicationWizardUI_8cpp.html"];
}
