digraph "Apps/Gimias/GUI/Widgets/src/Workflow/coreModuleExecutionWorkflow.cxx"
{
  edge [fontname="Helvetica",fontsize="10",labelfontname="Helvetica",labelfontsize="10"];
  node [fontname="Helvetica",fontsize="10",shape=record];
  Node1 [label="Apps/Gimias/GUI/Widgets\l/src/Workflow/coreModuleExecution\lWorkflow.cxx",height=0.2,width=0.4,color="black", fillcolor="grey75", style="filled", fontcolor="black"];
  Node1 -> Node2 [color="midnightblue",fontsize="10",style="solid",fontname="Helvetica"];
  Node2 [label="coreModuleExecutionWorkflow.h",height=0.2,width=0.4,color="black", fillcolor="white", style="filled",URL="$coreModuleExecutionWorkflow_8h.html"];
  Node2 -> Node3 [color="midnightblue",fontsize="10",style="solid",fontname="Helvetica"];
  Node3 [label="gmProcessorsWin32Header.h",height=0.2,width=0.4,color="grey75", fillcolor="white", style="filled"];
  Node2 -> Node4 [color="midnightblue",fontsize="10",style="solid",fontname="Helvetica"];
  Node4 [label="dynModuleExecutionImpl.h",height=0.2,width=0.4,color="red", fillcolor="white", style="filled",URL="$dynModuleExecutionImpl_8h.html"];
  Node4 -> Node5 [color="midnightblue",fontsize="10",style="solid",fontname="Helvetica"];
  Node5 [label="DynLibWin32Header.h",height=0.2,width=0.4,color="grey75", fillcolor="white", style="filled"];
  Node4 -> Node6 [color="midnightblue",fontsize="10",style="solid",fontname="Helvetica"];
  Node6 [label="ModuleDescription.h",height=0.2,width=0.4,color="grey75", fillcolor="white", style="filled"];
  Node4 -> Node7 [color="midnightblue",fontsize="10",style="solid",fontname="Helvetica"];
  Node7 [label="blLightObject.h",height=0.2,width=0.4,color="red", fillcolor="white", style="filled",URL="$blLightObject_8h.html"];
  Node4 -> Node8 [color="midnightblue",fontsize="10",style="solid",fontname="Helvetica"];
  Node8 [label="list",height=0.2,width=0.4,color="grey75", fillcolor="white", style="filled"];
  Node4 -> Node9 [color="midnightblue",fontsize="10",style="solid",fontname="Helvetica"];
  Node9 [label="map",height=0.2,width=0.4,color="grey75", fillcolor="white", style="filled"];
  Node4 -> Node10 [color="midnightblue",fontsize="10",style="solid",fontname="Helvetica"];
  Node10 [label="dynUpdateCallback.h",height=0.2,width=0.4,color="red", fillcolor="white", style="filled",URL="$dynUpdateCallback_8h.html"];
  Node10 -> Node5 [color="midnightblue",fontsize="10",style="solid",fontname="Helvetica"];
  Node2 -> Node6 [color="midnightblue",fontsize="10",style="solid",fontname="Helvetica"];
  Node2 -> Node11 [color="midnightblue",fontsize="10",style="solid",fontname="Helvetica"];
  Node11 [label="coreCreateExceptionMacros.h",height=0.2,width=0.4,color="black", fillcolor="white", style="filled",URL="$coreCreateExceptionMacros_8h.html"];
  Node1 -> Node12 [color="midnightblue",fontsize="10",style="solid",fontname="Helvetica"];
  Node12 [label="dynModuleExecution.h",height=0.2,width=0.4,color="black", fillcolor="white", style="filled",URL="$dynModuleExecution_8h.html"];
  Node12 -> Node5 [color="midnightblue",fontsize="10",style="solid",fontname="Helvetica"];
  Node12 -> Node6 [color="midnightblue",fontsize="10",style="solid",fontname="Helvetica"];
  Node12 -> Node4 [color="midnightblue",fontsize="10",style="solid",fontname="Helvetica"];
  Node12 -> Node7 [color="midnightblue",fontsize="10",style="solid",fontname="Helvetica"];
  Node12 -> Node8 [color="midnightblue",fontsize="10",style="solid",fontname="Helvetica"];
  Node12 -> Node9 [color="midnightblue",fontsize="10",style="solid",fontname="Helvetica"];
  Node12 -> Node10 [color="midnightblue",fontsize="10",style="solid",fontname="Helvetica"];
  Node12 -> Node13 [color="midnightblue",fontsize="10",style="solid",fontname="Helvetica"];
  Node13 [label="CILabExceptionMacros.h",height=0.2,width=0.4,color="red", fillcolor="white", style="filled",URL="$CILabExceptionMacros_8h.html"];
  Node13 -> Node14 [color="midnightblue",fontsize="10",style="solid",fontname="Helvetica"];
  Node14 [label="string",height=0.2,width=0.4,color="grey75", fillcolor="white", style="filled"];
  Node1 -> Node15 [color="midnightblue",fontsize="10",style="solid",fontname="Helvetica"];
  Node15 [label="coreFactoryManager.h",height=0.2,width=0.4,color="black", fillcolor="white", style="filled",URL="$coreFactoryManager_8h.html"];
  Node15 -> Node16 [color="midnightblue",fontsize="10",style="solid",fontname="Helvetica"];
  Node16 [label="gmCommonObjectsWin32Header.h",height=0.2,width=0.4,color="grey75", fillcolor="white", style="filled"];
  Node15 -> Node17 [color="midnightblue",fontsize="10",style="solid",fontname="Helvetica"];
  Node17 [label="coreBaseFactory.h",height=0.2,width=0.4,color="red", fillcolor="white", style="filled",URL="$coreBaseFactory_8h.html"];
  Node17 -> Node16 [color="midnightblue",fontsize="10",style="solid",fontname="Helvetica"];
  Node17 -> Node18 [color="midnightblue",fontsize="10",style="solid",fontname="Helvetica"];
  Node18 [label="coreObject.h",height=0.2,width=0.4,color="red", fillcolor="white", style="filled",URL="$coreObject_8h.html"];
  Node18 -> Node16 [color="midnightblue",fontsize="10",style="solid",fontname="Helvetica"];
  Node15 -> Node19 [color="midnightblue",fontsize="10",style="solid",fontname="Helvetica"];
  Node19 [label="coreException.h",height=0.2,width=0.4,color="red", fillcolor="white", style="filled",URL="$coreException_8h.html"];
  Node19 -> Node14 [color="midnightblue",fontsize="10",style="solid",fontname="Helvetica"];
  Node19 -> Node8 [color="midnightblue",fontsize="10",style="solid",fontname="Helvetica"];
  Node19 -> Node16 [color="midnightblue",fontsize="10",style="solid",fontname="Helvetica"];
  Node19 -> Node11 [color="midnightblue",fontsize="10",style="solid",fontname="Helvetica"];
  Node15 -> Node11 [color="midnightblue",fontsize="10",style="solid",fontname="Helvetica"];
  Node15 -> Node20 [color="midnightblue",fontsize="10",style="solid",fontname="Helvetica"];
  Node20 [label="boost/thread/mutex.hpp",height=0.2,width=0.4,color="grey75", fillcolor="white", style="filled"];
  Node1 -> Node21 [color="midnightblue",fontsize="10",style="solid",fontname="Helvetica"];
  Node21 [label="coreBaseProcessor.h",height=0.2,width=0.4,color="black", fillcolor="white", style="filled",URL="$coreBaseProcessor_8h.html"];
  Node21 -> Node22 [color="midnightblue",fontsize="10",style="solid",fontname="Helvetica"];
  Node22 [label="gmFilteringWin32Header.h",height=0.2,width=0.4,color="grey75", fillcolor="white", style="filled"];
  Node21 -> Node18 [color="midnightblue",fontsize="10",style="solid",fontname="Helvetica"];
  Node21 -> Node23 [color="midnightblue",fontsize="10",style="solid",fontname="Helvetica"];
  Node23 [label="coreDataHolder.h",height=0.2,width=0.4,color="red", fillcolor="white", style="filled",URL="$coreDataHolder_8h.html"];
  Node23 -> Node16 [color="midnightblue",fontsize="10",style="solid",fontname="Helvetica"];
  Node23 -> Node23 [color="midnightblue",fontsize="10",style="solid",fontname="Helvetica"];
  Node21 -> Node24 [color="midnightblue",fontsize="10",style="solid",fontname="Helvetica"];
  Node24 [label="coreDataEntity.h",height=0.2,width=0.4,color="red", fillcolor="white", style="filled",URL="$coreDataEntity_8h.html"];
  Node24 -> Node18 [color="midnightblue",fontsize="10",style="solid",fontname="Helvetica"];
  Node24 -> Node14 [color="midnightblue",fontsize="10",style="solid",fontname="Helvetica"];
  Node21 -> Node25 [color="midnightblue",fontsize="10",style="solid",fontname="Helvetica"];
  Node25 [label="coreBaseFilter.h",height=0.2,width=0.4,color="red", fillcolor="white", style="filled",URL="$coreBaseFilter_8h.html"];
  Node25 -> Node18 [color="midnightblue",fontsize="10",style="solid",fontname="Helvetica"];
  Node25 -> Node23 [color="midnightblue",fontsize="10",style="solid",fontname="Helvetica"];
  Node25 -> Node24 [color="midnightblue",fontsize="10",style="solid",fontname="Helvetica"];
  Node21 -> Node6 [color="midnightblue",fontsize="10",style="solid",fontname="Helvetica"];
  Node21 -> Node26 [color="midnightblue",fontsize="10",style="solid",fontname="Helvetica"];
  Node26 [label="coreBaseProcessor.txx",height=0.2,width=0.4,color="grey75", fillcolor="white", style="filled"];
  Node1 -> Node27 [color="midnightblue",fontsize="10",style="solid",fontname="Helvetica"];
  Node27 [label="coreModuleExecutionProcessor.h",height=0.2,width=0.4,color="black", fillcolor="white", style="filled",URL="$coreModuleExecutionProcessor_8h.html"];
  Node27 -> Node3 [color="midnightblue",fontsize="10",style="solid",fontname="Helvetica"];
  Node27 -> Node4 [color="midnightblue",fontsize="10",style="solid",fontname="Helvetica"];
  Node27 -> Node6 [color="midnightblue",fontsize="10",style="solid",fontname="Helvetica"];
  Node1 -> Node28 [color="midnightblue",fontsize="10",style="solid",fontname="Helvetica"];
  Node28 [label="coreWorkflowManager.h",height=0.2,width=0.4,color="black", fillcolor="white", style="filled",URL="$coreWorkflowManager_8h.html"];
  Node28 -> Node29 [color="midnightblue",fontsize="10",style="solid",fontname="Helvetica"];
  Node29 [label="gmKernelWin32Header.h",height=0.2,width=0.4,color="grey75", fillcolor="white", style="filled"];
  Node28 -> Node18 [color="midnightblue",fontsize="10",style="solid",fontname="Helvetica"];
  Node28 -> Node30 [color="midnightblue",fontsize="10",style="solid",fontname="Helvetica"];
  Node30 [label="coreWorkflow.h",height=0.2,width=0.4,color="red", fillcolor="white", style="filled",URL="$coreWorkflow_8h.html"];
  Node30 -> Node18 [color="midnightblue",fontsize="10",style="solid",fontname="Helvetica"];
  Node28 -> Node23 [color="midnightblue",fontsize="10",style="solid",fontname="Helvetica"];
  Node1 -> Node31 [color="midnightblue",fontsize="10",style="solid",fontname="Helvetica"];
  Node31 [label="coreSettings.h",height=0.2,width=0.4,color="black", fillcolor="white", style="filled",URL="$coreSettings_8h.html"];
  Node31 -> Node29 [color="midnightblue",fontsize="10",style="solid",fontname="Helvetica"];
  Node31 -> Node18 [color="midnightblue",fontsize="10",style="solid",fontname="Helvetica"];
  Node31 -> Node32 [color="midnightblue",fontsize="10",style="solid",fontname="Helvetica"];
  Node32 [label="coreConfigVars.h",height=0.2,width=0.4,color="red", fillcolor="white", style="filled",URL="$coreConfigVars_8h.html"];
  Node31 -> Node33 [color="midnightblue",fontsize="10",style="solid",fontname="Helvetica"];
  Node33 [label="coreSettingsIO.h",height=0.2,width=0.4,color="black", fillcolor="white", style="filled",URL="$coreSettingsIO_8h.html"];
  Node33 -> Node18 [color="midnightblue",fontsize="10",style="solid",fontname="Helvetica"];
  Node33 -> Node32 [color="midnightblue",fontsize="10",style="solid",fontname="Helvetica"];
  Node33 -> Node14 [color="midnightblue",fontsize="10",style="solid",fontname="Helvetica"];
  Node31 -> Node14 [color="midnightblue",fontsize="10",style="solid",fontname="Helvetica"];
  Node31 -> Node20 [color="midnightblue",fontsize="10",style="solid",fontname="Helvetica"];
  Node1 -> Node34 [color="midnightblue",fontsize="10",style="solid",fontname="Helvetica"];
  Node34 [label="coreWxMitkGraphicalInterface.h",height=0.2,width=0.4,color="black", fillcolor="white", style="filled",URL="$coreWxMitkGraphicalInterface_8h.html"];
  Node34 -> Node18 [color="midnightblue",fontsize="10",style="solid",fontname="Helvetica"];
  Node34 -> Node35 [color="midnightblue",fontsize="10",style="solid",fontname="Helvetica"];
  Node35 [label="coreWindowConfig.h",height=0.2,width=0.4,color="black", fillcolor="white", style="filled",URL="$coreWindowConfig_8h.html"];
  Node35 -> Node14 [color="midnightblue",fontsize="10",style="solid",fontname="Helvetica"];
  Node35 -> Node29 [color="midnightblue",fontsize="10",style="solid",fontname="Helvetica"];
  Node34 -> Node4 [color="midnightblue",fontsize="10",style="solid",fontname="Helvetica"];
  Node34 -> Node9 [color="midnightblue",fontsize="10",style="solid",fontname="Helvetica"];
  Node34 -> Node14 [color="midnightblue",fontsize="10",style="solid",fontname="Helvetica"];
  Node1 -> Node36 [color="midnightblue",fontsize="10",style="solid",fontname="Helvetica"];
  Node36 [label="coreWxMitkCoreMainWindow.h",height=0.2,width=0.4,color="red", fillcolor="white", style="filled",URL="$coreWxMitkCoreMainWindow_8h.html"];
  Node36 -> Node37 [color="midnightblue",fontsize="10",style="solid",fontname="Helvetica"];
  Node37 [label="gmWidgetsWin32Header.h",height=0.2,width=0.4,color="grey75", fillcolor="white", style="filled"];
  Node36 -> Node18 [color="midnightblue",fontsize="10",style="solid",fontname="Helvetica"];
  Node36 -> Node38 [color="midnightblue",fontsize="10",style="solid",fontname="Helvetica"];
  Node38 [label="coreBaseMainWindow.h",height=0.2,width=0.4,color="red", fillcolor="white", style="filled",URL="$coreBaseMainWindow_8h.html"];
  Node38 -> Node14 [color="midnightblue",fontsize="10",style="solid",fontname="Helvetica"];
  Node38 -> Node35 [color="midnightblue",fontsize="10",style="solid",fontname="Helvetica"];
  Node38 -> Node30 [color="midnightblue",fontsize="10",style="solid",fontname="Helvetica"];
  Node36 -> Node35 [color="midnightblue",fontsize="10",style="solid",fontname="Helvetica"];
  Node36 -> Node39 [color="midnightblue",fontsize="10",style="solid",fontname="Helvetica"];
  Node39 [label="coreWorkingAreaStorage.h",height=0.2,width=0.4,color="red", fillcolor="white", style="filled",URL="$coreWorkingAreaStorage_8h.html"];
  Node39 -> Node37 [color="midnightblue",fontsize="10",style="solid",fontname="Helvetica"];
  Node36 -> Node40 [color="midnightblue",fontsize="10",style="solid",fontname="Helvetica"];
  Node40 [label="coreWxUpdateCallbackEvent.h",height=0.2,width=0.4,color="red", fillcolor="white", style="filled",URL="$coreWxUpdateCallbackEvent_8h.html"];
  Node36 -> Node14 [color="midnightblue",fontsize="10",style="solid",fontname="Helvetica"];
  Node1 -> Node41 [color="midnightblue",fontsize="10",style="solid",fontname="Helvetica"];
  Node41 [label="coreMainMenu.h",height=0.2,width=0.4,color="red", fillcolor="white", style="filled",URL="$coreMainMenu_8h.html"];
  Node41 -> Node37 [color="midnightblue",fontsize="10",style="solid",fontname="Helvetica"];
  Node41 -> Node18 [color="midnightblue",fontsize="10",style="solid",fontname="Helvetica"];
  Node41 -> Node35 [color="midnightblue",fontsize="10",style="solid",fontname="Helvetica"];
  Node41 -> Node14 [color="midnightblue",fontsize="10",style="solid",fontname="Helvetica"];
  Node1 -> Node42 [color="midnightblue",fontsize="10",style="solid",fontname="Helvetica"];
  Node42 [label="coreWxGenericEvtHandler.h",height=0.2,width=0.4,color="red", fillcolor="white", style="filled",URL="$coreWxGenericEvtHandler_8h.html"];
  Node1 -> Node43 [color="midnightblue",fontsize="10",style="solid",fontname="Helvetica"];
  Node43 [label="corePluginProviderManager.h",height=0.2,width=0.4,color="red", fillcolor="white", style="filled",URL="$corePluginProviderManager_8h.html"];
  Node43 -> Node29 [color="midnightblue",fontsize="10",style="solid",fontname="Helvetica"];
  Node43 -> Node18 [color="midnightblue",fontsize="10",style="solid",fontname="Helvetica"];
  Node1 -> Node44 [color="midnightblue",fontsize="10",style="solid",fontname="Helvetica"];
  Node44 [label="coreDataTreeHelper.h",height=0.2,width=0.4,color="red", fillcolor="white", style="filled",URL="$coreDataTreeHelper_8h.html"];
  Node44 -> Node37 [color="midnightblue",fontsize="10",style="solid",fontname="Helvetica"];
  Node44 -> Node18 [color="midnightblue",fontsize="10",style="solid",fontname="Helvetica"];
  Node44 -> Node24 [color="midnightblue",fontsize="10",style="solid",fontname="Helvetica"];
  Node1 -> Node45 [color="midnightblue",fontsize="10",style="solid",fontname="Helvetica"];
  Node45 [label="corePluginTab.h",height=0.2,width=0.4,color="red", fillcolor="white", style="filled",URL="$corePluginTab_8h.html"];
  Node45 -> Node18 [color="midnightblue",fontsize="10",style="solid",fontname="Helvetica"];
  Node45 -> Node23 [color="midnightblue",fontsize="10",style="solid",fontname="Helvetica"];
  Node45 -> Node24 [color="midnightblue",fontsize="10",style="solid",fontname="Helvetica"];
  Node45 -> Node35 [color="midnightblue",fontsize="10",style="solid",fontname="Helvetica"];
  Node1 -> Node46 [color="midnightblue",fontsize="10",style="solid",fontname="Helvetica"];
  Node46 [label="coreWorkflowNavigationWidget.h",height=0.2,width=0.4,color="red", fillcolor="white", style="filled",URL="$coreWorkflowNavigationWidget_8h.html"];
  Node46 -> Node37 [color="midnightblue",fontsize="10",style="solid",fontname="Helvetica"];
  Node46 -> Node30 [color="midnightblue",fontsize="10",style="solid",fontname="Helvetica"];
  Node1 -> Node47 [color="midnightblue",fontsize="10",style="solid",fontname="Helvetica"];
  Node47 [label="coreWorkflowFinishedWidget.h",height=0.2,width=0.4,color="red", fillcolor="white", style="filled",URL="$coreWorkflowFinishedWidget_8h.html"];
  Node1 -> Node48 [color="midnightblue",fontsize="10",style="solid",fontname="Helvetica"];
  Node48 [label="coreWxWaitEvtHandler.h",height=0.2,width=0.4,color="red", fillcolor="white", style="filled",URL="$coreWxWaitEvtHandler_8h.html"];
  Node1 -> Node49 [color="midnightblue",fontsize="10",style="solid",fontname="Helvetica"];
  Node49 [label="dynModuleHelper.h",height=0.2,width=0.4,color="black", fillcolor="white", style="filled",URL="$dynModuleHelper_8h.html"];
  Node49 -> Node5 [color="midnightblue",fontsize="10",style="solid",fontname="Helvetica"];
  Node49 -> Node6 [color="midnightblue",fontsize="10",style="solid",fontname="Helvetica"];
  Node1 -> Node50 [color="midnightblue",fontsize="10",style="solid",fontname="Helvetica"];
  Node50 [label="wxEventHandlerHelper.h",height=0.2,width=0.4,color="red", fillcolor="white", style="filled",URL="$wxEventHandlerHelper_8h.html"];
}
