digraph "Apps/Plugins/MITKPlugin/processors/ITKTransform/coreITKTransformReader.h"
{
  edge [fontname="Helvetica",fontsize="10",labelfontname="Helvetica",labelfontsize="10"];
  node [fontname="Helvetica",fontsize="10",shape=record];
  Node1 [label="Apps/Plugins/MITKPlugin\l/processors/ITKTransform\l/coreITKTransformReader.h",height=0.2,width=0.4,color="black", fillcolor="grey75", style="filled", fontcolor="black"];
  Node1 -> Node2 [dir="back",color="midnightblue",fontsize="10",style="solid",fontname="Helvetica"];
  Node2 [label="Apps/Plugins/MITKPlugin\l/MITKPluginProcessorCollective.cxx",height=0.2,width=0.4,color="black", fillcolor="white", style="filled",URL="$MITKPluginProcessorCollective_8cxx.html"];
  Node1 -> Node3 [dir="back",color="midnightblue",fontsize="10",style="solid",fontname="Helvetica"];
  Node3 [label="Apps/Plugins/MITKPlugin\l/processors/ITKTransform\l/coreITKTransformReader.cxx",height=0.2,width=0.4,color="black", fillcolor="white", style="filled",URL="$coreITKTransformReader_8cxx.html"];
}
