digraph "Apps/Plugins/MITKPlugin/widgets/MeasurementWidget/coreMeasurementWidget.cxx"
{
  edge [fontname="Helvetica",fontsize="10",labelfontname="Helvetica",labelfontsize="10"];
  node [fontname="Helvetica",fontsize="10",shape=record];
  Node1 [label="Apps/Plugins/MITKPlugin\l/widgets/MeasurementWidget\l/coreMeasurementWidget.cxx",height=0.2,width=0.4,color="black", fillcolor="grey75", style="filled", fontcolor="black"];
  Node1 -> Node2 [color="midnightblue",fontsize="10",style="solid",fontname="Helvetica"];
  Node2 [label="coreMeasurementWidget.h",height=0.2,width=0.4,color="black", fillcolor="white", style="filled",URL="$coreMeasurementWidget_8h.html"];
  Node2 -> Node3 [color="midnightblue",fontsize="10",style="solid",fontname="Helvetica"];
  Node3 [label="coreObject.h",height=0.2,width=0.4,color="black", fillcolor="white", style="filled",URL="$coreObject_8h.html"];
  Node3 -> Node4 [color="midnightblue",fontsize="10",style="solid",fontname="Helvetica"];
  Node4 [label="gmCommonObjectsWin32Header.h",height=0.2,width=0.4,color="grey75", fillcolor="white", style="filled"];
  Node3 -> Node5 [color="midnightblue",fontsize="10",style="solid",fontname="Helvetica"];
  Node5 [label="coreCommonMacros.h",height=0.2,width=0.4,color="black", fillcolor="white", style="filled",URL="$coreCommonMacros_8h.html"];
  Node3 -> Node6 [color="midnightblue",fontsize="10",style="solid",fontname="Helvetica"];
  Node6 [label="coreSmartPointerMacros.h",height=0.2,width=0.4,color="black", fillcolor="white", style="filled",URL="$coreSmartPointerMacros_8h.html"];
  Node6 -> Node5 [color="midnightblue",fontsize="10",style="solid",fontname="Helvetica"];
  Node6 -> Node7 [color="midnightblue",fontsize="10",style="solid",fontname="Helvetica"];
  Node7 [label="itkSmartPointer.h",height=0.2,width=0.4,color="grey75", fillcolor="white", style="filled"];
  Node3 -> Node8 [color="midnightblue",fontsize="10",style="solid",fontname="Helvetica"];
  Node8 [label="blTagMap.h",height=0.2,width=0.4,color="red", fillcolor="white", style="filled",URL="$blTagMap_8h.html"];
  Node8 -> Node9 [color="midnightblue",fontsize="10",style="solid",fontname="Helvetica"];
  Node9 [label="boost/signals.hpp",height=0.2,width=0.4,color="grey75", fillcolor="white", style="filled"];
  Node8 -> Node10 [color="midnightblue",fontsize="10",style="solid",fontname="Helvetica"];
  Node10 [label="boost/bind.hpp",height=0.2,width=0.4,color="grey75", fillcolor="white", style="filled"];
  Node8 -> Node11 [color="midnightblue",fontsize="10",style="solid",fontname="Helvetica"];
  Node11 [label="string",height=0.2,width=0.4,color="grey75", fillcolor="white", style="filled"];
  Node3 -> Node12 [color="midnightblue",fontsize="10",style="solid",fontname="Helvetica"];
  Node12 [label="itkLightObject.h",height=0.2,width=0.4,color="grey75", fillcolor="white", style="filled"];
  Node3 -> Node13 [color="midnightblue",fontsize="10",style="solid",fontname="Helvetica"];
  Node13 [label="itkTimeStamp.h",height=0.2,width=0.4,color="grey75", fillcolor="white", style="filled"];
  Node3 -> Node9 [color="midnightblue",fontsize="10",style="solid",fontname="Helvetica"];
  Node3 -> Node10 [color="midnightblue",fontsize="10",style="solid",fontname="Helvetica"];
  Node2 -> Node14 [color="midnightblue",fontsize="10",style="solid",fontname="Helvetica"];
  Node14 [label="mitkCommon.h",height=0.2,width=0.4,color="grey75", fillcolor="white", style="filled"];
  Node2 -> Node15 [color="midnightblue",fontsize="10",style="solid",fontname="Helvetica"];
  Node15 [label="mitkPointSet.h",height=0.2,width=0.4,color="grey75", fillcolor="white", style="filled"];
  Node2 -> Node6 [color="midnightblue",fontsize="10",style="solid",fontname="Helvetica"];
  Node2 -> Node16 [color="midnightblue",fontsize="10",style="solid",fontname="Helvetica"];
  Node16 [label="coreDataEntityHolder.h",height=0.2,width=0.4,color="black", fillcolor="white", style="filled",URL="$coreDataEntityHolder_8h.html"];
  Node16 -> Node17 [color="midnightblue",fontsize="10",style="solid",fontname="Helvetica"];
  Node17 [label="gmDataHandlingWin32Header.h",height=0.2,width=0.4,color="grey75", fillcolor="white", style="filled"];
  Node16 -> Node18 [color="midnightblue",fontsize="10",style="solid",fontname="Helvetica"];
  Node18 [label="coreDataEntity.h",height=0.2,width=0.4,color="red", fillcolor="white", style="filled",URL="$coreDataEntity_8h.html"];
  Node18 -> Node17 [color="midnightblue",fontsize="10",style="solid",fontname="Helvetica"];
  Node18 -> Node3 [color="midnightblue",fontsize="10",style="solid",fontname="Helvetica"];
  Node18 -> Node11 [color="midnightblue",fontsize="10",style="solid",fontname="Helvetica"];
  Node18 -> Node9 [color="midnightblue",fontsize="10",style="solid",fontname="Helvetica"];
  Node18 -> Node16 [color="midnightblue",fontsize="10",style="solid",fontname="Helvetica"];
  Node16 -> Node19 [color="midnightblue",fontsize="10",style="solid",fontname="Helvetica"];
  Node19 [label="coreDataHolder.h",height=0.2,width=0.4,color="red", fillcolor="white", style="filled",URL="$coreDataHolder_8h.html"];
  Node19 -> Node4 [color="midnightblue",fontsize="10",style="solid",fontname="Helvetica"];
  Node19 -> Node10 [color="midnightblue",fontsize="10",style="solid",fontname="Helvetica"];
  Node19 -> Node9 [color="midnightblue",fontsize="10",style="solid",fontname="Helvetica"];
  Node19 -> Node19 [color="midnightblue",fontsize="10",style="solid",fontname="Helvetica"];
  Node2 -> Node20 [color="midnightblue",fontsize="10",style="solid",fontname="Helvetica"];
  Node20 [label="coreCommonDataTypes.h",height=0.2,width=0.4,color="black", fillcolor="white", style="filled",URL="$coreCommonDataTypes_8h.html"];
  Node20 -> Node19 [color="midnightblue",fontsize="10",style="solid",fontname="Helvetica"];
  Node2 -> Node21 [color="midnightblue",fontsize="10",style="solid",fontname="Helvetica"];
  Node21 [label="corePointInteractorPoint\lSet.h",height=0.2,width=0.4,color="black", fillcolor="white", style="filled",URL="$corePointInteractorPointSet_8h.html"];
  Node21 -> Node22 [color="midnightblue",fontsize="10",style="solid",fontname="Helvetica"];
  Node22 [label="corePointInteractor.h",height=0.2,width=0.4,color="red", fillcolor="white", style="filled",URL="$corePointInteractor_8h.html"];
  Node22 -> Node23 [color="midnightblue",fontsize="10",style="solid",fontname="Helvetica"];
  Node23 [label="corePluginMacros.h",height=0.2,width=0.4,color="black", fillcolor="white", style="filled",URL="$corePluginMacros_8h.html"];
  Node22 -> Node3 [color="midnightblue",fontsize="10",style="solid",fontname="Helvetica"];
  Node22 -> Node16 [color="midnightblue",fontsize="10",style="solid",fontname="Helvetica"];
  Node22 -> Node20 [color="midnightblue",fontsize="10",style="solid",fontname="Helvetica"];
  Node22 -> Node24 [color="midnightblue",fontsize="10",style="solid",fontname="Helvetica"];
  Node24 [label="mitkDataTree.h",height=0.2,width=0.4,color="grey75", fillcolor="white", style="filled"];
  Node22 -> Node15 [color="midnightblue",fontsize="10",style="solid",fontname="Helvetica"];
  Node22 -> Node18 [color="midnightblue",fontsize="10",style="solid",fontname="Helvetica"];
  Node22 -> Node19 [color="midnightblue",fontsize="10",style="solid",fontname="Helvetica"];
  Node21 -> Node25 [color="midnightblue",fontsize="10",style="solid",fontname="Helvetica"];
  Node25 [label="blMitkPointSetInteractor.h",height=0.2,width=0.4,color="red", fillcolor="white", style="filled",URL="$blMitkPointSetInteractor_8h.html"];
  Node25 -> Node14 [color="midnightblue",fontsize="10",style="solid",fontname="Helvetica"];
  Node25 -> Node26 [color="midnightblue",fontsize="10",style="solid",fontname="Helvetica"];
  Node26 [label="vtkPolyData.h",height=0.2,width=0.4,color="grey75", fillcolor="white", style="filled"];
  Node21 -> Node27 [color="midnightblue",fontsize="10",style="solid",fontname="Helvetica"];
  Node27 [label="vtkCommand.h",height=0.2,width=0.4,color="grey75", fillcolor="white", style="filled"];
  Node2 -> Node28 [color="midnightblue",fontsize="10",style="solid",fontname="Helvetica"];
  Node28 [label="coreSelectionToolWidget.h",height=0.2,width=0.4,color="red", fillcolor="white", style="filled",URL="$coreSelectionToolWidget_8h.html"];
  Node28 -> Node29 [color="midnightblue",fontsize="10",style="solid",fontname="Helvetica"];
  Node29 [label="gmWidgetsWin32Header.h",height=0.2,width=0.4,color="grey75", fillcolor="white", style="filled"];
  Node1 -> Node30 [color="midnightblue",fontsize="10",style="solid",fontname="Helvetica"];
  Node30 [label="coreDataEntityHelper.h",height=0.2,width=0.4,color="black", fillcolor="white", style="filled",URL="$coreDataEntityHelper_8h.html"];
  Node30 -> Node31 [color="midnightblue",fontsize="10",style="solid",fontname="Helvetica"];
  Node31 [label="gmKernelWin32Header.h",height=0.2,width=0.4,color="grey75", fillcolor="white", style="filled"];
  Node30 -> Node3 [color="midnightblue",fontsize="10",style="solid",fontname="Helvetica"];
  Node30 -> Node18 [color="midnightblue",fontsize="10",style="solid",fontname="Helvetica"];
  Node30 -> Node32 [color="midnightblue",fontsize="10",style="solid",fontname="Helvetica"];
  Node32 [label="list",height=0.2,width=0.4,color="grey75", fillcolor="white", style="filled"];
  Node30 -> Node33 [color="midnightblue",fontsize="10",style="solid",fontname="Helvetica"];
  Node33 [label="coreDataEntityHelper.txx",height=0.2,width=0.4,color="grey75", fillcolor="white", style="filled"];
  Node1 -> Node34 [color="midnightblue",fontsize="10",style="solid",fontname="Helvetica"];
  Node34 [label="coreReportExceptionMacros.h",height=0.2,width=0.4,color="black", fillcolor="white", style="filled",URL="$coreReportExceptionMacros_8h.html"];
  Node34 -> Node31 [color="midnightblue",fontsize="10",style="solid",fontname="Helvetica"];
  Node34 -> Node35 [color="midnightblue",fontsize="10",style="solid",fontname="Helvetica"];
  Node35 [label="coreException.h",height=0.2,width=0.4,color="red", fillcolor="white", style="filled",URL="$coreException_8h.html"];
  Node35 -> Node11 [color="midnightblue",fontsize="10",style="solid",fontname="Helvetica"];
  Node35 -> Node32 [color="midnightblue",fontsize="10",style="solid",fontname="Helvetica"];
  Node35 -> Node4 [color="midnightblue",fontsize="10",style="solid",fontname="Helvetica"];
  Node35 -> Node5 [color="midnightblue",fontsize="10",style="solid",fontname="Helvetica"];
  Node34 -> Node36 [color="midnightblue",fontsize="10",style="solid",fontname="Helvetica"];
  Node36 [label="CILabNamespaceMacros.h",height=0.2,width=0.4,color="black", fillcolor="white", style="filled",URL="$CILabNamespaceMacros_8h.html"];
  Node1 -> Node37 [color="midnightblue",fontsize="10",style="solid",fontname="Helvetica"];
  Node37 [label="coreProcessorInputWidget.h",height=0.2,width=0.4,color="black", fillcolor="white", style="filled",URL="$coreProcessorInputWidget_8h.html"];
  Node37 -> Node29 [color="midnightblue",fontsize="10",style="solid",fontname="Helvetica"];
  Node37 -> Node38 [color="midnightblue",fontsize="10",style="solid",fontname="Helvetica"];
  Node38 [label="coreBaseInputControl.h",height=0.2,width=0.4,color="red", fillcolor="white", style="filled",URL="$coreBaseInputControl_8h.html"];
  Node38 -> Node3 [color="midnightblue",fontsize="10",style="solid",fontname="Helvetica"];
  Node38 -> Node19 [color="midnightblue",fontsize="10",style="solid",fontname="Helvetica"];
  Node38 -> Node11 [color="midnightblue",fontsize="10",style="solid",fontname="Helvetica"];
  Node37 -> Node18 [color="midnightblue",fontsize="10",style="solid",fontname="Helvetica"];
  Node37 -> Node39 [color="midnightblue",fontsize="10",style="solid",fontname="Helvetica"];
  Node39 [label="wxCheckableControl.h",height=0.2,width=0.4,color="red", fillcolor="white", style="filled",URL="$wxCheckableControl_8h.html"];
  Node1 -> Node40 [color="midnightblue",fontsize="10",style="solid",fontname="Helvetica"];
  Node40 [label="coreVTKPolyDataHolder.h",height=0.2,width=0.4,color="black", fillcolor="white", style="filled",URL="$coreVTKPolyDataHolder_8h.html"];
  Node40 -> Node23 [color="midnightblue",fontsize="10",style="solid",fontname="Helvetica"];
  Node40 -> Node19 [color="midnightblue",fontsize="10",style="solid",fontname="Helvetica"];
  Node40 -> Node26 [color="midnightblue",fontsize="10",style="solid",fontname="Helvetica"];
  Node40 -> Node41 [color="midnightblue",fontsize="10",style="solid",fontname="Helvetica"];
  Node41 [label="vtkSmartPointer.h",height=0.2,width=0.4,color="grey75", fillcolor="white", style="filled"];
  Node1 -> Node42 [color="midnightblue",fontsize="10",style="solid",fontname="Helvetica"];
  Node42 [label="mitkBaseRenderer.h",height=0.2,width=0.4,color="grey75", fillcolor="white", style="filled"];
  Node1 -> Node24 [color="midnightblue",fontsize="10",style="solid",fontname="Helvetica"];
  Node1 -> Node43 [color="midnightblue",fontsize="10",style="solid",fontname="Helvetica"];
  Node43 [label="mitkRenderingManager.h",height=0.2,width=0.4,color="grey75", fillcolor="white", style="filled"];
  Node1 -> Node44 [color="midnightblue",fontsize="10",style="solid",fontname="Helvetica"];
  Node44 [label="wxMitkRenderWindow.h",height=0.2,width=0.4,color="black", fillcolor="white", style="filled",URL="$wxMitkRenderWindow_8h.html"];
  Node44 -> Node45 [color="midnightblue",fontsize="10",style="solid",fontname="Helvetica"];
  Node45 [label="wxMitkRenderingWin32Header.h",height=0.2,width=0.4,color="grey75", fillcolor="white", style="filled"];
  Node44 -> Node46 [color="midnightblue",fontsize="10",style="solid",fontname="Helvetica"];
  Node46 [label="wx/window.h",height=0.2,width=0.4,color="grey75", fillcolor="white", style="filled"];
  Node44 -> Node47 [color="midnightblue",fontsize="10",style="solid",fontname="Helvetica"];
  Node47 [label="mitkVtkPropRenderer.h",height=0.2,width=0.4,color="grey75", fillcolor="white", style="filled"];
  Node44 -> Node11 [color="midnightblue",fontsize="10",style="solid",fontname="Helvetica"];
  Node44 -> Node26 [color="midnightblue",fontsize="10",style="solid",fontname="Helvetica"];
  Node44 -> Node41 [color="midnightblue",fontsize="10",style="solid",fontname="Helvetica"];
  Node44 -> Node48 [color="midnightblue",fontsize="10",style="solid",fontname="Helvetica"];
  Node48 [label="wxMitkVTKWindow.h",height=0.2,width=0.4,color="red", fillcolor="white", style="filled",URL="$wxMitkVTKWindow_8h.html"];
  Node48 -> Node45 [color="midnightblue",fontsize="10",style="solid",fontname="Helvetica"];
  Node48 -> Node46 [color="midnightblue",fontsize="10",style="solid",fontname="Helvetica"];
  Node48 -> Node11 [color="midnightblue",fontsize="10",style="solid",fontname="Helvetica"];
  Node44 -> Node49 [color="midnightblue",fontsize="10",style="solid",fontname="Helvetica"];
  Node49 [label="wxMitkApplicationCursorImplementation.h",height=0.2,width=0.4,color="red", fillcolor="white", style="filled",URL="$wxMitkApplicationCursorImplementation_8h.html"];
  Node49 -> Node45 [color="midnightblue",fontsize="10",style="solid",fontname="Helvetica"];
  Node49 -> Node32 [color="midnightblue",fontsize="10",style="solid",fontname="Helvetica"];
  Node44 -> Node50 [color="midnightblue",fontsize="10",style="solid",fontname="Helvetica"];
  Node50 [label="blMitkScalarBar.h",height=0.2,width=0.4,color="red", fillcolor="white", style="filled",URL="$blMitkScalarBar_8h.html"];
  Node50 -> Node41 [color="midnightblue",fontsize="10",style="solid",fontname="Helvetica"];
}
