digraph "Apps/Plugins/MITKPlugin/widgets/RenderWindow/coreMultiRenderWindowEventHandler.h"
{
  edge [fontname="Helvetica",fontsize="10",labelfontname="Helvetica",labelfontsize="10"];
  node [fontname="Helvetica",fontsize="10",shape=record];
  Node1 [label="Apps/Plugins/MITKPlugin\l/widgets/RenderWindow\l/coreMultiRenderWindowEventHandler.h",height=0.2,width=0.4,color="black", fillcolor="grey75", style="filled", fontcolor="black"];
  Node1 -> Node2 [dir="back",color="midnightblue",fontsize="10",style="solid",fontname="Helvetica"];
  Node2 [label="Apps/Plugins/MITKPlugin\l/widgets/RenderWindow\l/coreMultiRenderWindowEventHandler.cxx",height=0.2,width=0.4,color="black", fillcolor="white", style="filled",URL="$coreMultiRenderWindowEventHandler_8cxx.html"];
  Node1 -> Node3 [dir="back",color="midnightblue",fontsize="10",style="solid",fontname="Helvetica"];
  Node3 [label="Apps/Plugins/MITKPlugin\l/widgets/RenderWindow\l/coreMultiRenderWindowMITK.cxx",height=0.2,width=0.4,color="black", fillcolor="white", style="filled",URL="$coreMultiRenderWindowMITK_8cxx.html"];
  Node1 -> Node4 [dir="back",color="midnightblue",fontsize="10",style="solid",fontname="Helvetica"];
  Node4 [label="Apps/Plugins/MITKPlugin\l/widgets/Toolbars/coreToolbar\lMultiRenderWindow.cpp",height=0.2,width=0.4,color="black", fillcolor="white", style="filled",URL="$coreToolbarMultiRenderWindow_8cpp.html"];
}
