digraph "Modules/DcmAPI/libmodules/dcmIO/src/dcmFileReader.h"
{
  edge [fontname="Helvetica",fontsize="10",labelfontname="Helvetica",labelfontsize="10"];
  node [fontname="Helvetica",fontsize="10",shape=record];
  Node1 [label="Modules/DcmAPI/libmodules\l/dcmIO/src/dcmFileReader.h",height=0.2,width=0.4,color="black", fillcolor="grey75", style="filled", fontcolor="black"];
  Node1 -> Node2 [color="midnightblue",fontsize="10",style="solid",fontname="Helvetica"];
  Node2 [label="dcmAPIIOWin32Header.h",height=0.2,width=0.4,color="grey75", fillcolor="white", style="filled"];
  Node1 -> Node3 [color="midnightblue",fontsize="10",style="solid",fontname="Helvetica"];
  Node3 [label="blLightObject.h",height=0.2,width=0.4,color="black", fillcolor="white", style="filled",URL="$blLightObject_8h.html"];
  Node3 -> Node4 [color="midnightblue",fontsize="10",style="solid",fontname="Helvetica"];
  Node4 [label="blMacro.h",height=0.2,width=0.4,color="black", fillcolor="white", style="filled",URL="$blMacro_8h.html"];
  Node3 -> Node5 [color="midnightblue",fontsize="10",style="solid",fontname="Helvetica"];
  Node5 [label="blSmartPointer.h",height=0.2,width=0.4,color="black", fillcolor="white", style="filled",URL="$blSmartPointer_8h.html"];
  Node3 -> Node6 [color="midnightblue",fontsize="10",style="solid",fontname="Helvetica"];
  Node6 [label="BaseLibWin32Header.h",height=0.2,width=0.4,color="grey75", fillcolor="white", style="filled"];
  Node1 -> Node7 [color="midnightblue",fontsize="10",style="solid",fontname="Helvetica"];
  Node7 [label="CILabExceptionMacros.h",height=0.2,width=0.4,color="black", fillcolor="white", style="filled",URL="$CILabExceptionMacros_8h.html"];
  Node7 -> Node8 [color="midnightblue",fontsize="10",style="solid",fontname="Helvetica"];
  Node8 [label="exception",height=0.2,width=0.4,color="grey75", fillcolor="white", style="filled"];
  Node7 -> Node9 [color="midnightblue",fontsize="10",style="solid",fontname="Helvetica"];
  Node9 [label="string",height=0.2,width=0.4,color="grey75", fillcolor="white", style="filled"];
  Node1 -> Node10 [color="midnightblue",fontsize="10",style="solid",fontname="Helvetica"];
  Node10 [label="dcmDataSet.h",height=0.2,width=0.4,color="black", fillcolor="white", style="filled",URL="$dcmDataSet_8h.html"];
  Node10 -> Node11 [color="midnightblue",fontsize="10",style="solid",fontname="Helvetica"];
  Node11 [label="dcmAPIDataWin32Header.h",height=0.2,width=0.4,color="grey75", fillcolor="white", style="filled"];
  Node10 -> Node9 [color="midnightblue",fontsize="10",style="solid",fontname="Helvetica"];
  Node10 -> Node12 [color="midnightblue",fontsize="10",style="solid",fontname="Helvetica"];
  Node12 [label="vector",height=0.2,width=0.4,color="grey75", fillcolor="white", style="filled"];
  Node10 -> Node13 [color="midnightblue",fontsize="10",style="solid",fontname="Helvetica"];
  Node13 [label="map",height=0.2,width=0.4,color="grey75", fillcolor="white", style="filled"];
  Node10 -> Node14 [color="midnightblue",fontsize="10",style="solid",fontname="Helvetica"];
  Node14 [label="boost/foreach.hpp",height=0.2,width=0.4,color="grey75", fillcolor="white", style="filled"];
  Node10 -> Node15 [color="midnightblue",fontsize="10",style="solid",fontname="Helvetica"];
  Node15 [label="dcmSeries.h",height=0.2,width=0.4,color="black", fillcolor="white", style="filled",URL="$dcmSeries_8h.html"];
  Node15 -> Node11 [color="midnightblue",fontsize="10",style="solid",fontname="Helvetica"];
  Node15 -> Node9 [color="midnightblue",fontsize="10",style="solid",fontname="Helvetica"];
  Node15 -> Node12 [color="midnightblue",fontsize="10",style="solid",fontname="Helvetica"];
  Node15 -> Node16 [color="midnightblue",fontsize="10",style="solid",fontname="Helvetica"];
  Node16 [label="dcmTimePoint.h",height=0.2,width=0.4,color="black", fillcolor="white", style="filled",URL="$dcmTimePoint_8h.html"];
  Node16 -> Node11 [color="midnightblue",fontsize="10",style="solid",fontname="Helvetica"];
  Node16 -> Node9 [color="midnightblue",fontsize="10",style="solid",fontname="Helvetica"];
  Node16 -> Node12 [color="midnightblue",fontsize="10",style="solid",fontname="Helvetica"];
  Node16 -> Node17 [color="midnightblue",fontsize="10",style="solid",fontname="Helvetica"];
  Node17 [label="dcmBase.h",height=0.2,width=0.4,color="black", fillcolor="white", style="filled",URL="$dcmBase_8h.html"];
  Node17 -> Node11 [color="midnightblue",fontsize="10",style="solid",fontname="Helvetica"];
  Node17 -> Node18 [color="midnightblue",fontsize="10",style="solid",fontname="Helvetica"];
  Node18 [label="dcmTypes.h",height=0.2,width=0.4,color="black", fillcolor="white", style="filled",URL="$dcmTypes_8h.html"];
  Node18 -> Node19 [color="midnightblue",fontsize="10",style="solid",fontname="Helvetica"];
  Node19 [label="cstdio",height=0.2,width=0.4,color="grey75", fillcolor="white", style="filled"];
  Node18 -> Node12 [color="midnightblue",fontsize="10",style="solid",fontname="Helvetica"];
  Node18 -> Node20 [color="midnightblue",fontsize="10",style="solid",fontname="Helvetica"];
  Node20 [label="string.h",height=0.2,width=0.4,color="grey75", fillcolor="white", style="filled"];
  Node18 -> Node13 [color="midnightblue",fontsize="10",style="solid",fontname="Helvetica"];
  Node18 -> Node8 [color="midnightblue",fontsize="10",style="solid",fontname="Helvetica"];
  Node18 -> Node21 [color="midnightblue",fontsize="10",style="solid",fontname="Helvetica"];
  Node21 [label="boost/shared_ptr.hpp",height=0.2,width=0.4,color="grey75", fillcolor="white", style="filled"];
  Node18 -> Node22 [color="midnightblue",fontsize="10",style="solid",fontname="Helvetica"];
  Node22 [label="CILabBoostMacros.h",height=0.2,width=0.4,color="black", fillcolor="white", style="filled",URL="$CILabBoostMacros_8h.html"];
  Node22 -> Node23 [color="midnightblue",fontsize="10",style="solid",fontname="Helvetica"];
  Node23 [label="boost/format.hpp",height=0.2,width=0.4,color="grey75", fillcolor="white", style="filled"];
  Node18 -> Node11 [color="midnightblue",fontsize="10",style="solid",fontname="Helvetica"];
  Node17 -> Node9 [color="midnightblue",fontsize="10",style="solid",fontname="Helvetica"];
  Node17 -> Node12 [color="midnightblue",fontsize="10",style="solid",fontname="Helvetica"];
  Node16 -> Node18 [color="midnightblue",fontsize="10",style="solid",fontname="Helvetica"];
  Node16 -> Node24 [color="midnightblue",fontsize="10",style="solid",fontname="Helvetica"];
  Node24 [label="dcmSlice.h",height=0.2,width=0.4,color="black", fillcolor="white", style="filled",URL="$dcmSlice_8h.html"];
  Node24 -> Node11 [color="midnightblue",fontsize="10",style="solid",fontname="Helvetica"];
  Node24 -> Node18 [color="midnightblue",fontsize="10",style="solid",fontname="Helvetica"];
  Node24 -> Node17 [color="midnightblue",fontsize="10",style="solid",fontname="Helvetica"];
  Node15 -> Node18 [color="midnightblue",fontsize="10",style="solid",fontname="Helvetica"];
  Node15 -> Node17 [color="midnightblue",fontsize="10",style="solid",fontname="Helvetica"];
  Node10 -> Node25 [color="midnightblue",fontsize="10",style="solid",fontname="Helvetica"];
  Node25 [label="dcmPatient.h",height=0.2,width=0.4,color="black", fillcolor="white", style="filled",URL="$dcmPatient_8h.html"];
  Node25 -> Node11 [color="midnightblue",fontsize="10",style="solid",fontname="Helvetica"];
  Node25 -> Node9 [color="midnightblue",fontsize="10",style="solid",fontname="Helvetica"];
  Node25 -> Node12 [color="midnightblue",fontsize="10",style="solid",fontname="Helvetica"];
  Node25 -> Node18 [color="midnightblue",fontsize="10",style="solid",fontname="Helvetica"];
  Node25 -> Node17 [color="midnightblue",fontsize="10",style="solid",fontname="Helvetica"];
  Node25 -> Node26 [color="midnightblue",fontsize="10",style="solid",fontname="Helvetica"];
  Node26 [label="dcmStudy.h",height=0.2,width=0.4,color="black", fillcolor="white", style="filled",URL="$dcmStudy_8h.html"];
  Node26 -> Node11 [color="midnightblue",fontsize="10",style="solid",fontname="Helvetica"];
  Node26 -> Node9 [color="midnightblue",fontsize="10",style="solid",fontname="Helvetica"];
  Node26 -> Node12 [color="midnightblue",fontsize="10",style="solid",fontname="Helvetica"];
  Node26 -> Node18 [color="midnightblue",fontsize="10",style="solid",fontname="Helvetica"];
  Node26 -> Node15 [color="midnightblue",fontsize="10",style="solid",fontname="Helvetica"];
  Node10 -> Node18 [color="midnightblue",fontsize="10",style="solid",fontname="Helvetica"];
  Node1 -> Node18 [color="midnightblue",fontsize="10",style="solid",fontname="Helvetica"];
  Node1 -> Node27 [color="midnightblue",fontsize="10",style="solid",fontname="Helvetica"];
  Node27 [label="dcmFile.h",height=0.2,width=0.4,color="black", fillcolor="white", style="filled",URL="$dcmFile_8h.html"];
  Node27 -> Node2 [color="midnightblue",fontsize="10",style="solid",fontname="Helvetica"];
  Node27 -> Node18 [color="midnightblue",fontsize="10",style="solid",fontname="Helvetica"];
  Node27 -> Node28 [color="midnightblue",fontsize="10",style="solid",fontname="Helvetica"];
  Node28 [label="gdcmFile.h",height=0.2,width=0.4,color="grey75", fillcolor="white", style="filled"];
  Node27 -> Node29 [color="midnightblue",fontsize="10",style="solid",fontname="Helvetica"];
  Node29 [label="gdcmValEntry.h",height=0.2,width=0.4,color="grey75", fillcolor="white", style="filled"];
  Node1 -> Node30 [color="midnightblue",fontsize="10",style="solid",fontname="Helvetica"];
  Node30 [label="dcmAbstractImageReader.h",height=0.2,width=0.4,color="black", fillcolor="white", style="filled",URL="$dcmAbstractImageReader_8h.html"];
  Node30 -> Node27 [color="midnightblue",fontsize="10",style="solid",fontname="Helvetica"];
  Node30 -> Node18 [color="midnightblue",fontsize="10",style="solid",fontname="Helvetica"];
  Node30 -> Node10 [color="midnightblue",fontsize="10",style="solid",fontname="Helvetica"];
  Node30 -> Node31 [color="midnightblue",fontsize="10",style="solid",fontname="Helvetica"];
  Node31 [label="dcmEcgData.h",height=0.2,width=0.4,color="black", fillcolor="white", style="filled",URL="$dcmEcgData_8h.html"];
  Node31 -> Node12 [color="midnightblue",fontsize="10",style="solid",fontname="Helvetica"];
  Node30 -> Node32 [color="midnightblue",fontsize="10",style="solid",fontname="Helvetica"];
  Node32 [label="vtkImageData.h",height=0.2,width=0.4,color="grey75", fillcolor="white", style="filled"];
  Node30 -> Node33 [color="midnightblue",fontsize="10",style="solid",fontname="Helvetica"];
  Node33 [label="vtkSmartPointer.h",height=0.2,width=0.4,color="grey75", fillcolor="white", style="filled"];
}
