digraph "Modules/TpExtLib/libmodules/tpExtBoost/src/boost/threadpool/detail/future.hpp"
{
  edge [fontname="Helvetica",fontsize="10",labelfontname="Helvetica",labelfontsize="10"];
  node [fontname="Helvetica",fontsize="10",shape=record];
  Node1 [label="Modules/TpExtLib/libmodules\l/tpExtBoost/src/boost/threadpool\l/detail/future.hpp",height=0.2,width=0.4,color="black", fillcolor="grey75", style="filled", fontcolor="black"];
  Node1 -> Node2 [dir="back",color="midnightblue",fontsize="10",style="solid",fontname="Helvetica"];
  Node2 [label="Modules/TpExtLib/libmodules\l/tpExtBoost/src/boost/threadpool\l/future.hpp",height=0.2,width=0.4,color="black", fillcolor="white", style="filled",URL="$future_8hpp.html",tooltip="TODO. "];
  Node2 -> Node3 [dir="back",color="midnightblue",fontsize="10",style="solid",fontname="Helvetica"];
  Node3 [label="Modules/TpExtLib/libmodules\l/tpExtBoost/src/boost/threadpool.hpp",height=0.2,width=0.4,color="black", fillcolor="white", style="filled",URL="$threadpool_8hpp.html",tooltip="Main include. "];
  Node3 -> Node4 [dir="back",color="midnightblue",fontsize="10",style="solid",fontname="Helvetica"];
  Node4 [label="Apps/Gimias/Core/Kernel\l/src/coreProcessorExecutionQueue.cxx",height=0.2,width=0.4,color="black", fillcolor="white", style="filled",URL="$coreProcessorExecutionQueue_8cxx.html"];
}
