digraph "Apps/Plugins/DicomPlugin/widgets/DicomConnectToPACSWidget/DicomConnectToPacsDialogWidget.cpp"
{
  edge [fontname="Helvetica",fontsize="10",labelfontname="Helvetica",labelfontsize="10"];
  node [fontname="Helvetica",fontsize="10",shape=record];
  Node1 [label="Apps/Plugins/DicomPlugin\l/widgets/DicomConnectToPACSWidget\l/DicomConnectToPacsDialogWidget.cpp",height=0.2,width=0.4,color="black", fillcolor="grey75", style="filled", fontcolor="black"];
  Node1 -> Node2 [color="midnightblue",fontsize="10",style="solid",fontname="Helvetica"];
  Node2 [label="DicomConnectToPacsDialog\lWidget.h",height=0.2,width=0.4,color="black", fillcolor="white", style="filled",URL="$DicomConnectToPacsDialogWidget_8h.html"];
  Node2 -> Node3 [color="midnightblue",fontsize="10",style="solid",fontname="Helvetica"];
  Node3 [label="DicomConnectToPacsDialog\lWidgetUI.h",height=0.2,width=0.4,color="red", fillcolor="white", style="filled",URL="$DicomConnectToPacsDialogWidgetUI_8h.html"];
  Node2 -> Node4 [color="midnightblue",fontsize="10",style="solid",fontname="Helvetica"];
  Node4 [label="CILabNamespaceMacros.h",height=0.2,width=0.4,color="black", fillcolor="white", style="filled",URL="$CILabNamespaceMacros_8h.html"];
  Node2 -> Node5 [color="midnightblue",fontsize="10",style="solid",fontname="Helvetica"];
  Node5 [label="coreProcessingWidget.h",height=0.2,width=0.4,color="red", fillcolor="white", style="filled",URL="$coreProcessingWidget_8h.html"];
  Node5 -> Node6 [color="midnightblue",fontsize="10",style="solid",fontname="Helvetica"];
  Node6 [label="corePluginTabFactory.h",height=0.2,width=0.4,color="black", fillcolor="white", style="filled",URL="$corePluginTabFactory_8h.html"];
  Node6 -> Node7 [color="midnightblue",fontsize="10",style="solid",fontname="Helvetica"];
  Node7 [label="corePluginTab.h",height=0.2,width=0.4,color="red", fillcolor="white", style="filled",URL="$corePluginTab_8h.html"];
  Node7 -> Node8 [color="midnightblue",fontsize="10",style="solid",fontname="Helvetica"];
  Node8 [label="coreObject.h",height=0.2,width=0.4,color="red", fillcolor="white", style="filled",URL="$coreObject_8h.html"];
  Node8 -> Node9 [color="midnightblue",fontsize="10",style="solid",fontname="Helvetica"];
  Node9 [label="coreSmartPointerMacros.h",height=0.2,width=0.4,color="red", fillcolor="white", style="filled",URL="$coreSmartPointerMacros_8h.html"];
  Node7 -> Node10 [color="midnightblue",fontsize="10",style="solid",fontname="Helvetica"];
  Node10 [label="coreDataHolder.h",height=0.2,width=0.4,color="red", fillcolor="white", style="filled",URL="$coreDataHolder_8h.html"];
  Node10 -> Node10 [color="midnightblue",fontsize="10",style="solid",fontname="Helvetica"];
  Node7 -> Node11 [color="midnightblue",fontsize="10",style="solid",fontname="Helvetica"];
  Node11 [label="coreDataEntity.h",height=0.2,width=0.4,color="red", fillcolor="white", style="filled",URL="$coreDataEntity_8h.html"];
  Node11 -> Node8 [color="midnightblue",fontsize="10",style="solid",fontname="Helvetica"];
  Node11 -> Node12 [color="midnightblue",fontsize="10",style="solid",fontname="Helvetica"];
  Node12 [label="string",height=0.2,width=0.4,color="grey75", fillcolor="white", style="filled"];
  Node11 -> Node13 [color="midnightblue",fontsize="10",style="solid",fontname="Helvetica"];
  Node13 [label="vector",height=0.2,width=0.4,color="grey75", fillcolor="white", style="filled"];
  Node7 -> Node14 [color="midnightblue",fontsize="10",style="solid",fontname="Helvetica"];
  Node14 [label="coreWindowConfig.h",height=0.2,width=0.4,color="red", fillcolor="white", style="filled",URL="$coreWindowConfig_8h.html"];
  Node14 -> Node12 [color="midnightblue",fontsize="10",style="solid",fontname="Helvetica"];
  Node6 -> Node8 [color="midnightblue",fontsize="10",style="solid",fontname="Helvetica"];
  Node2 -> Node15 [color="midnightblue",fontsize="10",style="solid",fontname="Helvetica"];
  Node15 [label="coreDICOMFileReader.h",height=0.2,width=0.4,color="red", fillcolor="white", style="filled",URL="$coreDICOMFileReader_8h.html"];
  Node2 -> Node16 [color="midnightblue",fontsize="10",style="solid",fontname="Helvetica"];
  Node16 [label="pacsAPI.h",height=0.2,width=0.4,color="red", fillcolor="white", style="filled",URL="$pacsAPI_8h.html"];
  Node1 -> Node17 [color="midnightblue",fontsize="10",style="solid",fontname="Helvetica"];
  Node17 [label="DicomWorkingAreaPanelWidget.h",height=0.2,width=0.4,color="black", fillcolor="white", style="filled",URL="$DicomWorkingAreaPanelWidget_8h.html"];
  Node17 -> Node18 [color="midnightblue",fontsize="10",style="solid",fontname="Helvetica"];
  Node18 [label="DicomWorkingAreaPanelWidgetUI.h",height=0.2,width=0.4,color="red", fillcolor="white", style="filled",URL="$DicomWorkingAreaPanelWidgetUI_8h.html"];
  Node17 -> Node19 [color="midnightblue",fontsize="10",style="solid",fontname="Helvetica"];
  Node19 [label="DicomPluginTypes.h",height=0.2,width=0.4,color="red", fillcolor="white", style="filled",URL="$DicomPluginTypes_8h.html"];
  Node19 -> Node4 [color="midnightblue",fontsize="10",style="solid",fontname="Helvetica"];
  Node19 -> Node11 [color="midnightblue",fontsize="10",style="solid",fontname="Helvetica"];
  Node19 -> Node10 [color="midnightblue",fontsize="10",style="solid",fontname="Helvetica"];
  Node19 -> Node20 [color="midnightblue",fontsize="10",style="solid",fontname="Helvetica"];
  Node20 [label="blSignalCollective.h",height=0.2,width=0.4,color="red", fillcolor="white", style="filled",URL="$blSignalCollective_8h.html"];
  Node20 -> Node21 [color="midnightblue",fontsize="10",style="solid",fontname="Helvetica"];
  Node21 [label="blMacro.h",height=0.2,width=0.4,color="black", fillcolor="white", style="filled",URL="$blMacro_8h.html"];
  Node20 -> Node13 [color="midnightblue",fontsize="10",style="solid",fontname="Helvetica"];
  Node17 -> Node22 [color="midnightblue",fontsize="10",style="solid",fontname="Helvetica"];
  Node22 [label="DicomProcessorCollective.h",height=0.2,width=0.4,color="black", fillcolor="white", style="filled",URL="$DicomProcessorCollective_8h.html"];
  Node22 -> Node9 [color="midnightblue",fontsize="10",style="solid",fontname="Helvetica"];
  Node22 -> Node8 [color="midnightblue",fontsize="10",style="solid",fontname="Helvetica"];
  Node17 -> Node20 [color="midnightblue",fontsize="10",style="solid",fontname="Helvetica"];
  Node17 -> Node4 [color="midnightblue",fontsize="10",style="solid",fontname="Helvetica"];
  Node17 -> Node10 [color="midnightblue",fontsize="10",style="solid",fontname="Helvetica"];
  Node17 -> Node11 [color="midnightblue",fontsize="10",style="solid",fontname="Helvetica"];
  Node17 -> Node5 [color="midnightblue",fontsize="10",style="solid",fontname="Helvetica"];
  Node17 -> Node23 [color="midnightblue",fontsize="10",style="solid",fontname="Helvetica"];
  Node23 [label="dcmDataSet.h",height=0.2,width=0.4,color="red", fillcolor="white", style="filled",URL="$dcmDataSet_8h.html"];
  Node23 -> Node12 [color="midnightblue",fontsize="10",style="solid",fontname="Helvetica"];
  Node23 -> Node13 [color="midnightblue",fontsize="10",style="solid",fontname="Helvetica"];
  Node23 -> Node24 [color="midnightblue",fontsize="10",style="solid",fontname="Helvetica"];
  Node24 [label="dcmTypes.h",height=0.2,width=0.4,color="red", fillcolor="white", style="filled",URL="$dcmTypes_8h.html"];
  Node24 -> Node13 [color="midnightblue",fontsize="10",style="solid",fontname="Helvetica"];
  Node17 -> Node24 [color="midnightblue",fontsize="10",style="solid",fontname="Helvetica"];
  Node17 -> Node15 [color="midnightblue",fontsize="10",style="solid",fontname="Helvetica"];
  Node1 -> Node25 [color="midnightblue",fontsize="10",style="solid",fontname="Helvetica"];
  Node25 [label="DicomPluginWidgetCollective.h",height=0.2,width=0.4,color="black", fillcolor="white", style="filled",URL="$DicomPluginWidgetCollective_8h.html"];
  Node25 -> Node26 [color="midnightblue",fontsize="10",style="solid",fontname="Helvetica"];
  Node26 [label="coreFrontEndPlugin.h",height=0.2,width=0.4,color="red", fillcolor="white", style="filled",URL="$coreFrontEndPlugin_8h.html"];
  Node26 -> Node8 [color="midnightblue",fontsize="10",style="solid",fontname="Helvetica"];
  Node25 -> Node9 [color="midnightblue",fontsize="10",style="solid",fontname="Helvetica"];
  Node25 -> Node8 [color="midnightblue",fontsize="10",style="solid",fontname="Helvetica"];
  Node25 -> Node27 [color="midnightblue",fontsize="10",style="solid",fontname="Helvetica"];
  Node27 [label="coreWidgetCollective.h",height=0.2,width=0.4,color="red", fillcolor="white", style="filled",URL="$coreWidgetCollective_8h.html"];
  Node27 -> Node28 [color="midnightblue",fontsize="10",style="solid",fontname="Helvetica"];
  Node28 [label="gmWidgetsWin32Header.h",height=0.2,width=0.4,color="grey75", fillcolor="white", style="filled"];
  Node27 -> Node8 [color="midnightblue",fontsize="10",style="solid",fontname="Helvetica"];
  Node25 -> Node22 [color="midnightblue",fontsize="10",style="solid",fontname="Helvetica"];
  Node1 -> Node29 [color="midnightblue",fontsize="10",style="solid",fontname="Helvetica"];
  Node29 [label="DicomMenuEventHandler.h",height=0.2,width=0.4,color="black", fillcolor="white", style="filled",URL="$DicomMenuEventHandler_8h.html"];
  Node1 -> Node30 [color="midnightblue",fontsize="10",style="solid",fontname="Helvetica"];
  Node30 [label="blMitkUnicode.h",height=0.2,width=0.4,color="black", fillcolor="white", style="filled",URL="$blMitkUnicode_8h.html"];
  Node30 -> Node31 [color="midnightblue",fontsize="10",style="solid",fontname="Helvetica"];
  Node31 [label="wxUnicode.h",height=0.2,width=0.4,color="red", fillcolor="white", style="filled",URL="$wxUnicode_8h.html"];
  Node31 -> Node12 [color="midnightblue",fontsize="10",style="solid",fontname="Helvetica"];
  Node1 -> Node32 [color="midnightblue",fontsize="10",style="solid",fontname="Helvetica"];
  Node32 [label="blTextUtils.h",height=0.2,width=0.4,color="black", fillcolor="white", style="filled",URL="$blTextUtils_8h.html"];
  Node32 -> Node33 [color="midnightblue",fontsize="10",style="solid",fontname="Helvetica"];
  Node33 [label="blLightObject.h",height=0.2,width=0.4,color="red", fillcolor="white", style="filled",URL="$blLightObject_8h.html"];
  Node33 -> Node21 [color="midnightblue",fontsize="10",style="solid",fontname="Helvetica"];
  Node33 -> Node34 [color="midnightblue",fontsize="10",style="solid",fontname="Helvetica"];
  Node34 [label="blSmartPointer.h",height=0.2,width=0.4,color="black", fillcolor="white", style="filled",URL="$blSmartPointer_8h.html"];
  Node32 -> Node34 [color="midnightblue",fontsize="10",style="solid",fontname="Helvetica"];
  Node32 -> Node21 [color="midnightblue",fontsize="10",style="solid",fontname="Helvetica"];
  Node32 -> Node35 [color="midnightblue",fontsize="10",style="solid",fontname="Helvetica"];
  Node35 [label="iostream",height=0.2,width=0.4,color="grey75", fillcolor="white", style="filled"];
  Node32 -> Node13 [color="midnightblue",fontsize="10",style="solid",fontname="Helvetica"];
  Node32 -> Node12 [color="midnightblue",fontsize="10",style="solid",fontname="Helvetica"];
  Node32 -> Node36 [color="midnightblue",fontsize="10",style="solid",fontname="Helvetica"];
  Node36 [label="list",height=0.2,width=0.4,color="grey75", fillcolor="white", style="filled"];
  Node32 -> Node37 [color="midnightblue",fontsize="10",style="solid",fontname="Helvetica"];
  Node37 [label="stdarg.h",height=0.2,width=0.4,color="grey75", fillcolor="white", style="filled"];
  Node1 -> Node38 [color="midnightblue",fontsize="10",style="solid",fontname="Helvetica"];
  Node38 [label="coreWxMitkCoreMainWindow.h",height=0.2,width=0.4,color="red", fillcolor="white", style="filled",URL="$coreWxMitkCoreMainWindow_8h.html"];
  Node38 -> Node28 [color="midnightblue",fontsize="10",style="solid",fontname="Helvetica"];
  Node38 -> Node8 [color="midnightblue",fontsize="10",style="solid",fontname="Helvetica"];
  Node38 -> Node39 [color="midnightblue",fontsize="10",style="solid",fontname="Helvetica"];
  Node39 [label="coreBaseMainWindow.h",height=0.2,width=0.4,color="red", fillcolor="white", style="filled",URL="$coreBaseMainWindow_8h.html"];
  Node39 -> Node12 [color="midnightblue",fontsize="10",style="solid",fontname="Helvetica"];
  Node39 -> Node14 [color="midnightblue",fontsize="10",style="solid",fontname="Helvetica"];
  Node38 -> Node14 [color="midnightblue",fontsize="10",style="solid",fontname="Helvetica"];
  Node38 -> Node12 [color="midnightblue",fontsize="10",style="solid",fontname="Helvetica"];
  Node1 -> Node40 [color="midnightblue",fontsize="10",style="solid",fontname="Helvetica"];
  Node40 [label="coreWxMitkGraphicalInterface.h",height=0.2,width=0.4,color="red", fillcolor="white", style="filled",URL="$coreWxMitkGraphicalInterface_8h.html"];
  Node40 -> Node8 [color="midnightblue",fontsize="10",style="solid",fontname="Helvetica"];
  Node40 -> Node14 [color="midnightblue",fontsize="10",style="solid",fontname="Helvetica"];
  Node40 -> Node12 [color="midnightblue",fontsize="10",style="solid",fontname="Helvetica"];
  Node1 -> Node41 [color="midnightblue",fontsize="10",style="solid",fontname="Helvetica"];
  Node41 [label="coreDirectory.h",height=0.2,width=0.4,color="red", fillcolor="white", style="filled",URL="$coreDirectory_8h.html"];
  Node41 -> Node8 [color="midnightblue",fontsize="10",style="solid",fontname="Helvetica"];
  Node41 -> Node12 [color="midnightblue",fontsize="10",style="solid",fontname="Helvetica"];
  Node41 -> Node13 [color="midnightblue",fontsize="10",style="solid",fontname="Helvetica"];
  Node1 -> Node42 [color="midnightblue",fontsize="10",style="solid",fontname="Helvetica"];
  Node42 [label="coreSettings.h",height=0.2,width=0.4,color="red", fillcolor="white", style="filled",URL="$coreSettings_8h.html"];
  Node42 -> Node8 [color="midnightblue",fontsize="10",style="solid",fontname="Helvetica"];
  Node42 -> Node12 [color="midnightblue",fontsize="10",style="solid",fontname="Helvetica"];
  Node1 -> Node43 [color="midnightblue",fontsize="10",style="solid",fontname="Helvetica"];
  Node43 [label="coreKernel.h",height=0.2,width=0.4,color="red", fillcolor="white", style="filled",URL="$coreKernel_8h.html"];
  Node43 -> Node8 [color="midnightblue",fontsize="10",style="solid",fontname="Helvetica"];
  Node43 -> Node39 [color="midnightblue",fontsize="10",style="solid",fontname="Helvetica"];
  Node1 -> Node7 [color="midnightblue",fontsize="10",style="solid",fontname="Helvetica"];
  Node1 -> Node44 [color="midnightblue",fontsize="10",style="solid",fontname="Helvetica"];
  Node44 [label="coreMainMenu.h",height=0.2,width=0.4,color="red", fillcolor="white", style="filled",URL="$coreMainMenu_8h.html"];
  Node44 -> Node28 [color="midnightblue",fontsize="10",style="solid",fontname="Helvetica"];
  Node44 -> Node8 [color="midnightblue",fontsize="10",style="solid",fontname="Helvetica"];
  Node44 -> Node14 [color="midnightblue",fontsize="10",style="solid",fontname="Helvetica"];
  Node44 -> Node12 [color="midnightblue",fontsize="10",style="solid",fontname="Helvetica"];
  Node1 -> Node45 [color="midnightblue",fontsize="10",style="solid",fontname="Helvetica"];
  Node45 [label="coreToolbarIO.h",height=0.2,width=0.4,color="red", fillcolor="white", style="filled",URL="$coreToolbarIO_8h.html"];
  Node45 -> Node28 [color="midnightblue",fontsize="10",style="solid",fontname="Helvetica"];
  Node1 -> Node6 [color="midnightblue",fontsize="10",style="solid",fontname="Helvetica"];
  Node1 -> Node16 [color="midnightblue",fontsize="10",style="solid",fontname="Helvetica"];
  Node1 -> Node46 [color="midnightblue",fontsize="10",style="solid",fontname="Helvetica"];
  Node46 [label="wx/event.h",height=0.2,width=0.4,color="grey75", fillcolor="white", style="filled"];
  Node1 -> Node47 [color="midnightblue",fontsize="10",style="solid",fontname="Helvetica"];
  Node47 [label="wx/process.h",height=0.2,width=0.4,color="grey75", fillcolor="white", style="filled"];
  Node1 -> Node48 [color="midnightblue",fontsize="10",style="solid",fontname="Helvetica"];
  Node48 [label="wx/dir.h",height=0.2,width=0.4,color="grey75", fillcolor="white", style="filled"];
  Node1 -> Node24 [color="midnightblue",fontsize="10",style="solid",fontname="Helvetica"];
  Node1 -> Node49 [color="midnightblue",fontsize="10",style="solid",fontname="Helvetica"];
  Node49 [label="dcmPACSQueryFileReader.h",height=0.2,width=0.4,color="red", fillcolor="white", style="filled",URL="$dcmPACSQueryFileReader_8h.html"];
  Node49 -> Node33 [color="midnightblue",fontsize="10",style="solid",fontname="Helvetica"];
  Node49 -> Node23 [color="midnightblue",fontsize="10",style="solid",fontname="Helvetica"];
  Node49 -> Node24 [color="midnightblue",fontsize="10",style="solid",fontname="Helvetica"];
  Node1 -> Node50 [color="midnightblue",fontsize="10",style="solid",fontname="Helvetica"];
  Node50 [label="PACS.xpm",height=0.2,width=0.4,color="grey75", fillcolor="white", style="filled"];
}
