digraph "Apps/Gimias/Core/Filtering" {
  compound=true
  node [ fontsize="10", fontname="Helvetica"];
  edge [ labelfontsize="10", labelfontname="Helvetica"];
  subgraph clusterdir_8f852b321eb6aeb4f78e66db1b219e06 {
    graph [ bgcolor="#ddddee", pencolor="black", label="Core" fontname="Helvetica", fontsize="10", URL="dir_8f852b321eb6aeb4f78e66db1b219e06.html"]
  subgraph clusterdir_e511cb318e287388e801fcaa90972f3f {
    graph [ bgcolor="#eeeeff", pencolor="black", label="" URL="dir_e511cb318e287388e801fcaa90972f3f.html"];
    dir_e511cb318e287388e801fcaa90972f3f [shape=plaintext label="Filtering"];
    dir_31a986b624f557dda478cab4132f9827 [shape=box label="src" color="black" fillcolor="white" style="filled" URL="dir_31a986b624f557dda478cab4132f9827.html"];
  }
  }
  dir_ae30e5475d4ee29c13cc53f323cb4d05 [shape=box label="CommonObjects" fillcolor="white" style="filled" color="red" URL="dir_ae30e5475d4ee29c13cc53f323cb4d05.html"];
  dir_3368d9eebf2771a4bf02b7c5407b04c1 [shape=box label="DataHandling" fillcolor="white" style="filled" color="red" URL="dir_3368d9eebf2771a4bf02b7c5407b04c1.html"];
  dir_f2541a3b18981391fa76fac5599e978a [shape=box label="Modules" fillcolor="white" style="filled" color="red" URL="dir_f2541a3b18981391fa76fac5599e978a.html"];
  dir_ae30e5475d4ee29c13cc53f323cb4d05->dir_f2541a3b18981391fa76fac5599e978a [headlabel="1", labeldistance=1.5 headhref="dir_000003_000040.html"];
  dir_3368d9eebf2771a4bf02b7c5407b04c1->dir_ae30e5475d4ee29c13cc53f323cb4d05 [headlabel="28", labeldistance=1.5 headhref="dir_000006_000003.html"];
  dir_3368d9eebf2771a4bf02b7c5407b04c1->dir_f2541a3b18981391fa76fac5599e978a [headlabel="8", labeldistance=1.5 headhref="dir_000006_000040.html"];
  dir_e511cb318e287388e801fcaa90972f3f->dir_ae30e5475d4ee29c13cc53f323cb4d05 [headlabel="21", labeldistance=1.5 headhref="dir_000008_000003.html"];
  dir_e511cb318e287388e801fcaa90972f3f->dir_3368d9eebf2771a4bf02b7c5407b04c1 [headlabel="7", labeldistance=1.5 headhref="dir_000008_000006.html"];
  dir_31a986b624f557dda478cab4132f9827->dir_ae30e5475d4ee29c13cc53f323cb4d05 [headlabel="16", labeldistance=1.5 headhref="dir_000009_000003.html"];
  dir_31a986b624f557dda478cab4132f9827->dir_3368d9eebf2771a4bf02b7c5407b04c1 [headlabel="5", labeldistance=1.5 headhref="dir_000009_000006.html"];
  dir_31a986b624f557dda478cab4132f9827->dir_f2541a3b18981391fa76fac5599e978a [headlabel="1", labeldistance=1.5 headhref="dir_000009_000040.html"];
}
