digraph "Modules/MeshLib/libmodules/meMesh/src" {
  compound=true
  node [ fontsize="10", fontname="Helvetica"];
  edge [ labelfontsize="10", labelfontname="Helvetica"];
  subgraph clusterdir_a4ae47922f1c9ff4462c2e63c4bf9d82 {
    graph [ bgcolor="#ddddee", pencolor="black", label="meMesh" fontname="Helvetica", fontsize="10", URL="dir_a4ae47922f1c9ff4462c2e63c4bf9d82.html"]
  dir_abfed8867c28b8cc2eae4ad0a88b211b [shape=box, label="src", style="filled", fillcolor="#eeeeff", pencolor="black", URL="dir_abfed8867c28b8cc2eae4ad0a88b211b.html"];
  }
  dir_5bd952a5017b1821131fed14d9a8400d [shape=box label="include" URL="dir_5bd952a5017b1821131fed14d9a8400d.html"];
  dir_abfed8867c28b8cc2eae4ad0a88b211b->dir_5bd952a5017b1821131fed14d9a8400d [headlabel="1", labeldistance=1.5 headhref="dir_000329_000328.html"];
}
