digraph "Apps/Plugins/MITKPlugin/widgets/RenderWindow" {
  compound=true
  node [ fontsize="10", fontname="Helvetica"];
  edge [ labelfontsize="10", labelfontname="Helvetica"];
  subgraph clusterdir_6a4af1f546685413d209f46ec699d47b {
    graph [ bgcolor="#ddddee", pencolor="black", label="widgets" fontname="Helvetica", fontsize="10", URL="dir_6a4af1f546685413d209f46ec699d47b.html"]
  dir_7b013635b4a66227891707f0ba97fd7d [shape=box, label="RenderWindow", style="filled", fillcolor="#eeeeff", pencolor="black", URL="dir_7b013635b4a66227891707f0ba97fd7d.html"];
  }
  dir_373899315c2a5f5bb4696f8f20b90eac [shape=box label="RenderingTree" URL="dir_373899315c2a5f5bb4696f8f20b90eac.html"];
  dir_3fb10b8ac44ed3f655ba850e2606d3c4 [shape=box label="processors" fillcolor="white" style="filled" color="red" URL="dir_3fb10b8ac44ed3f655ba850e2606d3c4.html"];
  dir_f2541a3b18981391fa76fac5599e978a [shape=box label="Modules" fillcolor="white" style="filled" color="red" URL="dir_f2541a3b18981391fa76fac5599e978a.html"];
  dir_9238def6ed406a42f9ab96d63b331333 [shape=box label="Gimias" fillcolor="white" style="filled" color="red" URL="dir_9238def6ed406a42f9ab96d63b331333.html"];
  dir_373899315c2a5f5bb4696f8f20b90eac->dir_7b013635b4a66227891707f0ba97fd7d [headlabel="7", labeldistance=1.5 headhref="dir_000180_000181.html"];
  dir_373899315c2a5f5bb4696f8f20b90eac->dir_3fb10b8ac44ed3f655ba850e2606d3c4 [headlabel="11", labeldistance=1.5 headhref="dir_000180_000155.html"];
  dir_373899315c2a5f5bb4696f8f20b90eac->dir_f2541a3b18981391fa76fac5599e978a [headlabel="16", labeldistance=1.5 headhref="dir_000180_000040.html"];
  dir_373899315c2a5f5bb4696f8f20b90eac->dir_9238def6ed406a42f9ab96d63b331333 [headlabel="28", labeldistance=1.5 headhref="dir_000180_000001.html"];
  dir_7b013635b4a66227891707f0ba97fd7d->dir_373899315c2a5f5bb4696f8f20b90eac [headlabel="5", labeldistance=1.5 headhref="dir_000181_000180.html"];
  dir_7b013635b4a66227891707f0ba97fd7d->dir_3fb10b8ac44ed3f655ba850e2606d3c4 [headlabel="1", labeldistance=1.5 headhref="dir_000181_000155.html"];
  dir_7b013635b4a66227891707f0ba97fd7d->dir_f2541a3b18981391fa76fac5599e978a [headlabel="20", labeldistance=1.5 headhref="dir_000181_000040.html"];
  dir_7b013635b4a66227891707f0ba97fd7d->dir_9238def6ed406a42f9ab96d63b331333 [headlabel="39", labeldistance=1.5 headhref="dir_000181_000001.html"];
  dir_3fb10b8ac44ed3f655ba850e2606d3c4->dir_373899315c2a5f5bb4696f8f20b90eac [headlabel="3", labeldistance=1.5 headhref="dir_000155_000180.html"];
  dir_3fb10b8ac44ed3f655ba850e2606d3c4->dir_f2541a3b18981391fa76fac5599e978a [headlabel="44", labeldistance=1.5 headhref="dir_000155_000040.html"];
  dir_3fb10b8ac44ed3f655ba850e2606d3c4->dir_9238def6ed406a42f9ab96d63b331333 [headlabel="92", labeldistance=1.5 headhref="dir_000155_000001.html"];
  dir_f2541a3b18981391fa76fac5599e978a->dir_3fb10b8ac44ed3f655ba850e2606d3c4 [headlabel="1", labeldistance=1.5 headhref="dir_000040_000155.html"];
  dir_f2541a3b18981391fa76fac5599e978a->dir_9238def6ed406a42f9ab96d63b331333 [headlabel="3", labeldistance=1.5 headhref="dir_000040_000001.html"];
  dir_9238def6ed406a42f9ab96d63b331333->dir_f2541a3b18981391fa76fac5599e978a [headlabel="181", labeldistance=1.5 headhref="dir_000001_000040.html"];
}
