digraph "Modules/TpExtLib/Applications/blwxAppTreeCtrl" {
  compound=true
  node [ fontsize="10", fontname="Helvetica"];
  edge [ labelfontsize="10", labelfontname="Helvetica"];
  subgraph clusterdir_ec37bb7b81c67f83f980efb72f27f9b0 {
    graph [ bgcolor="#ddddee", pencolor="black", label="Applications" fontname="Helvetica", fontsize="10", URL="dir_ec37bb7b81c67f83f980efb72f27f9b0.html"]
  dir_ba14b260388d7a01f46d60ed63b87b73 [shape=box, label="blwxAppTreeCtrl", style="filled", fillcolor="#eeeeff", pencolor="black", URL="dir_ba14b260388d7a01f46d60ed63b87b73.html"];
  }
  dir_9cc7e61590f92b1f126d3771e1cd2e7c [shape=box label="libmodules" fillcolor="white" style="filled" color="red" URL="dir_9cc7e61590f92b1f126d3771e1cd2e7c.html"];
  dir_ba14b260388d7a01f46d60ed63b87b73->dir_9cc7e61590f92b1f126d3771e1cd2e7c [headlabel="2", labeldistance=1.5 headhref="dir_000357_000390.html"];
}
