digraph "Modules/BaseLib/libmodules/blMatlabUtils/include" {
  compound=true
  node [ fontsize="10", fontname="Helvetica"];
  edge [ labelfontsize="10", labelfontname="Helvetica"];
  subgraph clusterdir_ef9768fabc856a8ed1d404b441642202 {
    graph [ bgcolor="#ddddee", pencolor="black", label="blMatlabUtils" fontname="Helvetica", fontsize="10", URL="dir_ef9768fabc856a8ed1d404b441642202.html"]
  dir_5e9731085eb0a7c91eaded0d33bcf433 [shape=box, label="include", style="filled", fillcolor="#eeeeff", pencolor="black", URL="dir_5e9731085eb0a7c91eaded0d33bcf433.html"];
  }
}
