digraph "Modules/DcmAPI" {
  compound=true
  node [ fontsize="10", fontname="Helvetica"];
  edge [ labelfontsize="10", labelfontname="Helvetica"];
  subgraph clusterdir_f2541a3b18981391fa76fac5599e978a {
    graph [ bgcolor="#ddddee", pencolor="black", label="Modules" fontname="Helvetica", fontsize="10", URL="dir_f2541a3b18981391fa76fac5599e978a.html"]
  subgraph clusterdir_332044ff995043dd38354f32b6bc7c72 {
    graph [ bgcolor="#eeeeff", pencolor="black", label="" URL="dir_332044ff995043dd38354f32b6bc7c72.html"];
    dir_332044ff995043dd38354f32b6bc7c72 [shape=plaintext label="DcmAPI"];
    dir_974d83c9de5f9dcd28bc30dd7688b756 [shape=box label="applications" color="red" fillcolor="white" style="filled" URL="dir_974d83c9de5f9dcd28bc30dd7688b756.html"];
    dir_9813f186f864c6844c851419a04497d8 [shape=box label="libmodules" color="red" fillcolor="white" style="filled" URL="dir_9813f186f864c6844c851419a04497d8.html"];
    dir_47b64e1f52f6c41f1c47fb4839eb23f2 [shape=box label="tests" color="red" fillcolor="white" style="filled" URL="dir_47b64e1f52f6c41f1c47fb4839eb23f2.html"];
  }
  }
  dir_c4e2459386d59530bb52a07959089cbc [shape=box label="CILabMacros" fillcolor="white" style="filled" color="red" URL="dir_c4e2459386d59530bb52a07959089cbc.html"];
  dir_7b1cd2e5906fe98d615ba17e786f068b [shape=box label="BaseLib" fillcolor="white" style="filled" color="red" URL="dir_7b1cd2e5906fe98d615ba17e786f068b.html"];
  dir_332044ff995043dd38354f32b6bc7c72->dir_c4e2459386d59530bb52a07959089cbc [headlabel="11", labeldistance=1.5 headhref="dir_000280_000041.html"];
  dir_7b1cd2e5906fe98d615ba17e786f068b->dir_c4e2459386d59530bb52a07959089cbc [headlabel="44", labeldistance=1.5 headhref="dir_000200_000041.html"];
  dir_47b64e1f52f6c41f1c47fb4839eb23f2->dir_7b1cd2e5906fe98d615ba17e786f068b [headlabel="9", labeldistance=1.5 headhref="dir_000289_000200.html"];
  dir_47b64e1f52f6c41f1c47fb4839eb23f2->dir_9813f186f864c6844c851419a04497d8 [headlabel="32", labeldistance=1.5 headhref="dir_000289_000283.html"];
  dir_974d83c9de5f9dcd28bc30dd7688b756->dir_7b1cd2e5906fe98d615ba17e786f068b [headlabel="3", labeldistance=1.5 headhref="dir_000281_000200.html"];
  dir_974d83c9de5f9dcd28bc30dd7688b756->dir_9813f186f864c6844c851419a04497d8 [headlabel="8", labeldistance=1.5 headhref="dir_000281_000283.html"];
  dir_9813f186f864c6844c851419a04497d8->dir_c4e2459386d59530bb52a07959089cbc [headlabel="8", labeldistance=1.5 headhref="dir_000283_000041.html"];
  dir_9813f186f864c6844c851419a04497d8->dir_7b1cd2e5906fe98d615ba17e786f068b [headlabel="22", labeldistance=1.5 headhref="dir_000283_000200.html"];
}
