digraph "Apps/Gimias/GUI/Widgets/src/WebUpdate" {
  compound=true
  node [ fontsize="10", fontname="Helvetica"];
  edge [ labelfontsize="10", labelfontname="Helvetica"];
  subgraph clusterdir_a3cdf8adf4306091f92234f951b4f529 {
    graph [ bgcolor="#ddddee", pencolor="black", label="src" fontname="Helvetica", fontsize="10", URL="dir_a3cdf8adf4306091f92234f951b4f529.html"]
  dir_53145e4c908d6a49a9dfe02404640442 [shape=box, label="WebUpdate", style="filled", fillcolor="#eeeeff", pencolor="black", URL="dir_53145e4c908d6a49a9dfe02404640442.html"];
  }
  dir_737e173614fa14a7ac513c797e4a7258 [shape=box label="Preferences" URL="dir_737e173614fa14a7ac513c797e4a7258.html"];
  dir_8f852b321eb6aeb4f78e66db1b219e06 [shape=box label="Core" fillcolor="white" style="filled" color="red" URL="dir_8f852b321eb6aeb4f78e66db1b219e06.html"];
  dir_f2541a3b18981391fa76fac5599e978a [shape=box label="Modules" fillcolor="white" style="filled" color="red" URL="dir_f2541a3b18981391fa76fac5599e978a.html"];
  dir_737e173614fa14a7ac513c797e4a7258->dir_8f852b321eb6aeb4f78e66db1b219e06 [headlabel="3", labeldistance=1.5 headhref="dir_000065_000002.html"];
  dir_737e173614fa14a7ac513c797e4a7258->dir_f2541a3b18981391fa76fac5599e978a [headlabel="1", labeldistance=1.5 headhref="dir_000065_000040.html"];
  dir_53145e4c908d6a49a9dfe02404640442->dir_737e173614fa14a7ac513c797e4a7258 [headlabel="1", labeldistance=1.5 headhref="dir_000078_000065.html"];
  dir_53145e4c908d6a49a9dfe02404640442->dir_8f852b321eb6aeb4f78e66db1b219e06 [headlabel="7", labeldistance=1.5 headhref="dir_000078_000002.html"];
  dir_53145e4c908d6a49a9dfe02404640442->dir_f2541a3b18981391fa76fac5599e978a [headlabel="6", labeldistance=1.5 headhref="dir_000078_000040.html"];
  dir_8f852b321eb6aeb4f78e66db1b219e06->dir_f2541a3b18981391fa76fac5599e978a [headlabel="65", labeldistance=1.5 headhref="dir_000002_000040.html"];
  dir_f2541a3b18981391fa76fac5599e978a->dir_8f852b321eb6aeb4f78e66db1b219e06 [headlabel="3", labeldistance=1.5 headhref="dir_000040_000002.html"];
}
