digraph "Modules" {
  compound=true
  node [ fontsize="10", fontname="Helvetica"];
  edge [ labelfontsize="10", labelfontname="Helvetica"];
  subgraph clusterdir_f2541a3b18981391fa76fac5599e978a {
    graph [ bgcolor="#eeeeff", pencolor="black", label="" URL="dir_f2541a3b18981391fa76fac5599e978a.html"];
    dir_f2541a3b18981391fa76fac5599e978a [shape=plaintext label="Modules"];
    dir_7b1cd2e5906fe98d615ba17e786f068b [shape=box label="BaseLib" color="red" fillcolor="white" style="filled" URL="dir_7b1cd2e5906fe98d615ba17e786f068b.html"];
    dir_c4e2459386d59530bb52a07959089cbc [shape=box label="CILabMacros" color="red" fillcolor="white" style="filled" URL="dir_c4e2459386d59530bb52a07959089cbc.html"];
    dir_332044ff995043dd38354f32b6bc7c72 [shape=box label="DcmAPI" color="red" fillcolor="white" style="filled" URL="dir_332044ff995043dd38354f32b6bc7c72.html"];
    dir_f73c1106f53ccf59936996007b5bdc42 [shape=box label="DynLib" color="red" fillcolor="white" style="filled" URL="dir_f73c1106f53ccf59936996007b5bdc42.html"];
    dir_823df25672704211a48177645f9388cd [shape=box label="GuiBridgeLib" color="red" fillcolor="white" style="filled" URL="dir_823df25672704211a48177645f9388cd.html"];
    dir_1228108da11502213e16552f8d21cfc2 [shape=box label="MeshLib" color="red" fillcolor="white" style="filled" URL="dir_1228108da11502213e16552f8d21cfc2.html"];
    dir_ea44587c35c639b62cf97a825ecd8f14 [shape=box label="PacsAPI" color="red" fillcolor="white" style="filled" URL="dir_ea44587c35c639b62cf97a825ecd8f14.html"];
    dir_52d1a685606453a496bbd86bccccb9f3 [shape=box label="TpExtLib" color="red" fillcolor="white" style="filled" URL="dir_52d1a685606453a496bbd86bccccb9f3.html"];
    dir_0226e044a31de43aadfe7d27b18b6938 [shape=box label="WflLib" color="red" fillcolor="white" style="filled" URL="dir_0226e044a31de43aadfe7d27b18b6938.html"];
    dir_93d4333b1bcb21dff3dd845999d8d017 [shape=box label="wxMitk" color="red" fillcolor="white" style="filled" URL="dir_93d4333b1bcb21dff3dd845999d8d017.html"];
  }
  dir_6098f77c224c930825758694068d4cda [shape=box label="Apps" fillcolor="white" style="filled" color="red" URL="dir_6098f77c224c930825758694068d4cda.html"];
  dir_52d1a685606453a496bbd86bccccb9f3->dir_c4e2459386d59530bb52a07959089cbc [headlabel="2", labeldistance=1.5 headhref="dir_000351_000041.html"];
  dir_52d1a685606453a496bbd86bccccb9f3->dir_7b1cd2e5906fe98d615ba17e786f068b [headlabel="14", labeldistance=1.5 headhref="dir_000351_000200.html"];
  dir_332044ff995043dd38354f32b6bc7c72->dir_c4e2459386d59530bb52a07959089cbc [headlabel="11", labeldistance=1.5 headhref="dir_000280_000041.html"];
  dir_332044ff995043dd38354f32b6bc7c72->dir_7b1cd2e5906fe98d615ba17e786f068b [headlabel="41", labeldistance=1.5 headhref="dir_000280_000200.html"];
  dir_f73c1106f53ccf59936996007b5bdc42->dir_52d1a685606453a496bbd86bccccb9f3 [headlabel="4", labeldistance=1.5 headhref="dir_000291_000351.html"];
  dir_f73c1106f53ccf59936996007b5bdc42->dir_c4e2459386d59530bb52a07959089cbc [headlabel="2", labeldistance=1.5 headhref="dir_000291_000041.html"];
  dir_f73c1106f53ccf59936996007b5bdc42->dir_7b1cd2e5906fe98d615ba17e786f068b [headlabel="17", labeldistance=1.5 headhref="dir_000291_000200.html"];
  dir_f73c1106f53ccf59936996007b5bdc42->dir_823df25672704211a48177645f9388cd [headlabel="2", labeldistance=1.5 headhref="dir_000291_000043.html"];
  dir_7b1cd2e5906fe98d615ba17e786f068b->dir_c4e2459386d59530bb52a07959089cbc [headlabel="44", labeldistance=1.5 headhref="dir_000200_000041.html"];
  dir_ea44587c35c639b62cf97a825ecd8f14->dir_c4e2459386d59530bb52a07959089cbc [headlabel="1", labeldistance=1.5 headhref="dir_000344_000041.html"];
  dir_ea44587c35c639b62cf97a825ecd8f14->dir_332044ff995043dd38354f32b6bc7c72 [headlabel="6", labeldistance=1.5 headhref="dir_000344_000280.html"];
  dir_1228108da11502213e16552f8d21cfc2->dir_c4e2459386d59530bb52a07959089cbc [headlabel="7", labeldistance=1.5 headhref="dir_000316_000041.html"];
  dir_1228108da11502213e16552f8d21cfc2->dir_7b1cd2e5906fe98d615ba17e786f068b [headlabel="58", labeldistance=1.5 headhref="dir_000316_000200.html"];
  dir_1228108da11502213e16552f8d21cfc2->dir_6098f77c224c930825758694068d4cda [headlabel="4", labeldistance=1.5 headhref="dir_000316_000000.html"];
  dir_6098f77c224c930825758694068d4cda->dir_52d1a685606453a496bbd86bccccb9f3 [headlabel="215", labeldistance=1.5 headhref="dir_000000_000351.html"];
  dir_6098f77c224c930825758694068d4cda->dir_c4e2459386d59530bb52a07959089cbc [headlabel="61", labeldistance=1.5 headhref="dir_000000_000041.html"];
  dir_6098f77c224c930825758694068d4cda->dir_332044ff995043dd38354f32b6bc7c72 [headlabel="43", labeldistance=1.5 headhref="dir_000000_000280.html"];
  dir_6098f77c224c930825758694068d4cda->dir_f73c1106f53ccf59936996007b5bdc42 [headlabel="30", labeldistance=1.5 headhref="dir_000000_000291.html"];
  dir_6098f77c224c930825758694068d4cda->dir_7b1cd2e5906fe98d615ba17e786f068b [headlabel="202", labeldistance=1.5 headhref="dir_000000_000200.html"];
  dir_6098f77c224c930825758694068d4cda->dir_ea44587c35c639b62cf97a825ecd8f14 [headlabel="3", labeldistance=1.5 headhref="dir_000000_000344.html"];
  dir_6098f77c224c930825758694068d4cda->dir_1228108da11502213e16552f8d21cfc2 [headlabel="60", labeldistance=1.5 headhref="dir_000000_000316.html"];
  dir_6098f77c224c930825758694068d4cda->dir_823df25672704211a48177645f9388cd [headlabel="85", labeldistance=1.5 headhref="dir_000000_000043.html"];
  dir_6098f77c224c930825758694068d4cda->dir_93d4333b1bcb21dff3dd845999d8d017 [headlabel="69", labeldistance=1.5 headhref="dir_000000_000421.html"];
  dir_0226e044a31de43aadfe7d27b18b6938->dir_7b1cd2e5906fe98d615ba17e786f068b [headlabel="10", labeldistance=1.5 headhref="dir_000413_000200.html"];
  dir_823df25672704211a48177645f9388cd->dir_52d1a685606453a496bbd86bccccb9f3 [headlabel="11", labeldistance=1.5 headhref="dir_000043_000351.html"];
  dir_823df25672704211a48177645f9388cd->dir_c4e2459386d59530bb52a07959089cbc [headlabel="22", labeldistance=1.5 headhref="dir_000043_000041.html"];
  dir_93d4333b1bcb21dff3dd845999d8d017->dir_52d1a685606453a496bbd86bccccb9f3 [headlabel="39", labeldistance=1.5 headhref="dir_000421_000351.html"];
  dir_93d4333b1bcb21dff3dd845999d8d017->dir_c4e2459386d59530bb52a07959089cbc [headlabel="2", labeldistance=1.5 headhref="dir_000421_000041.html"];
  dir_93d4333b1bcb21dff3dd845999d8d017->dir_7b1cd2e5906fe98d615ba17e786f068b [headlabel="9", labeldistance=1.5 headhref="dir_000421_000200.html"];
}
