digraph "Modules/BaseLib/tests/blCommon" {
  compound=true
  node [ fontsize="10", fontname="Helvetica"];
  edge [ labelfontsize="10", labelfontname="Helvetica"];
  subgraph clusterdir_a1e74bf68f17d39f1fbcdf8cb1b6a978 {
    graph [ bgcolor="#ddddee", pencolor="black", label="tests" fontname="Helvetica", fontsize="10", URL="dir_a1e74bf68f17d39f1fbcdf8cb1b6a978.html"]
  dir_9909792af6e5faf4d1186a24ede8287e [shape=box, label="blCommon", style="filled", fillcolor="#eeeeff", pencolor="black", URL="dir_9909792af6e5faf4d1186a24ede8287e.html"];
  }
  dir_aff680161753d160eeb13987c8db2168 [shape=box label="libmodules" fillcolor="white" style="filled" color="red" URL="dir_aff680161753d160eeb13987c8db2168.html"];
  dir_9909792af6e5faf4d1186a24ede8287e->dir_aff680161753d160eeb13987c8db2168 [headlabel="1", labeldistance=1.5 headhref="dir_000266_000210.html"];
}
