digraph "Modules/TpExtLib/libmodules/tpExtBoost/src/boost/threadpool/detail" {
  compound=true
  node [ fontsize="10", fontname="Helvetica"];
  edge [ labelfontsize="10", labelfontname="Helvetica"];
  subgraph clusterdir_3a9a5456dbcbb0f5fe8ba4fb565c9b2e {
    graph [ bgcolor="#ddddee", pencolor="black", label="threadpool" fontname="Helvetica", fontsize="10", URL="dir_3a9a5456dbcbb0f5fe8ba4fb565c9b2e.html"]
  dir_2182e56eae26cb4454b29ee54b7307c6 [shape=box, label="detail", style="filled", fillcolor="#eeeeff", pencolor="black", URL="dir_2182e56eae26cb4454b29ee54b7307c6.html"];
  }
}
