digraph "Modules/BaseLib/libmodules/blIO/src" {
  compound=true
  node [ fontsize="10", fontname="Helvetica"];
  edge [ labelfontsize="10", labelfontname="Helvetica"];
  subgraph clusterdir_1cd53147a183a0c0347e629f8205d12b {
    graph [ bgcolor="#ddddee", pencolor="black", label="blIO" fontname="Helvetica", fontsize="10", URL="dir_1cd53147a183a0c0347e629f8205d12b.html"]
  dir_6a983d5b69f75b26c6ef722fc0a5a3fd [shape=box, label="src", style="filled", fillcolor="#eeeeff", pencolor="black", URL="dir_6a983d5b69f75b26c6ef722fc0a5a3fd.html"];
  }
  dir_c4f83991214d6d4f281a99d9422b8eb1 [shape=box label="blUtilitiesVTK" fillcolor="white" style="filled" color="red" URL="dir_c4f83991214d6d4f281a99d9422b8eb1.html"];
  dir_d0ac2a78b49953b43535320992f5bdfb [shape=box label="blCommon" fillcolor="white" style="filled" color="red" URL="dir_d0ac2a78b49953b43535320992f5bdfb.html"];
  dir_606feb217880bcca6a2ad46d1eb89c21 [shape=box label="include" URL="dir_606feb217880bcca6a2ad46d1eb89c21.html"];
  dir_c4f83991214d6d4f281a99d9422b8eb1->dir_d0ac2a78b49953b43535320992f5bdfb [headlabel="7", labeldistance=1.5 headhref="dir_000262_000214.html"];
  dir_c4f83991214d6d4f281a99d9422b8eb1->dir_606feb217880bcca6a2ad46d1eb89c21 [headlabel="3", labeldistance=1.5 headhref="dir_000262_000227.html"];
  dir_606feb217880bcca6a2ad46d1eb89c21->dir_d0ac2a78b49953b43535320992f5bdfb [headlabel="9", labeldistance=1.5 headhref="dir_000227_000214.html"];
  dir_6a983d5b69f75b26c6ef722fc0a5a3fd->dir_c4f83991214d6d4f281a99d9422b8eb1 [headlabel="1", labeldistance=1.5 headhref="dir_000228_000262.html"];
  dir_6a983d5b69f75b26c6ef722fc0a5a3fd->dir_d0ac2a78b49953b43535320992f5bdfb [headlabel="1", labeldistance=1.5 headhref="dir_000228_000214.html"];
  dir_6a983d5b69f75b26c6ef722fc0a5a3fd->dir_606feb217880bcca6a2ad46d1eb89c21 [headlabel="9", labeldistance=1.5 headhref="dir_000228_000227.html"];
}
