digraph "Modules/BaseLib/applications/blAppBullsEye" {
  compound=true
  node [ fontsize="10", fontname="Helvetica"];
  edge [ labelfontsize="10", labelfontname="Helvetica"];
  subgraph clusterdir_882285017c5959ffa858fd59ef1c0e03 {
    graph [ bgcolor="#ddddee", pencolor="black", label="applications" fontname="Helvetica", fontsize="10", URL="dir_882285017c5959ffa858fd59ef1c0e03.html"]
  dir_332b5ac3c0f91c7296a5c7047f0342f6 [shape=box, label="blAppBullsEye", style="filled", fillcolor="#eeeeff", pencolor="black", URL="dir_332b5ac3c0f91c7296a5c7047f0342f6.html"];
  }
  dir_aff680161753d160eeb13987c8db2168 [shape=box label="libmodules" fillcolor="white" style="filled" color="red" URL="dir_aff680161753d160eeb13987c8db2168.html"];
  dir_332b5ac3c0f91c7296a5c7047f0342f6->dir_aff680161753d160eeb13987c8db2168 [headlabel="1", labeldistance=1.5 headhref="dir_000202_000210.html"];
}
