digraph "Apps/Plugins/SceneViewPlugin/widgets" {
  compound=true
  node [ fontsize="10", fontname="Helvetica"];
  edge [ labelfontsize="10", labelfontname="Helvetica"];
  subgraph clusterdir_b9d3d7a276d3264ad9f34c5585ec8dee {
    graph [ bgcolor="#ddddee", pencolor="black", label="SceneViewPlugin" fontname="Helvetica", fontsize="10", URL="dir_b9d3d7a276d3264ad9f34c5585ec8dee.html"]
  subgraph clusterdir_d863c1042a36590a156441d30c4f426a {
    graph [ bgcolor="#eeeeff", pencolor="black", label="" URL="dir_d863c1042a36590a156441d30c4f426a.html"];
    dir_d863c1042a36590a156441d30c4f426a [shape=plaintext label="widgets"];
    dir_d8af41bfe3992c2c2f2c5dbe38831264 [shape=box label="ExecuteCommandWidget" color="black" fillcolor="white" style="filled" URL="dir_d8af41bfe3992c2c2f2c5dbe38831264.html"];
  }
  }
  dir_8aa46f1fa4d0e98f88091c92ed0e6021 [shape=box label="processors" URL="dir_8aa46f1fa4d0e98f88091c92ed0e6021.html"];
  dir_9238def6ed406a42f9ab96d63b331333 [shape=box label="Gimias" fillcolor="white" style="filled" color="red" URL="dir_9238def6ed406a42f9ab96d63b331333.html"];
  dir_8aa46f1fa4d0e98f88091c92ed0e6021->dir_9238def6ed406a42f9ab96d63b331333 [headlabel="9", labeldistance=1.5 headhref="dir_000189_000001.html"];
  dir_d8af41bfe3992c2c2f2c5dbe38831264->dir_8aa46f1fa4d0e98f88091c92ed0e6021 [headlabel="1", labeldistance=1.5 headhref="dir_000191_000189.html"];
  dir_d8af41bfe3992c2c2f2c5dbe38831264->dir_9238def6ed406a42f9ab96d63b331333 [headlabel="2", labeldistance=1.5 headhref="dir_000191_000001.html"];
}
