digraph "Modules/GuiBridgeLib/libmodules/guiBridgeLibQt/Test" {
  compound=true
  node [ fontsize="10", fontname="Helvetica"];
  edge [ labelfontsize="10", labelfontname="Helvetica"];
  subgraph clusterdir_6d4de13ec0c6f93df0ce6a5281bba42a {
    graph [ bgcolor="#ddddee", pencolor="black", label="guiBridgeLibQt" fontname="Helvetica", fontsize="10", URL="dir_6d4de13ec0c6f93df0ce6a5281bba42a.html"]
  subgraph clusterdir_eafba5490e958c69bced44bda348028f {
    graph [ bgcolor="#eeeeff", pencolor="black", label="" URL="dir_eafba5490e958c69bced44bda348028f.html"];
    dir_eafba5490e958c69bced44bda348028f [shape=plaintext label="Test"];
    dir_eb7c24c83ce1e31852392e948d3e6e7f [shape=box label="src" color="black" fillcolor="white" style="filled" URL="dir_eb7c24c83ce1e31852392e948d3e6e7f.html"];
  }
  }
  dir_e2055551f9690edcd7a289320e255a5b [shape=box label="guiBridgeLib" fillcolor="white" style="filled" color="red" URL="dir_e2055551f9690edcd7a289320e255a5b.html"];
  dir_0ba380e66ddcd07aa948c7a07f10c000 [shape=box label="src" URL="dir_0ba380e66ddcd07aa948c7a07f10c000.html"];
  dir_0ba380e66ddcd07aa948c7a07f10c000->dir_e2055551f9690edcd7a289320e255a5b [headlabel="9", labeldistance=1.5 headhref="dir_000307_000302.html"];
  dir_eb7c24c83ce1e31852392e948d3e6e7f->dir_e2055551f9690edcd7a289320e255a5b [headlabel="1", labeldistance=1.5 headhref="dir_000309_000302.html"];
  dir_eb7c24c83ce1e31852392e948d3e6e7f->dir_0ba380e66ddcd07aa948c7a07f10c000 [headlabel="2", labeldistance=1.5 headhref="dir_000309_000307.html"];
}
