digraph "Apps/Plugins/MITKPlugin/widgets/Preview" {
  compound=true
  node [ fontsize="10", fontname="Helvetica"];
  edge [ labelfontsize="10", labelfontname="Helvetica"];
  subgraph clusterdir_6a4af1f546685413d209f46ec699d47b {
    graph [ bgcolor="#ddddee", pencolor="black", label="widgets" fontname="Helvetica", fontsize="10", URL="dir_6a4af1f546685413d209f46ec699d47b.html"]
  dir_bad078d8dae878becbe061dd99b60049 [shape=box, label="Preview", style="filled", fillcolor="#eeeeff", pencolor="black", URL="dir_bad078d8dae878becbe061dd99b60049.html"];
  }
  dir_9238def6ed406a42f9ab96d63b331333 [shape=box label="Gimias" fillcolor="white" style="filled" color="red" URL="dir_9238def6ed406a42f9ab96d63b331333.html"];
  dir_bad078d8dae878becbe061dd99b60049->dir_9238def6ed406a42f9ab96d63b331333 [headlabel="1", labeldistance=1.5 headhref="dir_000178_000001.html"];
}
