digraph "Apps/Plugins/MITKPlugin/widgets/CGNSWriterDialog" {
  compound=true
  node [ fontsize="10", fontname="Helvetica"];
  edge [ labelfontsize="10", labelfontname="Helvetica"];
  subgraph clusterdir_6a4af1f546685413d209f46ec699d47b {
    graph [ bgcolor="#ddddee", pencolor="black", label="widgets" fontname="Helvetica", fontsize="10", URL="dir_6a4af1f546685413d209f46ec699d47b.html"]
  dir_c30e33fb89fed42cb45ae1e970c3b835 [shape=box, label="CGNSWriterDialog", style="filled", fillcolor="#eeeeff", pencolor="black", URL="dir_c30e33fb89fed42cb45ae1e970c3b835.html"];
  }
  dir_3fb10b8ac44ed3f655ba850e2606d3c4 [shape=box label="processors" fillcolor="white" style="filled" color="red" URL="dir_3fb10b8ac44ed3f655ba850e2606d3c4.html"];
  dir_f2541a3b18981391fa76fac5599e978a [shape=box label="Modules" fillcolor="white" style="filled" color="red" URL="dir_f2541a3b18981391fa76fac5599e978a.html"];
  dir_9238def6ed406a42f9ab96d63b331333 [shape=box label="Gimias" fillcolor="white" style="filled" color="red" URL="dir_9238def6ed406a42f9ab96d63b331333.html"];
  dir_3fb10b8ac44ed3f655ba850e2606d3c4->dir_f2541a3b18981391fa76fac5599e978a [headlabel="44", labeldistance=1.5 headhref="dir_000155_000040.html"];
  dir_3fb10b8ac44ed3f655ba850e2606d3c4->dir_9238def6ed406a42f9ab96d63b331333 [headlabel="92", labeldistance=1.5 headhref="dir_000155_000001.html"];
  dir_f2541a3b18981391fa76fac5599e978a->dir_3fb10b8ac44ed3f655ba850e2606d3c4 [headlabel="1", labeldistance=1.5 headhref="dir_000040_000155.html"];
  dir_f2541a3b18981391fa76fac5599e978a->dir_9238def6ed406a42f9ab96d63b331333 [headlabel="3", labeldistance=1.5 headhref="dir_000040_000001.html"];
  dir_9238def6ed406a42f9ab96d63b331333->dir_f2541a3b18981391fa76fac5599e978a [headlabel="181", labeldistance=1.5 headhref="dir_000001_000040.html"];
  dir_c30e33fb89fed42cb45ae1e970c3b835->dir_3fb10b8ac44ed3f655ba850e2606d3c4 [headlabel="1", labeldistance=1.5 headhref="dir_000169_000155.html"];
  dir_c30e33fb89fed42cb45ae1e970c3b835->dir_f2541a3b18981391fa76fac5599e978a [headlabel="1", labeldistance=1.5 headhref="dir_000169_000040.html"];
  dir_c30e33fb89fed42cb45ae1e970c3b835->dir_9238def6ed406a42f9ab96d63b331333 [headlabel="1", labeldistance=1.5 headhref="dir_000169_000001.html"];
}
