digraph "Modules/MeshLib/applications/meAppSegValidationToolsNonWorking" {
  compound=true
  node [ fontsize="10", fontname="Helvetica"];
  edge [ labelfontsize="10", labelfontname="Helvetica"];
  subgraph clusterdir_896d901babf86c5dc3734c3110545ad4 {
    graph [ bgcolor="#ddddee", pencolor="black", label="applications" fontname="Helvetica", fontsize="10", URL="dir_896d901babf86c5dc3734c3110545ad4.html"]
  dir_e1ba578e73bba676004a616f30ea37be [shape=box, label="meAppSegValidationToolsNonWorking", style="filled", fillcolor="#eeeeff", pencolor="black", URL="dir_e1ba578e73bba676004a616f30ea37be.html"];
  }
  dir_d51a2b204f4f87363590af8f0a50cfc5 [shape=box label="libmodules" fillcolor="white" style="filled" color="red" URL="dir_d51a2b204f4f87363590af8f0a50cfc5.html"];
  dir_e1ba578e73bba676004a616f30ea37be->dir_d51a2b204f4f87363590af8f0a50cfc5 [headlabel="4", labeldistance=1.5 headhref="dir_000321_000323.html"];
}
