digraph "Apps/Plugins/DicomPlugin/widgets/DicomWorkingAreaWidget" {
  compound=true
  node [ fontsize="10", fontname="Helvetica"];
  edge [ labelfontsize="10", labelfontname="Helvetica"];
  subgraph clusterdir_20f963b113554f233ea5950db135b2f4 {
    graph [ bgcolor="#ddddee", pencolor="black", label="widgets" fontname="Helvetica", fontsize="10", URL="dir_20f963b113554f233ea5950db135b2f4.html"]
  dir_d3cf0ddbec0fad2699925550ea2db475 [shape=box, label="DicomWorkingAreaWidget", style="filled", fillcolor="#eeeeff", pencolor="black", URL="dir_d3cf0ddbec0fad2699925550ea2db475.html"];
  }
  dir_41e9d6c112cf438d2938a7b5be96dc5e [shape=box label="DicomConnectToPACSWidget" URL="dir_41e9d6c112cf438d2938a7b5be96dc5e.html"];
  dir_bb5b7d58e939b329be85d938587ab07d [shape=box label="DICOMTree" URL="dir_bb5b7d58e939b329be85d938587ab07d.html"];
  dir_f2541a3b18981391fa76fac5599e978a [shape=box label="Modules" fillcolor="white" style="filled" color="red" URL="dir_f2541a3b18981391fa76fac5599e978a.html"];
  dir_9238def6ed406a42f9ab96d63b331333 [shape=box label="Gimias" fillcolor="white" style="filled" color="red" URL="dir_9238def6ed406a42f9ab96d63b331333.html"];
  dir_f6b43f5b34321b7cbe9a98e5f3e6f8cf [shape=box label="MITKPlugin" fillcolor="white" style="filled" color="red" URL="dir_f6b43f5b34321b7cbe9a98e5f3e6f8cf.html"];
  dir_41e9d6c112cf438d2938a7b5be96dc5e->dir_bb5b7d58e939b329be85d938587ab07d [headlabel="1", labeldistance=1.5 headhref="dir_000087_000088.html"];
  dir_41e9d6c112cf438d2938a7b5be96dc5e->dir_d3cf0ddbec0fad2699925550ea2db475 [headlabel="2", labeldistance=1.5 headhref="dir_000087_000089.html"];
  dir_41e9d6c112cf438d2938a7b5be96dc5e->dir_f2541a3b18981391fa76fac5599e978a [headlabel="8", labeldistance=1.5 headhref="dir_000087_000040.html"];
  dir_41e9d6c112cf438d2938a7b5be96dc5e->dir_9238def6ed406a42f9ab96d63b331333 [headlabel="10", labeldistance=1.5 headhref="dir_000087_000001.html"];
  dir_41e9d6c112cf438d2938a7b5be96dc5e->dir_f6b43f5b34321b7cbe9a98e5f3e6f8cf [headlabel="1", labeldistance=1.5 headhref="dir_000087_000153.html"];
  dir_bb5b7d58e939b329be85d938587ab07d->dir_f2541a3b18981391fa76fac5599e978a [headlabel="2", labeldistance=1.5 headhref="dir_000088_000040.html"];
  dir_bb5b7d58e939b329be85d938587ab07d->dir_9238def6ed406a42f9ab96d63b331333 [headlabel="4", labeldistance=1.5 headhref="dir_000088_000001.html"];
  dir_d3cf0ddbec0fad2699925550ea2db475->dir_41e9d6c112cf438d2938a7b5be96dc5e [headlabel="1", labeldistance=1.5 headhref="dir_000089_000087.html"];
  dir_d3cf0ddbec0fad2699925550ea2db475->dir_bb5b7d58e939b329be85d938587ab07d [headlabel="6", labeldistance=1.5 headhref="dir_000089_000088.html"];
  dir_d3cf0ddbec0fad2699925550ea2db475->dir_f2541a3b18981391fa76fac5599e978a [headlabel="18", labeldistance=1.5 headhref="dir_000089_000040.html"];
  dir_d3cf0ddbec0fad2699925550ea2db475->dir_9238def6ed406a42f9ab96d63b331333 [headlabel="21", labeldistance=1.5 headhref="dir_000089_000001.html"];
  dir_d3cf0ddbec0fad2699925550ea2db475->dir_f6b43f5b34321b7cbe9a98e5f3e6f8cf [headlabel="3", labeldistance=1.5 headhref="dir_000089_000153.html"];
  dir_f2541a3b18981391fa76fac5599e978a->dir_9238def6ed406a42f9ab96d63b331333 [headlabel="3", labeldistance=1.5 headhref="dir_000040_000001.html"];
  dir_f2541a3b18981391fa76fac5599e978a->dir_f6b43f5b34321b7cbe9a98e5f3e6f8cf [headlabel="1", labeldistance=1.5 headhref="dir_000040_000153.html"];
  dir_9238def6ed406a42f9ab96d63b331333->dir_f2541a3b18981391fa76fac5599e978a [headlabel="181", labeldistance=1.5 headhref="dir_000001_000040.html"];
  dir_f6b43f5b34321b7cbe9a98e5f3e6f8cf->dir_f2541a3b18981391fa76fac5599e978a [headlabel="197", labeldistance=1.5 headhref="dir_000153_000040.html"];
  dir_f6b43f5b34321b7cbe9a98e5f3e6f8cf->dir_9238def6ed406a42f9ab96d63b331333 [headlabel="342", labeldistance=1.5 headhref="dir_000153_000001.html"];
}
