digraph "Apps/Plugins/MITKPlugin/processors/DICOMFile" {
  compound=true
  node [ fontsize="10", fontname="Helvetica"];
  edge [ labelfontsize="10", labelfontname="Helvetica"];
  subgraph clusterdir_3fb10b8ac44ed3f655ba850e2606d3c4 {
    graph [ bgcolor="#ddddee", pencolor="black", label="processors" fontname="Helvetica", fontsize="10", URL="dir_3fb10b8ac44ed3f655ba850e2606d3c4.html"]
  dir_dcb33e4e0e072a34a073bcf37fbcaa91 [shape=box, label="DICOMFile", style="filled", fillcolor="#eeeeff", pencolor="black", URL="dir_dcb33e4e0e072a34a073bcf37fbcaa91.html"];
  }
  dir_f2541a3b18981391fa76fac5599e978a [shape=box label="Modules" fillcolor="white" style="filled" color="red" URL="dir_f2541a3b18981391fa76fac5599e978a.html"];
  dir_9238def6ed406a42f9ab96d63b331333 [shape=box label="Gimias" fillcolor="white" style="filled" color="red" URL="dir_9238def6ed406a42f9ab96d63b331333.html"];
  dir_dcb33e4e0e072a34a073bcf37fbcaa91->dir_f2541a3b18981391fa76fac5599e978a [headlabel="21", labeldistance=1.5 headhref="dir_000157_000040.html"];
  dir_dcb33e4e0e072a34a073bcf37fbcaa91->dir_9238def6ed406a42f9ab96d63b331333 [headlabel="7", labeldistance=1.5 headhref="dir_000157_000001.html"];
  dir_f2541a3b18981391fa76fac5599e978a->dir_9238def6ed406a42f9ab96d63b331333 [headlabel="3", labeldistance=1.5 headhref="dir_000040_000001.html"];
  dir_9238def6ed406a42f9ab96d63b331333->dir_f2541a3b18981391fa76fac5599e978a [headlabel="181", labeldistance=1.5 headhref="dir_000001_000040.html"];
}
