digraph "Apps/Plugins/DicomPlugin/tests" {
  compound=true
  node [ fontsize="10", fontname="Helvetica"];
  edge [ labelfontsize="10", labelfontname="Helvetica"];
  subgraph clusterdir_05549bf253ad8ab684e939da0ba73efa {
    graph [ bgcolor="#ddddee", pencolor="black", label="DicomPlugin" fontname="Helvetica", fontsize="10", URL="dir_05549bf253ad8ab684e939da0ba73efa.html"]
  dir_5ef3db4f395e77882955f6960f003776 [shape=box, label="tests", style="filled", fillcolor="#eeeeff", pencolor="black", URL="dir_5ef3db4f395e77882955f6960f003776.html"];
  }
}
