digraph "Apps/Gimias/Core/Processors/tests" {
  compound=true
  node [ fontsize="10", fontname="Helvetica"];
  edge [ labelfontsize="10", labelfontname="Helvetica"];
  subgraph clusterdir_e8a542427d01f1bef0aefdca81a53b92 {
    graph [ bgcolor="#ddddee", pencolor="black", label="Processors" fontname="Helvetica", fontsize="10", URL="dir_e8a542427d01f1bef0aefdca81a53b92.html"]
  dir_34f78b3dad0d818cb70d016b0dc1e3c3 [shape=box, label="tests", style="filled", fillcolor="#eeeeff", pencolor="black", URL="dir_34f78b3dad0d818cb70d016b0dc1e3c3.html"];
  }
}
