digraph "Modules/WflLib/libmodules/wflIO" {
  compound=true
  node [ fontsize="10", fontname="Helvetica"];
  edge [ labelfontsize="10", labelfontname="Helvetica"];
  subgraph clusterdir_d896be7386a8cca043fba5452b4d8cda {
    graph [ bgcolor="#ddddee", pencolor="black", label="libmodules" fontname="Helvetica", fontsize="10", URL="dir_d896be7386a8cca043fba5452b4d8cda.html"]
  subgraph clusterdir_1fa045f7add84b557581612f316f2e44 {
    graph [ bgcolor="#eeeeff", pencolor="black", label="" URL="dir_1fa045f7add84b557581612f316f2e44.html"];
    dir_1fa045f7add84b557581612f316f2e44 [shape=plaintext label="wflIO"];
    dir_217ff64de7501d34aefe7b6e18cbbf90 [shape=box label="src" color="black" fillcolor="white" style="filled" URL="dir_217ff64de7501d34aefe7b6e18cbbf90.html"];
  }
  }
  dir_7b1cd2e5906fe98d615ba17e786f068b [shape=box label="BaseLib" fillcolor="white" style="filled" color="red" URL="dir_7b1cd2e5906fe98d615ba17e786f068b.html"];
  dir_f654bbecbdabba5ff2d444b4ca74fc22 [shape=box label="wflBase" fillcolor="white" style="filled" color="red" URL="dir_f654bbecbdabba5ff2d444b4ca74fc22.html"];
  dir_f654bbecbdabba5ff2d444b4ca74fc22->dir_7b1cd2e5906fe98d615ba17e786f068b [headlabel="4", labeldistance=1.5 headhref="dir_000417_000200.html"];
  dir_217ff64de7501d34aefe7b6e18cbbf90->dir_7b1cd2e5906fe98d615ba17e786f068b [headlabel="4", labeldistance=1.5 headhref="dir_000420_000200.html"];
  dir_217ff64de7501d34aefe7b6e18cbbf90->dir_f654bbecbdabba5ff2d444b4ca74fc22 [headlabel="3", labeldistance=1.5 headhref="dir_000420_000417.html"];
}
