digraph "Modules/TpExtLib/libmodules/tpExtBoost/src/boost/threadpool" {
  compound=true
  node [ fontsize="10", fontname="Helvetica"];
  edge [ labelfontsize="10", labelfontname="Helvetica"];
  subgraph clusterdir_8a231c01a93f7ad73953bfd5bddd9a9d {
    graph [ bgcolor="#ddddee", pencolor="black", label="boost" fontname="Helvetica", fontsize="10", URL="dir_8a231c01a93f7ad73953bfd5bddd9a9d.html"]
  subgraph clusterdir_3a9a5456dbcbb0f5fe8ba4fb565c9b2e {
    graph [ bgcolor="#eeeeff", pencolor="black", label="" URL="dir_3a9a5456dbcbb0f5fe8ba4fb565c9b2e.html"];
    dir_3a9a5456dbcbb0f5fe8ba4fb565c9b2e [shape=plaintext label="threadpool"];
    dir_2182e56eae26cb4454b29ee54b7307c6 [shape=box label="detail" color="black" fillcolor="white" style="filled" URL="dir_2182e56eae26cb4454b29ee54b7307c6.html"];
  }
  }
  dir_3a9a5456dbcbb0f5fe8ba4fb565c9b2e->dir_2182e56eae26cb4454b29ee54b7307c6 [headlabel="3", labeldistance=1.5 headhref="dir_000394_000395.html"];
}
