digraph "Modules/GuiBridgeLib/libmodules/guiBridgeLibWxWidgets" {
  compound=true
  node [ fontsize="10", fontname="Helvetica"];
  edge [ labelfontsize="10", labelfontname="Helvetica"];
  subgraph clusterdir_da140d48f8330eeeb8cfe332a96db4fd {
    graph [ bgcolor="#ddddee", pencolor="black", label="libmodules" fontname="Helvetica", fontsize="10", URL="dir_da140d48f8330eeeb8cfe332a96db4fd.html"]
  subgraph clusterdir_c72101f3f4f03b11f31ccd54005c0170 {
    graph [ bgcolor="#eeeeff", pencolor="black", label="" URL="dir_c72101f3f4f03b11f31ccd54005c0170.html"];
    dir_c72101f3f4f03b11f31ccd54005c0170 [shape=plaintext label="guiBridgeLibWxWidgets"];
    dir_9931a95e5f6af677ff54ad2d5c3cfe8c [shape=box label="src" color="black" fillcolor="white" style="filled" URL="dir_9931a95e5f6af677ff54ad2d5c3cfe8c.html"];
    dir_79d49885d373c7e2d7c9f8e4452c35b2 [shape=box label="Test" color="red" fillcolor="white" style="filled" URL="dir_79d49885d373c7e2d7c9f8e4452c35b2.html"];
    dir_df6f029ffffeb6cee075424c620d8813 [shape=box label="TestApplication" color="red" fillcolor="white" style="filled" URL="dir_df6f029ffffeb6cee075424c620d8813.html"];
  }
  }
  dir_e2055551f9690edcd7a289320e255a5b [shape=box label="guiBridgeLib" fillcolor="white" style="filled" color="red" URL="dir_e2055551f9690edcd7a289320e255a5b.html"];
  dir_52d1a685606453a496bbd86bccccb9f3 [shape=box label="TpExtLib" fillcolor="white" style="filled" color="red" URL="dir_52d1a685606453a496bbd86bccccb9f3.html"];
  dir_c4e2459386d59530bb52a07959089cbc [shape=box label="CILabMacros" fillcolor="white" style="filled" color="red" URL="dir_c4e2459386d59530bb52a07959089cbc.html"];
  dir_e2055551f9690edcd7a289320e255a5b->dir_c4e2459386d59530bb52a07959089cbc [headlabel="6", labeldistance=1.5 headhref="dir_000302_000041.html"];
  dir_52d1a685606453a496bbd86bccccb9f3->dir_c4e2459386d59530bb52a07959089cbc [headlabel="2", labeldistance=1.5 headhref="dir_000351_000041.html"];
  dir_df6f029ffffeb6cee075424c620d8813->dir_9931a95e5f6af677ff54ad2d5c3cfe8c [headlabel="1", labeldistance=1.5 headhref="dir_000314_000311.html"];
  dir_9931a95e5f6af677ff54ad2d5c3cfe8c->dir_e2055551f9690edcd7a289320e255a5b [headlabel="19", labeldistance=1.5 headhref="dir_000311_000302.html"];
  dir_9931a95e5f6af677ff54ad2d5c3cfe8c->dir_52d1a685606453a496bbd86bccccb9f3 [headlabel="11", labeldistance=1.5 headhref="dir_000311_000351.html"];
  dir_9931a95e5f6af677ff54ad2d5c3cfe8c->dir_c4e2459386d59530bb52a07959089cbc [headlabel="8", labeldistance=1.5 headhref="dir_000311_000041.html"];
  dir_79d49885d373c7e2d7c9f8e4452c35b2->dir_e2055551f9690edcd7a289320e255a5b [headlabel="2", labeldistance=1.5 headhref="dir_000312_000302.html"];
  dir_79d49885d373c7e2d7c9f8e4452c35b2->dir_9931a95e5f6af677ff54ad2d5c3cfe8c [headlabel="3", labeldistance=1.5 headhref="dir_000312_000311.html"];
}
