digraph "Apps/Gimias/Core/IO/src/DataFormatObjects/NumericDataFile" {
  compound=true
  node [ fontsize="10", fontname="Helvetica"];
  edge [ labelfontsize="10", labelfontname="Helvetica"];
  subgraph clusterdir_4f222a9be6722be5a99e60716ca963f8 {
    graph [ bgcolor="#ddddee", pencolor="black", label="DataFormatObjects" fontname="Helvetica", fontsize="10", URL="dir_4f222a9be6722be5a99e60716ca963f8.html"]
  dir_feb5cdf86598aa41e0f16421a4bdb110 [shape=box, label="NumericDataFile", style="filled", fillcolor="#eeeeff", pencolor="black", URL="dir_feb5cdf86598aa41e0f16421a4bdb110.html"];
  }
  dir_ae30e5475d4ee29c13cc53f323cb4d05 [shape=box label="CommonObjects" fillcolor="white" style="filled" color="red" URL="dir_ae30e5475d4ee29c13cc53f323cb4d05.html"];
  dir_3368d9eebf2771a4bf02b7c5407b04c1 [shape=box label="DataHandling" fillcolor="white" style="filled" color="red" URL="dir_3368d9eebf2771a4bf02b7c5407b04c1.html"];
  dir_f2541a3b18981391fa76fac5599e978a [shape=box label="Modules" fillcolor="white" style="filled" color="red" URL="dir_f2541a3b18981391fa76fac5599e978a.html"];
  dir_ae30e5475d4ee29c13cc53f323cb4d05->dir_f2541a3b18981391fa76fac5599e978a [headlabel="1", labeldistance=1.5 headhref="dir_000003_000040.html"];
  dir_3368d9eebf2771a4bf02b7c5407b04c1->dir_ae30e5475d4ee29c13cc53f323cb4d05 [headlabel="28", labeldistance=1.5 headhref="dir_000006_000003.html"];
  dir_3368d9eebf2771a4bf02b7c5407b04c1->dir_f2541a3b18981391fa76fac5599e978a [headlabel="8", labeldistance=1.5 headhref="dir_000006_000040.html"];
  dir_feb5cdf86598aa41e0f16421a4bdb110->dir_ae30e5475d4ee29c13cc53f323cb4d05 [headlabel="1", labeldistance=1.5 headhref="dir_000013_000003.html"];
  dir_feb5cdf86598aa41e0f16421a4bdb110->dir_3368d9eebf2771a4bf02b7c5407b04c1 [headlabel="1", labeldistance=1.5 headhref="dir_000013_000006.html"];
  dir_feb5cdf86598aa41e0f16421a4bdb110->dir_f2541a3b18981391fa76fac5599e978a [headlabel="4", labeldistance=1.5 headhref="dir_000013_000040.html"];
}
