digraph "Apps/Gimias/GUI/Widgets/src/VisualProperties" {
  compound=true
  node [ fontsize="10", fontname="Helvetica"];
  edge [ labelfontsize="10", labelfontname="Helvetica"];
  subgraph clusterdir_a3cdf8adf4306091f92234f951b4f529 {
    graph [ bgcolor="#ddddee", pencolor="black", label="src" fontname="Helvetica", fontsize="10", URL="dir_a3cdf8adf4306091f92234f951b4f529.html"]
  dir_826ff2baaf49018dab9a06f00e9e746c [shape=box, label="VisualProperties", style="filled", fillcolor="#eeeeff", pencolor="black", URL="dir_826ff2baaf49018dab9a06f00e9e746c.html"];
  }
  dir_8f852b321eb6aeb4f78e66db1b219e06 [shape=box label="Core" fillcolor="white" style="filled" color="red" URL="dir_8f852b321eb6aeb4f78e66db1b219e06.html"];
  dir_f2541a3b18981391fa76fac5599e978a [shape=box label="Modules" fillcolor="white" style="filled" color="red" URL="dir_f2541a3b18981391fa76fac5599e978a.html"];
  dir_393d36f19eba10949c2fafcb7124fd7f [shape=box label="InputControl" URL="dir_393d36f19eba10949c2fafcb7124fd7f.html"];
  dir_59e3d6d6f24e689bb9d026243d3b7c46 [shape=box label="PluginTab" URL="dir_59e3d6d6f24e689bb9d026243d3b7c46.html"];
  dir_826ff2baaf49018dab9a06f00e9e746c->dir_8f852b321eb6aeb4f78e66db1b219e06 [headlabel="11", labeldistance=1.5 headhref="dir_000077_000002.html"];
  dir_826ff2baaf49018dab9a06f00e9e746c->dir_f2541a3b18981391fa76fac5599e978a [headlabel="2", labeldistance=1.5 headhref="dir_000077_000040.html"];
  dir_826ff2baaf49018dab9a06f00e9e746c->dir_393d36f19eba10949c2fafcb7124fd7f [headlabel="1", labeldistance=1.5 headhref="dir_000077_000057.html"];
  dir_826ff2baaf49018dab9a06f00e9e746c->dir_59e3d6d6f24e689bb9d026243d3b7c46 [headlabel="1", labeldistance=1.5 headhref="dir_000077_000064.html"];
  dir_8f852b321eb6aeb4f78e66db1b219e06->dir_f2541a3b18981391fa76fac5599e978a [headlabel="65", labeldistance=1.5 headhref="dir_000002_000040.html"];
  dir_f2541a3b18981391fa76fac5599e978a->dir_8f852b321eb6aeb4f78e66db1b219e06 [headlabel="3", labeldistance=1.5 headhref="dir_000040_000002.html"];
  dir_393d36f19eba10949c2fafcb7124fd7f->dir_8f852b321eb6aeb4f78e66db1b219e06 [headlabel="14", labeldistance=1.5 headhref="dir_000057_000002.html"];
  dir_393d36f19eba10949c2fafcb7124fd7f->dir_f2541a3b18981391fa76fac5599e978a [headlabel="1", labeldistance=1.5 headhref="dir_000057_000040.html"];
  dir_59e3d6d6f24e689bb9d026243d3b7c46->dir_826ff2baaf49018dab9a06f00e9e746c [headlabel="1", labeldistance=1.5 headhref="dir_000064_000077.html"];
  dir_59e3d6d6f24e689bb9d026243d3b7c46->dir_8f852b321eb6aeb4f78e66db1b219e06 [headlabel="23", labeldistance=1.5 headhref="dir_000064_000002.html"];
  dir_59e3d6d6f24e689bb9d026243d3b7c46->dir_f2541a3b18981391fa76fac5599e978a [headlabel="4", labeldistance=1.5 headhref="dir_000064_000040.html"];
  dir_59e3d6d6f24e689bb9d026243d3b7c46->dir_393d36f19eba10949c2fafcb7124fd7f [headlabel="1", labeldistance=1.5 headhref="dir_000064_000057.html"];
}
