digraph "Modules/BaseLib/libmodules/blPDAlignment/src" {
  compound=true
  node [ fontsize="10", fontname="Helvetica"];
  edge [ labelfontsize="10", labelfontname="Helvetica"];
  subgraph clusterdir_3533a998dacf1858ac711ac109abeba3 {
    graph [ bgcolor="#ddddee", pencolor="black", label="blPDAlignment" fontname="Helvetica", fontsize="10", URL="dir_3533a998dacf1858ac711ac109abeba3.html"]
  dir_a287786760332e2ea10a44e09b3a8789 [shape=box, label="src", style="filled", fillcolor="#eeeeff", pencolor="black", URL="dir_a287786760332e2ea10a44e09b3a8789.html"];
  }
  dir_fcfc0e77410d20d67c6c46c1367ed3a2 [shape=box label="blMath" fillcolor="white" style="filled" color="red" URL="dir_fcfc0e77410d20d67c6c46c1367ed3a2.html"];
  dir_806fdf2c81be501d4bb3c4f92d5a8a71 [shape=box label="include" URL="dir_806fdf2c81be501d4bb3c4f92d5a8a71.html"];
  dir_a287786760332e2ea10a44e09b3a8789->dir_fcfc0e77410d20d67c6c46c1367ed3a2 [headlabel="1", labeldistance=1.5 headhref="dir_000243_000229.html"];
  dir_a287786760332e2ea10a44e09b3a8789->dir_806fdf2c81be501d4bb3c4f92d5a8a71 [headlabel="7", labeldistance=1.5 headhref="dir_000243_000242.html"];
  dir_806fdf2c81be501d4bb3c4f92d5a8a71->dir_fcfc0e77410d20d67c6c46c1367ed3a2 [headlabel="6", labeldistance=1.5 headhref="dir_000242_000229.html"];
}
