digraph "Modules/MeshLib/libmodules/meTools/src" {
  compound=true
  node [ fontsize="10", fontname="Helvetica"];
  edge [ labelfontsize="10", labelfontname="Helvetica"];
  subgraph clusterdir_84cb5d84ca0812aba9538c9f1c4d05db {
    graph [ bgcolor="#ddddee", pencolor="black", label="meTools" fontname="Helvetica", fontsize="10", URL="dir_84cb5d84ca0812aba9538c9f1c4d05db.html"]
  dir_56993ab8b0c53f34e5c44adf1e936357 [shape=box, label="src", style="filled", fillcolor="#eeeeff", pencolor="black", URL="dir_56993ab8b0c53f34e5c44adf1e936357.html"];
  }
  dir_7b1cd2e5906fe98d615ba17e786f068b [shape=box label="BaseLib" fillcolor="white" style="filled" color="red" URL="dir_7b1cd2e5906fe98d615ba17e786f068b.html"];
  dir_cdc58325f4137005f57193ae1a03788e [shape=box label="mePolyline" fillcolor="white" style="filled" color="red" URL="dir_cdc58325f4137005f57193ae1a03788e.html"];
  dir_b354c263f218939b4ef6e5cba9bdd05e [shape=box label="include" URL="dir_b354c263f218939b4ef6e5cba9bdd05e.html"];
  dir_56993ab8b0c53f34e5c44adf1e936357->dir_7b1cd2e5906fe98d615ba17e786f068b [headlabel="10", labeldistance=1.5 headhref="dir_000338_000200.html"];
  dir_56993ab8b0c53f34e5c44adf1e936357->dir_cdc58325f4137005f57193ae1a03788e [headlabel="1", labeldistance=1.5 headhref="dir_000338_000333.html"];
  dir_56993ab8b0c53f34e5c44adf1e936357->dir_b354c263f218939b4ef6e5cba9bdd05e [headlabel="21", labeldistance=1.5 headhref="dir_000338_000337.html"];
  dir_b354c263f218939b4ef6e5cba9bdd05e->dir_7b1cd2e5906fe98d615ba17e786f068b [headlabel="10", labeldistance=1.5 headhref="dir_000337_000200.html"];
}
