digraph "Apps/Plugins/SandboxPlugin/widgets" {
  compound=true
  node [ fontsize="10", fontname="Helvetica"];
  edge [ labelfontsize="10", labelfontname="Helvetica"];
  subgraph clusterdir_7e1431844af119f4851f5596c5061fd6 {
    graph [ bgcolor="#ddddee", pencolor="black", label="SandboxPlugin" fontname="Helvetica", fontsize="10", URL="dir_7e1431844af119f4851f5596c5061fd6.html"]
  subgraph clusterdir_75539fda90f49dcf8f5afd2f3ed43425 {
    graph [ bgcolor="#eeeeff", pencolor="black", label="" URL="dir_75539fda90f49dcf8f5afd2f3ed43425.html"];
    dir_75539fda90f49dcf8f5afd2f3ed43425 [shape=plaintext label="widgets"];
    dir_c2a2ef04f4a2e1422d8af7f67038d2ab [shape=box label="SandboxPluginResamplePanelWidget" color="black" fillcolor="white" style="filled" URL="dir_c2a2ef04f4a2e1422d8af7f67038d2ab.html"];
    dir_c21d0d087e4d9ccc79d8c313f211e935 [shape=box label="SandboxPluginShapeScalePanelWidget" color="black" fillcolor="white" style="filled" URL="dir_c21d0d087e4d9ccc79d8c313f211e935.html"];
    dir_5494b9c7c325bb1bb6344647e8b7e117 [shape=box label="SandboxPluginSubtractPanelWidget" color="black" fillcolor="white" style="filled" URL="dir_5494b9c7c325bb1bb6344647e8b7e117.html"];
  }
  }
  dir_c411273c95983b3f451af76769f9fec2 [shape=box label="processors" URL="dir_c411273c95983b3f451af76769f9fec2.html"];
  dir_f2541a3b18981391fa76fac5599e978a [shape=box label="Modules" fillcolor="white" style="filled" color="red" URL="dir_f2541a3b18981391fa76fac5599e978a.html"];
  dir_9238def6ed406a42f9ab96d63b331333 [shape=box label="Gimias" fillcolor="white" style="filled" color="red" URL="dir_9238def6ed406a42f9ab96d63b331333.html"];
  dir_c411273c95983b3f451af76769f9fec2->dir_9238def6ed406a42f9ab96d63b331333 [headlabel="16", labeldistance=1.5 headhref="dir_000184_000001.html"];
  dir_c21d0d087e4d9ccc79d8c313f211e935->dir_c411273c95983b3f451af76769f9fec2 [headlabel="1", labeldistance=1.5 headhref="dir_000187_000184.html"];
  dir_c21d0d087e4d9ccc79d8c313f211e935->dir_f2541a3b18981391fa76fac5599e978a [headlabel="1", labeldistance=1.5 headhref="dir_000187_000040.html"];
  dir_c21d0d087e4d9ccc79d8c313f211e935->dir_9238def6ed406a42f9ab96d63b331333 [headlabel="2", labeldistance=1.5 headhref="dir_000187_000001.html"];
  dir_f2541a3b18981391fa76fac5599e978a->dir_9238def6ed406a42f9ab96d63b331333 [headlabel="3", labeldistance=1.5 headhref="dir_000040_000001.html"];
  dir_c2a2ef04f4a2e1422d8af7f67038d2ab->dir_c411273c95983b3f451af76769f9fec2 [headlabel="1", labeldistance=1.5 headhref="dir_000186_000184.html"];
  dir_c2a2ef04f4a2e1422d8af7f67038d2ab->dir_9238def6ed406a42f9ab96d63b331333 [headlabel="4", labeldistance=1.5 headhref="dir_000186_000001.html"];
  dir_9238def6ed406a42f9ab96d63b331333->dir_f2541a3b18981391fa76fac5599e978a [headlabel="181", labeldistance=1.5 headhref="dir_000001_000040.html"];
  dir_5494b9c7c325bb1bb6344647e8b7e117->dir_c411273c95983b3f451af76769f9fec2 [headlabel="1", labeldistance=1.5 headhref="dir_000188_000184.html"];
  dir_5494b9c7c325bb1bb6344647e8b7e117->dir_f2541a3b18981391fa76fac5599e978a [headlabel="2", labeldistance=1.5 headhref="dir_000188_000040.html"];
  dir_5494b9c7c325bb1bb6344647e8b7e117->dir_9238def6ed406a42f9ab96d63b331333 [headlabel="3", labeldistance=1.5 headhref="dir_000188_000001.html"];
}
