digraph "Modules/TpExtLib/libmodules/tpExtWxhttpEngine/src" {
  compound=true
  node [ fontsize="10", fontname="Helvetica"];
  edge [ labelfontsize="10", labelfontname="Helvetica"];
  subgraph clusterdir_0ee3aefa555bf965c53e93043a0e547c {
    graph [ bgcolor="#ddddee", pencolor="black", label="tpExtWxhttpEngine" fontname="Helvetica", fontsize="10", URL="dir_0ee3aefa555bf965c53e93043a0e547c.html"]
  subgraph clusterdir_51b17e7ad26042dd1adecafa2dfa1fb3 {
    graph [ bgcolor="#eeeeff", pencolor="black", label="" URL="dir_51b17e7ad26042dd1adecafa2dfa1fb3.html"];
    dir_51b17e7ad26042dd1adecafa2dfa1fb3 [shape=plaintext label="src"];
    dir_d5c68fcf066592eeef78d37e8ed5f8f3 [shape=box label="wx" color="black" fillcolor="white" style="filled" URL="dir_d5c68fcf066592eeef78d37e8ed5f8f3.html"];
  }
  }
  dir_51b17e7ad26042dd1adecafa2dfa1fb3->dir_d5c68fcf066592eeef78d37e8ed5f8f3 [headlabel="6", labeldistance=1.5 headhref="dir_000401_000402.html"];
}
