digraph "Modules/TpExtLib/Applications/NormalizeMaximumFilter" {
  compound=true
  node [ fontsize="10", fontname="Helvetica"];
  edge [ labelfontsize="10", labelfontname="Helvetica"];
  subgraph clusterdir_ec37bb7b81c67f83f980efb72f27f9b0 {
    graph [ bgcolor="#ddddee", pencolor="black", label="Applications" fontname="Helvetica", fontsize="10", URL="dir_ec37bb7b81c67f83f980efb72f27f9b0.html"]
  dir_fb382a63aa1968060214fc080057a922 [shape=box, label="NormalizeMaximumFilter", style="filled", fillcolor="#eeeeff", pencolor="black", URL="dir_fb382a63aa1968060214fc080057a922.html"];
  }
}
