digraph "Modules/WflLib" {
  compound=true
  node [ fontsize="10", fontname="Helvetica"];
  edge [ labelfontsize="10", labelfontname="Helvetica"];
  subgraph clusterdir_f2541a3b18981391fa76fac5599e978a {
    graph [ bgcolor="#ddddee", pencolor="black", label="Modules" fontname="Helvetica", fontsize="10", URL="dir_f2541a3b18981391fa76fac5599e978a.html"]
  subgraph clusterdir_0226e044a31de43aadfe7d27b18b6938 {
    graph [ bgcolor="#eeeeff", pencolor="black", label="" URL="dir_0226e044a31de43aadfe7d27b18b6938.html"];
    dir_0226e044a31de43aadfe7d27b18b6938 [shape=plaintext label="WflLib"];
    dir_547cbd6a7bec3dfbbc925b357e77d0b4 [shape=box label="applications" color="red" fillcolor="white" style="filled" URL="dir_547cbd6a7bec3dfbbc925b357e77d0b4.html"];
    dir_d896be7386a8cca043fba5452b4d8cda [shape=box label="libmodules" color="red" fillcolor="white" style="filled" URL="dir_d896be7386a8cca043fba5452b4d8cda.html"];
  }
  }
  dir_7b1cd2e5906fe98d615ba17e786f068b [shape=box label="BaseLib" fillcolor="white" style="filled" color="red" URL="dir_7b1cd2e5906fe98d615ba17e786f068b.html"];
  dir_d896be7386a8cca043fba5452b4d8cda->dir_7b1cd2e5906fe98d615ba17e786f068b [headlabel="8", labeldistance=1.5 headhref="dir_000416_000200.html"];
  dir_547cbd6a7bec3dfbbc925b357e77d0b4->dir_d896be7386a8cca043fba5452b4d8cda [headlabel="1", labeldistance=1.5 headhref="dir_000414_000416.html"];
}
