digraph "Modules/DynLib/libmodules/dynBase/src" {
  compound=true
  node [ fontsize="10", fontname="Helvetica"];
  edge [ labelfontsize="10", labelfontname="Helvetica"];
  subgraph clusterdir_32c22be396a0957356bf8d8b052d649e {
    graph [ bgcolor="#ddddee", pencolor="black", label="dynBase" fontname="Helvetica", fontsize="10", URL="dir_32c22be396a0957356bf8d8b052d649e.html"]
  dir_34bcbc58be25c4926a904cabb424fab9 [shape=box, label="src", style="filled", fillcolor="#eeeeff", pencolor="black", URL="dir_34bcbc58be25c4926a904cabb424fab9.html"];
  }
  dir_c4e2459386d59530bb52a07959089cbc [shape=box label="CILabMacros" fillcolor="white" style="filled" color="red" URL="dir_c4e2459386d59530bb52a07959089cbc.html"];
  dir_7b1cd2e5906fe98d615ba17e786f068b [shape=box label="BaseLib" fillcolor="white" style="filled" color="red" URL="dir_7b1cd2e5906fe98d615ba17e786f068b.html"];
  dir_7b1cd2e5906fe98d615ba17e786f068b->dir_c4e2459386d59530bb52a07959089cbc [headlabel="44", labeldistance=1.5 headhref="dir_000200_000041.html"];
  dir_34bcbc58be25c4926a904cabb424fab9->dir_c4e2459386d59530bb52a07959089cbc [headlabel="2", labeldistance=1.5 headhref="dir_000298_000041.html"];
  dir_34bcbc58be25c4926a904cabb424fab9->dir_7b1cd2e5906fe98d615ba17e786f068b [headlabel="14", labeldistance=1.5 headhref="dir_000298_000200.html"];
}
