digraph "Modules/TpExtLib/libmodules/tpExtBoost/src" {
  compound=true
  node [ fontsize="10", fontname="Helvetica"];
  edge [ labelfontsize="10", labelfontname="Helvetica"];
  subgraph clusterdir_f86674d0ef8afb7fe7699077f0060f96 {
    graph [ bgcolor="#ddddee", pencolor="black", label="tpExtBoost" fontname="Helvetica", fontsize="10", URL="dir_f86674d0ef8afb7fe7699077f0060f96.html"]
  subgraph clusterdir_42c6593978da37959b545bb029a65c9f {
    graph [ bgcolor="#eeeeff", pencolor="black", label="" URL="dir_42c6593978da37959b545bb029a65c9f.html"];
    dir_42c6593978da37959b545bb029a65c9f [shape=plaintext label="src"];
    dir_8a231c01a93f7ad73953bfd5bddd9a9d [shape=box label="boost" color="red" fillcolor="white" style="filled" URL="dir_8a231c01a93f7ad73953bfd5bddd9a9d.html"];
  }
  }
}
