digraph "Apps/Plugins/MeshEditorPlugin/processors" {
  compound=true
  node [ fontsize="10", fontname="Helvetica"];
  edge [ labelfontsize="10", labelfontname="Helvetica"];
  subgraph clusterdir_27fcf3f936487b2d208a676eacdb64d3 {
    graph [ bgcolor="#ddddee", pencolor="black", label="MeshEditorPlugin" fontname="Helvetica", fontsize="10", URL="dir_27fcf3f936487b2d208a676eacdb64d3.html"]
  dir_19aa2812416a35151f14cd4f95b40a64 [shape=box, label="processors", style="filled", fillcolor="#eeeeff", pencolor="black", URL="dir_19aa2812416a35151f14cd4f95b40a64.html"];
  }
  dir_f2541a3b18981391fa76fac5599e978a [shape=box label="Modules" fillcolor="white" style="filled" color="red" URL="dir_f2541a3b18981391fa76fac5599e978a.html"];
  dir_9238def6ed406a42f9ab96d63b331333 [shape=box label="Gimias" fillcolor="white" style="filled" color="red" URL="dir_9238def6ed406a42f9ab96d63b331333.html"];
  dir_f6b43f5b34321b7cbe9a98e5f3e6f8cf [shape=box label="MITKPlugin" fillcolor="white" style="filled" color="red" URL="dir_f6b43f5b34321b7cbe9a98e5f3e6f8cf.html"];
  dir_f2541a3b18981391fa76fac5599e978a->dir_9238def6ed406a42f9ab96d63b331333 [headlabel="3", labeldistance=1.5 headhref="dir_000040_000001.html"];
  dir_f2541a3b18981391fa76fac5599e978a->dir_f6b43f5b34321b7cbe9a98e5f3e6f8cf [headlabel="1", labeldistance=1.5 headhref="dir_000040_000153.html"];
  dir_9238def6ed406a42f9ab96d63b331333->dir_f2541a3b18981391fa76fac5599e978a [headlabel="181", labeldistance=1.5 headhref="dir_000001_000040.html"];
  dir_f6b43f5b34321b7cbe9a98e5f3e6f8cf->dir_f2541a3b18981391fa76fac5599e978a [headlabel="197", labeldistance=1.5 headhref="dir_000153_000040.html"];
  dir_f6b43f5b34321b7cbe9a98e5f3e6f8cf->dir_9238def6ed406a42f9ab96d63b331333 [headlabel="342", labeldistance=1.5 headhref="dir_000153_000001.html"];
  dir_19aa2812416a35151f14cd4f95b40a64->dir_f2541a3b18981391fa76fac5599e978a [headlabel="47", labeldistance=1.5 headhref="dir_000127_000040.html"];
  dir_19aa2812416a35151f14cd4f95b40a64->dir_9238def6ed406a42f9ab96d63b331333 [headlabel="133", labeldistance=1.5 headhref="dir_000127_000001.html"];
  dir_19aa2812416a35151f14cd4f95b40a64->dir_f6b43f5b34321b7cbe9a98e5f3e6f8cf [headlabel="26", labeldistance=1.5 headhref="dir_000127_000153.html"];
}
