digraph "Modules/TpExtLib/Applications/VFLog" {
  compound=true
  node [ fontsize="10", fontname="Helvetica"];
  edge [ labelfontsize="10", labelfontname="Helvetica"];
  subgraph clusterdir_ec37bb7b81c67f83f980efb72f27f9b0 {
    graph [ bgcolor="#ddddee", pencolor="black", label="Applications" fontname="Helvetica", fontsize="10", URL="dir_ec37bb7b81c67f83f980efb72f27f9b0.html"]
  dir_ff1e9e5a7afe88eddb7fc4fa4f1b8793 [shape=box, label="VFLog", style="filled", fillcolor="#eeeeff", pencolor="black", URL="dir_ff1e9e5a7afe88eddb7fc4fa4f1b8793.html"];
  }
  dir_9cc7e61590f92b1f126d3771e1cd2e7c [shape=box label="libmodules" fillcolor="white" style="filled" color="red" URL="dir_9cc7e61590f92b1f126d3771e1cd2e7c.html"];
  dir_ff1e9e5a7afe88eddb7fc4fa4f1b8793->dir_9cc7e61590f92b1f126d3771e1cd2e7c [headlabel="3", labeldistance=1.5 headhref="dir_000383_000390.html"];
}
