digraph "Apps/Plugins/SceneViewPlugin/tests" {
  compound=true
  node [ fontsize="10", fontname="Helvetica"];
  edge [ labelfontsize="10", labelfontname="Helvetica"];
  subgraph clusterdir_b9d3d7a276d3264ad9f34c5585ec8dee {
    graph [ bgcolor="#ddddee", pencolor="black", label="SceneViewPlugin" fontname="Helvetica", fontsize="10", URL="dir_b9d3d7a276d3264ad9f34c5585ec8dee.html"]
  dir_70d4a7608cc15b4d85aca2f452d446a9 [shape=box, label="tests", style="filled", fillcolor="#eeeeff", pencolor="black", URL="dir_70d4a7608cc15b4d85aca2f452d446a9.html"];
  }
}
