digraph "Apps/Plugins/MeshEditorPlugin/widgets/LocalRefinerWidget" {
  compound=true
  node [ fontsize="10", fontname="Helvetica"];
  edge [ labelfontsize="10", labelfontname="Helvetica"];
  subgraph clusterdir_a2dde329c8806f2a7607a5d8a345f2b9 {
    graph [ bgcolor="#ddddee", pencolor="black", label="widgets" fontname="Helvetica", fontsize="10", URL="dir_a2dde329c8806f2a7607a5d8a345f2b9.html"]
  dir_27556775e186035d6864acfd5b4cc864 [shape=box, label="LocalRefinerWidget", style="filled", fillcolor="#eeeeff", pencolor="black", URL="dir_27556775e186035d6864acfd5b4cc864.html"];
  }
  dir_f2541a3b18981391fa76fac5599e978a [shape=box label="Modules" fillcolor="white" style="filled" color="red" URL="dir_f2541a3b18981391fa76fac5599e978a.html"];
  dir_9238def6ed406a42f9ab96d63b331333 [shape=box label="Gimias" fillcolor="white" style="filled" color="red" URL="dir_9238def6ed406a42f9ab96d63b331333.html"];
  dir_f6b43f5b34321b7cbe9a98e5f3e6f8cf [shape=box label="MITKPlugin" fillcolor="white" style="filled" color="red" URL="dir_f6b43f5b34321b7cbe9a98e5f3e6f8cf.html"];
  dir_f2541a3b18981391fa76fac5599e978a->dir_9238def6ed406a42f9ab96d63b331333 [headlabel="3", labeldistance=1.5 headhref="dir_000040_000001.html"];
  dir_f2541a3b18981391fa76fac5599e978a->dir_f6b43f5b34321b7cbe9a98e5f3e6f8cf [headlabel="1", labeldistance=1.5 headhref="dir_000040_000153.html"];
  dir_27556775e186035d6864acfd5b4cc864->dir_f2541a3b18981391fa76fac5599e978a [headlabel="2", labeldistance=1.5 headhref="dir_000134_000040.html"];
  dir_27556775e186035d6864acfd5b4cc864->dir_9238def6ed406a42f9ab96d63b331333 [headlabel="2", labeldistance=1.5 headhref="dir_000134_000001.html"];
  dir_27556775e186035d6864acfd5b4cc864->dir_f6b43f5b34321b7cbe9a98e5f3e6f8cf [headlabel="1", labeldistance=1.5 headhref="dir_000134_000153.html"];
  dir_9238def6ed406a42f9ab96d63b331333->dir_f2541a3b18981391fa76fac5599e978a [headlabel="181", labeldistance=1.5 headhref="dir_000001_000040.html"];
  dir_f6b43f5b34321b7cbe9a98e5f3e6f8cf->dir_f2541a3b18981391fa76fac5599e978a [headlabel="197", labeldistance=1.5 headhref="dir_000153_000040.html"];
  dir_f6b43f5b34321b7cbe9a98e5f3e6f8cf->dir_9238def6ed406a42f9ab96d63b331333 [headlabel="342", labeldistance=1.5 headhref="dir_000153_000001.html"];
}
