digraph "Modules/BaseLib/libmodules/blCardioModel" {
  compound=true
  node [ fontsize="10", fontname="Helvetica"];
  edge [ labelfontsize="10", labelfontname="Helvetica"];
  subgraph clusterdir_aff680161753d160eeb13987c8db2168 {
    graph [ bgcolor="#ddddee", pencolor="black", label="libmodules" fontname="Helvetica", fontsize="10", URL="dir_aff680161753d160eeb13987c8db2168.html"]
  subgraph clusterdir_d4695c7f587b1d2d2d6bd92ea9d60f5c {
    graph [ bgcolor="#eeeeff", pencolor="black", label="" URL="dir_d4695c7f587b1d2d2d6bd92ea9d60f5c.html"];
    dir_d4695c7f587b1d2d2d6bd92ea9d60f5c [shape=plaintext label="blCardioModel"];
    dir_1c87f4d9dc849ac68b90e330177a97f6 [shape=box label="include" color="black" fillcolor="white" style="filled" URL="dir_1c87f4d9dc849ac68b90e330177a97f6.html"];
    dir_57065e617154ce671a60ddb5cdc9428d [shape=box label="src" color="black" fillcolor="white" style="filled" URL="dir_57065e617154ce671a60ddb5cdc9428d.html"];
  }
  }
  dir_c4e2459386d59530bb52a07959089cbc [shape=box label="CILabMacros" fillcolor="white" style="filled" color="red" URL="dir_c4e2459386d59530bb52a07959089cbc.html"];
  dir_c4f83991214d6d4f281a99d9422b8eb1 [shape=box label="blUtilitiesVTK" fillcolor="white" style="filled" color="red" URL="dir_c4f83991214d6d4f281a99d9422b8eb1.html"];
  dir_d0ac2a78b49953b43535320992f5bdfb [shape=box label="blCommon" fillcolor="white" style="filled" color="red" URL="dir_d0ac2a78b49953b43535320992f5bdfb.html"];
  dir_c4f83991214d6d4f281a99d9422b8eb1->dir_c4e2459386d59530bb52a07959089cbc [headlabel="6", labeldistance=1.5 headhref="dir_000262_000041.html"];
  dir_c4f83991214d6d4f281a99d9422b8eb1->dir_d0ac2a78b49953b43535320992f5bdfb [headlabel="7", labeldistance=1.5 headhref="dir_000262_000214.html"];
  dir_c4f83991214d6d4f281a99d9422b8eb1->dir_1c87f4d9dc849ac68b90e330177a97f6 [headlabel="1", labeldistance=1.5 headhref="dir_000262_000212.html"];
  dir_1c87f4d9dc849ac68b90e330177a97f6->dir_c4e2459386d59530bb52a07959089cbc [headlabel="1", labeldistance=1.5 headhref="dir_000212_000041.html"];
  dir_1c87f4d9dc849ac68b90e330177a97f6->dir_d0ac2a78b49953b43535320992f5bdfb [headlabel="2", labeldistance=1.5 headhref="dir_000212_000214.html"];
  dir_57065e617154ce671a60ddb5cdc9428d->dir_c4f83991214d6d4f281a99d9422b8eb1 [headlabel="2", labeldistance=1.5 headhref="dir_000213_000262.html"];
  dir_57065e617154ce671a60ddb5cdc9428d->dir_1c87f4d9dc849ac68b90e330177a97f6 [headlabel="2", labeldistance=1.5 headhref="dir_000213_000212.html"];
}
