digraph "Modules/PacsAPI/libmodules/pacsAPI/include" {
  compound=true
  node [ fontsize="10", fontname="Helvetica"];
  edge [ labelfontsize="10", labelfontname="Helvetica"];
  subgraph clusterdir_e9beda09c38d9f2ac1dfb74616b0d88a {
    graph [ bgcolor="#ddddee", pencolor="black", label="pacsAPI" fontname="Helvetica", fontsize="10", URL="dir_e9beda09c38d9f2ac1dfb74616b0d88a.html"]
  dir_c61d046037b0cdcb65ed571f0300628d [shape=box, label="include", style="filled", fillcolor="#eeeeff", pencolor="black", URL="dir_c61d046037b0cdcb65ed571f0300628d.html"];
  }
  dir_c4e2459386d59530bb52a07959089cbc [shape=box label="CILabMacros" fillcolor="white" style="filled" color="red" URL="dir_c4e2459386d59530bb52a07959089cbc.html"];
  dir_332044ff995043dd38354f32b6bc7c72 [shape=box label="DcmAPI" fillcolor="white" style="filled" color="red" URL="dir_332044ff995043dd38354f32b6bc7c72.html"];
  dir_332044ff995043dd38354f32b6bc7c72->dir_c4e2459386d59530bb52a07959089cbc [headlabel="11", labeldistance=1.5 headhref="dir_000280_000041.html"];
  dir_c61d046037b0cdcb65ed571f0300628d->dir_c4e2459386d59530bb52a07959089cbc [headlabel="1", labeldistance=1.5 headhref="dir_000347_000041.html"];
  dir_c61d046037b0cdcb65ed571f0300628d->dir_332044ff995043dd38354f32b6bc7c72 [headlabel="1", labeldistance=1.5 headhref="dir_000347_000280.html"];
}
