digraph "Modules/GuiBridgeLib/libmodules/guiBridgeLib/Test" {
  compound=true
  node [ fontsize="10", fontname="Helvetica"];
  edge [ labelfontsize="10", labelfontname="Helvetica"];
  subgraph clusterdir_e2055551f9690edcd7a289320e255a5b {
    graph [ bgcolor="#ddddee", pencolor="black", label="guiBridgeLib" fontname="Helvetica", fontsize="10", URL="dir_e2055551f9690edcd7a289320e255a5b.html"]
  subgraph clusterdir_c6dfc2892a336ae36c51ed0d7a55eeea {
    graph [ bgcolor="#eeeeff", pencolor="black", label="" URL="dir_c6dfc2892a336ae36c51ed0d7a55eeea.html"];
    dir_c6dfc2892a336ae36c51ed0d7a55eeea [shape=plaintext label="Test"];
    dir_e4f448c96a33410066550c55513b72dd [shape=box label="src" color="black" fillcolor="white" style="filled" URL="dir_e4f448c96a33410066550c55513b72dd.html"];
  }
  }
  dir_65cff4df6c742ca6d173b2f534113f68 [shape=box label="src" URL="dir_65cff4df6c742ca6d173b2f534113f68.html"];
  dir_e4f448c96a33410066550c55513b72dd->dir_65cff4df6c742ca6d173b2f534113f68 [headlabel="2", labeldistance=1.5 headhref="dir_000305_000303.html"];
}
