digraph "Apps/Plugins/SignalViewerPlugin/widgets/SignalTimePropagationPanelWidget" {
  compound=true
  node [ fontsize="10", fontname="Helvetica"];
  edge [ labelfontsize="10", labelfontname="Helvetica"];
  subgraph clusterdir_6806beef701f31004013249adba8a037 {
    graph [ bgcolor="#ddddee", pencolor="black", label="widgets" fontname="Helvetica", fontsize="10", URL="dir_6806beef701f31004013249adba8a037.html"]
  dir_7a07231921e4c7caea050c8a97bd32ed [shape=box, label="SignalTimePropagationPanelWidget", style="filled", fillcolor="#eeeeff", pencolor="black", URL="dir_7a07231921e4c7caea050c8a97bd32ed.html"];
  }
  dir_d1564b2e68837936d0fcf3010a63f59f [shape=box label="processors" URL="dir_d1564b2e68837936d0fcf3010a63f59f.html"];
  dir_f2541a3b18981391fa76fac5599e978a [shape=box label="Modules" fillcolor="white" style="filled" color="red" URL="dir_f2541a3b18981391fa76fac5599e978a.html"];
  dir_9238def6ed406a42f9ab96d63b331333 [shape=box label="Gimias" fillcolor="white" style="filled" color="red" URL="dir_9238def6ed406a42f9ab96d63b331333.html"];
  dir_d1564b2e68837936d0fcf3010a63f59f->dir_f2541a3b18981391fa76fac5599e978a [headlabel="8", labeldistance=1.5 headhref="dir_000192_000040.html"];
  dir_d1564b2e68837936d0fcf3010a63f59f->dir_9238def6ed406a42f9ab96d63b331333 [headlabel="30", labeldistance=1.5 headhref="dir_000192_000001.html"];
  dir_f2541a3b18981391fa76fac5599e978a->dir_9238def6ed406a42f9ab96d63b331333 [headlabel="3", labeldistance=1.5 headhref="dir_000040_000001.html"];
  dir_9238def6ed406a42f9ab96d63b331333->dir_f2541a3b18981391fa76fac5599e978a [headlabel="181", labeldistance=1.5 headhref="dir_000001_000040.html"];
  dir_7a07231921e4c7caea050c8a97bd32ed->dir_d1564b2e68837936d0fcf3010a63f59f [headlabel="1", labeldistance=1.5 headhref="dir_000196_000192.html"];
  dir_7a07231921e4c7caea050c8a97bd32ed->dir_f2541a3b18981391fa76fac5599e978a [headlabel="1", labeldistance=1.5 headhref="dir_000196_000040.html"];
  dir_7a07231921e4c7caea050c8a97bd32ed->dir_9238def6ed406a42f9ab96d63b331333 [headlabel="2", labeldistance=1.5 headhref="dir_000196_000001.html"];
}
