digraph "Modules/TpExtLib/libmodules/tpExtITK/src" {
  compound=true
  node [ fontsize="10", fontname="Helvetica"];
  edge [ labelfontsize="10", labelfontname="Helvetica"];
  subgraph clusterdir_14dcbbd9b40e82b36168a67b018de31c {
    graph [ bgcolor="#ddddee", pencolor="black", label="tpExtITK" fontname="Helvetica", fontsize="10", URL="dir_14dcbbd9b40e82b36168a67b018de31c.html"]
  dir_e502a79cee82949049bf529c241f6623 [shape=box, label="src", style="filled", fillcolor="#eeeeff", pencolor="black", URL="dir_e502a79cee82949049bf529c241f6623.html"];
  }
}
