digraph "Modules/wxMitk/libmodules/wxMitkRendering" {
  compound=true
  node [ fontsize="10", fontname="Helvetica"];
  edge [ labelfontsize="10", labelfontname="Helvetica"];
  subgraph clusterdir_561fc3fa99068fbd5ed57138d364cff9 {
    graph [ bgcolor="#ddddee", pencolor="black", label="libmodules" fontname="Helvetica", fontsize="10", URL="dir_561fc3fa99068fbd5ed57138d364cff9.html"]
  subgraph clusterdir_57333d4bc3b1a49b701b2223ac0eeb3f {
    graph [ bgcolor="#eeeeff", pencolor="black", label="" URL="dir_57333d4bc3b1a49b701b2223ac0eeb3f.html"];
    dir_57333d4bc3b1a49b701b2223ac0eeb3f [shape=plaintext label="wxMitkRendering"];
    dir_a3381dd456103bdcc77787c589fccd6d [shape=box label="include" color="black" fillcolor="white" style="filled" URL="dir_a3381dd456103bdcc77787c589fccd6d.html"];
    dir_af7597a42c3437fd9d58111958e43817 [shape=box label="src" color="black" fillcolor="white" style="filled" URL="dir_af7597a42c3437fd9d58111958e43817.html"];
  }
  }
  dir_52d1a685606453a496bbd86bccccb9f3 [shape=box label="TpExtLib" fillcolor="white" style="filled" color="red" URL="dir_52d1a685606453a496bbd86bccccb9f3.html"];
  dir_af7597a42c3437fd9d58111958e43817->dir_52d1a685606453a496bbd86bccccb9f3 [headlabel="2", labeldistance=1.5 headhref="dir_000435_000351.html"];
  dir_af7597a42c3437fd9d58111958e43817->dir_a3381dd456103bdcc77787c589fccd6d [headlabel="25", labeldistance=1.5 headhref="dir_000435_000434.html"];
  dir_a3381dd456103bdcc77787c589fccd6d->dir_52d1a685606453a496bbd86bccccb9f3 [headlabel="2", labeldistance=1.5 headhref="dir_000434_000351.html"];
}
