digraph "Modules/TpExtLib/libmodules/tpWebUpdate/src/download.cpp"
{
  edge [fontname="Helvetica",fontsize="10",labelfontname="Helvetica",labelfontsize="10"];
  node [fontname="Helvetica",fontsize="10",shape=record];
  Node1 [label="Modules/TpExtLib/libmodules\l/tpWebUpdate/src/download.cpp",height=0.2,width=0.4,color="black", fillcolor="grey75", style="filled", fontcolor="black"];
  Node1 -> Node2 [color="midnightblue",fontsize="10",style="solid",fontname="Helvetica"];
  Node2 [label="wx/wxprec.h",height=0.2,width=0.4,color="grey75", fillcolor="white", style="filled"];
  Node1 -> Node3 [color="midnightblue",fontsize="10",style="solid",fontname="Helvetica"];
  Node3 [label="wx/log.h",height=0.2,width=0.4,color="grey75", fillcolor="white", style="filled"];
  Node1 -> Node4 [color="midnightblue",fontsize="10",style="solid",fontname="Helvetica"];
  Node4 [label="wx/download.h",height=0.2,width=0.4,color="black", fillcolor="white", style="filled",URL="$download_8h.html"];
  Node4 -> Node5 [color="midnightblue",fontsize="10",style="solid",fontname="Helvetica"];
  Node5 [label="wx/webupdatedef.h",height=0.2,width=0.4,color="black", fillcolor="white", style="filled",URL="$webupdatedef_8h.html"];
  Node5 -> Node6 [color="midnightblue",fontsize="10",style="solid",fontname="Helvetica"];
  Node6 [label="tpExtLibWxWebUpdateWin32\lHeader.h",height=0.2,width=0.4,color="grey75", fillcolor="white", style="filled"];
  Node4 -> Node7 [color="midnightblue",fontsize="10",style="solid",fontname="Helvetica"];
  Node7 [label="wx/url.h",height=0.2,width=0.4,color="grey75", fillcolor="white", style="filled"];
  Node4 -> Node8 [color="midnightblue",fontsize="10",style="solid",fontname="Helvetica"];
  Node8 [label="wx/datetime.h",height=0.2,width=0.4,color="grey75", fillcolor="white", style="filled"];
  Node1 -> Node9 [color="midnightblue",fontsize="10",style="solid",fontname="Helvetica"];
  Node9 [label="wx/webupdate.h",height=0.2,width=0.4,color="black", fillcolor="white", style="filled",URL="$webupdate_8h.html"];
  Node9 -> Node5 [color="midnightblue",fontsize="10",style="solid",fontname="Helvetica"];
  Node9 -> Node10 [color="midnightblue",fontsize="10",style="solid",fontname="Helvetica"];
  Node10 [label="wx/xml/xml.h",height=0.2,width=0.4,color="grey75", fillcolor="white", style="filled"];
  Node9 -> Node7 [color="midnightblue",fontsize="10",style="solid",fontname="Helvetica"];
  Node9 -> Node3 [color="midnightblue",fontsize="10",style="solid",fontname="Helvetica"];
  Node9 -> Node11 [color="midnightblue",fontsize="10",style="solid",fontname="Helvetica"];
  Node11 [label="wx/textfile.h",height=0.2,width=0.4,color="grey75", fillcolor="white", style="filled"];
  Node1 -> Node12 [color="midnightblue",fontsize="10",style="solid",fontname="Helvetica"];
  Node12 [label="wx/wfstream.h",height=0.2,width=0.4,color="grey75", fillcolor="white", style="filled"];
  Node1 -> Node13 [color="midnightblue",fontsize="10",style="solid",fontname="Helvetica"];
  Node13 [label="wx/filename.h",height=0.2,width=0.4,color="grey75", fillcolor="white", style="filled"];
}
