digraph "Modules/DynLib/Applications/dynAppWxAGUI/dynAppWxAGUI.cxx"
{
  edge [fontname="Helvetica",fontsize="10",labelfontname="Helvetica",labelfontsize="10"];
  node [fontname="Helvetica",fontsize="10",shape=record];
  Node1 [label="Modules/DynLib/Applications\l/dynAppWxAGUI/dynAppWxAGUI.cxx",height=0.2,width=0.4,color="black", fillcolor="grey75", style="filled", fontcolor="black"];
  Node1 -> Node2 [color="midnightblue",fontsize="10",style="solid",fontname="Helvetica"];
  Node2 [label="wx/wxprec.h",height=0.2,width=0.4,color="grey75", fillcolor="white", style="filled"];
  Node1 -> Node3 [color="midnightblue",fontsize="10",style="solid",fontname="Helvetica"];
  Node3 [label="wx/wx.h",height=0.2,width=0.4,color="grey75", fillcolor="white", style="filled"];
  Node1 -> Node4 [color="midnightblue",fontsize="10",style="solid",fontname="Helvetica"];
  Node4 [label="dynAppWxAGUI.h",height=0.2,width=0.4,color="black", fillcolor="white", style="filled",URL="$dynAppWxAGUI_8h.html"];
  Node4 -> Node5 [color="midnightblue",fontsize="10",style="solid",fontname="Helvetica"];
  Node5 [label="wx/app.h",height=0.2,width=0.4,color="grey75", fillcolor="white", style="filled"];
  Node4 -> Node6 [color="midnightblue",fontsize="10",style="solid",fontname="Helvetica"];
  Node6 [label="dynWxAGUIBuilder.h",height=0.2,width=0.4,color="black", fillcolor="white", style="filled",URL="$dynWxAGUIBuilder_8h.html"];
  Node6 -> Node7 [color="midnightblue",fontsize="10",style="solid",fontname="Helvetica"];
  Node7 [label="DynWxAGUILibWin32Header.h",height=0.2,width=0.4,color="grey75", fillcolor="white", style="filled"];
  Node6 -> Node8 [color="midnightblue",fontsize="10",style="solid",fontname="Helvetica"];
  Node8 [label="ModuleDescription.h",height=0.2,width=0.4,color="grey75", fillcolor="white", style="filled"];
  Node6 -> Node9 [color="midnightblue",fontsize="10",style="solid",fontname="Helvetica"];
  Node9 [label="dynWxGUIUpdater.h",height=0.2,width=0.4,color="black", fillcolor="white", style="filled",URL="$dynWxGUIUpdater_8h.html"];
  Node9 -> Node7 [color="midnightblue",fontsize="10",style="solid",fontname="Helvetica"];
  Node9 -> Node8 [color="midnightblue",fontsize="10",style="solid",fontname="Helvetica"];
  Node9 -> Node10 [color="midnightblue",fontsize="10",style="solid",fontname="Helvetica"];
  Node10 [label="list",height=0.2,width=0.4,color="grey75", fillcolor="white", style="filled"];
  Node9 -> Node11 [color="midnightblue",fontsize="10",style="solid",fontname="Helvetica"];
  Node11 [label="gblWxBridgeLib.h",height=0.2,width=0.4,color="black", fillcolor="white", style="filled",URL="$gblWxBridgeLib_8h.html"];
  Node11 -> Node12 [color="midnightblue",fontsize="10",style="solid",fontname="Helvetica"];
  Node12 [label="gblWxConnectorOfWidgetChanges\lToSlotFunction.h",height=0.2,width=0.4,color="red", fillcolor="white", style="filled",URL="$gblWxConnectorOfWidgetChangesToSlotFunction_8h.html"];
  Node12 -> Node13 [color="midnightblue",fontsize="10",style="solid",fontname="Helvetica"];
  Node13 [label="boost/bind.hpp",height=0.2,width=0.4,color="grey75", fillcolor="white", style="filled"];
  Node12 -> Node14 [color="midnightblue",fontsize="10",style="solid",fontname="Helvetica"];
  Node14 [label="CILabNamespaceMacros.h",height=0.2,width=0.4,color="black", fillcolor="white", style="filled",URL="$CILabNamespaceMacros_8h.html"];
  Node12 -> Node3 [color="midnightblue",fontsize="10",style="solid",fontname="Helvetica"];
  Node11 -> Node15 [color="midnightblue",fontsize="10",style="solid",fontname="Helvetica"];
  Node15 [label="gblWxTextCtrlValueProxy.h",height=0.2,width=0.4,color="red", fillcolor="white", style="filled",URL="$gblWxTextCtrlValueProxy_8h.html"];
  Node15 -> Node3 [color="midnightblue",fontsize="10",style="solid",fontname="Helvetica"];
  Node11 -> Node16 [color="midnightblue",fontsize="10",style="solid",fontname="Helvetica"];
  Node16 [label="gblWxRadioButtonValueProxy.h",height=0.2,width=0.4,color="red", fillcolor="white", style="filled",URL="$gblWxRadioButtonValueProxy_8h.html"];
  Node16 -> Node3 [color="midnightblue",fontsize="10",style="solid",fontname="Helvetica"];
  Node11 -> Node17 [color="midnightblue",fontsize="10",style="solid",fontname="Helvetica"];
  Node17 [label="gblWxRadioBoxValueProxy.h",height=0.2,width=0.4,color="red", fillcolor="white", style="filled",URL="$gblWxRadioBoxValueProxy_8h.html"];
  Node17 -> Node3 [color="midnightblue",fontsize="10",style="solid",fontname="Helvetica"];
  Node11 -> Node18 [color="midnightblue",fontsize="10",style="solid",fontname="Helvetica"];
  Node18 [label="gblWxToggleButtonValueProxy.h",height=0.2,width=0.4,color="red", fillcolor="white", style="filled",URL="$gblWxToggleButtonValueProxy_8h.html"];
  Node18 -> Node3 [color="midnightblue",fontsize="10",style="solid",fontname="Helvetica"];
  Node11 -> Node19 [color="midnightblue",fontsize="10",style="solid",fontname="Helvetica"];
  Node19 [label="gblWxListBoxValueProxy.h",height=0.2,width=0.4,color="red", fillcolor="white", style="filled",URL="$gblWxListBoxValueProxy_8h.html"];
  Node19 -> Node3 [color="midnightblue",fontsize="10",style="solid",fontname="Helvetica"];
  Node11 -> Node20 [color="midnightblue",fontsize="10",style="solid",fontname="Helvetica"];
  Node20 [label="gblWxComboBoxValueProxy.h",height=0.2,width=0.4,color="red", fillcolor="white", style="filled",URL="$gblWxComboBoxValueProxy_8h.html"];
  Node20 -> Node3 [color="midnightblue",fontsize="10",style="solid",fontname="Helvetica"];
  Node11 -> Node21 [color="midnightblue",fontsize="10",style="solid",fontname="Helvetica"];
  Node21 [label="gblWxChoiceValueProxy.h",height=0.2,width=0.4,color="red", fillcolor="white", style="filled",URL="$gblWxChoiceValueProxy_8h.html"];
  Node21 -> Node3 [color="midnightblue",fontsize="10",style="solid",fontname="Helvetica"];
  Node11 -> Node22 [color="midnightblue",fontsize="10",style="solid",fontname="Helvetica"];
  Node22 [label="gblWxCheckBoxValueProxy.h",height=0.2,width=0.4,color="red", fillcolor="white", style="filled",URL="$gblWxCheckBoxValueProxy_8h.html"];
  Node22 -> Node3 [color="midnightblue",fontsize="10",style="solid",fontname="Helvetica"];
  Node11 -> Node23 [color="midnightblue",fontsize="10",style="solid",fontname="Helvetica"];
  Node23 [label="gblWxCheckableControlValue\lProxy.h",height=0.2,width=0.4,color="red", fillcolor="white", style="filled",URL="$gblWxCheckableControlValueProxy_8h.html"];
  Node23 -> Node3 [color="midnightblue",fontsize="10",style="solid",fontname="Helvetica"];
  Node11 -> Node24 [color="midnightblue",fontsize="10",style="solid",fontname="Helvetica"];
  Node24 [label="gblBridge.h",height=0.2,width=0.4,color="red", fillcolor="white", style="filled",URL="$gblBridge_8h.html"];
  Node24 -> Node13 [color="midnightblue",fontsize="10",style="solid",fontname="Helvetica"];
  Node24 -> Node25 [color="midnightblue",fontsize="10",style="solid",fontname="Helvetica"];
  Node25 [label="string",height=0.2,width=0.4,color="grey75", fillcolor="white", style="filled"];
  Node24 -> Node14 [color="midnightblue",fontsize="10",style="solid",fontname="Helvetica"];
  Node11 -> Node26 [color="midnightblue",fontsize="10",style="solid",fontname="Helvetica"];
  Node26 [label="gblWxButtonEventProxy.h",height=0.2,width=0.4,color="red", fillcolor="white", style="filled",URL="$gblWxButtonEventProxy_8h.html"];
  Node26 -> Node24 [color="midnightblue",fontsize="10",style="solid",fontname="Helvetica"];
  Node11 -> Node27 [color="midnightblue",fontsize="10",style="solid",fontname="Helvetica"];
  Node27 [label="gblWxChoiceBookValueProxy.h",height=0.2,width=0.4,color="red", fillcolor="white", style="filled",URL="$gblWxChoiceBookValueProxy_8h.html"];
  Node27 -> Node3 [color="midnightblue",fontsize="10",style="solid",fontname="Helvetica"];
  Node27 -> Node27 [color="midnightblue",fontsize="10",style="solid",fontname="Helvetica"];
  Node11 -> Node28 [color="midnightblue",fontsize="10",style="solid",fontname="Helvetica"];
  Node28 [label="gblWxValidate.h",height=0.2,width=0.4,color="red", fillcolor="white", style="filled",URL="$gblWxValidate_8h.html"];
  Node28 -> Node14 [color="midnightblue",fontsize="10",style="solid",fontname="Helvetica"];
  Node11 -> Node29 [color="midnightblue",fontsize="10",style="solid",fontname="Helvetica"];
  Node29 [label="gblWxSliderValueProxy.h",height=0.2,width=0.4,color="red", fillcolor="white", style="filled",URL="$gblWxSliderValueProxy_8h.html"];
  Node29 -> Node3 [color="midnightblue",fontsize="10",style="solid",fontname="Helvetica"];
  Node11 -> Node30 [color="midnightblue",fontsize="10",style="solid",fontname="Helvetica"];
  Node30 [label="gblWxFloatSliderValueProxy.h",height=0.2,width=0.4,color="red", fillcolor="white", style="filled",URL="$gblWxFloatSliderValueProxy_8h.html"];
  Node30 -> Node3 [color="midnightblue",fontsize="10",style="solid",fontname="Helvetica"];
  Node11 -> Node31 [color="midnightblue",fontsize="10",style="solid",fontname="Helvetica"];
  Node31 [label="gblWxSliderWithTextValue\lProxy.h",height=0.2,width=0.4,color="red", fillcolor="white", style="filled",URL="$gblWxSliderWithTextValueProxy_8h.html"];
  Node31 -> Node3 [color="midnightblue",fontsize="10",style="solid",fontname="Helvetica"];
  Node9 -> Node32 [color="midnightblue",fontsize="10",style="solid",fontname="Helvetica"];
  Node32 [label="blLightObject.h",height=0.2,width=0.4,color="black", fillcolor="white", style="filled",URL="$blLightObject_8h.html"];
  Node32 -> Node33 [color="midnightblue",fontsize="10",style="solid",fontname="Helvetica"];
  Node33 [label="blMacro.h",height=0.2,width=0.4,color="black", fillcolor="white", style="filled",URL="$blMacro_8h.html"];
  Node32 -> Node34 [color="midnightblue",fontsize="10",style="solid",fontname="Helvetica"];
  Node34 [label="blSmartPointer.h",height=0.2,width=0.4,color="black", fillcolor="white", style="filled",URL="$blSmartPointer_8h.html"];
  Node32 -> Node35 [color="midnightblue",fontsize="10",style="solid",fontname="Helvetica"];
  Node35 [label="BaseLibWin32Header.h",height=0.2,width=0.4,color="grey75", fillcolor="white", style="filled"];
  Node9 -> Node34 [color="midnightblue",fontsize="10",style="solid",fontname="Helvetica"];
  Node6 -> Node36 [color="midnightblue",fontsize="10",style="solid",fontname="Helvetica"];
  Node36 [label="dynBasePanel.h",height=0.2,width=0.4,color="black", fillcolor="white", style="filled",URL="$dynBasePanel_8h.html"];
  Node36 -> Node37 [color="midnightblue",fontsize="10",style="solid",fontname="Helvetica"];
  Node37 [label="dynBasePanelUI.h",height=0.2,width=0.4,color="black", fillcolor="white", style="filled",URL="$dynBasePanelUI_8h.html"];
  Node37 -> Node3 [color="midnightblue",fontsize="10",style="solid",fontname="Helvetica"];
  Node37 -> Node38 [color="midnightblue",fontsize="10",style="solid",fontname="Helvetica"];
  Node38 [label="wx/image.h",height=0.2,width=0.4,color="grey75", fillcolor="white", style="filled"];
  Node36 -> Node9 [color="midnightblue",fontsize="10",style="solid",fontname="Helvetica"];
  Node36 -> Node39 [color="midnightblue",fontsize="10",style="solid",fontname="Helvetica"];
  Node39 [label="wx/collpane.h",height=0.2,width=0.4,color="grey75", fillcolor="white", style="filled"];
  Node36 -> Node40 [color="midnightblue",fontsize="10",style="solid",fontname="Helvetica"];
  Node40 [label="wxID.h",height=0.2,width=0.4,color="black", fillcolor="white", style="filled",URL="$wxID_8h.html"];
  Node40 -> Node25 [color="midnightblue",fontsize="10",style="solid",fontname="Helvetica"];
  Node40 -> Node41 [color="midnightblue",fontsize="10",style="solid",fontname="Helvetica"];
  Node41 [label="TpExtLibWxWidgetsWin32Header.h",height=0.2,width=0.4,color="grey75", fillcolor="white", style="filled"];
  Node6 -> Node42 [color="midnightblue",fontsize="10",style="solid",fontname="Helvetica"];
  Node42 [label="dynWxControlFactory.h",height=0.2,width=0.4,color="black", fillcolor="white", style="filled",URL="$dynWxControlFactory_8h.html"];
  Node42 -> Node7 [color="midnightblue",fontsize="10",style="solid",fontname="Helvetica"];
  Node42 -> Node43 [color="midnightblue",fontsize="10",style="solid",fontname="Helvetica"];
  Node43 [label="dynWxControlFactoryBase.h",height=0.2,width=0.4,color="black", fillcolor="white", style="filled",URL="$dynWxControlFactoryBase_8h.html"];
  Node43 -> Node7 [color="midnightblue",fontsize="10",style="solid",fontname="Helvetica"];
  Node43 -> Node8 [color="midnightblue",fontsize="10",style="solid",fontname="Helvetica"];
  Node43 -> Node36 [color="midnightblue",fontsize="10",style="solid",fontname="Helvetica"];
  Node1 -> Node44 [color="midnightblue",fontsize="10",style="solid",fontname="Helvetica"];
  Node44 [label="ModuleDescriptionParser.h",height=0.2,width=0.4,color="grey75", fillcolor="white", style="filled"];
  Node1 -> Node45 [color="midnightblue",fontsize="10",style="solid",fontname="Helvetica"];
  Node45 [label="ModuleFactory.h",height=0.2,width=0.4,color="grey75", fillcolor="white", style="filled"];
  Node1 -> Node46 [color="midnightblue",fontsize="10",style="solid",fontname="Helvetica"];
  Node46 [label="CISTIBToolkit.h",height=0.2,width=0.4,color="grey75", fillcolor="white", style="filled"];
  Node1 -> Node47 [color="midnightblue",fontsize="10",style="solid",fontname="Helvetica"];
  Node47 [label="stdlib.h",height=0.2,width=0.4,color="grey75", fillcolor="white", style="filled"];
  Node1 -> Node48 [color="midnightblue",fontsize="10",style="solid",fontname="Helvetica"];
  Node48 [label="stdio.h",height=0.2,width=0.4,color="grey75", fillcolor="white", style="filled"];
  Node1 -> Node49 [color="midnightblue",fontsize="10",style="solid",fontname="Helvetica"];
  Node49 [label="iostream",height=0.2,width=0.4,color="grey75", fillcolor="white", style="filled"];
  Node1 -> Node50 [color="midnightblue",fontsize="10",style="solid",fontname="Helvetica"];
  Node50 [label="fstream",height=0.2,width=0.4,color="grey75", fillcolor="white", style="filled"];
}
