digraph "Modules/DynLib/libmodules/dynBase/src/dynFilterIFace.h"
{
  edge [fontname="Helvetica",fontsize="10",labelfontname="Helvetica",labelfontsize="10"];
  node [fontname="Helvetica",fontsize="10",shape=record];
  Node1 [label="Modules/DynLib/libmodules\l/dynBase/src/dynFilterIFace.h",height=0.2,width=0.4,color="black", fillcolor="grey75", style="filled", fontcolor="black"];
  Node1 -> Node2 [dir="back",color="midnightblue",fontsize="10",style="solid",fontname="Helvetica"];
  Node2 [label="Modules/DynLib/libmodules\l/dynBase/src/dynFilter.cpp",height=0.2,width=0.4,color="black", fillcolor="white", style="filled",URL="$dynFilter_8cpp.html"];
  Node1 -> Node3 [dir="back",color="midnightblue",fontsize="10",style="solid",fontname="Helvetica"];
  Node3 [label="Modules/DynLib/libmodules\l/dynBase/src/dynItkFilterIFace.h",height=0.2,width=0.4,color="black", fillcolor="white", style="filled",URL="$dynItkFilterIFace_8h.html"];
  Node3 -> Node4 [dir="back",color="midnightblue",fontsize="10",style="solid",fontname="Helvetica"];
  Node4 [label="Modules/DynLib/libmodules\l/dynBase/src/dynItkFilter.h",height=0.2,width=0.4,color="black", fillcolor="white", style="filled",URL="$dynItkFilter_8h.html"];
  Node4 -> Node5 [dir="back",color="midnightblue",fontsize="10",style="solid",fontname="Helvetica"];
  Node5 [label="Modules/DynLib/libmodules\l/dynBase/src/dynItkFilter.cpp",height=0.2,width=0.4,color="black", fillcolor="white", style="filled",URL="$dynItkFilter_8cpp.html"];
  Node4 -> Node6 [dir="back",color="midnightblue",fontsize="10",style="solid",fontname="Helvetica"];
  Node6 [label="Modules/DynLib/libmodules\l/dynBase/src/dynModuleExecution\lDLL.cpp",height=0.2,width=0.4,color="black", fillcolor="white", style="filled",URL="$dynModuleExecutionDLL_8cpp.html"];
  Node1 -> Node7 [dir="back",color="midnightblue",fontsize="10",style="solid",fontname="Helvetica"];
  Node7 [label="Modules/DynLib/libmodules\l/dynBase/src/dynVtkFilterIFace.h",height=0.2,width=0.4,color="black", fillcolor="white", style="filled",URL="$dynVtkFilterIFace_8h.html"];
  Node7 -> Node8 [dir="back",color="midnightblue",fontsize="10",style="solid",fontname="Helvetica"];
  Node8 [label="Modules/DynLib/libmodules\l/dynBase/src/dynVtkFilter.cpp",height=0.2,width=0.4,color="black", fillcolor="white", style="filled",URL="$dynVtkFilter_8cpp.html"];
}
