digraph "Modules/DynLib/libmodules/dynBase/src/dynLibImplLinux.h"
{
  edge [fontname="Helvetica",fontsize="10",labelfontname="Helvetica",labelfontsize="10"];
  node [fontname="Helvetica",fontsize="10",shape=record];
  Node1 [label="Modules/DynLib/libmodules\l/dynBase/src/dynLibImplLinux.h",height=0.2,width=0.4,color="black", fillcolor="grey75", style="filled", fontcolor="black"];
  Node1 -> Node2 [dir="back",color="midnightblue",fontsize="10",style="solid",fontname="Helvetica"];
  Node2 [label="Modules/DynLib/libmodules\l/dynBase/src/dynLib.cpp",height=0.2,width=0.4,color="black", fillcolor="white", style="filled",URL="$dynLib_8cpp.html"];
  Node1 -> Node3 [dir="back",color="midnightblue",fontsize="10",style="solid",fontname="Helvetica"];
  Node3 [label="Modules/DynLib/libmodules\l/dynBase/src/dynLibImplLinux.cpp",height=0.2,width=0.4,color="black", fillcolor="white", style="filled",URL="$dynLibImplLinux_8cpp.html"];
}
