digraph "Modules/DynLib/libmodules/dynBase/src/dynModuleExecutionCLPExe.h"
{
  edge [fontname="Helvetica",fontsize="10",labelfontname="Helvetica",labelfontsize="10"];
  node [fontname="Helvetica",fontsize="10",shape=record];
  Node1 [label="Modules/DynLib/libmodules\l/dynBase/src/dynModuleExecution\lCLPExe.h",height=0.2,width=0.4,color="black", fillcolor="grey75", style="filled", fontcolor="black"];
  Node1 -> Node2 [dir="back",color="midnightblue",fontsize="10",style="solid",fontname="Helvetica"];
  Node2 [label="Modules/DynLib/libmodules\l/dynBase/src/dynModuleExecution.cpp",height=0.2,width=0.4,color="black", fillcolor="white", style="filled",URL="$dynModuleExecution_8cpp.html"];
  Node1 -> Node3 [dir="back",color="midnightblue",fontsize="10",style="solid",fontname="Helvetica"];
  Node3 [label="Modules/DynLib/libmodules\l/dynBase/src/dynModuleExecution\lExternalApp.h",height=0.2,width=0.4,color="black", fillcolor="white", style="filled",URL="$dynModuleExecutionExternalApp_8h.html"];
  Node3 -> Node2 [dir="back",color="midnightblue",fontsize="10",style="solid",fontname="Helvetica"];
  Node3 -> Node4 [dir="back",color="midnightblue",fontsize="10",style="solid",fontname="Helvetica"];
  Node4 [label="Modules/DynLib/libmodules\l/dynBase/src/dynModuleExecution\lExternalApp.cpp",height=0.2,width=0.4,color="black", fillcolor="white", style="filled",URL="$dynModuleExecutionExternalApp_8cpp.html"];
  Node1 -> Node5 [dir="back",color="midnightblue",fontsize="10",style="solid",fontname="Helvetica"];
  Node5 [label="Modules/DynLib/libmodules\l/dynBase/src/dynModuleExecution\lCLPExe.cpp",height=0.2,width=0.4,color="black", fillcolor="white", style="filled",URL="$dynModuleExecutionCLPExe_8cpp.html"];
}
