digraph "Modules/DynLib/libmodules/dynBase/src/dynModuleExecutionImpl.h"
{
  edge [fontname="Helvetica",fontsize="10",labelfontname="Helvetica",labelfontsize="10"];
  node [fontname="Helvetica",fontsize="10",shape=record];
  Node1 [label="Modules/DynLib/libmodules\l/dynBase/src/dynModuleExecution\lImpl.h",height=0.2,width=0.4,color="black", fillcolor="grey75", style="filled", fontcolor="black"];
  Node1 -> Node2 [dir="back",color="midnightblue",fontsize="10",style="solid",fontname="Helvetica"];
  Node2 [label="Apps/Gimias/Core/Kernel\l/src/coreWxMitkGraphicalInterface.h",height=0.2,width=0.4,color="red", fillcolor="white", style="filled",URL="$coreWxMitkGraphicalInterface_8h.html"];
  Node2 -> Node3 [dir="back",color="midnightblue",fontsize="10",style="solid",fontname="Helvetica"];
  Node3 [label="Apps/Gimias/Core/Kernel\l/src/coreBaseWindow.cxx",height=0.2,width=0.4,color="black", fillcolor="white", style="filled",URL="$coreBaseWindow_8cxx.html"];
  Node2 -> Node4 [dir="back",color="midnightblue",fontsize="10",style="solid",fontname="Helvetica"];
  Node4 [label="Apps/Gimias/Core/Kernel\l/src/coreBaseWindowFactorySearch.cxx",height=0.2,width=0.4,color="black", fillcolor="white", style="filled",URL="$coreBaseWindowFactorySearch_8cxx.html"];
  Node2 -> Node5 [dir="back",color="midnightblue",fontsize="10",style="solid",fontname="Helvetica"];
  Node5 [label="Apps/Gimias/Core/Kernel\l/src/coreCommandLinePluginProvider.cxx",height=0.2,width=0.4,color="black", fillcolor="white", style="filled",URL="$coreCommandLinePluginProvider_8cxx.html"];
  Node2 -> Node6 [dir="back",color="midnightblue",fontsize="10",style="solid",fontname="Helvetica"];
  Node6 [label="Apps/Gimias/Core/Kernel\l/src/coreFrontEndPlugin.cxx",height=0.2,width=0.4,color="black", fillcolor="white", style="filled",URL="$coreFrontEndPlugin_8cxx.html"];
  Node2 -> Node7 [dir="back",color="midnightblue",fontsize="10",style="solid",fontname="Helvetica"];
  Node7 [label="Apps/Gimias/Core/Kernel\l/src/coreFrontEndPluginLoader.cxx",height=0.2,width=0.4,color="black", fillcolor="white", style="filled",URL="$coreFrontEndPluginLoader_8cxx.html"];
  Node2 -> Node8 [dir="back",color="midnightblue",fontsize="10",style="solid",fontname="Helvetica"];
  Node8 [label="Apps/Gimias/Core/Kernel\l/src/coreFrontEndPluginProvider.cxx",height=0.2,width=0.4,color="black", fillcolor="white", style="filled",URL="$coreFrontEndPluginProvider_8cxx.html"];
  Node2 -> Node9 [dir="back",color="midnightblue",fontsize="10",style="solid",fontname="Helvetica"];
  Node9 [label="Apps/Gimias/Core/Kernel\l/src/coreKernel.cxx",height=0.2,width=0.4,color="black", fillcolor="white", style="filled",URL="$coreKernel_8cxx.html"];
  Node2 -> Node10 [dir="back",color="midnightblue",fontsize="10",style="solid",fontname="Helvetica"];
  Node10 [label="Apps/Gimias/Core/Kernel\l/src/coreLoggerHelper.cxx",height=0.2,width=0.4,color="black", fillcolor="white", style="filled",URL="$coreLoggerHelper_8cxx.html"];
  Node2 -> Node11 [dir="back",color="midnightblue",fontsize="10",style="solid",fontname="Helvetica"];
  Node11 [label="Apps/Gimias/Core/Kernel\l/src/corePluginProviderManager.cxx",height=0.2,width=0.4,color="black", fillcolor="white", style="filled",URL="$corePluginProviderManager_8cxx.html"];
  Node2 -> Node12 [dir="back",color="midnightblue",fontsize="10",style="solid",fontname="Helvetica"];
  Node12 [label="Apps/Gimias/Core/Kernel\l/src/corePluginProvidersUpdater.cxx",height=0.2,width=0.4,color="black", fillcolor="white", style="filled",URL="$corePluginProvidersUpdater_8cxx.html"];
  Node2 -> Node13 [dir="back",color="midnightblue",fontsize="10",style="solid",fontname="Helvetica"];
  Node13 [label="Apps/Gimias/Core/Kernel\l/src/coreReportExceptionMacros.cxx",height=0.2,width=0.4,color="black", fillcolor="white", style="filled",URL="$coreReportExceptionMacros_8cxx.html"];
  Node2 -> Node14 [dir="back",color="midnightblue",fontsize="10",style="solid",fontname="Helvetica"];
  Node14 [label="Apps/Gimias/Core/Kernel\l/src/coreWorkflowManager.cxx",height=0.2,width=0.4,color="black", fillcolor="white", style="filled",URL="$coreWorkflowManager_8cxx.html"];
  Node2 -> Node15 [dir="back",color="midnightblue",fontsize="10",style="solid",fontname="Helvetica"];
  Node15 [label="Apps/Gimias/Core/Kernel\l/src/coreWxMitkGraphicalInterface.cxx",height=0.2,width=0.4,color="black", fillcolor="white", style="filled",URL="$coreWxMitkGraphicalInterface_8cxx.html"];
  Node2 -> Node16 [dir="back",color="midnightblue",fontsize="10",style="solid",fontname="Helvetica"];
  Node16 [label="Apps/Gimias/Core/Processors\l/src/coreDynDataTransferBase.cxx",height=0.2,width=0.4,color="black", fillcolor="white", style="filled",URL="$coreDynDataTransferBase_8cxx.html"];
  Node2 -> Node17 [dir="back",color="midnightblue",fontsize="10",style="solid",fontname="Helvetica"];
  Node17 [label="Apps/Gimias/Core/Processors\l/src/coreDynProcessor.cxx",height=0.2,width=0.4,color="black", fillcolor="white", style="filled",URL="$coreDynProcessor_8cxx.html"];
  Node2 -> Node18 [dir="back",color="midnightblue",fontsize="10",style="solid",fontname="Helvetica"];
  Node18 [label="Apps/Gimias/Core/Processors\l/src/coreModuleDescriptionSearch.cxx",height=0.2,width=0.4,color="black", fillcolor="white", style="filled",URL="$coreModuleDescriptionSearch_8cxx.html"];
  Node2 -> Node19 [dir="back",color="midnightblue",fontsize="10",style="solid",fontname="Helvetica"];
  Node19 [label="Apps/Gimias/GUI/MainApp\l/gmMainAppPCH.h",height=0.2,width=0.4,color="black", fillcolor="white", style="filled",URL="$gmMainAppPCH_8h.html"];
  Node2 -> Node20 [dir="back",color="midnightblue",fontsize="10",style="solid",fontname="Helvetica"];
  Node20 [label="Apps/Gimias/GUI/MainApp\l/src/coreMainApp.cxx",height=0.2,width=0.4,color="black", fillcolor="white", style="filled",URL="$coreMainApp_8cxx.html"];
  Node2 -> Node21 [dir="back",color="midnightblue",fontsize="10",style="solid",fontname="Helvetica"];
  Node21 [label="Apps/Gimias/GUI/Widgets\l/gmWidgetsPCH.h",height=0.2,width=0.4,color="black", fillcolor="white", style="filled",URL="$gmWidgetsPCH_8h.html"];
  Node2 -> Node22 [dir="back",color="midnightblue",fontsize="10",style="solid",fontname="Helvetica"];
  Node22 [label="Apps/Gimias/GUI/Widgets\l/src/CommandPanel/coreCommand\lPanel.cxx",height=0.2,width=0.4,color="black", fillcolor="white", style="filled",URL="$coreCommandPanel_8cxx.html"];
  Node2 -> Node23 [dir="back",color="midnightblue",fontsize="10",style="solid",fontname="Helvetica"];
  Node23 [label="Apps/Gimias/GUI/Widgets\l/src/CustomApplicationWizard\l/coreCustomApplicationManagerWidget.cpp",height=0.2,width=0.4,color="black", fillcolor="white", style="filled",URL="$coreCustomApplicationManagerWidget_8cpp.html"];
  Node2 -> Node24 [dir="back",color="midnightblue",fontsize="10",style="solid",fontname="Helvetica"];
  Node24 [label="Apps/Gimias/GUI/Widgets\l/src/DataEntityInformation\l/coreDataEntityInformation.cxx",height=0.2,width=0.4,color="black", fillcolor="white", style="filled",URL="$coreDataEntityInformation_8cxx.html"];
  Node2 -> Node25 [dir="back",color="midnightblue",fontsize="10",style="solid",fontname="Helvetica"];
  Node25 [label="Apps/Gimias/GUI/Widgets\l/src/DataEntityListBrowser\l/coreDataEntityListBrowser.cxx",height=0.2,width=0.4,color="black", fillcolor="white", style="filled",URL="$coreDataEntityListBrowser_8cxx.html"];
  Node2 -> Node26 [dir="back",color="midnightblue",fontsize="10",style="solid",fontname="Helvetica"];
  Node26 [label="Apps/Gimias/GUI/Widgets\l/src/GlobalPreferences\l/coreGlobalPreferencesWidget.cxx",height=0.2,width=0.4,color="black", fillcolor="white", style="filled",URL="$coreGlobalPreferencesWidget_8cxx.html"];
  Node2 -> Node27 [dir="back",color="midnightblue",fontsize="10",style="solid",fontname="Helvetica"];
  Node27 [label="Apps/Gimias/GUI/Widgets\l/src/Helper/coreUserHelperWidget.cxx",height=0.2,width=0.4,color="black", fillcolor="white", style="filled",URL="$coreUserHelperWidget_8cxx.html"];
  Node2 -> Node28 [dir="back",color="midnightblue",fontsize="10",style="solid",fontname="Helvetica"];
  Node28 [label="Apps/Gimias/GUI/Widgets\l/src/InputControl/coreBaseInput\lControl.cxx",height=0.2,width=0.4,color="black", fillcolor="white", style="filled",URL="$coreBaseInputControl_8cxx.html"];
  Node2 -> Node29 [dir="back",color="midnightblue",fontsize="10",style="solid",fontname="Helvetica"];
  Node29 [label="Apps/Gimias/GUI/Widgets\l/src/LogFileViewer/coreLogFile\lViewer.cxx",height=0.2,width=0.4,color="black", fillcolor="white", style="filled",URL="$coreLogFileViewer_8cxx.html"];
  Node2 -> Node30 [dir="back",color="midnightblue",fontsize="10",style="solid",fontname="Helvetica"];
  Node30 [label="Apps/Gimias/GUI/Widgets\l/src/MacroPannelWidget\l/coreMacroPannelWidget.cxx",height=0.2,width=0.4,color="black", fillcolor="white", style="filled",URL="$coreMacroPannelWidget_8cxx.html"];
  Node2 -> Node31 [dir="back",color="midnightblue",fontsize="10",style="solid",fontname="Helvetica"];
  Node31 [label="Apps/Gimias/GUI/Widgets\l/src/MultiRenderWindow\l/coreRenderWindowConfig.cxx",height=0.2,width=0.4,color="black", fillcolor="white", style="filled",URL="$coreRenderWindowConfig_8cxx.html"];
  Node2 -> Node32 [dir="back",color="midnightblue",fontsize="10",style="solid",fontname="Helvetica"];
  Node32 [label="Apps/Gimias/GUI/Widgets\l/src/MultiRenderWindow\l/coreRenderWindowContainer.cxx",height=0.2,width=0.4,color="black", fillcolor="white", style="filled",URL="$coreRenderWindowContainer_8cxx.html"];
  Node2 -> Node33 [dir="back",color="midnightblue",fontsize="10",style="solid",fontname="Helvetica"];
  Node33 [label="Apps/Gimias/GUI/Widgets\l/src/MultiRenderWindow\l/coreWorkingAreaManagerWidget.cpp",height=0.2,width=0.4,color="black", fillcolor="white", style="filled",URL="$coreWorkingAreaManagerWidget_8cpp.html"];
  Node2 -> Node34 [dir="back",color="midnightblue",fontsize="10",style="solid",fontname="Helvetica"];
  Node34 [label="Apps/Gimias/GUI/Widgets\l/src/MultiRenderWindow\l/coreWorkingAreaStorage.cxx",height=0.2,width=0.4,color="black", fillcolor="white", style="filled",URL="$coreWorkingAreaStorage_8cxx.html"];
  Node2 -> Node35 [dir="back",color="midnightblue",fontsize="10",style="solid",fontname="Helvetica"];
  Node35 [label="Apps/Gimias/GUI/Widgets\l/src/PluginTab/corePluginTab.cxx",height=0.2,width=0.4,color="black", fillcolor="white", style="filled",URL="$corePluginTab_8cxx.html"];
  Node2 -> Node36 [dir="back",color="midnightblue",fontsize="10",style="solid",fontname="Helvetica"];
  Node36 [label="Apps/Gimias/GUI/Widgets\l/src/PluginTab/corePluginTab\lFactory.cxx",height=0.2,width=0.4,color="black", fillcolor="white", style="filled",URL="$corePluginTabFactory_8cxx.html"];
  Node2 -> Node37 [dir="back",color="midnightblue",fontsize="10",style="solid",fontname="Helvetica"];
  Node37 [label="Apps/Gimias/GUI/Widgets\l/src/PluginTab/coreWorkingArea\lManager.cxx",height=0.2,width=0.4,color="black", fillcolor="white", style="filled",URL="$coreWorkingAreaManager_8cxx.html"];
  Node2 -> Node38 [dir="back",color="midnightblue",fontsize="10",style="solid",fontname="Helvetica"];
  Node38 [label="Apps/Gimias/GUI/Widgets\l/src/ProcessingToolbox\l/coreBaseToolboxWidget.cxx",height=0.2,width=0.4,color="black", fillcolor="white", style="filled",URL="$coreBaseToolboxWidget_8cxx.html"];
  Node2 -> Node39 [dir="back",color="midnightblue",fontsize="10",style="solid",fontname="Helvetica"];
  Node39 [label="Apps/Gimias/GUI/Widgets\l/src/ProcessingToolbox\l/coreProcessingToolboxWidget.cxx",height=0.2,width=0.4,color="black", fillcolor="white", style="filled",URL="$coreProcessingToolboxWidget_8cxx.html"];
  Node2 -> Node40 [dir="back",color="midnightblue",fontsize="10",style="solid",fontname="Helvetica"];
  Node40 [label="Apps/Gimias/GUI/Widgets\l/src/ProfileWizard/coreImport\lConfigurationWizard.cxx",height=0.2,width=0.4,color="black", fillcolor="white", style="filled",URL="$coreImportConfigurationWizard_8cxx.html"];
  Node2 -> Node41 [dir="back",color="midnightblue",fontsize="10",style="solid",fontname="Helvetica"];
  Node41 [label="Apps/Gimias/GUI/Widgets\l/src/ProfileWizard/corePlugin\lSelectorWidget.cxx",height=0.2,width=0.4,color="black", fillcolor="white", style="filled",URL="$corePluginSelectorWidget_8cxx.html"];
  Node2 -> Node42 [dir="back",color="midnightblue",fontsize="10",style="solid",fontname="Helvetica"];
  Node42 [label="Apps/Gimias/GUI/Widgets\l/src/ProfileWizard/coreProfile\lWizard.cxx",height=0.2,width=0.4,color="black", fillcolor="white", style="filled",URL="$coreProfileWizard_8cxx.html"];
  Node2 -> Node43 [dir="back",color="midnightblue",fontsize="10",style="solid",fontname="Helvetica"];
  Node43 [label="Apps/Gimias/GUI/Widgets\l/src/ProgressDialog/coreSimple\lProgressDialog.cxx",height=0.2,width=0.4,color="black", fillcolor="white", style="filled",URL="$coreSimpleProgressDialog_8cxx.html"];
  Node1 -> Node44 [dir="back",color="midnightblue",fontsize="10",style="solid",fontname="Helvetica"];
  Node44 [label="Apps/Gimias/Core/Processors\l/src/coreModuleExecutionProcessor.h",height=0.2,width=0.4,color="red", fillcolor="white", style="filled",URL="$coreModuleExecutionProcessor_8h.html"];
  Node44 -> Node17 [dir="back",color="midnightblue",fontsize="10",style="solid",fontname="Helvetica"];
  Node1 -> Node45 [dir="back",color="midnightblue",fontsize="10",style="solid",fontname="Helvetica"];
  Node45 [label="Apps/Gimias/GUI/Widgets\l/src/Workflow/coreModuleExecution\lWorkflow.h",height=0.2,width=0.4,color="red", fillcolor="white", style="filled",URL="$coreModuleExecutionWorkflow_8h.html"];
  Node45 -> Node36 [dir="back",color="midnightblue",fontsize="10",style="solid",fontname="Helvetica"];
  Node1 -> Node46 [dir="back",color="midnightblue",fontsize="10",style="solid",fontname="Helvetica"];
  Node46 [label="Modules/DynLib/libmodules\l/dynBase/src/dynModuleExecution.h",height=0.2,width=0.4,color="red", fillcolor="white", style="filled",URL="$dynModuleExecution_8h.html"];
  Node46 -> Node7 [dir="back",color="midnightblue",fontsize="10",style="solid",fontname="Helvetica"];
  Node46 -> Node15 [dir="back",color="midnightblue",fontsize="10",style="solid",fontname="Helvetica"];
  Node1 -> Node47 [dir="back",color="midnightblue",fontsize="10",style="solid",fontname="Helvetica"];
  Node47 [label="Modules/DynLib/libmodules\l/dynBase/src/dynModuleExecutionDLL.h",height=0.2,width=0.4,color="red", fillcolor="white", style="filled",URL="$dynModuleExecutionDLL_8h.html"];
  Node1 -> Node48 [dir="back",color="midnightblue",fontsize="10",style="solid",fontname="Helvetica"];
  Node48 [label="Modules/DynLib/libmodules\l/dynBase/src/dynModuleExecution\lCLPBase.h",height=0.2,width=0.4,color="red", fillcolor="white", style="filled",URL="$dynModuleExecutionCLPBase_8h.html"];
  Node1 -> Node49 [dir="back",color="midnightblue",fontsize="10",style="solid",fontname="Helvetica"];
  Node49 [label="Modules/DynLib/libmodules\l/dynBase/src/dynModuleExecution\lImpl.cpp",height=0.2,width=0.4,color="black", fillcolor="white", style="filled",URL="$dynModuleExecutionImpl_8cpp.html"];
  Node1 -> Node50 [dir="back",color="midnightblue",fontsize="10",style="solid",fontname="Helvetica"];
  Node50 [label="Modules/DynLib/libmodules\l/dynWxAGUI/src/dynWxAGUIBuilder.cpp",height=0.2,width=0.4,color="black", fillcolor="white", style="filled",URL="$dynWxAGUIBuilder_8cpp.html"];
}
