digraph "Modules/DynLib/libmodules/dynBase/src/dynUpdateCallback.h"
{
  edge [fontname="Helvetica",fontsize="10",labelfontname="Helvetica",labelfontsize="10"];
  node [fontname="Helvetica",fontsize="10",shape=record];
  Node1 [label="Modules/DynLib/libmodules\l/dynBase/src/dynUpdateCallback.h",height=0.2,width=0.4,color="black", fillcolor="grey75", style="filled", fontcolor="black"];
  Node1 -> Node2 [dir="back",color="midnightblue",fontsize="10",style="solid",fontname="Helvetica"];
  Node2 [label="Apps/Gimias/Core/Processors\l/src/coreDynUpdateCallback.h",height=0.2,width=0.4,color="black", fillcolor="white", style="filled",URL="$coreDynUpdateCallback_8h.html"];
  Node2 -> Node3 [dir="back",color="midnightblue",fontsize="10",style="solid",fontname="Helvetica"];
  Node3 [label="Apps/Gimias/Core/Processors\l/src/coreDynProcessor.h",height=0.2,width=0.4,color="black", fillcolor="white", style="filled",URL="$coreDynProcessor_8h.html"];
  Node3 -> Node4 [dir="back",color="midnightblue",fontsize="10",style="solid",fontname="Helvetica"];
  Node4 [label="Apps/Gimias/Core/Processors\l/src/coreDynDataTransferBase.h",height=0.2,width=0.4,color="red", fillcolor="white", style="filled",URL="$coreDynDataTransferBase_8h.html"];
  Node4 -> Node5 [dir="back",color="midnightblue",fontsize="10",style="solid",fontname="Helvetica"];
  Node5 [label="Apps/Gimias/Core/Processors\l/src/coreDynDataTransferCLP.h",height=0.2,width=0.4,color="red", fillcolor="white", style="filled",URL="$coreDynDataTransferCLP_8h.html"];
  Node5 -> Node6 [dir="back",color="midnightblue",fontsize="10",style="solid",fontname="Helvetica"];
  Node6 [label="Apps/Gimias/Core/Processors\l/src/coreDynDataTransferCLPShared.h",height=0.2,width=0.4,color="red", fillcolor="white", style="filled",URL="$coreDynDataTransferCLPShared_8h.html"];
  Node6 -> Node7 [dir="back",color="midnightblue",fontsize="10",style="solid",fontname="Helvetica"];
  Node7 [label="Apps/Gimias/Core/Processors\l/src/coreDynProcessor.cxx",height=0.2,width=0.4,color="black", fillcolor="white", style="filled",URL="$coreDynProcessor_8cxx.html"];
  Node5 -> Node8 [dir="back",color="midnightblue",fontsize="10",style="solid",fontname="Helvetica"];
  Node8 [label="Apps/Gimias/Core/Processors\l/src/coreDynDataTransferExternalApp.h",height=0.2,width=0.4,color="red", fillcolor="white", style="filled",URL="$coreDynDataTransferExternalApp_8h.html"];
  Node8 -> Node7 [dir="back",color="midnightblue",fontsize="10",style="solid",fontname="Helvetica"];
  Node5 -> Node7 [dir="back",color="midnightblue",fontsize="10",style="solid",fontname="Helvetica"];
  Node4 -> Node9 [dir="back",color="midnightblue",fontsize="10",style="solid",fontname="Helvetica"];
  Node9 [label="Apps/Gimias/Core/Processors\l/src/coreDynDataTransferDLL.h",height=0.2,width=0.4,color="red", fillcolor="white", style="filled",URL="$coreDynDataTransferDLL_8h.html"];
  Node9 -> Node7 [dir="back",color="midnightblue",fontsize="10",style="solid",fontname="Helvetica"];
  Node4 -> Node10 [dir="back",color="midnightblue",fontsize="10",style="solid",fontname="Helvetica"];
  Node10 [label="Apps/Gimias/Core/Processors\l/src/coreDynDataTransferProcessor.h",height=0.2,width=0.4,color="red", fillcolor="white", style="filled",URL="$coreDynDataTransferProcessor_8h.html"];
  Node10 -> Node7 [dir="back",color="midnightblue",fontsize="10",style="solid",fontname="Helvetica"];
  Node10 -> Node11 [dir="back",color="midnightblue",fontsize="10",style="solid",fontname="Helvetica"];
  Node11 [label="Apps/Gimias/GUI/Widgets\l/src/Workflow/coreDynDataTransfer\lWorkflow.h",height=0.2,width=0.4,color="red", fillcolor="white", style="filled",URL="$coreDynDataTransferWorkflow_8h.html"];
  Node4 -> Node7 [dir="back",color="midnightblue",fontsize="10",style="solid",fontname="Helvetica"];
  Node4 -> Node11 [dir="back",color="midnightblue",fontsize="10",style="solid",fontname="Helvetica"];
  Node3 -> Node7 [dir="back",color="midnightblue",fontsize="10",style="solid",fontname="Helvetica"];
  Node3 -> Node12 [dir="back",color="midnightblue",fontsize="10",style="solid",fontname="Helvetica"];
  Node12 [label="Apps/Gimias/GUI/Widgets\l/src/CustomApplicationWizard\l/coreCustomApplicationWizard.cxx",height=0.2,width=0.4,color="black", fillcolor="white", style="filled",URL="$coreCustomApplicationWizard_8cxx.html"];
  Node3 -> Node13 [dir="back",color="midnightblue",fontsize="10",style="solid",fontname="Helvetica"];
  Node13 [label="Apps/Gimias/GUI/Widgets\l/src/ProcessingToolbox\l/coreDynProcessingWidget.h",height=0.2,width=0.4,color="red", fillcolor="white", style="filled",URL="$coreDynProcessingWidget_8h.html"];
  Node3 -> Node14 [dir="back",color="midnightblue",fontsize="10",style="solid",fontname="Helvetica"];
  Node14 [label="Apps/Gimias/GUI/Widgets\l/src/ProcessingToolbox\l/coreSimpleProcessingWidget.cpp",height=0.2,width=0.4,color="black", fillcolor="white", style="filled",URL="$coreSimpleProcessingWidget_8cpp.html"];
  Node2 -> Node15 [dir="back",color="midnightblue",fontsize="10",style="solid",fontname="Helvetica"];
  Node15 [label="Apps/Gimias/Core/Processors\l/src/coreDynUpdateCallback.cxx",height=0.2,width=0.4,color="black", fillcolor="white", style="filled",URL="$coreDynUpdateCallback_8cxx.html"];
  Node1 -> Node16 [dir="back",color="midnightblue",fontsize="10",style="solid",fontname="Helvetica"];
  Node16 [label="Modules/DynLib/libmodules\l/dynBase/src/dynEmptyUpdateCallback.h",height=0.2,width=0.4,color="black", fillcolor="white", style="filled",URL="$dynEmptyUpdateCallback_8h.html"];
  Node16 -> Node17 [dir="back",color="midnightblue",fontsize="10",style="solid",fontname="Helvetica"];
  Node17 [label="Modules/DynLib/libmodules\l/dynBase/src/dynEmptyUpdateCallback.cpp",height=0.2,width=0.4,color="black", fillcolor="white", style="filled",URL="$dynEmptyUpdateCallback_8cpp.html"];
  Node16 -> Node18 [dir="back",color="midnightblue",fontsize="10",style="solid",fontname="Helvetica"];
  Node18 [label="Modules/DynLib/libmodules\l/dynBase/src/dynModuleExecution.cpp",height=0.2,width=0.4,color="black", fillcolor="white", style="filled",URL="$dynModuleExecution_8cpp.html"];
  Node1 -> Node19 [dir="back",color="midnightblue",fontsize="10",style="solid",fontname="Helvetica"];
  Node19 [label="Modules/DynLib/libmodules\l/dynBase/src/dynModuleExecution\lImpl.h",height=0.2,width=0.4,color="black", fillcolor="white", style="filled",URL="$dynModuleExecutionImpl_8h.html"];
  Node19 -> Node20 [dir="back",color="midnightblue",fontsize="10",style="solid",fontname="Helvetica"];
  Node20 [label="Apps/Gimias/Core/Kernel\l/src/coreWxMitkGraphicalInterface.h",height=0.2,width=0.4,color="red", fillcolor="white", style="filled",URL="$coreWxMitkGraphicalInterface_8h.html"];
  Node20 -> Node21 [dir="back",color="midnightblue",fontsize="10",style="solid",fontname="Helvetica"];
  Node21 [label="Apps/Gimias/Core/Kernel\l/src/coreBaseWindow.cxx",height=0.2,width=0.4,color="black", fillcolor="white", style="filled",URL="$coreBaseWindow_8cxx.html"];
  Node20 -> Node22 [dir="back",color="midnightblue",fontsize="10",style="solid",fontname="Helvetica"];
  Node22 [label="Apps/Gimias/Core/Kernel\l/src/coreBaseWindowFactorySearch.cxx",height=0.2,width=0.4,color="black", fillcolor="white", style="filled",URL="$coreBaseWindowFactorySearch_8cxx.html"];
  Node20 -> Node23 [dir="back",color="midnightblue",fontsize="10",style="solid",fontname="Helvetica"];
  Node23 [label="Apps/Gimias/Core/Kernel\l/src/coreCommandLinePluginProvider.cxx",height=0.2,width=0.4,color="black", fillcolor="white", style="filled",URL="$coreCommandLinePluginProvider_8cxx.html"];
  Node20 -> Node24 [dir="back",color="midnightblue",fontsize="10",style="solid",fontname="Helvetica"];
  Node24 [label="Apps/Gimias/Core/Kernel\l/src/coreFrontEndPlugin.cxx",height=0.2,width=0.4,color="black", fillcolor="white", style="filled",URL="$coreFrontEndPlugin_8cxx.html"];
  Node20 -> Node25 [dir="back",color="midnightblue",fontsize="10",style="solid",fontname="Helvetica"];
  Node25 [label="Apps/Gimias/Core/Kernel\l/src/coreFrontEndPluginLoader.cxx",height=0.2,width=0.4,color="black", fillcolor="white", style="filled",URL="$coreFrontEndPluginLoader_8cxx.html"];
  Node20 -> Node26 [dir="back",color="midnightblue",fontsize="10",style="solid",fontname="Helvetica"];
  Node26 [label="Apps/Gimias/Core/Kernel\l/src/coreFrontEndPluginProvider.cxx",height=0.2,width=0.4,color="black", fillcolor="white", style="filled",URL="$coreFrontEndPluginProvider_8cxx.html"];
  Node20 -> Node27 [dir="back",color="midnightblue",fontsize="10",style="solid",fontname="Helvetica"];
  Node27 [label="Apps/Gimias/Core/Kernel\l/src/coreKernel.cxx",height=0.2,width=0.4,color="black", fillcolor="white", style="filled",URL="$coreKernel_8cxx.html"];
  Node20 -> Node28 [dir="back",color="midnightblue",fontsize="10",style="solid",fontname="Helvetica"];
  Node28 [label="Apps/Gimias/Core/Kernel\l/src/coreLoggerHelper.cxx",height=0.2,width=0.4,color="black", fillcolor="white", style="filled",URL="$coreLoggerHelper_8cxx.html"];
  Node20 -> Node29 [dir="back",color="midnightblue",fontsize="10",style="solid",fontname="Helvetica"];
  Node29 [label="Apps/Gimias/Core/Kernel\l/src/corePluginProviderManager.cxx",height=0.2,width=0.4,color="black", fillcolor="white", style="filled",URL="$corePluginProviderManager_8cxx.html"];
  Node20 -> Node30 [dir="back",color="midnightblue",fontsize="10",style="solid",fontname="Helvetica"];
  Node30 [label="Apps/Gimias/Core/Kernel\l/src/corePluginProvidersUpdater.cxx",height=0.2,width=0.4,color="black", fillcolor="white", style="filled",URL="$corePluginProvidersUpdater_8cxx.html"];
  Node20 -> Node31 [dir="back",color="midnightblue",fontsize="10",style="solid",fontname="Helvetica"];
  Node31 [label="Apps/Gimias/Core/Kernel\l/src/coreWxMitkGraphicalInterface.cxx",height=0.2,width=0.4,color="black", fillcolor="white", style="filled",URL="$coreWxMitkGraphicalInterface_8cxx.html"];
  Node20 -> Node7 [dir="back",color="midnightblue",fontsize="10",style="solid",fontname="Helvetica"];
  Node20 -> Node32 [dir="back",color="midnightblue",fontsize="10",style="solid",fontname="Helvetica"];
  Node32 [label="Apps/Gimias/GUI/Widgets\l/src/CustomApplicationWizard\l/coreCustomApplicationManagerWidget.cpp",height=0.2,width=0.4,color="black", fillcolor="white", style="filled",URL="$coreCustomApplicationManagerWidget_8cpp.html"];
  Node20 -> Node33 [dir="back",color="midnightblue",fontsize="10",style="solid",fontname="Helvetica"];
  Node33 [label="Apps/Gimias/GUI/Widgets\l/src/Workflow/coreModuleExecution\lWorkflow.cxx",height=0.2,width=0.4,color="black", fillcolor="white", style="filled",URL="$coreModuleExecutionWorkflow_8cxx.html"];
  Node19 -> Node34 [dir="back",color="midnightblue",fontsize="10",style="solid",fontname="Helvetica"];
  Node34 [label="Apps/Gimias/Core/Processors\l/src/coreModuleExecutionProcessor.h",height=0.2,width=0.4,color="black", fillcolor="white", style="filled",URL="$coreModuleExecutionProcessor_8h.html"];
  Node34 -> Node7 [dir="back",color="midnightblue",fontsize="10",style="solid",fontname="Helvetica"];
  Node34 -> Node35 [dir="back",color="midnightblue",fontsize="10",style="solid",fontname="Helvetica"];
  Node35 [label="Apps/Gimias/Core/Processors\l/src/coreModuleExecutionProcessor.cxx",height=0.2,width=0.4,color="black", fillcolor="white", style="filled",URL="$coreModuleExecutionProcessor_8cxx.html"];
  Node34 -> Node33 [dir="back",color="midnightblue",fontsize="10",style="solid",fontname="Helvetica"];
  Node19 -> Node36 [dir="back",color="midnightblue",fontsize="10",style="solid",fontname="Helvetica"];
  Node36 [label="Apps/Gimias/GUI/Widgets\l/src/Workflow/coreModuleExecution\lWorkflow.h",height=0.2,width=0.4,color="red", fillcolor="white", style="filled",URL="$coreModuleExecutionWorkflow_8h.html"];
  Node36 -> Node33 [dir="back",color="midnightblue",fontsize="10",style="solid",fontname="Helvetica"];
  Node19 -> Node37 [dir="back",color="midnightblue",fontsize="10",style="solid",fontname="Helvetica"];
  Node37 [label="Modules/DynLib/libmodules\l/dynBase/src/dynModuleExecution.h",height=0.2,width=0.4,color="black", fillcolor="white", style="filled",URL="$dynModuleExecution_8h.html"];
  Node37 -> Node25 [dir="back",color="midnightblue",fontsize="10",style="solid",fontname="Helvetica"];
  Node37 -> Node31 [dir="back",color="midnightblue",fontsize="10",style="solid",fontname="Helvetica"];
  Node37 -> Node3 [dir="back",color="midnightblue",fontsize="10",style="solid",fontname="Helvetica"];
  Node37 -> Node5 [dir="back",color="midnightblue",fontsize="10",style="solid",fontname="Helvetica"];
  Node37 -> Node6 [dir="back",color="midnightblue",fontsize="10",style="solid",fontname="Helvetica"];
  Node37 -> Node9 [dir="back",color="midnightblue",fontsize="10",style="solid",fontname="Helvetica"];
  Node37 -> Node8 [dir="back",color="midnightblue",fontsize="10",style="solid",fontname="Helvetica"];
  Node37 -> Node10 [dir="back",color="midnightblue",fontsize="10",style="solid",fontname="Helvetica"];
  Node37 -> Node35 [dir="back",color="midnightblue",fontsize="10",style="solid",fontname="Helvetica"];
  Node37 -> Node11 [dir="back",color="midnightblue",fontsize="10",style="solid",fontname="Helvetica"];
  Node37 -> Node33 [dir="back",color="midnightblue",fontsize="10",style="solid",fontname="Helvetica"];
  Node37 -> Node38 [dir="back",color="midnightblue",fontsize="10",style="solid",fontname="Helvetica"];
  Node38 [label="Modules/DynLib/Applications\l/dynAppExecute/dynAppExecute.cxx",height=0.2,width=0.4,color="black", fillcolor="white", style="filled",URL="$dynAppExecute_8cxx.html"];
  Node37 -> Node18 [dir="back",color="midnightblue",fontsize="10",style="solid",fontname="Helvetica"];
  Node37 -> Node39 [dir="back",color="midnightblue",fontsize="10",style="solid",fontname="Helvetica"];
  Node39 [label="Modules/DynLib/libmodules\l/dynBase/src/dynModuleExecution\lCLPBase.cpp",height=0.2,width=0.4,color="black", fillcolor="white", style="filled",URL="$dynModuleExecutionCLPBase_8cpp.html"];
  Node37 -> Node40 [dir="back",color="midnightblue",fontsize="10",style="solid",fontname="Helvetica"];
  Node40 [label="Modules/DynLib/libmodules\l/dynBase/src/dynModuleExecution\lCLPExe.cpp",height=0.2,width=0.4,color="black", fillcolor="white", style="filled",URL="$dynModuleExecutionCLPExe_8cpp.html"];
  Node37 -> Node41 [dir="back",color="midnightblue",fontsize="10",style="solid",fontname="Helvetica"];
  Node41 [label="Modules/DynLib/libmodules\l/dynBase/src/dynModuleExecution\lCLPShared.cpp",height=0.2,width=0.4,color="black", fillcolor="white", style="filled",URL="$dynModuleExecutionCLPShared_8cpp.html"];
  Node37 -> Node42 [dir="back",color="midnightblue",fontsize="10",style="solid",fontname="Helvetica"];
  Node42 [label="Modules/DynLib/libmodules\l/dynBase/src/dynModuleExecution\lDLL.cpp",height=0.2,width=0.4,color="black", fillcolor="white", style="filled",URL="$dynModuleExecutionDLL_8cpp.html"];
  Node37 -> Node43 [dir="back",color="midnightblue",fontsize="10",style="solid",fontname="Helvetica"];
  Node43 [label="Modules/DynLib/libmodules\l/dynBase/src/dynModuleExecution\lExternalApp.cpp",height=0.2,width=0.4,color="black", fillcolor="white", style="filled",URL="$dynModuleExecutionExternalApp_8cpp.html"];
  Node19 -> Node44 [dir="back",color="midnightblue",fontsize="10",style="solid",fontname="Helvetica"];
  Node44 [label="Modules/DynLib/libmodules\l/dynBase/src/dynModuleExecutionDLL.h",height=0.2,width=0.4,color="black", fillcolor="white", style="filled",URL="$dynModuleExecutionDLL_8h.html"];
  Node44 -> Node18 [dir="back",color="midnightblue",fontsize="10",style="solid",fontname="Helvetica"];
  Node44 -> Node42 [dir="back",color="midnightblue",fontsize="10",style="solid",fontname="Helvetica"];
  Node19 -> Node45 [dir="back",color="midnightblue",fontsize="10",style="solid",fontname="Helvetica"];
  Node45 [label="Modules/DynLib/libmodules\l/dynBase/src/dynModuleExecution\lCLPBase.h",height=0.2,width=0.4,color="red", fillcolor="white", style="filled",URL="$dynModuleExecutionCLPBase_8h.html"];
  Node45 -> Node39 [dir="back",color="midnightblue",fontsize="10",style="solid",fontname="Helvetica"];
  Node19 -> Node46 [dir="back",color="midnightblue",fontsize="10",style="solid",fontname="Helvetica"];
  Node46 [label="Modules/DynLib/libmodules\l/dynBase/src/dynModuleExecution\lImpl.cpp",height=0.2,width=0.4,color="black", fillcolor="white", style="filled",URL="$dynModuleExecutionImpl_8cpp.html"];
  Node19 -> Node47 [dir="back",color="midnightblue",fontsize="10",style="solid",fontname="Helvetica"];
  Node47 [label="Modules/DynLib/libmodules\l/dynWxAGUI/src/dynWxAGUIBuilder.cpp",height=0.2,width=0.4,color="black", fillcolor="white", style="filled",URL="$dynWxAGUIBuilder_8cpp.html"];
  Node1 -> Node37 [dir="back",color="midnightblue",fontsize="10",style="solid",fontname="Helvetica"];
  Node1 -> Node48 [dir="back",color="midnightblue",fontsize="10",style="solid",fontname="Helvetica"];
  Node48 [label="Modules/DynLib/libmodules\l/dynBase/src/dynModuleXMLWriter.h",height=0.2,width=0.4,color="black", fillcolor="white", style="filled",URL="$dynModuleXMLWriter_8h.html"];
  Node48 -> Node32 [dir="back",color="midnightblue",fontsize="10",style="solid",fontname="Helvetica"];
  Node48 -> Node12 [dir="back",color="midnightblue",fontsize="10",style="solid",fontname="Helvetica"];
  Node48 -> Node49 [dir="back",color="midnightblue",fontsize="10",style="solid",fontname="Helvetica"];
  Node49 [label="Modules/DynLib/libmodules\l/dynBase/src/dynModuleXMLWriter.cpp",height=0.2,width=0.4,color="black", fillcolor="white", style="filled",URL="$dynModuleXMLWriter_8cpp.html"];
  Node1 -> Node50 [dir="back",color="midnightblue",fontsize="10",style="solid",fontname="Helvetica"];
  Node50 [label="Modules/DynLib/libmodules\l/dynBase/src/dynUpdateCallback.cpp",height=0.2,width=0.4,color="black", fillcolor="white", style="filled",URL="$dynUpdateCallback_8cpp.html"];
}
