digraph "Modules/DynLib/libmodules/dynWxAGUI/src/dynWxControlFactoryBase.h"
{
  edge [fontname="Helvetica",fontsize="10",labelfontname="Helvetica",labelfontsize="10"];
  node [fontname="Helvetica",fontsize="10",shape=record];
  Node1 [label="Modules/DynLib/libmodules\l/dynWxAGUI/src/dynWxControlFactory\lBase.h",height=0.2,width=0.4,color="black", fillcolor="grey75", style="filled", fontcolor="black"];
  Node1 -> Node2 [color="midnightblue",fontsize="10",style="solid",fontname="Helvetica"];
  Node2 [label="DynWxAGUILibWin32Header.h",height=0.2,width=0.4,color="grey75", fillcolor="white", style="filled"];
  Node1 -> Node3 [color="midnightblue",fontsize="10",style="solid",fontname="Helvetica"];
  Node3 [label="ModuleDescription.h",height=0.2,width=0.4,color="grey75", fillcolor="white", style="filled"];
  Node1 -> Node4 [color="midnightblue",fontsize="10",style="solid",fontname="Helvetica"];
  Node4 [label="dynBasePanel.h",height=0.2,width=0.4,color="black", fillcolor="white", style="filled",URL="$dynBasePanel_8h.html"];
  Node4 -> Node5 [color="midnightblue",fontsize="10",style="solid",fontname="Helvetica"];
  Node5 [label="dynBasePanelUI.h",height=0.2,width=0.4,color="black", fillcolor="white", style="filled",URL="$dynBasePanelUI_8h.html"];
  Node5 -> Node6 [color="midnightblue",fontsize="10",style="solid",fontname="Helvetica"];
  Node6 [label="wx/wx.h",height=0.2,width=0.4,color="grey75", fillcolor="white", style="filled"];
  Node5 -> Node7 [color="midnightblue",fontsize="10",style="solid",fontname="Helvetica"];
  Node7 [label="wx/image.h",height=0.2,width=0.4,color="grey75", fillcolor="white", style="filled"];
  Node4 -> Node8 [color="midnightblue",fontsize="10",style="solid",fontname="Helvetica"];
  Node8 [label="dynWxGUIUpdater.h",height=0.2,width=0.4,color="black", fillcolor="white", style="filled",URL="$dynWxGUIUpdater_8h.html"];
  Node8 -> Node2 [color="midnightblue",fontsize="10",style="solid",fontname="Helvetica"];
  Node8 -> Node3 [color="midnightblue",fontsize="10",style="solid",fontname="Helvetica"];
  Node8 -> Node9 [color="midnightblue",fontsize="10",style="solid",fontname="Helvetica"];
  Node9 [label="list",height=0.2,width=0.4,color="grey75", fillcolor="white", style="filled"];
  Node8 -> Node10 [color="midnightblue",fontsize="10",style="solid",fontname="Helvetica"];
  Node10 [label="gblWxBridgeLib.h",height=0.2,width=0.4,color="black", fillcolor="white", style="filled",URL="$gblWxBridgeLib_8h.html"];
  Node10 -> Node11 [color="midnightblue",fontsize="10",style="solid",fontname="Helvetica"];
  Node11 [label="gblWxConnectorOfWidgetChanges\lToSlotFunction.h",height=0.2,width=0.4,color="black", fillcolor="white", style="filled",URL="$gblWxConnectorOfWidgetChangesToSlotFunction_8h.html"];
  Node11 -> Node12 [color="midnightblue",fontsize="10",style="solid",fontname="Helvetica"];
  Node12 [label="boost/bind.hpp",height=0.2,width=0.4,color="grey75", fillcolor="white", style="filled"];
  Node11 -> Node13 [color="midnightblue",fontsize="10",style="solid",fontname="Helvetica"];
  Node13 [label="CILabNamespaceMacros.h",height=0.2,width=0.4,color="black", fillcolor="white", style="filled",URL="$CILabNamespaceMacros_8h.html"];
  Node11 -> Node6 [color="midnightblue",fontsize="10",style="solid",fontname="Helvetica"];
  Node11 -> Node14 [color="midnightblue",fontsize="10",style="solid",fontname="Helvetica"];
  Node14 [label="wx/listctrl.h",height=0.2,width=0.4,color="grey75", fillcolor="white", style="filled"];
  Node11 -> Node15 [color="midnightblue",fontsize="10",style="solid",fontname="Helvetica"];
  Node15 [label="wx/tglbtn.h",height=0.2,width=0.4,color="grey75", fillcolor="white", style="filled"];
  Node11 -> Node16 [color="midnightblue",fontsize="10",style="solid",fontname="Helvetica"];
  Node16 [label="wx/choicebk.h",height=0.2,width=0.4,color="grey75", fillcolor="white", style="filled"];
  Node11 -> Node17 [color="midnightblue",fontsize="10",style="solid",fontname="Helvetica"];
  Node17 [label="boost/shared_ptr.hpp",height=0.2,width=0.4,color="grey75", fillcolor="white", style="filled"];
  Node11 -> Node18 [color="midnightblue",fontsize="10",style="solid",fontname="Helvetica"];
  Node18 [label="boost/function.hpp",height=0.2,width=0.4,color="grey75", fillcolor="white", style="filled"];
  Node11 -> Node19 [color="midnightblue",fontsize="10",style="solid",fontname="Helvetica"];
  Node19 [label="map",height=0.2,width=0.4,color="grey75", fillcolor="white", style="filled"];
  Node10 -> Node20 [color="midnightblue",fontsize="10",style="solid",fontname="Helvetica"];
  Node20 [label="gblWxTextCtrlValueProxy.h",height=0.2,width=0.4,color="black", fillcolor="white", style="filled",URL="$gblWxTextCtrlValueProxy_8h.html"];
  Node20 -> Node6 [color="midnightblue",fontsize="10",style="solid",fontname="Helvetica"];
  Node20 -> Node21 [color="midnightblue",fontsize="10",style="solid",fontname="Helvetica"];
  Node21 [label="gblValueProxy.h",height=0.2,width=0.4,color="red", fillcolor="white", style="filled",URL="$gblValueProxy_8h.html"];
  Node21 -> Node13 [color="midnightblue",fontsize="10",style="solid",fontname="Helvetica"];
  Node21 -> Node17 [color="midnightblue",fontsize="10",style="solid",fontname="Helvetica"];
  Node21 -> Node22 [color="midnightblue",fontsize="10",style="solid",fontname="Helvetica"];
  Node22 [label="string",height=0.2,width=0.4,color="grey75", fillcolor="white", style="filled"];
  Node21 -> Node23 [color="midnightblue",fontsize="10",style="solid",fontname="Helvetica"];
  Node23 [label="gblValueConverter.h",height=0.2,width=0.4,color="red", fillcolor="white", style="filled",URL="$gblValueConverter_8h.html"];
  Node23 -> Node24 [color="midnightblue",fontsize="10",style="solid",fontname="Helvetica"];
  Node24 [label="gblException.h",height=0.2,width=0.4,color="red", fillcolor="white", style="filled",URL="$gblException_8h.html"];
  Node24 -> Node22 [color="midnightblue",fontsize="10",style="solid",fontname="Helvetica"];
  Node24 -> Node25 [color="midnightblue",fontsize="10",style="solid",fontname="Helvetica"];
  Node25 [label="GuiBridgeLibWin32Header.h",height=0.2,width=0.4,color="grey75", fillcolor="white", style="filled"];
  Node24 -> Node13 [color="midnightblue",fontsize="10",style="solid",fontname="Helvetica"];
  Node23 -> Node22 [color="midnightblue",fontsize="10",style="solid",fontname="Helvetica"];
  Node10 -> Node26 [color="midnightblue",fontsize="10",style="solid",fontname="Helvetica"];
  Node26 [label="gblWxRadioButtonValueProxy.h",height=0.2,width=0.4,color="black", fillcolor="white", style="filled",URL="$gblWxRadioButtonValueProxy_8h.html"];
  Node26 -> Node6 [color="midnightblue",fontsize="10",style="solid",fontname="Helvetica"];
  Node26 -> Node21 [color="midnightblue",fontsize="10",style="solid",fontname="Helvetica"];
  Node10 -> Node27 [color="midnightblue",fontsize="10",style="solid",fontname="Helvetica"];
  Node27 [label="gblWxRadioBoxValueProxy.h",height=0.2,width=0.4,color="black", fillcolor="white", style="filled",URL="$gblWxRadioBoxValueProxy_8h.html"];
  Node27 -> Node6 [color="midnightblue",fontsize="10",style="solid",fontname="Helvetica"];
  Node27 -> Node28 [color="midnightblue",fontsize="10",style="solid",fontname="Helvetica"];
  Node28 [label="wx/radiobox.h",height=0.2,width=0.4,color="grey75", fillcolor="white", style="filled"];
  Node27 -> Node21 [color="midnightblue",fontsize="10",style="solid",fontname="Helvetica"];
  Node10 -> Node29 [color="midnightblue",fontsize="10",style="solid",fontname="Helvetica"];
  Node29 [label="gblWxToggleButtonValueProxy.h",height=0.2,width=0.4,color="black", fillcolor="white", style="filled",URL="$gblWxToggleButtonValueProxy_8h.html"];
  Node29 -> Node6 [color="midnightblue",fontsize="10",style="solid",fontname="Helvetica"];
  Node29 -> Node15 [color="midnightblue",fontsize="10",style="solid",fontname="Helvetica"];
  Node29 -> Node21 [color="midnightblue",fontsize="10",style="solid",fontname="Helvetica"];
  Node10 -> Node30 [color="midnightblue",fontsize="10",style="solid",fontname="Helvetica"];
  Node30 [label="gblWxListBoxValueProxy.h",height=0.2,width=0.4,color="black", fillcolor="white", style="filled",URL="$gblWxListBoxValueProxy_8h.html"];
  Node30 -> Node6 [color="midnightblue",fontsize="10",style="solid",fontname="Helvetica"];
  Node30 -> Node21 [color="midnightblue",fontsize="10",style="solid",fontname="Helvetica"];
  Node30 -> Node31 [color="midnightblue",fontsize="10",style="solid",fontname="Helvetica"];
  Node31 [label="gblWxControlWithItemsValue\lProxy.h",height=0.2,width=0.4,color="black", fillcolor="white", style="filled",URL="$gblWxControlWithItemsValueProxy_8h.html"];
  Node31 -> Node6 [color="midnightblue",fontsize="10",style="solid",fontname="Helvetica"];
  Node31 -> Node21 [color="midnightblue",fontsize="10",style="solid",fontname="Helvetica"];
  Node31 -> Node13 [color="midnightblue",fontsize="10",style="solid",fontname="Helvetica"];
  Node10 -> Node32 [color="midnightblue",fontsize="10",style="solid",fontname="Helvetica"];
  Node32 [label="gblWxComboBoxValueProxy.h",height=0.2,width=0.4,color="black", fillcolor="white", style="filled",URL="$gblWxComboBoxValueProxy_8h.html"];
  Node32 -> Node6 [color="midnightblue",fontsize="10",style="solid",fontname="Helvetica"];
  Node32 -> Node21 [color="midnightblue",fontsize="10",style="solid",fontname="Helvetica"];
  Node32 -> Node31 [color="midnightblue",fontsize="10",style="solid",fontname="Helvetica"];
  Node10 -> Node33 [color="midnightblue",fontsize="10",style="solid",fontname="Helvetica"];
  Node33 [label="gblWxChoiceValueProxy.h",height=0.2,width=0.4,color="black", fillcolor="white", style="filled",URL="$gblWxChoiceValueProxy_8h.html"];
  Node33 -> Node6 [color="midnightblue",fontsize="10",style="solid",fontname="Helvetica"];
  Node33 -> Node21 [color="midnightblue",fontsize="10",style="solid",fontname="Helvetica"];
  Node33 -> Node31 [color="midnightblue",fontsize="10",style="solid",fontname="Helvetica"];
  Node10 -> Node34 [color="midnightblue",fontsize="10",style="solid",fontname="Helvetica"];
  Node34 [label="gblWxCheckBoxValueProxy.h",height=0.2,width=0.4,color="black", fillcolor="white", style="filled",URL="$gblWxCheckBoxValueProxy_8h.html"];
  Node34 -> Node6 [color="midnightblue",fontsize="10",style="solid",fontname="Helvetica"];
  Node34 -> Node15 [color="midnightblue",fontsize="10",style="solid",fontname="Helvetica"];
  Node34 -> Node21 [color="midnightblue",fontsize="10",style="solid",fontname="Helvetica"];
  Node34 -> Node35 [color="midnightblue",fontsize="10",style="solid",fontname="Helvetica"];
  Node35 [label="wxCheckableControl.h",height=0.2,width=0.4,color="black", fillcolor="white", style="filled",URL="$wxCheckableControl_8h.html"];
  Node35 -> Node36 [color="midnightblue",fontsize="10",style="solid",fontname="Helvetica"];
  Node36 [label="TpExtLibWxWidgetsWin32Header.h",height=0.2,width=0.4,color="grey75", fillcolor="white", style="filled"];
  Node10 -> Node37 [color="midnightblue",fontsize="10",style="solid",fontname="Helvetica"];
  Node37 [label="gblWxCheckableControlValue\lProxy.h",height=0.2,width=0.4,color="black", fillcolor="white", style="filled",URL="$gblWxCheckableControlValueProxy_8h.html"];
  Node37 -> Node6 [color="midnightblue",fontsize="10",style="solid",fontname="Helvetica"];
  Node37 -> Node15 [color="midnightblue",fontsize="10",style="solid",fontname="Helvetica"];
  Node37 -> Node21 [color="midnightblue",fontsize="10",style="solid",fontname="Helvetica"];
  Node37 -> Node35 [color="midnightblue",fontsize="10",style="solid",fontname="Helvetica"];
  Node10 -> Node38 [color="midnightblue",fontsize="10",style="solid",fontname="Helvetica"];
  Node38 [label="gblBridge.h",height=0.2,width=0.4,color="black", fillcolor="white", style="filled",URL="$gblBridge_8h.html"];
  Node38 -> Node23 [color="midnightblue",fontsize="10",style="solid",fontname="Helvetica"];
  Node38 -> Node24 [color="midnightblue",fontsize="10",style="solid",fontname="Helvetica"];
  Node38 -> Node21 [color="midnightblue",fontsize="10",style="solid",fontname="Helvetica"];
  Node38 -> Node18 [color="midnightblue",fontsize="10",style="solid",fontname="Helvetica"];
  Node38 -> Node12 [color="midnightblue",fontsize="10",style="solid",fontname="Helvetica"];
  Node38 -> Node17 [color="midnightblue",fontsize="10",style="solid",fontname="Helvetica"];
  Node38 -> Node22 [color="midnightblue",fontsize="10",style="solid",fontname="Helvetica"];
  Node38 -> Node19 [color="midnightblue",fontsize="10",style="solid",fontname="Helvetica"];
  Node38 -> Node25 [color="midnightblue",fontsize="10",style="solid",fontname="Helvetica"];
  Node38 -> Node13 [color="midnightblue",fontsize="10",style="solid",fontname="Helvetica"];
  Node10 -> Node39 [color="midnightblue",fontsize="10",style="solid",fontname="Helvetica"];
  Node39 [label="gblWxButtonEventProxy.h",height=0.2,width=0.4,color="red", fillcolor="white", style="filled",URL="$gblWxButtonEventProxy_8h.html"];
  Node39 -> Node38 [color="midnightblue",fontsize="10",style="solid",fontname="Helvetica"];
  Node10 -> Node40 [color="midnightblue",fontsize="10",style="solid",fontname="Helvetica"];
  Node40 [label="gblWxChoiceBookValueProxy.h",height=0.2,width=0.4,color="red", fillcolor="white", style="filled",URL="$gblWxChoiceBookValueProxy_8h.html"];
  Node40 -> Node6 [color="midnightblue",fontsize="10",style="solid",fontname="Helvetica"];
  Node40 -> Node21 [color="midnightblue",fontsize="10",style="solid",fontname="Helvetica"];
  Node40 -> Node31 [color="midnightblue",fontsize="10",style="solid",fontname="Helvetica"];
  Node40 -> Node40 [color="midnightblue",fontsize="10",style="solid",fontname="Helvetica"];
  Node40 -> Node16 [color="midnightblue",fontsize="10",style="solid",fontname="Helvetica"];
  Node10 -> Node41 [color="midnightblue",fontsize="10",style="solid",fontname="Helvetica"];
  Node41 [label="gblWxValidate.h",height=0.2,width=0.4,color="red", fillcolor="white", style="filled",URL="$gblWxValidate_8h.html"];
  Node41 -> Node13 [color="midnightblue",fontsize="10",style="solid",fontname="Helvetica"];
  Node10 -> Node42 [color="midnightblue",fontsize="10",style="solid",fontname="Helvetica"];
  Node42 [label="gblWxSliderValueProxy.h",height=0.2,width=0.4,color="black", fillcolor="white", style="filled",URL="$gblWxSliderValueProxy_8h.html"];
  Node42 -> Node6 [color="midnightblue",fontsize="10",style="solid",fontname="Helvetica"];
  Node42 -> Node21 [color="midnightblue",fontsize="10",style="solid",fontname="Helvetica"];
  Node10 -> Node43 [color="midnightblue",fontsize="10",style="solid",fontname="Helvetica"];
  Node43 [label="gblWxFloatSliderValueProxy.h",height=0.2,width=0.4,color="red", fillcolor="white", style="filled",URL="$gblWxFloatSliderValueProxy_8h.html"];
  Node43 -> Node6 [color="midnightblue",fontsize="10",style="solid",fontname="Helvetica"];
  Node43 -> Node21 [color="midnightblue",fontsize="10",style="solid",fontname="Helvetica"];
  Node10 -> Node44 [color="midnightblue",fontsize="10",style="solid",fontname="Helvetica"];
  Node44 [label="gblWxSliderWithTextValue\lProxy.h",height=0.2,width=0.4,color="red", fillcolor="white", style="filled",URL="$gblWxSliderWithTextValueProxy_8h.html"];
  Node44 -> Node6 [color="midnightblue",fontsize="10",style="solid",fontname="Helvetica"];
  Node44 -> Node21 [color="midnightblue",fontsize="10",style="solid",fontname="Helvetica"];
  Node8 -> Node45 [color="midnightblue",fontsize="10",style="solid",fontname="Helvetica"];
  Node45 [label="blLightObject.h",height=0.2,width=0.4,color="black", fillcolor="white", style="filled",URL="$blLightObject_8h.html"];
  Node45 -> Node46 [color="midnightblue",fontsize="10",style="solid",fontname="Helvetica"];
  Node46 [label="blMacro.h",height=0.2,width=0.4,color="black", fillcolor="white", style="filled",URL="$blMacro_8h.html"];
  Node45 -> Node47 [color="midnightblue",fontsize="10",style="solid",fontname="Helvetica"];
  Node47 [label="blSmartPointer.h",height=0.2,width=0.4,color="black", fillcolor="white", style="filled",URL="$blSmartPointer_8h.html"];
  Node45 -> Node48 [color="midnightblue",fontsize="10",style="solid",fontname="Helvetica"];
  Node48 [label="BaseLibWin32Header.h",height=0.2,width=0.4,color="grey75", fillcolor="white", style="filled"];
  Node8 -> Node47 [color="midnightblue",fontsize="10",style="solid",fontname="Helvetica"];
  Node4 -> Node49 [color="midnightblue",fontsize="10",style="solid",fontname="Helvetica"];
  Node49 [label="wx/collpane.h",height=0.2,width=0.4,color="grey75", fillcolor="white", style="filled"];
  Node4 -> Node50 [color="midnightblue",fontsize="10",style="solid",fontname="Helvetica"];
  Node50 [label="wxID.h",height=0.2,width=0.4,color="black", fillcolor="white", style="filled",URL="$wxID_8h.html"];
  Node50 -> Node22 [color="midnightblue",fontsize="10",style="solid",fontname="Helvetica"];
  Node50 -> Node36 [color="midnightblue",fontsize="10",style="solid",fontname="Helvetica"];
}
