digraph "Modules/GuiBridgeLib/libmodules/guiBridgeLibQt/src/gblQLineEditValueProxy.h"
{
  edge [fontname="Helvetica",fontsize="10",labelfontname="Helvetica",labelfontsize="10"];
  node [fontname="Helvetica",fontsize="10",shape=record];
  Node1 [label="Modules/GuiBridgeLib\l/libmodules/guiBridgeLibQt\l/src/gblQLineEditValueProxy.h",height=0.2,width=0.4,color="black", fillcolor="grey75", style="filled", fontcolor="black"];
  Node1 -> Node2 [dir="back",color="midnightblue",fontsize="10",style="solid",fontname="Helvetica"];
  Node2 [label="Modules/GuiBridgeLib\l/libmodules/guiBridgeLibQt\l/src/gblBridgeQt.h",height=0.2,width=0.4,color="black", fillcolor="white", style="filled",URL="$gblBridgeQt_8h.html"];
  Node2 -> Node3 [dir="back",color="midnightblue",fontsize="10",style="solid",fontname="Helvetica"];
  Node3 [label="Modules/GuiBridgeLib\l/libmodules/guiBridgeLibQt\l/src/gblBridgeQt.cpp",height=0.2,width=0.4,color="black", fillcolor="white", style="filled",URL="$gblBridgeQt_8cpp.html"];
  Node2 -> Node4 [dir="back",color="midnightblue",fontsize="10",style="solid",fontname="Helvetica"];
  Node4 [label="Modules/GuiBridgeLib\l/libmodules/guiBridgeLibQt\l/src/gblValidateQt.h",height=0.2,width=0.4,color="black", fillcolor="white", style="filled",URL="$gblValidateQt_8h.html"];
  Node2 -> Node5 [dir="back",color="midnightblue",fontsize="10",style="solid",fontname="Helvetica"];
  Node5 [label="Modules/GuiBridgeLib\l/libmodules/guiBridgeLibQt\l/Test/src/BridgeLibQtTest.h",height=0.2,width=0.4,color="black", fillcolor="white", style="filled",URL="$BridgeLibQtTest_8h.html"];
  Node5 -> Node6 [dir="back",color="midnightblue",fontsize="10",style="solid",fontname="Helvetica"];
  Node6 [label="Modules/GuiBridgeLib\l/libmodules/guiBridgeLibQt\l/Test/src/BridgeLibQtTest.cpp",height=0.2,width=0.4,color="black", fillcolor="white", style="filled",URL="$BridgeLibQtTest_8cpp.html"];
  Node2 -> Node7 [dir="back",color="midnightblue",fontsize="10",style="solid",fontname="Helvetica"];
  Node7 [label="Modules/GuiBridgeLib\l/libmodules/guiBridgeLibQt\l/Test/src/gblQtTestGUI.cpp",height=0.2,width=0.4,color="black", fillcolor="white", style="filled",URL="$gblQtTestGUI_8cpp.html"];
  Node1 -> Node8 [dir="back",color="midnightblue",fontsize="10",style="solid",fontname="Helvetica"];
  Node8 [label="Modules/GuiBridgeLib\l/libmodules/guiBridgeLibQt\l/src/gblChangeInQWidgetObserver.h",height=0.2,width=0.4,color="black", fillcolor="white", style="filled",URL="$gblChangeInQWidgetObserver_8h.html"];
  Node8 -> Node9 [dir="back",color="midnightblue",fontsize="10",style="solid",fontname="Helvetica"];
  Node9 [label="Modules/GuiBridgeLib\l/libmodules/guiBridgeLibQt\l/src/gblChangeInQWidgetObserver.cpp",height=0.2,width=0.4,color="black", fillcolor="white", style="filled",URL="$gblChangeInQWidgetObserver_8cpp.html"];
  Node1 -> Node10 [dir="back",color="midnightblue",fontsize="10",style="solid",fontname="Helvetica"];
  Node10 [label="Modules/GuiBridgeLib\l/libmodules/guiBridgeLibQt\l/src/gblQLineEditValueProxy.cpp",height=0.2,width=0.4,color="black", fillcolor="white", style="filled",URL="$gblQLineEditValueProxy_8cpp.html"];
}
