digraph "Modules/GuiBridgeLib/libmodules/guiBridgeLib/src/gblValueProxy.h"
{
  edge [fontname="Helvetica",fontsize="10",labelfontname="Helvetica",labelfontsize="10"];
  node [fontname="Helvetica",fontsize="10",shape=record];
  Node1 [label="Modules/GuiBridgeLib\l/libmodules/guiBridgeLib\l/src/gblValueProxy.h",height=0.2,width=0.4,color="black", fillcolor="grey75", style="filled", fontcolor="black"];
  Node1 -> Node2 [dir="back",color="midnightblue",fontsize="10",style="solid",fontname="Helvetica"];
  Node2 [label="Modules/GuiBridgeLib\l/libmodules/guiBridgeLib\l/src/gblBridge.h",height=0.2,width=0.4,color="black", fillcolor="white", style="filled",URL="$gblBridge_8h.html"];
  Node2 -> Node3 [dir="back",color="midnightblue",fontsize="10",style="solid",fontname="Helvetica"];
  Node3 [label="Apps/Plugins/GenericSegmentation\lPlugin/GenericSegmentationPluginPCH.h",height=0.2,width=0.4,color="black", fillcolor="white", style="filled",URL="$GenericSegmentationPluginPCH_8h.html"];
  Node2 -> Node4 [dir="back",color="midnightblue",fontsize="10",style="solid",fontname="Helvetica"];
  Node4 [label="Apps/Plugins/SandboxPlugin\l/SandboxPluginPCH.h",height=0.2,width=0.4,color="black", fillcolor="white", style="filled",URL="$SandboxPluginPCH_8h.html"];
  Node2 -> Node5 [dir="back",color="midnightblue",fontsize="10",style="solid",fontname="Helvetica"];
  Node5 [label="Apps/Plugins/SignalViewer\lPlugin/SignalViewerPluginPCH.h",height=0.2,width=0.4,color="black", fillcolor="white", style="filled",URL="$SignalViewerPluginPCH_8h.html"];
  Node2 -> Node6 [dir="back",color="midnightblue",fontsize="10",style="solid",fontname="Helvetica"];
  Node6 [label="Modules/GuiBridgeLib\l/libmodules/guiBridgeLib\l/src/gblBridge.cpp",height=0.2,width=0.4,color="black", fillcolor="white", style="filled",URL="$gblBridge_8cpp.html"];
  Node2 -> Node7 [dir="back",color="midnightblue",fontsize="10",style="solid",fontname="Helvetica"];
  Node7 [label="Modules/GuiBridgeLib\l/libmodules/guiBridgeLib\l/src/gblEventProxy.h",height=0.2,width=0.4,color="red", fillcolor="white", style="filled",URL="$gblEventProxy_8h.html"];
  Node7 -> Node8 [dir="back",color="midnightblue",fontsize="10",style="solid",fontname="Helvetica"];
  Node8 [label="Modules/GuiBridgeLib\l/libmodules/guiBridgeLibQt\l/src/gblQPushButtonEventProxy.h",height=0.2,width=0.4,color="red", fillcolor="white", style="filled",URL="$gblQPushButtonEventProxy_8h.html"];
  Node8 -> Node9 [dir="back",color="midnightblue",fontsize="10",style="solid",fontname="Helvetica"];
  Node9 [label="Modules/GuiBridgeLib\l/libmodules/guiBridgeLibQt\l/src/gblBridgeQt.h",height=0.2,width=0.4,color="red", fillcolor="white", style="filled",URL="$gblBridgeQt_8h.html"];
  Node2 -> Node10 [dir="back",color="midnightblue",fontsize="10",style="solid",fontname="Helvetica"];
  Node10 [label="Modules/GuiBridgeLib\l/libmodules/guiBridgeLib\l/src/gblValidate.h",height=0.2,width=0.4,color="red", fillcolor="white", style="filled",URL="$gblValidate_8h.html"];
  Node10 -> Node3 [dir="back",color="midnightblue",fontsize="10",style="solid",fontname="Helvetica"];
  Node10 -> Node11 [dir="back",color="midnightblue",fontsize="10",style="solid",fontname="Helvetica"];
  Node11 [label="Apps/Plugins/GenericSegmentation\lPlugin/widgets/OtsuWidget\l/OtsuWidget.cpp",height=0.2,width=0.4,color="black", fillcolor="white", style="filled",URL="$OtsuWidget_8cpp.html"];
  Node10 -> Node12 [dir="back",color="midnightblue",fontsize="10",style="solid",fontname="Helvetica"];
  Node12 [label="Apps/Plugins/GenericSegmentation\lPlugin/widgets/RegionGrowWidget\l/RegionGrowWidget.cpp",height=0.2,width=0.4,color="black", fillcolor="white", style="filled",URL="$RegionGrowWidget_8cpp.html"];
  Node2 -> Node13 [dir="back",color="midnightblue",fontsize="10",style="solid",fontname="Helvetica"];
  Node13 [label="Modules/GuiBridgeLib\l/libmodules/guiBridgeLib\l/Test/src/BridgeLibTest.h",height=0.2,width=0.4,color="red", fillcolor="white", style="filled",URL="$BridgeLibTest_8h.html"];
  Node2 -> Node9 [dir="back",color="midnightblue",fontsize="10",style="solid",fontname="Helvetica"];
  Node2 -> Node14 [dir="back",color="midnightblue",fontsize="10",style="solid",fontname="Helvetica"];
  Node14 [label="Modules/GuiBridgeLib\l/libmodules/guiBridgeLibQt\l/src/gblValueProxyQt.h",height=0.2,width=0.4,color="red", fillcolor="white", style="filled",URL="$gblValueProxyQt_8h.html"];
  Node14 -> Node15 [dir="back",color="midnightblue",fontsize="10",style="solid",fontname="Helvetica"];
  Node15 [label="Modules/GuiBridgeLib\l/libmodules/guiBridgeLibQt\l/src/gblQComboBoxValueProxy.h",height=0.2,width=0.4,color="black", fillcolor="white", style="filled",URL="$gblQComboBoxValueProxy_8h.html"];
  Node15 -> Node9 [dir="back",color="midnightblue",fontsize="10",style="solid",fontname="Helvetica"];
  Node15 -> Node16 [dir="back",color="midnightblue",fontsize="10",style="solid",fontname="Helvetica"];
  Node16 [label="Modules/GuiBridgeLib\l/libmodules/guiBridgeLibQt\l/src/gblChangeInQWidgetObserver.h",height=0.2,width=0.4,color="red", fillcolor="white", style="filled",URL="$gblChangeInQWidgetObserver_8h.html"];
  Node15 -> Node17 [dir="back",color="midnightblue",fontsize="10",style="solid",fontname="Helvetica"];
  Node17 [label="Modules/GuiBridgeLib\l/libmodules/guiBridgeLibQt\l/src/gblQComboBoxValueProxy.cpp",height=0.2,width=0.4,color="black", fillcolor="white", style="filled",URL="$gblQComboBoxValueProxy_8cpp.html"];
  Node14 -> Node18 [dir="back",color="midnightblue",fontsize="10",style="solid",fontname="Helvetica"];
  Node18 [label="Modules/GuiBridgeLib\l/libmodules/guiBridgeLibQt\l/src/gblQRadioButtonValueProxy.h",height=0.2,width=0.4,color="red", fillcolor="white", style="filled",URL="$gblQRadioButtonValueProxy_8h.html"];
  Node18 -> Node9 [dir="back",color="midnightblue",fontsize="10",style="solid",fontname="Helvetica"];
  Node18 -> Node16 [dir="back",color="midnightblue",fontsize="10",style="solid",fontname="Helvetica"];
  Node2 -> Node18 [dir="back",color="midnightblue",fontsize="10",style="solid",fontname="Helvetica"];
  Node2 -> Node8 [dir="back",color="midnightblue",fontsize="10",style="solid",fontname="Helvetica"];
  Node2 -> Node19 [dir="back",color="midnightblue",fontsize="10",style="solid",fontname="Helvetica"];
  Node19 [label="Modules/GuiBridgeLib\l/libmodules/guiBridgeLibQt\l/Test/src/gblQtTestGUI.h",height=0.2,width=0.4,color="red", fillcolor="white", style="filled",URL="$gblQtTestGUI_8h.html"];
  Node2 -> Node20 [dir="back",color="midnightblue",fontsize="10",style="solid",fontname="Helvetica"];
  Node20 [label="Modules/GuiBridgeLib\l/libmodules/guiBridgeLibWxWidgets\l/src/gblWxBridgeLib.h",height=0.2,width=0.4,color="red", fillcolor="white", style="filled",URL="$gblWxBridgeLib_8h.html"];
  Node20 -> Node3 [dir="back",color="midnightblue",fontsize="10",style="solid",fontname="Helvetica"];
  Node20 -> Node21 [dir="back",color="midnightblue",fontsize="10",style="solid",fontname="Helvetica"];
  Node21 [label="Apps/Plugins/GenericSegmentation\lPlugin/widgets/ConnectedThresholdWidget\l/ConnectedThresholdWidget.cpp",height=0.2,width=0.4,color="black", fillcolor="white", style="filled",URL="$ConnectedThresholdWidget_8cpp.html"];
  Node20 -> Node11 [dir="back",color="midnightblue",fontsize="10",style="solid",fontname="Helvetica"];
  Node20 -> Node12 [dir="back",color="midnightblue",fontsize="10",style="solid",fontname="Helvetica"];
  Node20 -> Node22 [dir="back",color="midnightblue",fontsize="10",style="solid",fontname="Helvetica"];
  Node22 [label="Apps/Plugins/GenericSegmentation\lPlugin/widgets/ThresholdWidget\l/ThresholdWidget.cpp",height=0.2,width=0.4,color="black", fillcolor="white", style="filled",URL="$ThresholdWidget_8cpp.html"];
  Node20 -> Node4 [dir="back",color="midnightblue",fontsize="10",style="solid",fontname="Helvetica"];
  Node20 -> Node5 [dir="back",color="midnightblue",fontsize="10",style="solid",fontname="Helvetica"];
  Node2 -> Node23 [dir="back",color="midnightblue",fontsize="10",style="solid",fontname="Helvetica"];
  Node23 [label="Modules/GuiBridgeLib\l/libmodules/guiBridgeLibWxWidgets\l/src/gblWxButtonEventProxy.h",height=0.2,width=0.4,color="red", fillcolor="white", style="filled",URL="$gblWxButtonEventProxy_8h.html"];
  Node23 -> Node3 [dir="back",color="midnightblue",fontsize="10",style="solid",fontname="Helvetica"];
  Node23 -> Node21 [dir="back",color="midnightblue",fontsize="10",style="solid",fontname="Helvetica"];
  Node23 -> Node11 [dir="back",color="midnightblue",fontsize="10",style="solid",fontname="Helvetica"];
  Node23 -> Node12 [dir="back",color="midnightblue",fontsize="10",style="solid",fontname="Helvetica"];
  Node23 -> Node22 [dir="back",color="midnightblue",fontsize="10",style="solid",fontname="Helvetica"];
  Node23 -> Node4 [dir="back",color="midnightblue",fontsize="10",style="solid",fontname="Helvetica"];
  Node23 -> Node5 [dir="back",color="midnightblue",fontsize="10",style="solid",fontname="Helvetica"];
  Node23 -> Node20 [dir="back",color="midnightblue",fontsize="10",style="solid",fontname="Helvetica"];
  Node23 -> Node24 [dir="back",color="midnightblue",fontsize="10",style="solid",fontname="Helvetica"];
  Node24 [label="Modules/GuiBridgeLib\l/libmodules/guiBridgeLibWxWidgets\l/Test/src/BridgeLibWxWidgetsTest.cpp",height=0.2,width=0.4,color="black", fillcolor="white", style="filled",URL="$BridgeLibWxWidgetsTest_8cpp.html"];
  Node23 -> Node25 [dir="back",color="midnightblue",fontsize="10",style="solid",fontname="Helvetica"];
  Node25 [label="Modules/GuiBridgeLib\l/libmodules/guiBridgeLibWxWidgets\l/Test/src/gblWxWidgetsTestGUI.cpp",height=0.2,width=0.4,color="black", fillcolor="white", style="filled",URL="$gblWxWidgetsTestGUI_8cpp.html"];
  Node2 -> Node26 [dir="back",color="midnightblue",fontsize="10",style="solid",fontname="Helvetica"];
  Node26 [label="Modules/GuiBridgeLib\l/libmodules/guiBridgeLibWxWidgets\l/src/gblWxEventProxy.h",height=0.2,width=0.4,color="red", fillcolor="white", style="filled",URL="$gblWxEventProxy_8h.html"];
  Node2 -> Node27 [dir="back",color="midnightblue",fontsize="10",style="solid",fontname="Helvetica"];
  Node27 [label="Modules/GuiBridgeLib\l/libmodules/guiBridgeLibWxWidgets\l/src/gblWxEventHandler.h",height=0.2,width=0.4,color="red", fillcolor="white", style="filled",URL="$gblWxEventHandler_8h.html"];
  Node27 -> Node28 [dir="back",color="midnightblue",fontsize="10",style="solid",fontname="Helvetica"];
  Node28 [label="Modules/GuiBridgeLib\l/libmodules/guiBridgeLibWxWidgets\l/src/gblWxRadioBoxValueProxy.cpp",height=0.2,width=0.4,color="black", fillcolor="white", style="filled",URL="$gblWxRadioBoxValueProxy_8cpp.html"];
  Node27 -> Node29 [dir="back",color="midnightblue",fontsize="10",style="solid",fontname="Helvetica"];
  Node29 [label="Modules/GuiBridgeLib\l/libmodules/guiBridgeLibWxWidgets\l/src/gblWxRadioButtonValueProxy.cpp",height=0.2,width=0.4,color="black", fillcolor="white", style="filled",URL="$gblWxRadioButtonValueProxy_8cpp.html"];
  Node2 -> Node24 [dir="back",color="midnightblue",fontsize="10",style="solid",fontname="Helvetica"];
  Node2 -> Node30 [dir="back",color="midnightblue",fontsize="10",style="solid",fontname="Helvetica"];
  Node30 [label="Modules/GuiBridgeLib\l/libmodules/guiBridgeLibWxWidgets\l/Test/src/gblWxWidgetsTestGUI.h",height=0.2,width=0.4,color="red", fillcolor="white", style="filled",URL="$gblWxWidgetsTestGUI_8h.html"];
  Node30 -> Node25 [dir="back",color="midnightblue",fontsize="10",style="solid",fontname="Helvetica"];
  Node1 -> Node31 [dir="back",color="midnightblue",fontsize="10",style="solid",fontname="Helvetica"];
  Node31 [label="Modules/GuiBridgeLib\l/libmodules/guiBridgeLib\l/src/gblValueProxy.cpp",height=0.2,width=0.4,color="black", fillcolor="white", style="filled",URL="$gblValueProxy_8cpp.html"];
  Node1 -> Node15 [dir="back",color="midnightblue",fontsize="10",style="solid",fontname="Helvetica"];
  Node1 -> Node32 [dir="back",color="midnightblue",fontsize="10",style="solid",fontname="Helvetica"];
  Node32 [label="Modules/GuiBridgeLib\l/libmodules/guiBridgeLibWxWidgets\l/src/gblWxTextCtrlValueProxy.h",height=0.2,width=0.4,color="black", fillcolor="white", style="filled",URL="$gblWxTextCtrlValueProxy_8h.html"];
  Node32 -> Node20 [dir="back",color="midnightblue",fontsize="10",style="solid",fontname="Helvetica"];
  Node32 -> Node33 [dir="back",color="midnightblue",fontsize="10",style="solid",fontname="Helvetica"];
  Node33 [label="Modules/GuiBridgeLib\l/libmodules/guiBridgeLibWxWidgets\l/src/gblWxTextCtrlValueProxy.cpp",height=0.2,width=0.4,color="black", fillcolor="white", style="filled",URL="$gblWxTextCtrlValueProxy_8cpp.html"];
  Node32 -> Node25 [dir="back",color="midnightblue",fontsize="10",style="solid",fontname="Helvetica"];
  Node1 -> Node34 [dir="back",color="midnightblue",fontsize="10",style="solid",fontname="Helvetica"];
  Node34 [label="Modules/GuiBridgeLib\l/libmodules/guiBridgeLibWxWidgets\l/src/gblWxRadioButtonValueProxy.h",height=0.2,width=0.4,color="black", fillcolor="white", style="filled",URL="$gblWxRadioButtonValueProxy_8h.html"];
  Node34 -> Node20 [dir="back",color="midnightblue",fontsize="10",style="solid",fontname="Helvetica"];
  Node34 -> Node29 [dir="back",color="midnightblue",fontsize="10",style="solid",fontname="Helvetica"];
  Node1 -> Node35 [dir="back",color="midnightblue",fontsize="10",style="solid",fontname="Helvetica"];
  Node35 [label="Modules/GuiBridgeLib\l/libmodules/guiBridgeLibWxWidgets\l/src/gblWxRadioBoxValueProxy.h",height=0.2,width=0.4,color="black", fillcolor="white", style="filled",URL="$gblWxRadioBoxValueProxy_8h.html"];
  Node35 -> Node20 [dir="back",color="midnightblue",fontsize="10",style="solid",fontname="Helvetica"];
  Node35 -> Node28 [dir="back",color="midnightblue",fontsize="10",style="solid",fontname="Helvetica"];
  Node1 -> Node36 [dir="back",color="midnightblue",fontsize="10",style="solid",fontname="Helvetica"];
  Node36 [label="Modules/GuiBridgeLib\l/libmodules/guiBridgeLibWxWidgets\l/src/gblWxToggleButtonValueProxy.h",height=0.2,width=0.4,color="black", fillcolor="white", style="filled",URL="$gblWxToggleButtonValueProxy_8h.html"];
  Node36 -> Node20 [dir="back",color="midnightblue",fontsize="10",style="solid",fontname="Helvetica"];
  Node36 -> Node37 [dir="back",color="midnightblue",fontsize="10",style="solid",fontname="Helvetica"];
  Node37 [label="Modules/GuiBridgeLib\l/libmodules/guiBridgeLibWxWidgets\l/src/gblWxToggleButtonValueProxy.cpp",height=0.2,width=0.4,color="black", fillcolor="white", style="filled",URL="$gblWxToggleButtonValueProxy_8cpp.html"];
  Node1 -> Node38 [dir="back",color="midnightblue",fontsize="10",style="solid",fontname="Helvetica"];
  Node38 [label="Modules/GuiBridgeLib\l/libmodules/guiBridgeLibWxWidgets\l/src/gblWxListBoxValueProxy.h",height=0.2,width=0.4,color="black", fillcolor="white", style="filled",URL="$gblWxListBoxValueProxy_8h.html"];
  Node38 -> Node20 [dir="back",color="midnightblue",fontsize="10",style="solid",fontname="Helvetica"];
  Node38 -> Node39 [dir="back",color="midnightblue",fontsize="10",style="solid",fontname="Helvetica"];
  Node39 [label="Modules/GuiBridgeLib\l/libmodules/guiBridgeLibWxWidgets\l/src/gblWxListBoxValueProxy.cpp",height=0.2,width=0.4,color="black", fillcolor="white", style="filled",URL="$gblWxListBoxValueProxy_8cpp.html"];
  Node1 -> Node40 [dir="back",color="midnightblue",fontsize="10",style="solid",fontname="Helvetica"];
  Node40 [label="Modules/GuiBridgeLib\l/libmodules/guiBridgeLibWxWidgets\l/src/gblWxControlWithItemsValueProxy.h",height=0.2,width=0.4,color="black", fillcolor="white", style="filled",URL="$gblWxControlWithItemsValueProxy_8h.html"];
  Node40 -> Node38 [dir="back",color="midnightblue",fontsize="10",style="solid",fontname="Helvetica"];
  Node40 -> Node41 [dir="back",color="midnightblue",fontsize="10",style="solid",fontname="Helvetica"];
  Node41 [label="Modules/GuiBridgeLib\l/libmodules/guiBridgeLibWxWidgets\l/src/gblWxComboBoxValueProxy.h",height=0.2,width=0.4,color="black", fillcolor="white", style="filled",URL="$gblWxComboBoxValueProxy_8h.html"];
  Node41 -> Node20 [dir="back",color="midnightblue",fontsize="10",style="solid",fontname="Helvetica"];
  Node41 -> Node42 [dir="back",color="midnightblue",fontsize="10",style="solid",fontname="Helvetica"];
  Node42 [label="Modules/GuiBridgeLib\l/libmodules/guiBridgeLibWxWidgets\l/src/gblWxComboBoxValueProxy.cpp",height=0.2,width=0.4,color="black", fillcolor="white", style="filled",URL="$gblWxComboBoxValueProxy_8cpp.html"];
  Node40 -> Node43 [dir="back",color="midnightblue",fontsize="10",style="solid",fontname="Helvetica"];
  Node43 [label="Modules/GuiBridgeLib\l/libmodules/guiBridgeLibWxWidgets\l/src/gblWxChoiceValueProxy.h",height=0.2,width=0.4,color="red", fillcolor="white", style="filled",URL="$gblWxChoiceValueProxy_8h.html"];
  Node43 -> Node3 [dir="back",color="midnightblue",fontsize="10",style="solid",fontname="Helvetica"];
  Node43 -> Node21 [dir="back",color="midnightblue",fontsize="10",style="solid",fontname="Helvetica"];
  Node43 -> Node11 [dir="back",color="midnightblue",fontsize="10",style="solid",fontname="Helvetica"];
  Node43 -> Node12 [dir="back",color="midnightblue",fontsize="10",style="solid",fontname="Helvetica"];
  Node43 -> Node22 [dir="back",color="midnightblue",fontsize="10",style="solid",fontname="Helvetica"];
  Node43 -> Node20 [dir="back",color="midnightblue",fontsize="10",style="solid",fontname="Helvetica"];
  Node40 -> Node44 [dir="back",color="midnightblue",fontsize="10",style="solid",fontname="Helvetica"];
  Node44 [label="Modules/GuiBridgeLib\l/libmodules/guiBridgeLibWxWidgets\l/src/gblWxChoiceBookValueProxy.h",height=0.2,width=0.4,color="red", fillcolor="white", style="filled",URL="$gblWxChoiceBookValueProxy_8h.html"];
  Node44 -> Node20 [dir="back",color="midnightblue",fontsize="10",style="solid",fontname="Helvetica"];
  Node44 -> Node44 [dir="back",color="midnightblue",fontsize="10",style="solid",fontname="Helvetica"];
  Node40 -> Node45 [dir="back",color="midnightblue",fontsize="10",style="solid",fontname="Helvetica"];
  Node45 [label="Modules/GuiBridgeLib\l/libmodules/guiBridgeLibWxWidgets\l/src/gblWxControlWithItemsValueProxy.cpp",height=0.2,width=0.4,color="black", fillcolor="white", style="filled",URL="$gblWxControlWithItemsValueProxy_8cpp.html"];
  Node1 -> Node41 [dir="back",color="midnightblue",fontsize="10",style="solid",fontname="Helvetica"];
  Node1 -> Node43 [dir="back",color="midnightblue",fontsize="10",style="solid",fontname="Helvetica"];
  Node1 -> Node46 [dir="back",color="midnightblue",fontsize="10",style="solid",fontname="Helvetica"];
  Node46 [label="Modules/GuiBridgeLib\l/libmodules/guiBridgeLibWxWidgets\l/src/gblWxCheckBoxValueProxy.h",height=0.2,width=0.4,color="red", fillcolor="white", style="filled",URL="$gblWxCheckBoxValueProxy_8h.html"];
  Node46 -> Node20 [dir="back",color="midnightblue",fontsize="10",style="solid",fontname="Helvetica"];
  Node1 -> Node47 [dir="back",color="midnightblue",fontsize="10",style="solid",fontname="Helvetica"];
  Node47 [label="Modules/GuiBridgeLib\l/libmodules/guiBridgeLibWxWidgets\l/src/gblWxCheckableControlValueProxy.h",height=0.2,width=0.4,color="red", fillcolor="white", style="filled",URL="$gblWxCheckableControlValueProxy_8h.html"];
  Node47 -> Node20 [dir="back",color="midnightblue",fontsize="10",style="solid",fontname="Helvetica"];
  Node1 -> Node44 [dir="back",color="midnightblue",fontsize="10",style="solid",fontname="Helvetica"];
  Node1 -> Node48 [dir="back",color="midnightblue",fontsize="10",style="solid",fontname="Helvetica"];
  Node48 [label="Modules/GuiBridgeLib\l/libmodules/guiBridgeLibWxWidgets\l/src/gblWxSliderValueProxy.h",height=0.2,width=0.4,color="red", fillcolor="white", style="filled",URL="$gblWxSliderValueProxy_8h.html"];
  Node48 -> Node20 [dir="back",color="midnightblue",fontsize="10",style="solid",fontname="Helvetica"];
  Node1 -> Node49 [dir="back",color="midnightblue",fontsize="10",style="solid",fontname="Helvetica"];
  Node49 [label="Modules/GuiBridgeLib\l/libmodules/guiBridgeLibWxWidgets\l/src/gblWxFloatSliderValueProxy.h",height=0.2,width=0.4,color="red", fillcolor="white", style="filled",URL="$gblWxFloatSliderValueProxy_8h.html"];
  Node49 -> Node20 [dir="back",color="midnightblue",fontsize="10",style="solid",fontname="Helvetica"];
  Node1 -> Node50 [dir="back",color="midnightblue",fontsize="10",style="solid",fontname="Helvetica"];
  Node50 [label="Modules/GuiBridgeLib\l/libmodules/guiBridgeLibWxWidgets\l/src/gblWxSliderWithTextValueProxy.h",height=0.2,width=0.4,color="red", fillcolor="white", style="filled",URL="$gblWxSliderWithTextValueProxy_8h.html"];
  Node50 -> Node20 [dir="back",color="midnightblue",fontsize="10",style="solid",fontname="Helvetica"];
}
