digraph "Modules/GuiBridgeLib/libmodules/guiBridgeLibQt/src/gblValueProxyQt.h"
{
  edge [fontname="Helvetica",fontsize="10",labelfontname="Helvetica",labelfontsize="10"];
  node [fontname="Helvetica",fontsize="10",shape=record];
  Node1 [label="Modules/GuiBridgeLib\l/libmodules/guiBridgeLibQt\l/src/gblValueProxyQt.h",height=0.2,width=0.4,color="black", fillcolor="grey75", style="filled", fontcolor="black"];
  Node1 -> Node2 [dir="back",color="midnightblue",fontsize="10",style="solid",fontname="Helvetica"];
  Node2 [label="Modules/GuiBridgeLib\l/libmodules/guiBridgeLibQt\l/src/gblQTextEditValueProxy.h",height=0.2,width=0.4,color="black", fillcolor="white", style="filled",URL="$gblQTextEditValueProxy_8h.html"];
  Node2 -> Node3 [dir="back",color="midnightblue",fontsize="10",style="solid",fontname="Helvetica"];
  Node3 [label="Modules/GuiBridgeLib\l/libmodules/guiBridgeLibQt\l/src/gblBridgeQt.h",height=0.2,width=0.4,color="black", fillcolor="white", style="filled",URL="$gblBridgeQt_8h.html"];
  Node3 -> Node4 [dir="back",color="midnightblue",fontsize="10",style="solid",fontname="Helvetica"];
  Node4 [label="Modules/GuiBridgeLib\l/libmodules/guiBridgeLibQt\l/src/gblBridgeQt.cpp",height=0.2,width=0.4,color="black", fillcolor="white", style="filled",URL="$gblBridgeQt_8cpp.html"];
  Node3 -> Node5 [dir="back",color="midnightblue",fontsize="10",style="solid",fontname="Helvetica"];
  Node5 [label="Modules/GuiBridgeLib\l/libmodules/guiBridgeLibQt\l/src/gblValidateQt.h",height=0.2,width=0.4,color="black", fillcolor="white", style="filled",URL="$gblValidateQt_8h.html"];
  Node3 -> Node6 [dir="back",color="midnightblue",fontsize="10",style="solid",fontname="Helvetica"];
  Node6 [label="Modules/GuiBridgeLib\l/libmodules/guiBridgeLibQt\l/Test/src/BridgeLibQtTest.h",height=0.2,width=0.4,color="black", fillcolor="white", style="filled",URL="$BridgeLibQtTest_8h.html"];
  Node6 -> Node7 [dir="back",color="midnightblue",fontsize="10",style="solid",fontname="Helvetica"];
  Node7 [label="Modules/GuiBridgeLib\l/libmodules/guiBridgeLibQt\l/Test/src/BridgeLibQtTest.cpp",height=0.2,width=0.4,color="black", fillcolor="white", style="filled",URL="$BridgeLibQtTest_8cpp.html"];
  Node3 -> Node8 [dir="back",color="midnightblue",fontsize="10",style="solid",fontname="Helvetica"];
  Node8 [label="Modules/GuiBridgeLib\l/libmodules/guiBridgeLibQt\l/Test/src/gblQtTestGUI.cpp",height=0.2,width=0.4,color="black", fillcolor="white", style="filled",URL="$gblQtTestGUI_8cpp.html"];
  Node2 -> Node9 [dir="back",color="midnightblue",fontsize="10",style="solid",fontname="Helvetica"];
  Node9 [label="Modules/GuiBridgeLib\l/libmodules/guiBridgeLibQt\l/src/gblQTextEditValueProxy.cpp",height=0.2,width=0.4,color="black", fillcolor="white", style="filled",URL="$gblQTextEditValueProxy_8cpp.html"];
  Node1 -> Node10 [dir="back",color="midnightblue",fontsize="10",style="solid",fontname="Helvetica"];
  Node10 [label="Modules/GuiBridgeLib\l/libmodules/guiBridgeLibQt\l/src/gblQLineEditValueProxy.h",height=0.2,width=0.4,color="black", fillcolor="white", style="filled",URL="$gblQLineEditValueProxy_8h.html"];
  Node10 -> Node3 [dir="back",color="midnightblue",fontsize="10",style="solid",fontname="Helvetica"];
  Node10 -> Node11 [dir="back",color="midnightblue",fontsize="10",style="solid",fontname="Helvetica"];
  Node11 [label="Modules/GuiBridgeLib\l/libmodules/guiBridgeLibQt\l/src/gblChangeInQWidgetObserver.h",height=0.2,width=0.4,color="black", fillcolor="white", style="filled",URL="$gblChangeInQWidgetObserver_8h.html"];
  Node11 -> Node12 [dir="back",color="midnightblue",fontsize="10",style="solid",fontname="Helvetica"];
  Node12 [label="Modules/GuiBridgeLib\l/libmodules/guiBridgeLibQt\l/src/gblChangeInQWidgetObserver.cpp",height=0.2,width=0.4,color="black", fillcolor="white", style="filled",URL="$gblChangeInQWidgetObserver_8cpp.html"];
  Node10 -> Node13 [dir="back",color="midnightblue",fontsize="10",style="solid",fontname="Helvetica"];
  Node13 [label="Modules/GuiBridgeLib\l/libmodules/guiBridgeLibQt\l/src/gblQLineEditValueProxy.cpp",height=0.2,width=0.4,color="black", fillcolor="white", style="filled",URL="$gblQLineEditValueProxy_8cpp.html"];
  Node1 -> Node14 [dir="back",color="midnightblue",fontsize="10",style="solid",fontname="Helvetica"];
  Node14 [label="Modules/GuiBridgeLib\l/libmodules/guiBridgeLibQt\l/src/gblQCheckBoxValueProxy.h",height=0.2,width=0.4,color="black", fillcolor="white", style="filled",URL="$gblQCheckBoxValueProxy_8h.html"];
  Node14 -> Node3 [dir="back",color="midnightblue",fontsize="10",style="solid",fontname="Helvetica"];
  Node14 -> Node11 [dir="back",color="midnightblue",fontsize="10",style="solid",fontname="Helvetica"];
  Node14 -> Node15 [dir="back",color="midnightblue",fontsize="10",style="solid",fontname="Helvetica"];
  Node15 [label="Modules/GuiBridgeLib\l/libmodules/guiBridgeLibQt\l/src/gblQCheckBoxValueProxy.cpp",height=0.2,width=0.4,color="black", fillcolor="white", style="filled",URL="$gblQCheckBoxValueProxy_8cpp.html"];
  Node1 -> Node16 [dir="back",color="midnightblue",fontsize="10",style="solid",fontname="Helvetica"];
  Node16 [label="Modules/GuiBridgeLib\l/libmodules/guiBridgeLibQt\l/src/gblQComboBoxValueProxy.h",height=0.2,width=0.4,color="black", fillcolor="white", style="filled",URL="$gblQComboBoxValueProxy_8h.html"];
  Node16 -> Node3 [dir="back",color="midnightblue",fontsize="10",style="solid",fontname="Helvetica"];
  Node16 -> Node11 [dir="back",color="midnightblue",fontsize="10",style="solid",fontname="Helvetica"];
  Node16 -> Node17 [dir="back",color="midnightblue",fontsize="10",style="solid",fontname="Helvetica"];
  Node17 [label="Modules/GuiBridgeLib\l/libmodules/guiBridgeLibQt\l/src/gblQComboBoxValueProxy.cpp",height=0.2,width=0.4,color="black", fillcolor="white", style="filled",URL="$gblQComboBoxValueProxy_8cpp.html"];
  Node1 -> Node18 [dir="back",color="midnightblue",fontsize="10",style="solid",fontname="Helvetica"];
  Node18 [label="Modules/GuiBridgeLib\l/libmodules/guiBridgeLibQt\l/src/gblQRadioButtonValueProxy.h",height=0.2,width=0.4,color="black", fillcolor="white", style="filled",URL="$gblQRadioButtonValueProxy_8h.html"];
  Node18 -> Node3 [dir="back",color="midnightblue",fontsize="10",style="solid",fontname="Helvetica"];
  Node18 -> Node11 [dir="back",color="midnightblue",fontsize="10",style="solid",fontname="Helvetica"];
  Node18 -> Node19 [dir="back",color="midnightblue",fontsize="10",style="solid",fontname="Helvetica"];
  Node19 [label="Modules/GuiBridgeLib\l/libmodules/guiBridgeLibQt\l/src/gblQRadioButtonValueProxy.cpp",height=0.2,width=0.4,color="black", fillcolor="white", style="filled",URL="$gblQRadioButtonValueProxy_8cpp.html"];
  Node1 -> Node20 [dir="back",color="midnightblue",fontsize="10",style="solid",fontname="Helvetica"];
  Node20 [label="Modules/GuiBridgeLib\l/libmodules/guiBridgeLibQt\l/src/gblQSliderValueProxy.h",height=0.2,width=0.4,color="black", fillcolor="white", style="filled",URL="$gblQSliderValueProxy_8h.html"];
  Node20 -> Node21 [dir="back",color="midnightblue",fontsize="10",style="solid",fontname="Helvetica"];
  Node21 [label="Modules/GuiBridgeLib\l/libmodules/guiBridgeLibQt\l/src/gblQSliderValueProxy.cpp",height=0.2,width=0.4,color="black", fillcolor="white", style="filled",URL="$gblQSliderValueProxy_8cpp.html"];
  Node1 -> Node22 [dir="back",color="midnightblue",fontsize="10",style="solid",fontname="Helvetica"];
  Node22 [label="Modules/GuiBridgeLib\l/libmodules/guiBridgeLibQt\l/src/gblQSpinBoxValueProxy.h",height=0.2,width=0.4,color="black", fillcolor="white", style="filled",URL="$gblQSpinBoxValueProxy_8h.html"];
  Node22 -> Node23 [dir="back",color="midnightblue",fontsize="10",style="solid",fontname="Helvetica"];
  Node23 [label="Modules/GuiBridgeLib\l/libmodules/guiBridgeLibQt\l/src/gblQSpinBoxValueProxy.cpp",height=0.2,width=0.4,color="black", fillcolor="white", style="filled",URL="$gblQSpinBoxValueProxy_8cpp.html"];
  Node1 -> Node24 [dir="back",color="midnightblue",fontsize="10",style="solid",fontname="Helvetica"];
  Node24 [label="Modules/GuiBridgeLib\l/libmodules/guiBridgeLibQt\l/src/gblValueProxyQt.cpp",height=0.2,width=0.4,color="black", fillcolor="white", style="filled",URL="$gblValueProxyQt_8cpp.html"];
}
