digraph "Modules/GuiBridgeLib/libmodules/guiBridgeLibWxWidgets/src/gblWxBridgeLib.h"
{
  edge [fontname="Helvetica",fontsize="10",labelfontname="Helvetica",labelfontsize="10"];
  node [fontname="Helvetica",fontsize="10",shape=record];
  Node1 [label="Modules/GuiBridgeLib\l/libmodules/guiBridgeLibWxWidgets\l/src/gblWxBridgeLib.h",height=0.2,width=0.4,color="black", fillcolor="grey75", style="filled", fontcolor="black"];
  Node1 -> Node2 [dir="back",color="midnightblue",fontsize="10",style="solid",fontname="Helvetica"];
  Node2 [label="Apps/Plugins/GenericSegmentation\lPlugin/GenericSegmentationPluginPCH.h",height=0.2,width=0.4,color="black", fillcolor="white", style="filled",URL="$GenericSegmentationPluginPCH_8h.html"];
  Node1 -> Node3 [dir="back",color="midnightblue",fontsize="10",style="solid",fontname="Helvetica"];
  Node3 [label="Apps/Plugins/GenericSegmentation\lPlugin/widgets/ConnectedThresholdWidget\l/ConnectedThresholdWidget.cpp",height=0.2,width=0.4,color="black", fillcolor="white", style="filled",URL="$ConnectedThresholdWidget_8cpp.html"];
  Node1 -> Node4 [dir="back",color="midnightblue",fontsize="10",style="solid",fontname="Helvetica"];
  Node4 [label="Apps/Plugins/GenericSegmentation\lPlugin/widgets/GenericSegmentation\lPluginBetweenModalitiesTransformPanelWidget\l/GenericSegmentationPluginBetweenModalitiesTransform\lPanelWidget.cpp",height=0.2,width=0.4,color="black", fillcolor="white", style="filled",URL="$GenericSegmentationPluginBetweenModalitiesTransformPanelWidget_8cpp.html"];
  Node1 -> Node5 [dir="back",color="midnightblue",fontsize="10",style="solid",fontname="Helvetica"];
  Node5 [label="Apps/Plugins/GenericSegmentation\lPlugin/widgets/GenericSegmentation\lPluginPhilipsSegmentedScarMeshPanelWidget\l/GenericSegmentationPluginPhilipsSegmentedScarMesh\lPanelWidget.cpp",height=0.2,width=0.4,color="black", fillcolor="white", style="filled",URL="$GenericSegmentationPluginPhilipsSegmentedScarMeshPanelWidget_8cpp.html"];
  Node1 -> Node6 [dir="back",color="midnightblue",fontsize="10",style="solid",fontname="Helvetica"];
  Node6 [label="Apps/Plugins/GenericSegmentation\lPlugin/widgets/GenericSegmentation\lPluginPropagateLandmarksPanelWidget\l/GenericSegmentationPluginPropagateLandmarks\lPanelWidget.cpp",height=0.2,width=0.4,color="black", fillcolor="white", style="filled",URL="$GenericSegmentationPluginPropagateLandmarksPanelWidget_8cpp.html"];
  Node1 -> Node7 [dir="back",color="midnightblue",fontsize="10",style="solid",fontname="Helvetica"];
  Node7 [label="Apps/Plugins/GenericSegmentation\lPlugin/widgets/gspPhilipsSegmented\lScarMeshPanelWidget/gspPhilipsSegmentedScar\lMeshPanelWidget.cpp",height=0.2,width=0.4,color="black", fillcolor="white", style="filled",URL="$gspPhilipsSegmentedScarMeshPanelWidget_8cpp.html"];
  Node1 -> Node8 [dir="back",color="midnightblue",fontsize="10",style="solid",fontname="Helvetica"];
  Node8 [label="Apps/Plugins/GenericSegmentation\lPlugin/widgets/gspPropagateLandmarks\lPanelWidget/gspPropagateLandmarksPanelWidget.cpp",height=0.2,width=0.4,color="black", fillcolor="white", style="filled",URL="$gspPropagateLandmarksPanelWidget_8cpp.html"];
  Node1 -> Node9 [dir="back",color="midnightblue",fontsize="10",style="solid",fontname="Helvetica"];
  Node9 [label="Apps/Plugins/GenericSegmentation\lPlugin/widgets/ManualCorrectionWidget\l/ManualCorrectionsPanelWidget.cpp",height=0.2,width=0.4,color="black", fillcolor="white", style="filled",URL="$ManualCorrectionsPanelWidget_8cpp.html"];
  Node1 -> Node10 [dir="back",color="midnightblue",fontsize="10",style="solid",fontname="Helvetica"];
  Node10 [label="Apps/Plugins/GenericSegmentation\lPlugin/widgets/MaskImageToROIImage\lWidget/MaskImageToROIImageWidget.cpp",height=0.2,width=0.4,color="black", fillcolor="white", style="filled",URL="$MaskImageToROIImageWidget_8cpp.html"];
  Node1 -> Node11 [dir="back",color="midnightblue",fontsize="10",style="solid",fontname="Helvetica"];
  Node11 [label="Apps/Plugins/GenericSegmentation\lPlugin/widgets/OtsuWidget\l/OtsuWidget.cpp",height=0.2,width=0.4,color="black", fillcolor="white", style="filled",URL="$OtsuWidget_8cpp.html"];
  Node1 -> Node12 [dir="back",color="midnightblue",fontsize="10",style="solid",fontname="Helvetica"];
  Node12 [label="Apps/Plugins/GenericSegmentation\lPlugin/widgets/RegionGrowWidget\l/RegionGrowWidget.cpp",height=0.2,width=0.4,color="black", fillcolor="white", style="filled",URL="$RegionGrowWidget_8cpp.html"];
  Node1 -> Node13 [dir="back",color="midnightblue",fontsize="10",style="solid",fontname="Helvetica"];
  Node13 [label="Apps/Plugins/GenericSegmentation\lPlugin/widgets/ThresholdPhilipsPanel\lWidget/ThresholdPhilipsPanelWidget.cpp",height=0.2,width=0.4,color="black", fillcolor="white", style="filled",URL="$ThresholdPhilipsPanelWidget_8cpp.html"];
  Node1 -> Node14 [dir="back",color="midnightblue",fontsize="10",style="solid",fontname="Helvetica"];
  Node14 [label="Apps/Plugins/GenericSegmentation\lPlugin/widgets/ThresholdWidget\l/ThresholdWidget.cpp",height=0.2,width=0.4,color="black", fillcolor="white", style="filled",URL="$ThresholdWidget_8cpp.html"];
  Node1 -> Node15 [dir="back",color="midnightblue",fontsize="10",style="solid",fontname="Helvetica"];
  Node15 [label="Apps/Plugins/GenericSegmentation\lPlugin/widgets/TransformationBoxWidget\l/TransformationBoxPanelWidget.cpp",height=0.2,width=0.4,color="black", fillcolor="white", style="filled",URL="$TransformationBoxPanelWidget_8cpp.html"];
  Node1 -> Node16 [dir="back",color="midnightblue",fontsize="10",style="solid",fontname="Helvetica"];
  Node16 [label="Apps/Plugins/GenericSegmentation\lPlugin/widgets/VtkConnectedThreshold\lWidget/VtkConnectedThresholdPanelWidget.cpp",height=0.2,width=0.4,color="black", fillcolor="white", style="filled",URL="$VtkConnectedThresholdPanelWidget_8cpp.html"];
  Node1 -> Node17 [dir="back",color="midnightblue",fontsize="10",style="solid",fontname="Helvetica"];
  Node17 [label="Apps/Plugins/ImageToolsPlugin\l/widgets/PointBasedImageAlignement\lWidget/PointBasedImageAlignementPanelWidget.cpp",height=0.2,width=0.4,color="black", fillcolor="white", style="filled",URL="$PointBasedImageAlignementPanelWidget_8cpp.html"];
  Node1 -> Node18 [dir="back",color="midnightblue",fontsize="10",style="solid",fontname="Helvetica"];
  Node18 [label="Apps/Plugins/ManualSegmentation\lPlugin/ManualSegmentationPluginPCH.h",height=0.2,width=0.4,color="black", fillcolor="white", style="filled",URL="$ManualSegmentationPluginPCH_8h.html"];
  Node1 -> Node19 [dir="back",color="midnightblue",fontsize="10",style="solid",fontname="Helvetica"];
  Node19 [label="Apps/Plugins/ManualSegmentation\lPlugin/widgets/InteractiveSegmPanel\lWidget/InteractiveSegmPanelWidget.cpp",height=0.2,width=0.4,color="black", fillcolor="white", style="filled",URL="$InteractiveSegmPanelWidget_8cpp.html"];
  Node1 -> Node20 [dir="back",color="midnightblue",fontsize="10",style="solid",fontname="Helvetica"];
  Node20 [label="Apps/Plugins/ManualSegmentation\lPlugin/widgets/ManualSegmentationWidget\l/ManualSegmentationPanelWidget.cpp",height=0.2,width=0.4,color="black", fillcolor="white", style="filled",URL="$ManualSegmentationPanelWidget_8cpp.html"];
  Node1 -> Node21 [dir="back",color="midnightblue",fontsize="10",style="solid",fontname="Helvetica"];
  Node21 [label="Apps/Plugins/ManualSegmentation\lPlugin/widgets/MultiLevelROIPanelWidget\l/MultiLevelROIPanelWidget.cpp",height=0.2,width=0.4,color="black", fillcolor="white", style="filled",URL="$MultiLevelROIPanelWidget_8cpp.html"];
  Node1 -> Node22 [dir="back",color="midnightblue",fontsize="10",style="solid",fontname="Helvetica"];
  Node22 [label="Apps/Plugins/MeshEditorPlugin\l/widgets/BooleanOperationsWidget\l/BooleanOperationsPanelWidget.cpp",height=0.2,width=0.4,color="black", fillcolor="white", style="filled",URL="$BooleanOperationsPanelWidget_8cpp.html"];
  Node1 -> Node23 [dir="back",color="midnightblue",fontsize="10",style="solid",fontname="Helvetica"];
  Node23 [label="Apps/Plugins/MeshEditorPlugin\l/widgets/ManualNeckCuttingWidget\l/ManualNeckCuttingPanelWidget.cpp",height=0.2,width=0.4,color="black", fillcolor="white", style="filled",URL="$ManualNeckCuttingPanelWidget_8cpp.html"];
  Node1 -> Node24 [dir="back",color="midnightblue",fontsize="10",style="solid",fontname="Helvetica"];
  Node24 [label="Apps/Plugins/SandboxPlugin\l/SandboxPluginPCH.h",height=0.2,width=0.4,color="black", fillcolor="white", style="filled",URL="$SandboxPluginPCH_8h.html"];
  Node1 -> Node25 [dir="back",color="midnightblue",fontsize="10",style="solid",fontname="Helvetica"];
  Node25 [label="Apps/Plugins/SignalViewer\lPlugin/SignalViewerPluginPCH.h",height=0.2,width=0.4,color="black", fillcolor="white", style="filled",URL="$SignalViewerPluginPCH_8h.html"];
  Node1 -> Node26 [dir="back",color="midnightblue",fontsize="10",style="solid",fontname="Helvetica"];
  Node26 [label="Modules/DynLib/dynWxAGUILib\lPCH.h",height=0.2,width=0.4,color="black", fillcolor="white", style="filled",URL="$dynWxAGUILibPCH_8h.html"];
  Node1 -> Node27 [dir="back",color="midnightblue",fontsize="10",style="solid",fontname="Helvetica"];
  Node27 [label="Modules/DynLib/libmodules\l/dynWxAGUI/src/dynWxGUIUpdater.h",height=0.2,width=0.4,color="black", fillcolor="white", style="filled",URL="$dynWxGUIUpdater_8h.html"];
  Node27 -> Node28 [dir="back",color="midnightblue",fontsize="10",style="solid",fontname="Helvetica"];
  Node28 [label="Modules/DynLib/libmodules\l/dynWxAGUI/src/dynBasePanel.h",height=0.2,width=0.4,color="black", fillcolor="white", style="filled",URL="$dynBasePanel_8h.html"];
  Node28 -> Node29 [dir="back",color="midnightblue",fontsize="10",style="solid",fontname="Helvetica"];
  Node29 [label="Modules/DynLib/libmodules\l/dynWxAGUI/src/dynBasePanel.cpp",height=0.2,width=0.4,color="black", fillcolor="white", style="filled",URL="$dynBasePanel_8cpp.html"];
  Node28 -> Node30 [dir="back",color="midnightblue",fontsize="10",style="solid",fontname="Helvetica"];
  Node30 [label="Modules/DynLib/libmodules\l/dynWxAGUI/src/dynWxAGUIBuilder.h",height=0.2,width=0.4,color="black", fillcolor="white", style="filled",URL="$dynWxAGUIBuilder_8h.html"];
  Node30 -> Node31 [dir="back",color="midnightblue",fontsize="10",style="solid",fontname="Helvetica"];
  Node31 [label="Apps/Gimias/GUI/Widgets\l/src/PluginTab/corePluginTab.cxx",height=0.2,width=0.4,color="black", fillcolor="white", style="filled",URL="$corePluginTab_8cxx.html"];
  Node30 -> Node32 [dir="back",color="midnightblue",fontsize="10",style="solid",fontname="Helvetica"];
  Node32 [label="Apps/Gimias/GUI/Widgets\l/src/ProcessingToolbox\l/coreDynProcessingWidget.cpp",height=0.2,width=0.4,color="black", fillcolor="white", style="filled",URL="$coreDynProcessingWidget_8cpp.html"];
  Node30 -> Node33 [dir="back",color="midnightblue",fontsize="10",style="solid",fontname="Helvetica"];
  Node33 [label="Modules/DynLib/Applications\l/dynAppWxAGUI/dynAppWxAGUI.h",height=0.2,width=0.4,color="black", fillcolor="white", style="filled",URL="$dynAppWxAGUI_8h.html"];
  Node33 -> Node34 [dir="back",color="midnightblue",fontsize="10",style="solid",fontname="Helvetica"];
  Node34 [label="Modules/DynLib/Applications\l/dynAppWxAGUI/dynAppWxAGUI.cxx",height=0.2,width=0.4,color="black", fillcolor="white", style="filled",URL="$dynAppWxAGUI_8cxx.html"];
  Node30 -> Node35 [dir="back",color="midnightblue",fontsize="10",style="solid",fontname="Helvetica"];
  Node35 [label="Modules/DynLib/libmodules\l/dynWxAGUI/src/dynWxAGUIBuilder.cpp",height=0.2,width=0.4,color="black", fillcolor="white", style="filled",URL="$dynWxAGUIBuilder_8cpp.html"];
  Node28 -> Node36 [dir="back",color="midnightblue",fontsize="10",style="solid",fontname="Helvetica"];
  Node36 [label="Modules/DynLib/libmodules\l/dynWxAGUI/src/dynWxControlFactory\lBase.h",height=0.2,width=0.4,color="black", fillcolor="white", style="filled",URL="$dynWxControlFactoryBase_8h.html"];
  Node36 -> Node37 [dir="back",color="midnightblue",fontsize="10",style="solid",fontname="Helvetica"];
  Node37 [label="Modules/DynLib/libmodules\l/dynWxAGUI/src/dynWxControlFactory.h",height=0.2,width=0.4,color="black", fillcolor="white", style="filled",URL="$dynWxControlFactory_8h.html"];
  Node37 -> Node19 [dir="back",color="midnightblue",fontsize="10",style="solid",fontname="Helvetica"];
  Node37 -> Node30 [dir="back",color="midnightblue",fontsize="10",style="solid",fontname="Helvetica"];
  Node37 -> Node38 [dir="back",color="midnightblue",fontsize="10",style="solid",fontname="Helvetica"];
  Node38 [label="Modules/DynLib/libmodules\l/dynWxAGUI/src/dynWxControlFactory.cpp",height=0.2,width=0.4,color="black", fillcolor="white", style="filled",URL="$dynWxControlFactory_8cpp.html"];
  Node27 -> Node30 [dir="back",color="midnightblue",fontsize="10",style="solid",fontname="Helvetica"];
  Node27 -> Node39 [dir="back",color="midnightblue",fontsize="10",style="solid",fontname="Helvetica"];
  Node39 [label="Modules/DynLib/libmodules\l/dynWxAGUI/src/dynWxGUIUpdater.cpp",height=0.2,width=0.4,color="black", fillcolor="white", style="filled",URL="$dynWxGUIUpdater_8cpp.html"];
  Node1 -> Node40 [dir="back",color="midnightblue",fontsize="10",style="solid",fontname="Helvetica"];
  Node40 [label="Modules/GuiBridgeLib\l/libmodules/guiBridgeLibWxWidgets\l/TestApplication/src/GuiBridgeLibWxWidgets\lTestApp.h",height=0.2,width=0.4,color="black", fillcolor="white", style="filled",URL="$GuiBridgeLibWxWidgetsTestApp_8h.html"];
  Node40 -> Node41 [dir="back",color="midnightblue",fontsize="10",style="solid",fontname="Helvetica"];
  Node41 [label="Modules/GuiBridgeLib\l/libmodules/guiBridgeLibWxWidgets\l/TestApplication/src/GuiBridgeLibWxWidgets\lTestApp.cpp",height=0.2,width=0.4,color="black", fillcolor="white", style="filled",URL="$GuiBridgeLibWxWidgetsTestApp_8cpp.html"];
}
