digraph "Apps/Plugins/GenericSegmentationPlugin/widgets/Generate3DRoiPanelWidget/GenerateSpherePanelWidgetUI.h"
{
  edge [fontname="Helvetica",fontsize="10",labelfontname="Helvetica",labelfontsize="10"];
  node [fontname="Helvetica",fontsize="10",shape=record];
  Node1 [label="Apps/Plugins/GenericSegmentation\lPlugin/widgets/Generate3DRoiPanelWidget\l/GenerateSpherePanelWidgetUI.h",height=0.2,width=0.4,color="black", fillcolor="grey75", style="filled", fontcolor="black"];
  Node1 -> Node2 [dir="back",color="midnightblue",fontsize="10",style="solid",fontname="Helvetica"];
  Node2 [label="Apps/Plugins/GenericSegmentation\lPlugin/widgets/Generate3DRoiPanelWidget\l/GenerateSpherePanelWidget.h",height=0.2,width=0.4,color="black", fillcolor="white", style="filled",URL="$GenerateSpherePanelWidget_8h.html"];
  Node2 -> Node3 [dir="back",color="midnightblue",fontsize="10",style="solid",fontname="Helvetica"];
  Node3 [label="Apps/Plugins/GenericSegmentation\lPlugin/GenericSegmentationPluginWidget\lCollective.cxx",height=0.2,width=0.4,color="black", fillcolor="white", style="filled",URL="$GenericSegmentationPluginWidgetCollective_8cxx.html"];
  Node2 -> Node4 [dir="back",color="midnightblue",fontsize="10",style="solid",fontname="Helvetica"];
  Node4 [label="Apps/Plugins/GenericSegmentation\lPlugin/widgets/Generate3DRoiPanelWidget\l/GenerateSpherePanelWidget.cpp",height=0.2,width=0.4,color="black", fillcolor="white", style="filled",URL="$GenerateSpherePanelWidget_8cpp.html"];
  Node1 -> Node5 [dir="back",color="midnightblue",fontsize="10",style="solid",fontname="Helvetica"];
  Node5 [label="Apps/Plugins/GenericSegmentation\lPlugin/widgets/Generate3DRoiPanelWidget\l/GenerateSpherePanelWidgetUI.cpp",height=0.2,width=0.4,color="black", fillcolor="white", style="filled",URL="$GenerateSpherePanelWidgetUI_8cpp.html"];
}
