digraph "Apps/Plugins/GenericSegmentationPlugin/widgets/GenericSegmentationPluginPropagateLandmarksPanelWidget/GenericSegmentationPluginPropagateLandmarksPanelWidgetUI.h"
{
  edge [fontname="Helvetica",fontsize="10",labelfontname="Helvetica",labelfontsize="10"];
  node [fontname="Helvetica",fontsize="10",shape=record];
  Node1 [label="Apps/Plugins/GenericSegmentation\lPlugin/widgets/GenericSegmentation\lPluginPropagateLandmarksPanelWidget\l/GenericSegmentationPluginPropagateLandmarks\lPanelWidgetUI.h",height=0.2,width=0.4,color="black", fillcolor="grey75", style="filled", fontcolor="black"];
  Node1 -> Node2 [dir="back",color="midnightblue",fontsize="10",style="solid",fontname="Helvetica"];
  Node2 [label="Apps/Plugins/GenericSegmentation\lPlugin/widgets/GenericSegmentation\lPluginPropagateLandmarksPanelWidget\l/GenericSegmentationPluginPropagateLandmarks\lPanelWidget.h",height=0.2,width=0.4,color="black", fillcolor="white", style="filled",URL="$GenericSegmentationPluginPropagateLandmarksPanelWidget_8h.html"];
  Node2 -> Node3 [dir="back",color="midnightblue",fontsize="10",style="solid",fontname="Helvetica"];
  Node3 [label="Apps/Plugins/GenericSegmentation\lPlugin/widgets/GenericSegmentation\lPluginPropagateLandmarksPanelWidget\l/GenericSegmentationPluginPropagateLandmarks\lPanelWidget.cpp",height=0.2,width=0.4,color="black", fillcolor="white", style="filled",URL="$GenericSegmentationPluginPropagateLandmarksPanelWidget_8cpp.html"];
  Node1 -> Node4 [dir="back",color="midnightblue",fontsize="10",style="solid",fontname="Helvetica"];
  Node4 [label="Apps/Plugins/GenericSegmentation\lPlugin/widgets/GenericSegmentation\lPluginPropagateLandmarksPanelWidget\l/GenericSegmentationPluginPropagateLandmarks\lPanelWidgetUI.cpp",height=0.2,width=0.4,color="black", fillcolor="white", style="filled",URL="$GenericSegmentationPluginPropagateLandmarksPanelWidgetUI_8cpp.html"];
}
