digraph "Apps/Plugins/MITKPlugin/processors/TransferFunction/gmImageVisTransferFunctionReader.h"
{
  edge [fontname="Helvetica",fontsize="10",labelfontname="Helvetica",labelfontsize="10"];
  node [fontname="Helvetica",fontsize="10",shape=record];
  Node1 [label="Apps/Plugins/MITKPlugin\l/processors/TransferFunction\l/gmImageVisTransferFunctionReader.h",height=0.2,width=0.4,color="black", fillcolor="grey75", style="filled", fontcolor="black"];
  Node1 -> Node2 [dir="back",color="midnightblue",fontsize="10",style="solid",fontname="Helvetica"];
  Node2 [label="Apps/Plugins/MITKPlugin\l/processors/TransferFunction\l/gmImageVisTransferFunctionReader.cpp",height=0.2,width=0.4,color="black", fillcolor="white", style="filled",URL="$gmImageVisTransferFunctionReader_8cpp.html"];
}
