digraph "BaseLibVTKTest"
{
  edge [fontname="Helvetica",fontsize="10",labelfontname="Helvetica",labelfontsize="10"];
  node [fontname="Helvetica",fontsize="10",shape=record];
  rankdir=LR;
  Node1 [label="BaseLib Tests",height=0.2,width=0.4,color="black", fillcolor="white", style="filled",URL="$group__baseLibtests.html",tooltip="The BaseLib tests. "];
  Node0 [label="BaseLibVTKTest",height=0.2,width=0.4,color="black", fillcolor="grey75", style="filled", fontcolor="black"];
  Node1->Node0 [shape=plaintext, color="midnightblue", dir="back", style="solid"];
}
