digraph "VTK Readers"
{
  edge [fontname="Helvetica",fontsize="10",labelfontname="Helvetica",labelfontsize="10"];
  node [fontname="Helvetica",fontsize="10",shape=record];
  rankdir=LR;
  Node0 [label="VTK Readers",height=0.2,width=0.4,color="black", fillcolor="grey75", style="filled", fontcolor="black"];
  Node1 [label="Viewer",height=0.2,width=0.4,color="black", fillcolor="white", style="filled",URL="$group__viewer.html"];
  Node2 [label="DCMAPI Readers",height=0.2,width=0.4,color="black", fillcolor="white", style="filled",URL="$group__dcmapiread.html"];
  Node4 [label="ITK Readers",height=0.2,width=0.4,color="black", fillcolor="white", style="filled",URL="$group__itkread.html"];
  Node3 [label="dcmtk Readers",height=0.2,width=0.4,color="black", fillcolor="white", style="filled",URL="$group__dcmtkread.html"];
  Node1->Node0 [shape=plaintext, color="midnightblue", dir="back", style="solid"];
  Node0->Node2 [shape=plaintext, label="dcmapi\ndcmapi::apps", color="blueviolet", dir="none", style="dashed"];
  Node0->Node3 [shape=plaintext, label="dcmapi\ndcmapi::apps", color="blueviolet", dir="none", style="dashed"];
  Node0->Node4 [shape=plaintext, label="dcmapi\ndcmapi::apps", color="blueviolet", dir="none", style="dashed"];
}
