digraph "MeshLib Applications"
{
  edge [fontname="Helvetica",fontsize="10",labelfontname="Helvetica",labelfontsize="10"];
  node [fontname="Helvetica",fontsize="10",shape=record];
  rankdir=LR;
  Node3 [label="meAppTools",height=0.2,width=0.4,color="black", fillcolor="white", style="filled",URL="$group__meAppTools.html",tooltip="meAppTools "];
  Node2 [label="meAppNetgen",height=0.2,width=0.4,color="black", fillcolor="white", style="filled",URL="$group__meAppNetgen.html",tooltip="meAppNetgen "];
  Node1 [label="Applications",height=0.2,width=0.4,color="black", fillcolor="white", style="filled",URL="$group__applications.html"];
  Node0 [label="MeshLib Applications",height=0.2,width=0.4,color="black", fillcolor="grey75", style="filled", fontcolor="black"];
  Node1->Node0 [shape=plaintext, color="midnightblue", dir="back", style="solid"];
  Node0->Node2 [shape=plaintext, color="midnightblue", dir="back", style="solid"];
  Node0->Node3 [shape=plaintext, color="midnightblue", dir="back", style="solid"];
}
