digraph "blCommon"
{
  edge [fontname="Helvetica",fontsize="10",labelfontname="Helvetica",labelfontsize="10"];
  node [fontname="Helvetica",fontsize="10",shape=record];
  rankdir=LR;
  Node1 [label="BaseLib",height=0.2,width=0.4,color="black", fillcolor="white", style="filled",URL="$group__baseLib.html",tooltip="The BaseLib library. "];
  Node0 [label="blCommon",height=0.2,width=0.4,color="black", fillcolor="grey75", style="filled", fontcolor="black"];
  Node1->Node0 [shape=plaintext, color="midnightblue", dir="back", style="solid"];
}
