digraph "SignalViewerPlugin"
{
  edge [fontname="Helvetica",fontsize="10",labelfontname="Helvetica",labelfontsize="10"];
  node [fontname="Helvetica",fontsize="10",shape=record];
  rankdir=LR;
  Node0 [label="SignalViewerPlugin",height=0.2,width=0.4,color="black", fillcolor="grey75", style="filled", fontcolor="black"];
  Node1 [label="SceneViewPlugin",height=0.2,width=0.4,color="black", fillcolor="white", style="filled",URL="$group__SceneViewPlugin.html",tooltip="SceneViewPlugin. "];
  Node0->Node1 [shape=plaintext, label="svWidgetCollective", color="orange", dir="none", style="dashed"];
}
