digraph "Apps/Plugins/GenericSegmentationPlugin/widgets/gspPropagateLandmarksPanelWidget/gspPropagateLandmarksPanelWidget.h"
{
  edge [fontname="Helvetica",fontsize="10",labelfontname="Helvetica",labelfontsize="10"];
  node [fontname="Helvetica",fontsize="10",shape=record];
  Node1 [label="Apps/Plugins/GenericSegmentation\lPlugin/widgets/gspPropagateLandmarks\lPanelWidget/gspPropagateLandmarksPanelWidget.h",height=0.2,width=0.4,color="black", fillcolor="grey75", style="filled", fontcolor="black"];
  Node1 -> Node2 [dir="back",color="midnightblue",fontsize="10",style="solid",fontname="Helvetica"];
  Node2 [label="Apps/Plugins/GenericSegmentation\lPlugin/GenericSegmentationPluginWidget\lCollective.cxx",height=0.2,width=0.4,color="black", fillcolor="white", style="filled",URL="$GenericSegmentationPluginWidgetCollective_8cxx.html"];
  Node1 -> Node3 [dir="back",color="midnightblue",fontsize="10",style="solid",fontname="Helvetica"];
  Node3 [label="Apps/Plugins/GenericSegmentation\lPlugin/widgets/gspPropagateLandmarks\lPanelWidget/gspPropagateLandmarksPanelWidget.cpp",height=0.2,width=0.4,color="black", fillcolor="white", style="filled",URL="$gspPropagateLandmarksPanelWidget_8cpp.html"];
}
