digraph "Modules/GuiBridgeLib/libmodules/guiBridgeLibWxWidgets/TestApplication/src/GuiBridgeLibWxWidgetsTestApp.h"
{
  edge [fontname="Helvetica",fontsize="10",labelfontname="Helvetica",labelfontsize="10"];
  node [fontname="Helvetica",fontsize="10",shape=record];
  Node1 [label="Modules/GuiBridgeLib\l/libmodules/guiBridgeLibWxWidgets\l/TestApplication/src/GuiBridgeLibWxWidgets\lTestApp.h",height=0.2,width=0.4,color="black", fillcolor="grey75", style="filled", fontcolor="black"];
  Node1 -> Node2 [color="midnightblue",fontsize="10",style="solid",fontname="Helvetica"];
  Node2 [label="wx/wx.h",height=0.2,width=0.4,color="grey75", fillcolor="white", style="filled"];
  Node1 -> Node3 [color="midnightblue",fontsize="10",style="solid",fontname="Helvetica"];
  Node3 [label="wx/image.h",height=0.2,width=0.4,color="grey75", fillcolor="white", style="filled"];
  Node1 -> Node4 [color="midnightblue",fontsize="10",style="solid",fontname="Helvetica"];
  Node4 [label="wx/tglbtn.h",height=0.2,width=0.4,color="grey75", fillcolor="white", style="filled"];
  Node1 -> Node5 [color="midnightblue",fontsize="10",style="solid",fontname="Helvetica"];
  Node5 [label="gblWxBridgeLib.h",height=0.2,width=0.4,color="black", fillcolor="white", style="filled",URL="$gblWxBridgeLib_8h.html"];
  Node5 -> Node6 [color="midnightblue",fontsize="10",style="solid",fontname="Helvetica"];
  Node6 [label="gblWxConnectorOfWidgetChanges\lToSlotFunction.h",height=0.2,width=0.4,color="black", fillcolor="white", style="filled",URL="$gblWxConnectorOfWidgetChangesToSlotFunction_8h.html"];
  Node6 -> Node7 [color="midnightblue",fontsize="10",style="solid",fontname="Helvetica"];
  Node7 [label="boost/bind.hpp",height=0.2,width=0.4,color="grey75", fillcolor="white", style="filled"];
  Node6 -> Node8 [color="midnightblue",fontsize="10",style="solid",fontname="Helvetica"];
  Node8 [label="CILabNamespaceMacros.h",height=0.2,width=0.4,color="black", fillcolor="white", style="filled",URL="$CILabNamespaceMacros_8h.html"];
  Node6 -> Node2 [color="midnightblue",fontsize="10",style="solid",fontname="Helvetica"];
  Node6 -> Node9 [color="midnightblue",fontsize="10",style="solid",fontname="Helvetica"];
  Node9 [label="wx/listctrl.h",height=0.2,width=0.4,color="grey75", fillcolor="white", style="filled"];
  Node6 -> Node4 [color="midnightblue",fontsize="10",style="solid",fontname="Helvetica"];
  Node6 -> Node10 [color="midnightblue",fontsize="10",style="solid",fontname="Helvetica"];
  Node10 [label="wx/choicebk.h",height=0.2,width=0.4,color="grey75", fillcolor="white", style="filled"];
  Node6 -> Node11 [color="midnightblue",fontsize="10",style="solid",fontname="Helvetica"];
  Node11 [label="boost/shared_ptr.hpp",height=0.2,width=0.4,color="grey75", fillcolor="white", style="filled"];
  Node6 -> Node12 [color="midnightblue",fontsize="10",style="solid",fontname="Helvetica"];
  Node12 [label="boost/function.hpp",height=0.2,width=0.4,color="grey75", fillcolor="white", style="filled"];
  Node6 -> Node13 [color="midnightblue",fontsize="10",style="solid",fontname="Helvetica"];
  Node13 [label="map",height=0.2,width=0.4,color="grey75", fillcolor="white", style="filled"];
  Node5 -> Node14 [color="midnightblue",fontsize="10",style="solid",fontname="Helvetica"];
  Node14 [label="gblWxTextCtrlValueProxy.h",height=0.2,width=0.4,color="black", fillcolor="white", style="filled",URL="$gblWxTextCtrlValueProxy_8h.html"];
  Node14 -> Node2 [color="midnightblue",fontsize="10",style="solid",fontname="Helvetica"];
  Node14 -> Node15 [color="midnightblue",fontsize="10",style="solid",fontname="Helvetica"];
  Node15 [label="gblValueProxy.h",height=0.2,width=0.4,color="black", fillcolor="white", style="filled",URL="$gblValueProxy_8h.html"];
  Node15 -> Node8 [color="midnightblue",fontsize="10",style="solid",fontname="Helvetica"];
  Node15 -> Node11 [color="midnightblue",fontsize="10",style="solid",fontname="Helvetica"];
  Node15 -> Node16 [color="midnightblue",fontsize="10",style="solid",fontname="Helvetica"];
  Node16 [label="string",height=0.2,width=0.4,color="grey75", fillcolor="white", style="filled"];
  Node15 -> Node17 [color="midnightblue",fontsize="10",style="solid",fontname="Helvetica"];
  Node17 [label="limits",height=0.2,width=0.4,color="grey75", fillcolor="white", style="filled"];
  Node15 -> Node18 [color="midnightblue",fontsize="10",style="solid",fontname="Helvetica"];
  Node18 [label="static_check.h",height=0.2,width=0.4,color="black", fillcolor="white", style="filled",URL="$static__check_8h.html"];
  Node15 -> Node19 [color="midnightblue",fontsize="10",style="solid",fontname="Helvetica"];
  Node19 [label="gblValueConverter.h",height=0.2,width=0.4,color="black", fillcolor="white", style="filled",URL="$gblValueConverter_8h.html"];
  Node19 -> Node20 [color="midnightblue",fontsize="10",style="solid",fontname="Helvetica"];
  Node20 [label="gblException.h",height=0.2,width=0.4,color="black", fillcolor="white", style="filled",URL="$gblException_8h.html"];
  Node20 -> Node21 [color="midnightblue",fontsize="10",style="solid",fontname="Helvetica"];
  Node21 [label="exception",height=0.2,width=0.4,color="grey75", fillcolor="white", style="filled"];
  Node20 -> Node16 [color="midnightblue",fontsize="10",style="solid",fontname="Helvetica"];
  Node20 -> Node22 [color="midnightblue",fontsize="10",style="solid",fontname="Helvetica"];
  Node22 [label="GuiBridgeLibWin32Header.h",height=0.2,width=0.4,color="grey75", fillcolor="white", style="filled"];
  Node20 -> Node8 [color="midnightblue",fontsize="10",style="solid",fontname="Helvetica"];
  Node19 -> Node23 [color="midnightblue",fontsize="10",style="solid",fontname="Helvetica"];
  Node23 [label="typeinfo",height=0.2,width=0.4,color="grey75", fillcolor="white", style="filled"];
  Node19 -> Node16 [color="midnightblue",fontsize="10",style="solid",fontname="Helvetica"];
  Node19 -> Node17 [color="midnightblue",fontsize="10",style="solid",fontname="Helvetica"];
  Node5 -> Node24 [color="midnightblue",fontsize="10",style="solid",fontname="Helvetica"];
  Node24 [label="gblWxRadioButtonValueProxy.h",height=0.2,width=0.4,color="black", fillcolor="white", style="filled",URL="$gblWxRadioButtonValueProxy_8h.html"];
  Node24 -> Node2 [color="midnightblue",fontsize="10",style="solid",fontname="Helvetica"];
  Node24 -> Node15 [color="midnightblue",fontsize="10",style="solid",fontname="Helvetica"];
  Node5 -> Node25 [color="midnightblue",fontsize="10",style="solid",fontname="Helvetica"];
  Node25 [label="gblWxRadioBoxValueProxy.h",height=0.2,width=0.4,color="black", fillcolor="white", style="filled",URL="$gblWxRadioBoxValueProxy_8h.html"];
  Node25 -> Node2 [color="midnightblue",fontsize="10",style="solid",fontname="Helvetica"];
  Node25 -> Node26 [color="midnightblue",fontsize="10",style="solid",fontname="Helvetica"];
  Node26 [label="wx/radiobox.h",height=0.2,width=0.4,color="grey75", fillcolor="white", style="filled"];
  Node25 -> Node15 [color="midnightblue",fontsize="10",style="solid",fontname="Helvetica"];
  Node5 -> Node27 [color="midnightblue",fontsize="10",style="solid",fontname="Helvetica"];
  Node27 [label="gblWxToggleButtonValueProxy.h",height=0.2,width=0.4,color="black", fillcolor="white", style="filled",URL="$gblWxToggleButtonValueProxy_8h.html"];
  Node27 -> Node2 [color="midnightblue",fontsize="10",style="solid",fontname="Helvetica"];
  Node27 -> Node4 [color="midnightblue",fontsize="10",style="solid",fontname="Helvetica"];
  Node27 -> Node15 [color="midnightblue",fontsize="10",style="solid",fontname="Helvetica"];
  Node5 -> Node28 [color="midnightblue",fontsize="10",style="solid",fontname="Helvetica"];
  Node28 [label="gblWxListBoxValueProxy.h",height=0.2,width=0.4,color="black", fillcolor="white", style="filled",URL="$gblWxListBoxValueProxy_8h.html"];
  Node28 -> Node2 [color="midnightblue",fontsize="10",style="solid",fontname="Helvetica"];
  Node28 -> Node15 [color="midnightblue",fontsize="10",style="solid",fontname="Helvetica"];
  Node28 -> Node29 [color="midnightblue",fontsize="10",style="solid",fontname="Helvetica"];
  Node29 [label="gblWxControlWithItemsValue\lProxy.h",height=0.2,width=0.4,color="black", fillcolor="white", style="filled",URL="$gblWxControlWithItemsValueProxy_8h.html"];
  Node29 -> Node2 [color="midnightblue",fontsize="10",style="solid",fontname="Helvetica"];
  Node29 -> Node15 [color="midnightblue",fontsize="10",style="solid",fontname="Helvetica"];
  Node29 -> Node8 [color="midnightblue",fontsize="10",style="solid",fontname="Helvetica"];
  Node5 -> Node30 [color="midnightblue",fontsize="10",style="solid",fontname="Helvetica"];
  Node30 [label="gblWxComboBoxValueProxy.h",height=0.2,width=0.4,color="black", fillcolor="white", style="filled",URL="$gblWxComboBoxValueProxy_8h.html"];
  Node30 -> Node2 [color="midnightblue",fontsize="10",style="solid",fontname="Helvetica"];
  Node30 -> Node15 [color="midnightblue",fontsize="10",style="solid",fontname="Helvetica"];
  Node30 -> Node29 [color="midnightblue",fontsize="10",style="solid",fontname="Helvetica"];
  Node5 -> Node31 [color="midnightblue",fontsize="10",style="solid",fontname="Helvetica"];
  Node31 [label="gblWxChoiceValueProxy.h",height=0.2,width=0.4,color="black", fillcolor="white", style="filled",URL="$gblWxChoiceValueProxy_8h.html"];
  Node31 -> Node2 [color="midnightblue",fontsize="10",style="solid",fontname="Helvetica"];
  Node31 -> Node15 [color="midnightblue",fontsize="10",style="solid",fontname="Helvetica"];
  Node31 -> Node29 [color="midnightblue",fontsize="10",style="solid",fontname="Helvetica"];
  Node5 -> Node32 [color="midnightblue",fontsize="10",style="solid",fontname="Helvetica"];
  Node32 [label="gblWxCheckBoxValueProxy.h",height=0.2,width=0.4,color="black", fillcolor="white", style="filled",URL="$gblWxCheckBoxValueProxy_8h.html"];
  Node32 -> Node2 [color="midnightblue",fontsize="10",style="solid",fontname="Helvetica"];
  Node32 -> Node4 [color="midnightblue",fontsize="10",style="solid",fontname="Helvetica"];
  Node32 -> Node15 [color="midnightblue",fontsize="10",style="solid",fontname="Helvetica"];
  Node32 -> Node33 [color="midnightblue",fontsize="10",style="solid",fontname="Helvetica"];
  Node33 [label="wxCheckableControl.h",height=0.2,width=0.4,color="black", fillcolor="white", style="filled",URL="$wxCheckableControl_8h.html"];
  Node33 -> Node34 [color="midnightblue",fontsize="10",style="solid",fontname="Helvetica"];
  Node34 [label="TpExtLibWxWidgetsWin32Header.h",height=0.2,width=0.4,color="grey75", fillcolor="white", style="filled"];
  Node5 -> Node35 [color="midnightblue",fontsize="10",style="solid",fontname="Helvetica"];
  Node35 [label="gblWxCheckableControlValue\lProxy.h",height=0.2,width=0.4,color="black", fillcolor="white", style="filled",URL="$gblWxCheckableControlValueProxy_8h.html"];
  Node35 -> Node2 [color="midnightblue",fontsize="10",style="solid",fontname="Helvetica"];
  Node35 -> Node4 [color="midnightblue",fontsize="10",style="solid",fontname="Helvetica"];
  Node35 -> Node15 [color="midnightblue",fontsize="10",style="solid",fontname="Helvetica"];
  Node35 -> Node33 [color="midnightblue",fontsize="10",style="solid",fontname="Helvetica"];
  Node5 -> Node36 [color="midnightblue",fontsize="10",style="solid",fontname="Helvetica"];
  Node36 [label="gblBridge.h",height=0.2,width=0.4,color="black", fillcolor="white", style="filled",URL="$gblBridge_8h.html"];
  Node36 -> Node19 [color="midnightblue",fontsize="10",style="solid",fontname="Helvetica"];
  Node36 -> Node20 [color="midnightblue",fontsize="10",style="solid",fontname="Helvetica"];
  Node36 -> Node15 [color="midnightblue",fontsize="10",style="solid",fontname="Helvetica"];
  Node36 -> Node12 [color="midnightblue",fontsize="10",style="solid",fontname="Helvetica"];
  Node36 -> Node7 [color="midnightblue",fontsize="10",style="solid",fontname="Helvetica"];
  Node36 -> Node11 [color="midnightblue",fontsize="10",style="solid",fontname="Helvetica"];
  Node36 -> Node16 [color="midnightblue",fontsize="10",style="solid",fontname="Helvetica"];
  Node36 -> Node13 [color="midnightblue",fontsize="10",style="solid",fontname="Helvetica"];
  Node36 -> Node22 [color="midnightblue",fontsize="10",style="solid",fontname="Helvetica"];
  Node36 -> Node8 [color="midnightblue",fontsize="10",style="solid",fontname="Helvetica"];
  Node5 -> Node37 [color="midnightblue",fontsize="10",style="solid",fontname="Helvetica"];
  Node37 [label="gblWxButtonEventProxy.h",height=0.2,width=0.4,color="black", fillcolor="white", style="filled",URL="$gblWxButtonEventProxy_8h.html"];
  Node37 -> Node38 [color="midnightblue",fontsize="10",style="solid",fontname="Helvetica"];
  Node38 [label="wx/button.h",height=0.2,width=0.4,color="grey75", fillcolor="white", style="filled"];
  Node37 -> Node36 [color="midnightblue",fontsize="10",style="solid",fontname="Helvetica"];
  Node5 -> Node39 [color="midnightblue",fontsize="10",style="solid",fontname="Helvetica"];
  Node39 [label="gblWxChoiceBookValueProxy.h",height=0.2,width=0.4,color="black", fillcolor="white", style="filled",URL="$gblWxChoiceBookValueProxy_8h.html"];
  Node39 -> Node2 [color="midnightblue",fontsize="10",style="solid",fontname="Helvetica"];
  Node39 -> Node15 [color="midnightblue",fontsize="10",style="solid",fontname="Helvetica"];
  Node39 -> Node29 [color="midnightblue",fontsize="10",style="solid",fontname="Helvetica"];
  Node39 -> Node40 [color="midnightblue",fontsize="10",style="solid",fontname="Helvetica"];
  Node40 [label="boost/format.hpp",height=0.2,width=0.4,color="grey75", fillcolor="white", style="filled"];
  Node39 -> Node39 [color="midnightblue",fontsize="10",style="solid",fontname="Helvetica"];
  Node39 -> Node10 [color="midnightblue",fontsize="10",style="solid",fontname="Helvetica"];
  Node39 -> Node41 [color="midnightblue",fontsize="10",style="solid",fontname="Helvetica"];
  Node41 [label="wxUnicode.h",height=0.2,width=0.4,color="black", fillcolor="white", style="filled",URL="$wxUnicode_8h.html"];
  Node41 -> Node34 [color="midnightblue",fontsize="10",style="solid",fontname="Helvetica"];
  Node41 -> Node16 [color="midnightblue",fontsize="10",style="solid",fontname="Helvetica"];
  Node41 -> Node42 [color="midnightblue",fontsize="10",style="solid",fontname="Helvetica"];
  Node42 [label="wx/string.h",height=0.2,width=0.4,color="grey75", fillcolor="white", style="filled"];
  Node5 -> Node43 [color="midnightblue",fontsize="10",style="solid",fontname="Helvetica"];
  Node43 [label="gblWxValidate.h",height=0.2,width=0.4,color="black", fillcolor="white", style="filled",URL="$gblWxValidate_8h.html"];
  Node43 -> Node8 [color="midnightblue",fontsize="10",style="solid",fontname="Helvetica"];
  Node43 -> Node44 [color="midnightblue",fontsize="10",style="solid",fontname="Helvetica"];
  Node44 [label="CILabExceptionMacros.h",height=0.2,width=0.4,color="black", fillcolor="white", style="filled",URL="$CILabExceptionMacros_8h.html"];
  Node44 -> Node21 [color="midnightblue",fontsize="10",style="solid",fontname="Helvetica"];
  Node44 -> Node16 [color="midnightblue",fontsize="10",style="solid",fontname="Helvetica"];
  Node43 -> Node45 [color="midnightblue",fontsize="10",style="solid",fontname="Helvetica"];
  Node45 [label="gblValidate.h",height=0.2,width=0.4,color="red", fillcolor="white", style="filled",URL="$gblValidate_8h.html"];
  Node45 -> Node36 [color="midnightblue",fontsize="10",style="solid",fontname="Helvetica"];
  Node45 -> Node8 [color="midnightblue",fontsize="10",style="solid",fontname="Helvetica"];
  Node43 -> Node40 [color="midnightblue",fontsize="10",style="solid",fontname="Helvetica"];
  Node5 -> Node46 [color="midnightblue",fontsize="10",style="solid",fontname="Helvetica"];
  Node46 [label="gblWxSliderValueProxy.h",height=0.2,width=0.4,color="black", fillcolor="white", style="filled",URL="$gblWxSliderValueProxy_8h.html"];
  Node46 -> Node2 [color="midnightblue",fontsize="10",style="solid",fontname="Helvetica"];
  Node46 -> Node15 [color="midnightblue",fontsize="10",style="solid",fontname="Helvetica"];
  Node5 -> Node47 [color="midnightblue",fontsize="10",style="solid",fontname="Helvetica"];
  Node47 [label="gblWxFloatSliderValueProxy.h",height=0.2,width=0.4,color="black", fillcolor="white", style="filled",URL="$gblWxFloatSliderValueProxy_8h.html"];
  Node47 -> Node2 [color="midnightblue",fontsize="10",style="solid",fontname="Helvetica"];
  Node47 -> Node15 [color="midnightblue",fontsize="10",style="solid",fontname="Helvetica"];
  Node47 -> Node48 [color="midnightblue",fontsize="10",style="solid",fontname="Helvetica"];
  Node48 [label="wxFloatSlider.h",height=0.2,width=0.4,color="black", fillcolor="white", style="filled",URL="$wxFloatSlider_8h.html"];
  Node48 -> Node34 [color="midnightblue",fontsize="10",style="solid",fontname="Helvetica"];
  Node5 -> Node49 [color="midnightblue",fontsize="10",style="solid",fontname="Helvetica"];
  Node49 [label="gblWxSliderWithTextValue\lProxy.h",height=0.2,width=0.4,color="black", fillcolor="white", style="filled",URL="$gblWxSliderWithTextValueProxy_8h.html"];
  Node49 -> Node2 [color="midnightblue",fontsize="10",style="solid",fontname="Helvetica"];
  Node49 -> Node15 [color="midnightblue",fontsize="10",style="solid",fontname="Helvetica"];
  Node49 -> Node50 [color="midnightblue",fontsize="10",style="solid",fontname="Helvetica"];
  Node50 [label="wxSliderWithTextCtrl.h",height=0.2,width=0.4,color="black", fillcolor="white", style="filled",URL="$wxSliderWithTextCtrl_8h.html"];
  Node50 -> Node34 [color="midnightblue",fontsize="10",style="solid",fontname="Helvetica"];
  Node50 -> Node48 [color="midnightblue",fontsize="10",style="solid",fontname="Helvetica"];
  Node1 -> Node11 [color="midnightblue",fontsize="10",style="solid",fontname="Helvetica"];
}
