digraph "Apps/Plugins/ImageToolsPlugin/ImageToolsPlugin.h"
{
  edge [fontname="Helvetica",fontsize="10",labelfontname="Helvetica",labelfontsize="10"];
  node [fontname="Helvetica",fontsize="10",shape=record];
  Node1 [label="Apps/Plugins/ImageToolsPlugin\l/ImageToolsPlugin.h",height=0.2,width=0.4,color="black", fillcolor="grey75", style="filled", fontcolor="black"];
  Node1 -> Node2 [color="midnightblue",fontsize="10",style="solid",fontname="Helvetica"];
  Node2 [label="itProcessorCollective.h",height=0.2,width=0.4,color="black", fillcolor="white", style="filled",URL="$itProcessorCollective_8h.html"];
  Node2 -> Node3 [color="midnightblue",fontsize="10",style="solid",fontname="Helvetica"];
  Node3 [label="coreSmartPointerMacros.h",height=0.2,width=0.4,color="black", fillcolor="white", style="filled",URL="$coreSmartPointerMacros_8h.html"];
  Node3 -> Node4 [color="midnightblue",fontsize="10",style="solid",fontname="Helvetica"];
  Node4 [label="coreCommonMacros.h",height=0.2,width=0.4,color="black", fillcolor="white", style="filled",URL="$coreCommonMacros_8h.html"];
  Node3 -> Node5 [color="midnightblue",fontsize="10",style="solid",fontname="Helvetica"];
  Node5 [label="itkSmartPointer.h",height=0.2,width=0.4,color="grey75", fillcolor="white", style="filled"];
  Node2 -> Node6 [color="midnightblue",fontsize="10",style="solid",fontname="Helvetica"];
  Node6 [label="coreObject.h",height=0.2,width=0.4,color="black", fillcolor="white", style="filled",URL="$coreObject_8h.html"];
  Node6 -> Node7 [color="midnightblue",fontsize="10",style="solid",fontname="Helvetica"];
  Node7 [label="gmCommonObjectsWin32Header.h",height=0.2,width=0.4,color="grey75", fillcolor="white", style="filled"];
  Node6 -> Node4 [color="midnightblue",fontsize="10",style="solid",fontname="Helvetica"];
  Node6 -> Node3 [color="midnightblue",fontsize="10",style="solid",fontname="Helvetica"];
  Node6 -> Node8 [color="midnightblue",fontsize="10",style="solid",fontname="Helvetica"];
  Node8 [label="blTagMap.h",height=0.2,width=0.4,color="black", fillcolor="white", style="filled",URL="$blTagMap_8h.html"];
  Node8 -> Node9 [color="midnightblue",fontsize="10",style="solid",fontname="Helvetica"];
  Node9 [label="blLightObject.h",height=0.2,width=0.4,color="black", fillcolor="white", style="filled",URL="$blLightObject_8h.html"];
  Node9 -> Node10 [color="midnightblue",fontsize="10",style="solid",fontname="Helvetica"];
  Node10 [label="blMacro.h",height=0.2,width=0.4,color="black", fillcolor="white", style="filled",URL="$blMacro_8h.html"];
  Node9 -> Node11 [color="midnightblue",fontsize="10",style="solid",fontname="Helvetica"];
  Node11 [label="blSmartPointer.h",height=0.2,width=0.4,color="black", fillcolor="white", style="filled",URL="$blSmartPointer_8h.html"];
  Node9 -> Node12 [color="midnightblue",fontsize="10",style="solid",fontname="Helvetica"];
  Node12 [label="BaseLibWin32Header.h",height=0.2,width=0.4,color="grey75", fillcolor="white", style="filled"];
  Node8 -> Node13 [color="midnightblue",fontsize="10",style="solid",fontname="Helvetica"];
  Node13 [label="blTag.h",height=0.2,width=0.4,color="black", fillcolor="white", style="filled",URL="$blTag_8h.html"];
  Node13 -> Node9 [color="midnightblue",fontsize="10",style="solid",fontname="Helvetica"];
  Node13 -> Node14 [color="midnightblue",fontsize="10",style="solid",fontname="Helvetica"];
  Node14 [label="CILabExceptionMacros.h",height=0.2,width=0.4,color="black", fillcolor="white", style="filled",URL="$CILabExceptionMacros_8h.html"];
  Node14 -> Node15 [color="midnightblue",fontsize="10",style="solid",fontname="Helvetica"];
  Node15 [label="exception",height=0.2,width=0.4,color="grey75", fillcolor="white", style="filled"];
  Node14 -> Node16 [color="midnightblue",fontsize="10",style="solid",fontname="Helvetica"];
  Node16 [label="string",height=0.2,width=0.4,color="grey75", fillcolor="white", style="filled"];
  Node13 -> Node17 [color="midnightblue",fontsize="10",style="solid",fontname="Helvetica"];
  Node17 [label="boost/any.hpp",height=0.2,width=0.4,color="grey75", fillcolor="white", style="filled"];
  Node13 -> Node16 [color="midnightblue",fontsize="10",style="solid",fontname="Helvetica"];
  Node8 -> Node14 [color="midnightblue",fontsize="10",style="solid",fontname="Helvetica"];
  Node8 -> Node18 [color="midnightblue",fontsize="10",style="solid",fontname="Helvetica"];
  Node18 [label="boost/signals.hpp",height=0.2,width=0.4,color="grey75", fillcolor="white", style="filled"];
  Node8 -> Node19 [color="midnightblue",fontsize="10",style="solid",fontname="Helvetica"];
  Node19 [label="boost/bind.hpp",height=0.2,width=0.4,color="grey75", fillcolor="white", style="filled"];
  Node8 -> Node16 [color="midnightblue",fontsize="10",style="solid",fontname="Helvetica"];
  Node8 -> Node20 [color="midnightblue",fontsize="10",style="solid",fontname="Helvetica"];
  Node20 [label="map",height=0.2,width=0.4,color="grey75", fillcolor="white", style="filled"];
  Node6 -> Node21 [color="midnightblue",fontsize="10",style="solid",fontname="Helvetica"];
  Node21 [label="itkLightObject.h",height=0.2,width=0.4,color="grey75", fillcolor="white", style="filled"];
  Node6 -> Node22 [color="midnightblue",fontsize="10",style="solid",fontname="Helvetica"];
  Node22 [label="itkTimeStamp.h",height=0.2,width=0.4,color="grey75", fillcolor="white", style="filled"];
  Node6 -> Node18 [color="midnightblue",fontsize="10",style="solid",fontname="Helvetica"];
  Node6 -> Node19 [color="midnightblue",fontsize="10",style="solid",fontname="Helvetica"];
  Node1 -> Node23 [color="midnightblue",fontsize="10",style="solid",fontname="Helvetica"];
  Node23 [label="itWidgetCollective.h",height=0.2,width=0.4,color="black", fillcolor="white", style="filled",URL="$itWidgetCollective_8h.html"];
  Node23 -> Node24 [color="midnightblue",fontsize="10",style="solid",fontname="Helvetica"];
  Node24 [label="coreFrontEndPlugin.h",height=0.2,width=0.4,color="black", fillcolor="white", style="filled",URL="$coreFrontEndPlugin_8h.html"];
  Node24 -> Node25 [color="midnightblue",fontsize="10",style="solid",fontname="Helvetica"];
  Node25 [label="gmKernelWin32Header.h",height=0.2,width=0.4,color="grey75", fillcolor="white", style="filled"];
  Node24 -> Node6 [color="midnightblue",fontsize="10",style="solid",fontname="Helvetica"];
  Node24 -> Node26 [color="midnightblue",fontsize="10",style="solid",fontname="Helvetica"];
  Node26 [label="corePluginMacros.h",height=0.2,width=0.4,color="black", fillcolor="white", style="filled",URL="$corePluginMacros_8h.html"];
  Node24 -> Node27 [color="midnightblue",fontsize="10",style="solid",fontname="Helvetica"];
  Node27 [label="coreBasePlugin.h",height=0.2,width=0.4,color="black", fillcolor="white", style="filled",URL="$coreBasePlugin_8h.html"];
  Node27 -> Node25 [color="midnightblue",fontsize="10",style="solid",fontname="Helvetica"];
  Node27 -> Node6 [color="midnightblue",fontsize="10",style="solid",fontname="Helvetica"];
  Node23 -> Node3 [color="midnightblue",fontsize="10",style="solid",fontname="Helvetica"];
  Node23 -> Node6 [color="midnightblue",fontsize="10",style="solid",fontname="Helvetica"];
  Node23 -> Node28 [color="midnightblue",fontsize="10",style="solid",fontname="Helvetica"];
  Node28 [label="coreWidgetCollective.h",height=0.2,width=0.4,color="black", fillcolor="white", style="filled",URL="$coreWidgetCollective_8h.html"];
  Node28 -> Node29 [color="midnightblue",fontsize="10",style="solid",fontname="Helvetica"];
  Node29 [label="gmWidgetsWin32Header.h",height=0.2,width=0.4,color="grey75", fillcolor="white", style="filled"];
  Node28 -> Node6 [color="midnightblue",fontsize="10",style="solid",fontname="Helvetica"];
  Node28 -> Node30 [color="midnightblue",fontsize="10",style="solid",fontname="Helvetica"];
  Node30 [label="coreBaseWindow.h",height=0.2,width=0.4,color="black", fillcolor="white", style="filled",URL="$coreBaseWindow_8h.html"];
  Node30 -> Node25 [color="midnightblue",fontsize="10",style="solid",fontname="Helvetica"];
  Node30 -> Node31 [color="midnightblue",fontsize="10",style="solid",fontname="Helvetica"];
  Node31 [label="coreRenderingTree.h",height=0.2,width=0.4,color="black", fillcolor="white", style="filled",URL="$coreRenderingTree_8h.html"];
  Node31 -> Node25 [color="midnightblue",fontsize="10",style="solid",fontname="Helvetica"];
  Node31 -> Node6 [color="midnightblue",fontsize="10",style="solid",fontname="Helvetica"];
  Node31 -> Node32 [color="midnightblue",fontsize="10",style="solid",fontname="Helvetica"];
  Node32 [label="coreDataEntity.h",height=0.2,width=0.4,color="red", fillcolor="white", style="filled",URL="$coreDataEntity_8h.html"];
  Node32 -> Node33 [color="midnightblue",fontsize="10",style="solid",fontname="Helvetica"];
  Node33 [label="gmDataHandlingWin32Header.h",height=0.2,width=0.4,color="grey75", fillcolor="white", style="filled"];
  Node32 -> Node6 [color="midnightblue",fontsize="10",style="solid",fontname="Helvetica"];
  Node32 -> Node34 [color="midnightblue",fontsize="10",style="solid",fontname="Helvetica"];
  Node34 [label="coreDataEntityMetadata.h",height=0.2,width=0.4,color="black", fillcolor="white", style="filled",URL="$coreDataEntityMetadata_8h.html"];
  Node34 -> Node33 [color="midnightblue",fontsize="10",style="solid",fontname="Helvetica"];
  Node34 -> Node6 [color="midnightblue",fontsize="10",style="solid",fontname="Helvetica"];
  Node34 -> Node8 [color="midnightblue",fontsize="10",style="solid",fontname="Helvetica"];
  Node32 -> Node35 [color="midnightblue",fontsize="10",style="solid",fontname="Helvetica"];
  Node35 [label="coreDataEntityImpl.h",height=0.2,width=0.4,color="red", fillcolor="white", style="filled",URL="$coreDataEntityImpl_8h.html"];
  Node35 -> Node33 [color="midnightblue",fontsize="10",style="solid",fontname="Helvetica"];
  Node35 -> Node6 [color="midnightblue",fontsize="10",style="solid",fontname="Helvetica"];
  Node35 -> Node16 [color="midnightblue",fontsize="10",style="solid",fontname="Helvetica"];
  Node35 -> Node17 [color="midnightblue",fontsize="10",style="solid",fontname="Helvetica"];
  Node35 -> Node8 [color="midnightblue",fontsize="10",style="solid",fontname="Helvetica"];
  Node32 -> Node36 [color="midnightblue",fontsize="10",style="solid",fontname="Helvetica"];
  Node36 [label="coreDataEntityImplFactory.h",height=0.2,width=0.4,color="red", fillcolor="white", style="filled",URL="$coreDataEntityImplFactory_8h.html"];
  Node36 -> Node33 [color="midnightblue",fontsize="10",style="solid",fontname="Helvetica"];
  Node36 -> Node6 [color="midnightblue",fontsize="10",style="solid",fontname="Helvetica"];
  Node36 -> Node16 [color="midnightblue",fontsize="10",style="solid",fontname="Helvetica"];
  Node36 -> Node37 [color="midnightblue",fontsize="10",style="solid",fontname="Helvetica"];
  Node37 [label="typeinfo",height=0.2,width=0.4,color="grey75", fillcolor="white", style="filled"];
  Node36 -> Node17 [color="midnightblue",fontsize="10",style="solid",fontname="Helvetica"];
  Node36 -> Node8 [color="midnightblue",fontsize="10",style="solid",fontname="Helvetica"];
  Node36 -> Node35 [color="midnightblue",fontsize="10",style="solid",fontname="Helvetica"];
  Node36 -> Node38 [color="midnightblue",fontsize="10",style="solid",fontname="Helvetica"];
  Node38 [label="coreDataEntityTypes.h",height=0.2,width=0.4,color="black", fillcolor="white", style="filled",URL="$coreDataEntityTypes_8h.html"];
  Node32 -> Node38 [color="midnightblue",fontsize="10",style="solid",fontname="Helvetica"];
  Node32 -> Node16 [color="midnightblue",fontsize="10",style="solid",fontname="Helvetica"];
  Node32 -> Node37 [color="midnightblue",fontsize="10",style="solid",fontname="Helvetica"];
  Node32 -> Node18 [color="midnightblue",fontsize="10",style="solid",fontname="Helvetica"];
  Node32 -> Node17 [color="midnightblue",fontsize="10",style="solid",fontname="Helvetica"];
  Node31 -> Node18 [color="midnightblue",fontsize="10",style="solid",fontname="Helvetica"];
  Node31 -> Node20 [color="midnightblue",fontsize="10",style="solid",fontname="Helvetica"];
  Node31 -> Node39 [color="midnightblue",fontsize="10",style="solid",fontname="Helvetica"];
  Node39 [label="coreRenderingTree.txx",height=0.2,width=0.4,color="grey75", fillcolor="white", style="filled"];
  Node30 -> Node40 [color="midnightblue",fontsize="10",style="solid",fontname="Helvetica"];
  Node40 [label="coreBaseProcessor.h",height=0.2,width=0.4,color="black", fillcolor="white", style="filled",URL="$coreBaseProcessor_8h.html"];
  Node40 -> Node41 [color="midnightblue",fontsize="10",style="solid",fontname="Helvetica"];
  Node41 [label="gmFilteringWin32Header.h",height=0.2,width=0.4,color="grey75", fillcolor="white", style="filled"];
  Node40 -> Node6 [color="midnightblue",fontsize="10",style="solid",fontname="Helvetica"];
  Node40 -> Node42 [color="midnightblue",fontsize="10",style="solid",fontname="Helvetica"];
  Node42 [label="coreDataHolder.h",height=0.2,width=0.4,color="red", fillcolor="white", style="filled",URL="$coreDataHolder_8h.html"];
  Node42 -> Node7 [color="midnightblue",fontsize="10",style="solid",fontname="Helvetica"];
  Node42 -> Node19 [color="midnightblue",fontsize="10",style="solid",fontname="Helvetica"];
  Node42 -> Node18 [color="midnightblue",fontsize="10",style="solid",fontname="Helvetica"];
  Node42 -> Node42 [color="midnightblue",fontsize="10",style="solid",fontname="Helvetica"];
  Node40 -> Node32 [color="midnightblue",fontsize="10",style="solid",fontname="Helvetica"];
  Node40 -> Node43 [color="midnightblue",fontsize="10",style="solid",fontname="Helvetica"];
  Node43 [label="coreBaseFilter.h",height=0.2,width=0.4,color="red", fillcolor="white", style="filled",URL="$coreBaseFilter_8h.html"];
  Node43 -> Node6 [color="midnightblue",fontsize="10",style="solid",fontname="Helvetica"];
  Node43 -> Node42 [color="midnightblue",fontsize="10",style="solid",fontname="Helvetica"];
  Node43 -> Node32 [color="midnightblue",fontsize="10",style="solid",fontname="Helvetica"];
  Node40 -> Node44 [color="midnightblue",fontsize="10",style="solid",fontname="Helvetica"];
  Node44 [label="ModuleDescription.h",height=0.2,width=0.4,color="grey75", fillcolor="white", style="filled"];
  Node40 -> Node45 [color="midnightblue",fontsize="10",style="solid",fontname="Helvetica"];
  Node45 [label="coreBaseProcessor.txx",height=0.2,width=0.4,color="grey75", fillcolor="white", style="filled"];
  Node30 -> Node46 [color="midnightblue",fontsize="10",style="solid",fontname="Helvetica"];
  Node46 [label="coreProcessorOutputObserver.h",height=0.2,width=0.4,color="black", fillcolor="white", style="filled",URL="$coreProcessorOutputObserver_8h.html"];
  Node46 -> Node25 [color="midnightblue",fontsize="10",style="solid",fontname="Helvetica"];
  Node46 -> Node6 [color="midnightblue",fontsize="10",style="solid",fontname="Helvetica"];
  Node46 -> Node31 [color="midnightblue",fontsize="10",style="solid",fontname="Helvetica"];
  Node30 -> Node47 [color="midnightblue",fontsize="10",style="solid",fontname="Helvetica"];
  Node47 [label="coreCommonDataTypes.h",height=0.2,width=0.4,color="black", fillcolor="white", style="filled",URL="$coreCommonDataTypes_8h.html"];
  Node47 -> Node42 [color="midnightblue",fontsize="10",style="solid",fontname="Helvetica"];
  Node30 -> Node48 [color="midnightblue",fontsize="10",style="solid",fontname="Helvetica"];
  Node48 [label="coreRenderingTreeManager.h",height=0.2,width=0.4,color="black", fillcolor="white", style="filled",URL="$coreRenderingTreeManager_8h.html"];
  Node48 -> Node25 [color="midnightblue",fontsize="10",style="solid",fontname="Helvetica"];
  Node48 -> Node6 [color="midnightblue",fontsize="10",style="solid",fontname="Helvetica"];
  Node48 -> Node32 [color="midnightblue",fontsize="10",style="solid",fontname="Helvetica"];
  Node48 -> Node31 [color="midnightblue",fontsize="10",style="solid",fontname="Helvetica"];
  Node30 -> Node49 [color="midnightblue",fontsize="10",style="solid",fontname="Helvetica"];
  Node49 [label="coreBaseWindowFactory.h",height=0.2,width=0.4,color="black", fillcolor="white", style="filled",URL="$coreBaseWindowFactory_8h.html"];
  Node49 -> Node6 [color="midnightblue",fontsize="10",style="solid",fontname="Helvetica"];
  Node49 -> Node30 [color="midnightblue",fontsize="10",style="solid",fontname="Helvetica"];
  Node49 -> Node50 [color="midnightblue",fontsize="10",style="solid",fontname="Helvetica"];
  Node50 [label="coreWindowConfig.h",height=0.2,width=0.4,color="black", fillcolor="white", style="filled",URL="$coreWindowConfig_8h.html"];
  Node50 -> Node16 [color="midnightblue",fontsize="10",style="solid",fontname="Helvetica"];
  Node50 -> Node25 [color="midnightblue",fontsize="10",style="solid",fontname="Helvetica"];
  Node49 -> Node37 [color="midnightblue",fontsize="10",style="solid",fontname="Helvetica"];
  Node49 -> Node44 [color="midnightblue",fontsize="10",style="solid",fontname="Helvetica"];
  Node30 -> Node8 [color="midnightblue",fontsize="10",style="solid",fontname="Helvetica"];
  Node30 -> Node50 [color="midnightblue",fontsize="10",style="solid",fontname="Helvetica"];
  Node23 -> Node2 [color="midnightblue",fontsize="10",style="solid",fontname="Helvetica"];
  Node1 -> Node24 [color="midnightblue",fontsize="10",style="solid",fontname="Helvetica"];
}
