digraph "Graphical Class Hierarchy"
{
  edge [fontname="Helvetica",fontsize="10",labelfontname="Helvetica",labelfontsize="10"];
  node [fontname="Helvetica",fontsize="10",shape=record];
  rankdir="LR";
  Node1 [label="FixedArray",height=0.2,width=0.4,color="grey75", fillcolor="white", style="filled"];
  Node1 -> Node2 [dir="back",color="midnightblue",fontsize="10",style="solid",fontname="Helvetica"];
  Node2 [label="itk::DTITensor\< bool \>",height=0.2,width=0.4,color="black", fillcolor="white", style="filled",URL="$classitk_1_1DTITensor.html"];
  Node1 -> Node3 [dir="back",color="midnightblue",fontsize="10",style="solid",fontname="Helvetica"];
  Node3 [label="itk::DTITensor\< char \>",height=0.2,width=0.4,color="black", fillcolor="white", style="filled",URL="$classitk_1_1DTITensor.html"];
  Node1 -> Node4 [dir="back",color="midnightblue",fontsize="10",style="solid",fontname="Helvetica"];
  Node4 [label="itk::DTITensor\< double \>",height=0.2,width=0.4,color="black", fillcolor="white", style="filled",URL="$classitk_1_1DTITensor.html"];
  Node1 -> Node5 [dir="back",color="midnightblue",fontsize="10",style="solid",fontname="Helvetica"];
  Node5 [label="itk::DTITensor\< float \>",height=0.2,width=0.4,color="black", fillcolor="white", style="filled",URL="$classitk_1_1DTITensor.html"];
  Node1 -> Node6 [dir="back",color="midnightblue",fontsize="10",style="solid",fontname="Helvetica"];
  Node6 [label="itk::DTITensor\< int \>",height=0.2,width=0.4,color="black", fillcolor="white", style="filled",URL="$classitk_1_1DTITensor.html"];
  Node1 -> Node7 [dir="back",color="midnightblue",fontsize="10",style="solid",fontname="Helvetica"];
  Node7 [label="itk::DTITensor\< long \>",height=0.2,width=0.4,color="black", fillcolor="white", style="filled",URL="$classitk_1_1DTITensor.html"];
  Node1 -> Node8 [dir="back",color="midnightblue",fontsize="10",style="solid",fontname="Helvetica"];
  Node8 [label="itk::DTITensor\< long\l double \>",height=0.2,width=0.4,color="black", fillcolor="white", style="filled",URL="$classitk_1_1DTITensor.html"];
  Node1 -> Node9 [dir="back",color="midnightblue",fontsize="10",style="solid",fontname="Helvetica"];
  Node9 [label="itk::DTITensor\< short \>",height=0.2,width=0.4,color="black", fillcolor="white", style="filled",URL="$classitk_1_1DTITensor.html"];
  Node1 -> Node10 [dir="back",color="midnightblue",fontsize="10",style="solid",fontname="Helvetica"];
  Node10 [label="itk::DTITensor\< signed\l char \>",height=0.2,width=0.4,color="black", fillcolor="white", style="filled",URL="$classitk_1_1DTITensor.html"];
  Node1 -> Node11 [dir="back",color="midnightblue",fontsize="10",style="solid",fontname="Helvetica"];
  Node11 [label="itk::DTITensor\< unsigned\l char \>",height=0.2,width=0.4,color="black", fillcolor="white", style="filled",URL="$classitk_1_1DTITensor.html"];
  Node1 -> Node12 [dir="back",color="midnightblue",fontsize="10",style="solid",fontname="Helvetica"];
  Node12 [label="itk::DTITensor\< unsigned\l int \>",height=0.2,width=0.4,color="black", fillcolor="white", style="filled",URL="$classitk_1_1DTITensor.html"];
  Node1 -> Node13 [dir="back",color="midnightblue",fontsize="10",style="solid",fontname="Helvetica"];
  Node13 [label="itk::DTITensor\< unsigned\l long \>",height=0.2,width=0.4,color="black", fillcolor="white", style="filled",URL="$classitk_1_1DTITensor.html"];
  Node1 -> Node14 [dir="back",color="midnightblue",fontsize="10",style="solid",fontname="Helvetica"];
  Node14 [label="itk::DTITensor\< unsigned\l short \>",height=0.2,width=0.4,color="black", fillcolor="white", style="filled",URL="$classitk_1_1DTITensor.html"];
  Node1 -> Node15 [dir="back",color="midnightblue",fontsize="10",style="solid",fontname="Helvetica"];
  Node15 [label="itk::DTITensor\< TComponent \>",height=0.2,width=0.4,color="black", fillcolor="white", style="filled",URL="$classitk_1_1DTITensor.html"];
}
