digraph "Graphical Class Hierarchy"
{
  edge [fontname="Helvetica",fontsize="10",labelfontname="Helvetica",labelfontsize="10"];
  node [fontname="Helvetica",fontsize="10",shape=record];
  rankdir="LR";
  Node1 [label="ThresholdPhilipsProcessor\l::TPPParameters",height=0.2,width=0.4,color="black", fillcolor="white", style="filled",URL="$classThresholdPhilipsProcessor_1_1TPPParameters.html"];
}
