digraph "Graphical Class Hierarchy"
{
  edge [fontname="Helvetica",fontsize="10",labelfontname="Helvetica",labelfontsize="10"];
  node [fontname="Helvetica",fontsize="10",shape=record];
  rankdir="LR";
  Node1 [label="boost::threadpool::\lfuture\< Result \>",height=0.2,width=0.4,color="black", fillcolor="white", style="filled",URL="$classboost_1_1threadpool_1_1future.html",tooltip="Experimental. Do not use in production code. TODO. "];
}
