digraph "Graphical Class Hierarchy"
{
  edge [fontname="Helvetica",fontsize="10",labelfontname="Helvetica",labelfontsize="10"];
  node [fontname="Helvetica",fontsize="10",shape=record];
  rankdir="LR";
  Node1 [label="dcmapi::apps::AbstractDicom\lReader",height=0.2,width=0.4,color="black", fillcolor="white", style="filled",URL="$classdcmapi_1_1apps_1_1AbstractDicomReader.html"];
  Node1 -> Node2 [dir="back",color="midnightblue",fontsize="10",style="solid",fontname="Helvetica"];
  Node2 [label="dcmapi::apps::DcmapiDicom\lReader",height=0.2,width=0.4,color="black", fillcolor="white", style="filled",URL="$classdcmapi_1_1apps_1_1DcmapiDicomReader.html"];
  Node1 -> Node3 [dir="back",color="midnightblue",fontsize="10",style="solid",fontname="Helvetica"];
  Node3 [label="dcmapi::apps::DcmtkDicom\lReader",height=0.2,width=0.4,color="black", fillcolor="white", style="filled",URL="$classdcmapi_1_1apps_1_1DcmtkDicomReader.html"];
  Node1 -> Node4 [dir="back",color="midnightblue",fontsize="10",style="solid",fontname="Helvetica"];
  Node4 [label="dcmapi::apps::ItkDicomReader",height=0.2,width=0.4,color="black", fillcolor="white", style="filled",URL="$classdcmapi_1_1apps_1_1ItkDicomReader.html"];
  Node1 -> Node5 [dir="back",color="midnightblue",fontsize="10",style="solid",fontname="Helvetica"];
  Node5 [label="dcmapi::apps::VtkDicomReader",height=0.2,width=0.4,color="black", fillcolor="white", style="filled",URL="$classdcmapi_1_1apps_1_1VtkDicomReader.html"];
}
