digraph "Graphical Class Hierarchy"
{
  edge [fontname="Helvetica",fontsize="10",labelfontname="Helvetica",labelfontsize="10"];
  node [fontname="Helvetica",fontsize="10",shape=record];
  rankdir="LR";
  Node1 [label="UnaryFunctorImageFilter",height=0.2,width=0.4,color="grey75", fillcolor="white", style="filled"];
  Node1 -> Node2 [dir="back",color="midnightblue",fontsize="10",style="solid",fontname="Helvetica"];
  Node2 [label="itk::ComputeFAFilter\l\< TInputImage, TOutputImage \>",height=0.2,width=0.4,color="black", fillcolor="white", style="filled",URL="$classitk_1_1ComputeFAFilter.html"];
  Node1 -> Node3 [dir="back",color="midnightblue",fontsize="10",style="solid",fontname="Helvetica"];
  Node3 [label="itk::CubicRootImageFilter\l\< TInputImage, TOutputImage \>",height=0.2,width=0.4,color="black", fillcolor="white", style="filled",URL="$classitk_1_1CubicRootImageFilter.html",tooltip="Computes the vcl_log(x) pixel-wise. "];
}
