digraph "Graphical Class Hierarchy"
{
  edge [fontname="Helvetica",fontsize="10",labelfontname="Helvetica",labelfontsize="10"];
  node [fontname="Helvetica",fontsize="10",shape=record];
  rankdir="LR";
  Node1 [label="itk::function::CubicRoot\l\< TInput, TOutput \>",height=0.2,width=0.4,color="black", fillcolor="white", style="filled",URL="$classitk_1_1function_1_1CubicRoot.html"];
}
