digraph "Graphical Class Hierarchy"
{
  edge [fontname="Helvetica",fontsize="10",labelfontname="Helvetica",labelfontsize="10"];
  node [fontname="Helvetica",fontsize="10",shape=record];
  rankdir="LR";
  Node1 [label="wxThread",height=0.2,width=0.4,color="grey75", fillcolor="white", style="filled"];
  Node1 -> Node2 [dir="back",color="midnightblue",fontsize="10",style="solid",fontname="Helvetica"];
  Node2 [label="wxDownloadThread",height=0.2,width=0.4,color="black", fillcolor="white", style="filled",URL="$classwxDownloadThread.html"];
  Node1 -> Node3 [dir="back",color="midnightblue",fontsize="10",style="solid",fontname="Helvetica"];
  Node3 [label="wxEmbeddedAppWindow\l::EmbedWindowAppThread",height=0.2,width=0.4,color="black", fillcolor="white", style="filled",URL="$classwxEmbeddedAppWindow_1_1EmbedWindowAppThread.html"];
  Node1 -> Node4 [dir="back",color="midnightblue",fontsize="10",style="solid",fontname="Helvetica"];
  Node4 [label="wxEmbeddedAppWindow\l::LaunchAppThread",height=0.2,width=0.4,color="black", fillcolor="white", style="filled",URL="$classwxEmbeddedAppWindow_1_1LaunchAppThread.html"];
  Node1 -> Node5 [dir="back",color="midnightblue",fontsize="10",style="solid",fontname="Helvetica"];
  Node5 [label="wxHTTPBuilderThread",height=0.2,width=0.4,color="black", fillcolor="white", style="filled",URL="$classwxHTTPBuilderThread.html"];
  Node1 -> Node6 [dir="back",color="midnightblue",fontsize="10",style="solid",fontname="Helvetica"];
  Node6 [label="wxSizeCacherThread",height=0.2,width=0.4,color="black", fillcolor="white", style="filled",URL="$classwxSizeCacherThread.html"];
  Node1 -> Node7 [dir="back",color="midnightblue",fontsize="10",style="solid",fontname="Helvetica"];
  Node7 [label="wxWebUpdateInstallThread",height=0.2,width=0.4,color="black", fillcolor="white", style="filled",URL="$classwxWebUpdateInstallThread.html",tooltip="The thread used to install the packages. "];
}
