digraph "Graphical Class Hierarchy"
{
  edge [fontname="Helvetica",fontsize="10",labelfontname="Helvetica",labelfontsize="10"];
  node [fontname="Helvetica",fontsize="10",shape=record];
  rankdir="LR";
  Node1 [label="itk::NumericTraits\l\< DTITensor\< unsigned\l int \> \>",height=0.2,width=0.4,color="black", fillcolor="white", style="filled",URL="$classitk_1_1NumericTraits_3_01DTITensor_3_01unsigned_01int_01_4_01_4.html"];
}
