digraph "Graphical Class Hierarchy"
{
  edge [fontname="Helvetica",fontsize="10",labelfontname="Helvetica",labelfontsize="10"];
  node [fontname="Helvetica",fontsize="10",shape=record];
  rankdir="LR";
  Node1 [label="boost::threadpool::\lwait_for_active_tasks\l\< Pool \>",height=0.2,width=0.4,color="black", fillcolor="white", style="filled",URL="$classboost_1_1threadpool_1_1wait__for__active__tasks.html",tooltip="ShutdownPolicy which waits for the completion of all active tasks and the worker termination afterwar..."];
}
