digraph "Graphical Class Hierarchy"
{
  edge [fontname="Helvetica",fontsize="10",labelfontname="Helvetica",labelfontsize="10"];
  node [fontname="Helvetica",fontsize="10",shape=record];
  rankdir="LR";
  Node1 [label="matrix_container",height=0.2,width=0.4,color="grey75", fillcolor="white", style="filled"];
  Node1 -> Node2 [dir="back",color="midnightblue",fontsize="10",style="solid",fontname="Helvetica"];
  Node2 [label="boost::numeric::ublas\l::c_matrix\< T, N, M \>",height=0.2,width=0.4,color="black", fillcolor="white", style="filled",URL="$classboost_1_1numeric_1_1ublas_1_1c__matrix.html"];
  Node1 -> Node3 [dir="back",color="midnightblue",fontsize="10",style="solid",fontname="Helvetica"];
  Node3 [label="boost::numeric::ublas\l::identity_matrix\< T,\l ALLOC \>",height=0.2,width=0.4,color="black", fillcolor="white", style="filled",URL="$classboost_1_1numeric_1_1ublas_1_1identity__matrix.html"];
  Node1 -> Node4 [dir="back",color="midnightblue",fontsize="10",style="solid",fontname="Helvetica"];
  Node4 [label="boost::numeric::ublas\l::matrix\< T, L, A \>",height=0.2,width=0.4,color="black", fillcolor="white", style="filled",URL="$classboost_1_1numeric_1_1ublas_1_1matrix.html"];
  Node1 -> Node5 [dir="back",color="midnightblue",fontsize="10",style="solid",fontname="Helvetica"];
  Node5 [label="boost::numeric::ublas\l::scalar_matrix\< T, ALLOC \>",height=0.2,width=0.4,color="black", fillcolor="white", style="filled",URL="$classboost_1_1numeric_1_1ublas_1_1scalar__matrix.html"];
  Node1 -> Node6 [dir="back",color="midnightblue",fontsize="10",style="solid",fontname="Helvetica"];
  Node6 [label="boost::numeric::ublas\l::vector_of_vector\< T,\l L, A \>",height=0.2,width=0.4,color="black", fillcolor="white", style="filled",URL="$classboost_1_1numeric_1_1ublas_1_1vector__of__vector.html"];
  Node1 -> Node7 [dir="back",color="midnightblue",fontsize="10",style="solid",fontname="Helvetica"];
  Node7 [label="boost::numeric::ublas\l::zero_matrix\< T, ALLOC \>",height=0.2,width=0.4,color="black", fillcolor="white", style="filled",URL="$classboost_1_1numeric_1_1ublas_1_1zero__matrix.html"];
  Node1 -> Node8 [dir="back",color="midnightblue",fontsize="10",style="solid",fontname="Helvetica"];
  Node8 [label="boost::numeric::ublas\l::matrix\< T, L, bounded\l_array\< T, M *N \> \>",height=0.2,width=0.4,color="black", fillcolor="white", style="filled",URL="$classboost_1_1numeric_1_1ublas_1_1matrix.html"];
  Node8 -> Node9 [dir="back",color="midnightblue",fontsize="10",style="solid",fontname="Helvetica"];
  Node9 [label="boost::numeric::ublas\l::bounded_matrix\< T,\l M, N, L \>",height=0.2,width=0.4,color="black", fillcolor="white", style="filled",URL="$classboost_1_1numeric_1_1ublas_1_1bounded__matrix.html"];
}
