digraph "Graphical Class Hierarchy"
{
  edge [fontname="Helvetica",fontsize="10",labelfontname="Helvetica",labelfontsize="10"];
  node [fontname="Helvetica",fontsize="10",shape=record];
  rankdir="LR";
  Node1 [label="RescaleIntensityImageFilter",height=0.2,width=0.4,color="grey75", fillcolor="white", style="filled"];
  Node1 -> Node2 [dir="back",color="midnightblue",fontsize="10",style="solid",fontname="Helvetica"];
  Node2 [label="blIARescalerFilter\l\< InputImageType, OutputImage\lType \>",height=0.2,width=0.4,color="black", fillcolor="white", style="filled",URL="$classblIARescalerFilter.html",tooltip="Wraps the itk::RescaleIntensityImageFilter filter. "];
}
