digraph "Graphical Class Hierarchy"
{
  edge [fontname="Helvetica",fontsize="10",labelfontname="Helvetica",labelfontsize="10"];
  node [fontname="Helvetica",fontsize="10",shape=record];
  rankdir="LR";
  Node1 [label="AlgorithmTraits\< T,\l vtkPolyDataAlgorithm \>",height=0.2,width=0.4,color="black", fillcolor="white", style="filled",URL="$structAlgorithmTraits_3_01T_00_01vtkPolyDataAlgorithm_01_4.html"];
}
