digraph "Graphical Class Hierarchy"
{
  edge [fontname="Helvetica",fontsize="10",labelfontname="Helvetica",labelfontsize="10"];
  node [fontname="Helvetica",fontsize="10",shape=record];
  rankdir="LR";
  Node1 [label="dcmAPI::Search",height=0.2,width=0.4,color="black", fillcolor="white", style="filled",URL="$classdcmAPI_1_1Search.html",tooltip="Search DICOM data or tags in a dcmDataSet. "];
}
