digraph "Graphical Class Hierarchy"
{
  edge [fontname="Helvetica",fontsize="10",labelfontname="Helvetica",labelfontsize="10"];
  node [fontname="Helvetica",fontsize="10",shape=record];
  rankdir="LR";
  Node1 [label="wxSplashScreen",height=0.2,width=0.4,color="grey75", fillcolor="white", style="filled"];
  Node1 -> Node2 [dir="back",color="midnightblue",fontsize="10",style="solid",fontname="Helvetica"];
  Node2 [label="Core::Widgets::SplashScreen",height=0.2,width=0.4,color="black", fillcolor="white", style="filled",URL="$classCore_1_1Widgets_1_1SplashScreen.html",tooltip="Displays the Core splash screen and allows displaying startup messages. It also displays the version ..."];
}
