digraph "Graphical Class Hierarchy"
{
  edge [fontname="Helvetica",fontsize="10",labelfontname="Helvetica",labelfontsize="10"];
  node [fontname="Helvetica",fontsize="10",shape=record];
  rankdir="LR";
  Node1 [label="wxEvent",height=0.2,width=0.4,color="grey75", fillcolor="white", style="filled"];
  Node1 -> Node2 [dir="back",color="midnightblue",fontsize="10",style="solid",fontname="Helvetica"];
  Node2 [label="Core::WxGenericEvent",height=0.2,width=0.4,color="black", fillcolor="white", style="filled",URL="$classCore_1_1WxGenericEvent.html"];
  Node1 -> Node3 [dir="back",color="midnightblue",fontsize="10",style="solid",fontname="Helvetica"];
  Node3 [label="Core::WxUpdateCallbackEvent",height=0.2,width=0.4,color="black", fillcolor="white", style="filled",URL="$classCore_1_1WxUpdateCallbackEvent.html"];
  Node1 -> Node4 [dir="back",color="midnightblue",fontsize="10",style="solid",fontname="Helvetica"];
  Node4 [label="Core::WxUpdatePortEvent",height=0.2,width=0.4,color="black", fillcolor="white", style="filled",URL="$classCore_1_1WxUpdatePortEvent.html"];
  Node1 -> Node5 [dir="back",color="midnightblue",fontsize="10",style="solid",fontname="Helvetica"];
  Node5 [label="wxHTTPBuilderEvent",height=0.2,width=0.4,color="black", fillcolor="white", style="filled",URL="$classwxHTTPBuilderEvent.html"];
}
