digraph "Graphical Class Hierarchy"
{
  edge [fontname="Helvetica",fontsize="10",labelfontname="Helvetica",labelfontsize="10"];
  node [fontname="Helvetica",fontsize="10",shape=record];
  rankdir="LR";
  Node1 [label="itk::Statistics::GetHistogram\lDimension2\< THistogram \>",height=0.2,width=0.4,color="black", fillcolor="white", style="filled",URL="$structitk_1_1Statistics_1_1GetHistogramDimension2.html"];
}
