digraph "Graphical Class Hierarchy"
{
  edge [fontname="Helvetica",fontsize="10",labelfontname="Helvetica",labelfontsize="10"];
  node [fontname="Helvetica",fontsize="10",shape=record];
  rankdir="LR";
  Node1 [label="itk::Statistics::Histogram2\l\< TMeasurement, TFrequencyContainer\l \>::ConstIterator",height=0.2,width=0.4,color="black", fillcolor="white", style="filled",URL="$classitk_1_1Statistics_1_1Histogram2_1_1ConstIterator.html"];
  Node1 -> Node2 [dir="back",color="midnightblue",fontsize="10",style="solid",fontname="Helvetica"];
  Node2 [label="itk::Statistics::Histogram2\l\< TMeasurement, TFrequencyContainer\l \>::Iterator",height=0.2,width=0.4,color="black", fillcolor="white", style="filled",URL="$classitk_1_1Statistics_1_1Histogram2_1_1Iterator.html"];
}
