digraph "Graphical Class Hierarchy"
{
  edge [fontname="Helvetica",fontsize="10",labelfontname="Helvetica",labelfontsize="10"];
  node [fontname="Helvetica",fontsize="10",shape=record];
  rankdir="LR";
  Node1 [label="blImageConverter",height=0.2,width=0.4,color="black", fillcolor="white", style="filled",URL="$classblImageConverter.html",tooltip="This class can be used to convert standard image formats (BMP, PNG, JPG, JP2) to itk::Image format..."];
}
