digraph "Graphical Class Hierarchy"
{
  edge [fontname="Helvetica",fontsize="10",labelfontname="Helvetica",labelfontsize="10"];
  node [fontname="Helvetica",fontsize="10",shape=record];
  rankdir="LR";
  Node1 [label="ImageToImageFilter",height=0.2,width=0.4,color="grey75", fillcolor="white", style="filled"];
  Node1 -> Node2 [dir="back",color="midnightblue",fontsize="10",style="solid",fontname="Helvetica"];
  Node2 [label="itk::AverageOutwardFluxImage\lFilter\< TInputImage, TOutputPixel\lType, TInputVectorPixelType \>",height=0.2,width=0.4,color="black", fillcolor="white", style="filled",URL="$classitk_1_1AverageOutwardFluxImageFilter.html",tooltip="This class computes the average outward flux associated to an object implicitly represented as a dist..."];
  Node1 -> Node3 [dir="back",color="midnightblue",fontsize="10",style="solid",fontname="Helvetica"];
  Node3 [label="itk::MedialCurveImageFilter\l\< TInputImage, TAverageOutwardFlux\lPixelType, TOutputPixelType \>",height=0.2,width=0.4,color="black", fillcolor="white", style="filled",URL="$classitk_1_1MedialCurveImageFilter.html",tooltip="Computation of the Medial curve of a tube like object. "];
  Node1 -> Node4 [dir="back",color="midnightblue",fontsize="10",style="solid",fontname="Helvetica"];
  Node4 [label="itk::StripTsImageFilter\l\< TImageType, TAtlasImageType,\l TAtlasLabelType \>",height=0.2,width=0.4,color="black", fillcolor="white", style="filled",URL="$classitk_1_1StripTsImageFilter.html",tooltip="composite ITK filter for automatic skull-stripping "];
}
