digraph "Modules/TpExtLib/libmodules/tpWebUpdate/src/installer.cpp"
{
  edge [fontname="Helvetica",fontsize="10",labelfontname="Helvetica",labelfontsize="10"];
  node [fontname="Helvetica",fontsize="10",shape=record];
  Node1 [label="Modules/TpExtLib/libmodules\l/tpWebUpdate/src/installer.cpp",height=0.2,width=0.4,color="black", fillcolor="grey75", style="filled", fontcolor="black"];
  Node1 -> Node2 [color="midnightblue",fontsize="10",style="solid",fontname="Helvetica"];
  Node2 [label="wx/wxprec.h",height=0.2,width=0.4,color="grey75", fillcolor="white", style="filled"];
  Node1 -> Node3 [color="midnightblue",fontsize="10",style="solid",fontname="Helvetica"];
  Node3 [label="wx/log.h",height=0.2,width=0.4,color="grey75", fillcolor="white", style="filled"];
  Node1 -> Node4 [color="midnightblue",fontsize="10",style="solid",fontname="Helvetica"];
  Node4 [label="wx/installer.h",height=0.2,width=0.4,color="black", fillcolor="white", style="filled",URL="$installer_8h.html"];
  Node4 -> Node5 [color="midnightblue",fontsize="10",style="solid",fontname="Helvetica"];
  Node5 [label="wx/webupdatedef.h",height=0.2,width=0.4,color="black", fillcolor="white", style="filled",URL="$webupdatedef_8h.html"];
  Node5 -> Node6 [color="midnightblue",fontsize="10",style="solid",fontname="Helvetica"];
  Node6 [label="tpExtLibWxWebUpdateWin32\lHeader.h",height=0.2,width=0.4,color="grey75", fillcolor="white", style="filled"];
  Node4 -> Node7 [color="midnightblue",fontsize="10",style="solid",fontname="Helvetica"];
  Node7 [label="wx/webupdate.h",height=0.2,width=0.4,color="black", fillcolor="white", style="filled",URL="$webupdate_8h.html"];
  Node7 -> Node5 [color="midnightblue",fontsize="10",style="solid",fontname="Helvetica"];
  Node7 -> Node8 [color="midnightblue",fontsize="10",style="solid",fontname="Helvetica"];
  Node8 [label="wx/xml/xml.h",height=0.2,width=0.4,color="grey75", fillcolor="white", style="filled"];
  Node7 -> Node9 [color="midnightblue",fontsize="10",style="solid",fontname="Helvetica"];
  Node9 [label="wx/url.h",height=0.2,width=0.4,color="grey75", fillcolor="white", style="filled"];
  Node7 -> Node3 [color="midnightblue",fontsize="10",style="solid",fontname="Helvetica"];
  Node7 -> Node10 [color="midnightblue",fontsize="10",style="solid",fontname="Helvetica"];
  Node10 [label="wx/textfile.h",height=0.2,width=0.4,color="grey75", fillcolor="white", style="filled"];
  Node1 -> Node7 [color="midnightblue",fontsize="10",style="solid",fontname="Helvetica"];
  Node1 -> Node11 [color="midnightblue",fontsize="10",style="solid",fontname="Helvetica"];
  Node11 [label="wx/webupdatedlg.h",height=0.2,width=0.4,color="black", fillcolor="white", style="filled",URL="$webupdatedlg_8h.html"];
  Node11 -> Node12 [color="midnightblue",fontsize="10",style="solid",fontname="Helvetica"];
  Node12 [label="wxWebUpdateDlgUI.h",height=0.2,width=0.4,color="black", fillcolor="white", style="filled",URL="$wxWebUpdateDlgUI_8h.html"];
  Node12 -> Node13 [color="midnightblue",fontsize="10",style="solid",fontname="Helvetica"];
  Node13 [label="wx/wx.h",height=0.2,width=0.4,color="grey75", fillcolor="white", style="filled"];
  Node12 -> Node14 [color="midnightblue",fontsize="10",style="solid",fontname="Helvetica"];
  Node14 [label="wx/image.h",height=0.2,width=0.4,color="grey75", fillcolor="white", style="filled"];
  Node12 -> Node15 [color="midnightblue",fontsize="10",style="solid",fontname="Helvetica"];
  Node15 [label="wx/statline.h",height=0.2,width=0.4,color="grey75", fillcolor="white", style="filled"];
  Node12 -> Node16 [color="midnightblue",fontsize="10",style="solid",fontname="Helvetica"];
  Node16 [label="wx/webupdatectrl.h",height=0.2,width=0.4,color="black", fillcolor="white", style="filled",URL="$webupdatectrl_8h.html"];
  Node16 -> Node7 [color="midnightblue",fontsize="10",style="solid",fontname="Helvetica"];
  Node16 -> Node17 [color="midnightblue",fontsize="10",style="solid",fontname="Helvetica"];
  Node17 [label="wx/download.h",height=0.2,width=0.4,color="black", fillcolor="white", style="filled",URL="$download_8h.html"];
  Node17 -> Node5 [color="midnightblue",fontsize="10",style="solid",fontname="Helvetica"];
  Node17 -> Node9 [color="midnightblue",fontsize="10",style="solid",fontname="Helvetica"];
  Node17 -> Node18 [color="midnightblue",fontsize="10",style="solid",fontname="Helvetica"];
  Node18 [label="wx/datetime.h",height=0.2,width=0.4,color="grey75", fillcolor="white", style="filled"];
  Node16 -> Node19 [color="midnightblue",fontsize="10",style="solid",fontname="Helvetica"];
  Node19 [label="wx/checkedlistctrl.h",height=0.2,width=0.4,color="black", fillcolor="white", style="filled",URL="$checkedlistctrl_8h.html"];
  Node19 -> Node5 [color="midnightblue",fontsize="10",style="solid",fontname="Helvetica"];
  Node19 -> Node20 [color="midnightblue",fontsize="10",style="solid",fontname="Helvetica"];
  Node20 [label="wx/listctrl.h",height=0.2,width=0.4,color="grey75", fillcolor="white", style="filled"];
  Node19 -> Node21 [color="midnightblue",fontsize="10",style="solid",fontname="Helvetica"];
  Node21 [label="wx/imaglist.h",height=0.2,width=0.4,color="grey75", fillcolor="white", style="filled"];
  Node16 -> Node4 [color="midnightblue",fontsize="10",style="solid",fontname="Helvetica"];
  Node16 -> Node22 [color="midnightblue",fontsize="10",style="solid",fontname="Helvetica"];
  Node22 [label="wx/dialog.h",height=0.2,width=0.4,color="grey75", fillcolor="white", style="filled"];
  Node16 -> Node23 [color="midnightblue",fontsize="10",style="solid",fontname="Helvetica"];
  Node23 [label="wx/panel.h",height=0.2,width=0.4,color="grey75", fillcolor="white", style="filled"];
  Node16 -> Node24 [color="midnightblue",fontsize="10",style="solid",fontname="Helvetica"];
  Node24 [label="wx/checkbox.h",height=0.2,width=0.4,color="grey75", fillcolor="white", style="filled"];
  Node16 -> Node25 [color="midnightblue",fontsize="10",style="solid",fontname="Helvetica"];
  Node25 [label="wx/textctrl.h",height=0.2,width=0.4,color="grey75", fillcolor="white", style="filled"];
  Node16 -> Node26 [color="midnightblue",fontsize="10",style="solid",fontname="Helvetica"];
  Node26 [label="wx/xrc/xmlres.h",height=0.2,width=0.4,color="grey75", fillcolor="white", style="filled"];
  Node12 -> Node27 [color="midnightblue",fontsize="10",style="solid",fontname="Helvetica"];
  Node27 [label="wx/webupdateadvpanel.h",height=0.2,width=0.4,color="black", fillcolor="white", style="filled",URL="$webupdateadvpanel_8h.html"];
  Node27 -> Node28 [color="midnightblue",fontsize="10",style="solid",fontname="Helvetica"];
  Node28 [label="wxWebUpdateAdvPanelUI.h",height=0.2,width=0.4,color="black", fillcolor="white", style="filled",URL="$wxWebUpdateAdvPanelUI_8h.html"];
  Node28 -> Node13 [color="midnightblue",fontsize="10",style="solid",fontname="Helvetica"];
  Node28 -> Node14 [color="midnightblue",fontsize="10",style="solid",fontname="Helvetica"];
  Node27 -> Node7 [color="midnightblue",fontsize="10",style="solid",fontname="Helvetica"];
  Node27 -> Node17 [color="midnightblue",fontsize="10",style="solid",fontname="Helvetica"];
  Node27 -> Node16 [color="midnightblue",fontsize="10",style="solid",fontname="Helvetica"];
  Node27 -> Node4 [color="midnightblue",fontsize="10",style="solid",fontname="Helvetica"];
  Node27 -> Node22 [color="midnightblue",fontsize="10",style="solid",fontname="Helvetica"];
  Node27 -> Node23 [color="midnightblue",fontsize="10",style="solid",fontname="Helvetica"];
  Node27 -> Node24 [color="midnightblue",fontsize="10",style="solid",fontname="Helvetica"];
  Node27 -> Node25 [color="midnightblue",fontsize="10",style="solid",fontname="Helvetica"];
  Node11 -> Node7 [color="midnightblue",fontsize="10",style="solid",fontname="Helvetica"];
  Node11 -> Node17 [color="midnightblue",fontsize="10",style="solid",fontname="Helvetica"];
  Node11 -> Node16 [color="midnightblue",fontsize="10",style="solid",fontname="Helvetica"];
  Node11 -> Node4 [color="midnightblue",fontsize="10",style="solid",fontname="Helvetica"];
  Node11 -> Node22 [color="midnightblue",fontsize="10",style="solid",fontname="Helvetica"];
  Node11 -> Node23 [color="midnightblue",fontsize="10",style="solid",fontname="Helvetica"];
  Node11 -> Node24 [color="midnightblue",fontsize="10",style="solid",fontname="Helvetica"];
  Node11 -> Node25 [color="midnightblue",fontsize="10",style="solid",fontname="Helvetica"];
  Node11 -> Node29 [color="midnightblue",fontsize="10",style="solid",fontname="Helvetica"];
  Node29 [label="list",height=0.2,width=0.4,color="grey75", fillcolor="white", style="filled"];
  Node1 -> Node30 [color="midnightblue",fontsize="10",style="solid",fontname="Helvetica"];
  Node30 [label="wx/stdactions.h",height=0.2,width=0.4,color="black", fillcolor="white", style="filled",URL="$stdactions_8h.html"];
  Node30 -> Node5 [color="midnightblue",fontsize="10",style="solid",fontname="Helvetica"];
  Node30 -> Node7 [color="midnightblue",fontsize="10",style="solid",fontname="Helvetica"];
  Node1 -> Node31 [color="midnightblue",fontsize="10",style="solid",fontname="Helvetica"];
  Node31 [label="wx/wfstream.h",height=0.2,width=0.4,color="grey75", fillcolor="white", style="filled"];
  Node1 -> Node32 [color="midnightblue",fontsize="10",style="solid",fontname="Helvetica"];
  Node32 [label="wx/filesys.h",height=0.2,width=0.4,color="grey75", fillcolor="white", style="filled"];
  Node1 -> Node33 [color="midnightblue",fontsize="10",style="solid",fontname="Helvetica"];
  Node33 [label="wx/utils.h",height=0.2,width=0.4,color="grey75", fillcolor="white", style="filled"];
  Node1 -> Node34 [color="midnightblue",fontsize="10",style="solid",fontname="Helvetica"];
  Node34 [label="wx/archive.h",height=0.2,width=0.4,color="grey75", fillcolor="white", style="filled"];
  Node1 -> Node35 [color="midnightblue",fontsize="10",style="solid",fontname="Helvetica"];
  Node35 [label="wx/zipstrm.h",height=0.2,width=0.4,color="grey75", fillcolor="white", style="filled"];
  Node1 -> Node36 [color="midnightblue",fontsize="10",style="solid",fontname="Helvetica"];
  Node36 [label="wx/msgdlg.h",height=0.2,width=0.4,color="grey75", fillcolor="white", style="filled"];
  Node1 -> Node37 [color="midnightblue",fontsize="10",style="solid",fontname="Helvetica"];
  Node37 [label="wx/app.h",height=0.2,width=0.4,color="grey75", fillcolor="white", style="filled"];
  Node1 -> Node38 [color="midnightblue",fontsize="10",style="solid",fontname="Helvetica"];
  Node38 [label="wx/tokenzr.h",height=0.2,width=0.4,color="grey75", fillcolor="white", style="filled"];
  Node1 -> Node39 [color="midnightblue",fontsize="10",style="solid",fontname="Helvetica"];
  Node39 [label="wx/filename.h",height=0.2,width=0.4,color="grey75", fillcolor="white", style="filled"];
}
