digraph "Apps/Plugins/ManualSegmentationPlugin/widgets/InteractiveSegmPanelWidget/InteractiveSegmPanelWidget.h"
{
  edge [fontname="Helvetica",fontsize="10",labelfontname="Helvetica",labelfontsize="10"];
  node [fontname="Helvetica",fontsize="10",shape=record];
  Node1 [label="Apps/Plugins/ManualSegmentation\lPlugin/widgets/InteractiveSegmPanel\lWidget/InteractiveSegmPanelWidget.h",height=0.2,width=0.4,color="black", fillcolor="grey75", style="filled", fontcolor="black"];
  Node1 -> Node2 [color="midnightblue",fontsize="10",style="solid",fontname="Helvetica"];
  Node2 [label="InteractiveSegmPanelWidgetUI.h",height=0.2,width=0.4,color="black", fillcolor="white", style="filled",URL="$InteractiveSegmPanelWidgetUI_8h.html"];
  Node2 -> Node3 [color="midnightblue",fontsize="10",style="solid",fontname="Helvetica"];
  Node3 [label="wx/wx.h",height=0.2,width=0.4,color="grey75", fillcolor="white", style="filled"];
  Node2 -> Node4 [color="midnightblue",fontsize="10",style="solid",fontname="Helvetica"];
  Node4 [label="wx/image.h",height=0.2,width=0.4,color="grey75", fillcolor="white", style="filled"];
  Node2 -> Node5 [color="midnightblue",fontsize="10",style="solid",fontname="Helvetica"];
  Node5 [label="wxID.h",height=0.2,width=0.4,color="red", fillcolor="white", style="filled",URL="$wxID_8h.html"];
  Node1 -> Node6 [color="midnightblue",fontsize="10",style="solid",fontname="Helvetica"];
  Node6 [label="isegProcessor.h",height=0.2,width=0.4,color="black", fillcolor="white", style="filled",URL="$isegProcessor_8h.html"];
  Node6 -> Node7 [color="midnightblue",fontsize="10",style="solid",fontname="Helvetica"];
  Node7 [label="gmProcessorsWin32Header.h",height=0.2,width=0.4,color="grey75", fillcolor="white", style="filled"];
  Node6 -> Node8 [color="midnightblue",fontsize="10",style="solid",fontname="Helvetica"];
  Node8 [label="itkImage.h",height=0.2,width=0.4,color="grey75", fillcolor="white", style="filled"];
  Node6 -> Node9 [color="midnightblue",fontsize="10",style="solid",fontname="Helvetica"];
  Node9 [label="coreDataEntityHolder.h",height=0.2,width=0.4,color="red", fillcolor="white", style="filled",URL="$coreDataEntityHolder_8h.html"];
  Node9 -> Node10 [color="midnightblue",fontsize="10",style="solid",fontname="Helvetica"];
  Node10 [label="coreDataEntity.h",height=0.2,width=0.4,color="red", fillcolor="white", style="filled",URL="$coreDataEntity_8h.html"];
  Node10 -> Node11 [color="midnightblue",fontsize="10",style="solid",fontname="Helvetica"];
  Node11 [label="coreObject.h",height=0.2,width=0.4,color="red", fillcolor="white", style="filled",URL="$coreObject_8h.html"];
  Node11 -> Node12 [color="midnightblue",fontsize="10",style="solid",fontname="Helvetica"];
  Node12 [label="coreSmartPointerMacros.h",height=0.2,width=0.4,color="red", fillcolor="white", style="filled",URL="$coreSmartPointerMacros_8h.html"];
  Node11 -> Node13 [color="midnightblue",fontsize="10",style="solid",fontname="Helvetica"];
  Node13 [label="boost/signals.hpp",height=0.2,width=0.4,color="grey75", fillcolor="white", style="filled"];
  Node11 -> Node14 [color="midnightblue",fontsize="10",style="solid",fontname="Helvetica"];
  Node14 [label="boost/bind.hpp",height=0.2,width=0.4,color="grey75", fillcolor="white", style="filled"];
  Node10 -> Node15 [color="midnightblue",fontsize="10",style="solid",fontname="Helvetica"];
  Node15 [label="vector",height=0.2,width=0.4,color="grey75", fillcolor="white", style="filled"];
  Node10 -> Node13 [color="midnightblue",fontsize="10",style="solid",fontname="Helvetica"];
  Node10 -> Node9 [color="midnightblue",fontsize="10",style="solid",fontname="Helvetica"];
  Node9 -> Node16 [color="midnightblue",fontsize="10",style="solid",fontname="Helvetica"];
  Node16 [label="coreDataHolder.h",height=0.2,width=0.4,color="red", fillcolor="white", style="filled",URL="$coreDataHolder_8h.html"];
  Node16 -> Node14 [color="midnightblue",fontsize="10",style="solid",fontname="Helvetica"];
  Node16 -> Node13 [color="midnightblue",fontsize="10",style="solid",fontname="Helvetica"];
  Node16 -> Node16 [color="midnightblue",fontsize="10",style="solid",fontname="Helvetica"];
  Node6 -> Node12 [color="midnightblue",fontsize="10",style="solid",fontname="Helvetica"];
  Node6 -> Node11 [color="midnightblue",fontsize="10",style="solid",fontname="Helvetica"];
  Node6 -> Node17 [color="midnightblue",fontsize="10",style="solid",fontname="Helvetica"];
  Node17 [label="coreCommonDataTypes.h",height=0.2,width=0.4,color="black", fillcolor="white", style="filled",URL="$coreCommonDataTypes_8h.html"];
  Node17 -> Node16 [color="midnightblue",fontsize="10",style="solid",fontname="Helvetica"];
  Node6 -> Node18 [color="midnightblue",fontsize="10",style="solid",fontname="Helvetica"];
  Node18 [label="corePluginMacros.h",height=0.2,width=0.4,color="black", fillcolor="white", style="filled",URL="$corePluginMacros_8h.html"];
  Node6 -> Node19 [color="midnightblue",fontsize="10",style="solid",fontname="Helvetica"];
  Node19 [label="coreDataEntityList.h",height=0.2,width=0.4,color="red", fillcolor="white", style="filled",URL="$coreDataEntityList_8h.html"];
  Node19 -> Node20 [color="midnightblue",fontsize="10",style="solid",fontname="Helvetica"];
  Node20 [label="gmKernelWin32Header.h",height=0.2,width=0.4,color="grey75", fillcolor="white", style="filled"];
  Node19 -> Node11 [color="midnightblue",fontsize="10",style="solid",fontname="Helvetica"];
  Node19 -> Node10 [color="midnightblue",fontsize="10",style="solid",fontname="Helvetica"];
  Node19 -> Node9 [color="midnightblue",fontsize="10",style="solid",fontname="Helvetica"];
  Node19 -> Node13 [color="midnightblue",fontsize="10",style="solid",fontname="Helvetica"];
  Node19 -> Node21 [color="midnightblue",fontsize="10",style="solid",fontname="Helvetica"];
  Node21 [label="map",height=0.2,width=0.4,color="grey75", fillcolor="white", style="filled"];
  Node6 -> Node22 [color="midnightblue",fontsize="10",style="solid",fontname="Helvetica"];
  Node22 [label="coreDataEntityHelper.h",height=0.2,width=0.4,color="red", fillcolor="white", style="filled",URL="$coreDataEntityHelper_8h.html"];
  Node22 -> Node20 [color="midnightblue",fontsize="10",style="solid",fontname="Helvetica"];
  Node22 -> Node11 [color="midnightblue",fontsize="10",style="solid",fontname="Helvetica"];
  Node22 -> Node10 [color="midnightblue",fontsize="10",style="solid",fontname="Helvetica"];
  Node6 -> Node23 [color="midnightblue",fontsize="10",style="solid",fontname="Helvetica"];
  Node23 [label="coreRenderingTree.h",height=0.2,width=0.4,color="black", fillcolor="white", style="filled",URL="$coreRenderingTree_8h.html"];
  Node23 -> Node20 [color="midnightblue",fontsize="10",style="solid",fontname="Helvetica"];
  Node23 -> Node11 [color="midnightblue",fontsize="10",style="solid",fontname="Helvetica"];
  Node23 -> Node10 [color="midnightblue",fontsize="10",style="solid",fontname="Helvetica"];
  Node23 -> Node13 [color="midnightblue",fontsize="10",style="solid",fontname="Helvetica"];
  Node23 -> Node21 [color="midnightblue",fontsize="10",style="solid",fontname="Helvetica"];
  Node23 -> Node24 [color="midnightblue",fontsize="10",style="solid",fontname="Helvetica"];
  Node24 [label="coreRenderingTree.txx",height=0.2,width=0.4,color="grey75", fillcolor="white", style="filled"];
  Node6 -> Node25 [color="midnightblue",fontsize="10",style="solid",fontname="Helvetica"];
  Node25 [label="coreBaseProcessor.h",height=0.2,width=0.4,color="red", fillcolor="white", style="filled",URL="$coreBaseProcessor_8h.html"];
  Node25 -> Node11 [color="midnightblue",fontsize="10",style="solid",fontname="Helvetica"];
  Node25 -> Node16 [color="midnightblue",fontsize="10",style="solid",fontname="Helvetica"];
  Node25 -> Node10 [color="midnightblue",fontsize="10",style="solid",fontname="Helvetica"];
  Node6 -> Node21 [color="midnightblue",fontsize="10",style="solid",fontname="Helvetica"];
  Node6 -> Node15 [color="midnightblue",fontsize="10",style="solid",fontname="Helvetica"];
  Node1 -> Node26 [color="midnightblue",fontsize="10",style="solid",fontname="Helvetica"];
  Node26 [label="InteractiveSegmInteractor\lHelper.h",height=0.2,width=0.4,color="black", fillcolor="white", style="filled",URL="$InteractiveSegmInteractorHelper_8h.html"];
  Node26 -> Node11 [color="midnightblue",fontsize="10",style="solid",fontname="Helvetica"];
  Node26 -> Node27 [color="midnightblue",fontsize="10",style="solid",fontname="Helvetica"];
  Node27 [label="mitkCommon.h",height=0.2,width=0.4,color="grey75", fillcolor="white", style="filled"];
  Node26 -> Node28 [color="midnightblue",fontsize="10",style="solid",fontname="Helvetica"];
  Node28 [label="mitkPointSet.h",height=0.2,width=0.4,color="grey75", fillcolor="white", style="filled"];
  Node26 -> Node12 [color="midnightblue",fontsize="10",style="solid",fontname="Helvetica"];
  Node26 -> Node9 [color="midnightblue",fontsize="10",style="solid",fontname="Helvetica"];
  Node26 -> Node17 [color="midnightblue",fontsize="10",style="solid",fontname="Helvetica"];
  Node26 -> Node29 [color="midnightblue",fontsize="10",style="solid",fontname="Helvetica"];
  Node29 [label="InteractiveSegmInteractor.h",height=0.2,width=0.4,color="red", fillcolor="white", style="filled",URL="$InteractiveSegmInteractor_8h.html"];
  Node29 -> Node23 [color="midnightblue",fontsize="10",style="solid",fontname="Helvetica"];
  Node29 -> Node11 [color="midnightblue",fontsize="10",style="solid",fontname="Helvetica"];
  Node29 -> Node9 [color="midnightblue",fontsize="10",style="solid",fontname="Helvetica"];
  Node29 -> Node17 [color="midnightblue",fontsize="10",style="solid",fontname="Helvetica"];
  Node29 -> Node10 [color="midnightblue",fontsize="10",style="solid",fontname="Helvetica"];
  Node29 -> Node16 [color="midnightblue",fontsize="10",style="solid",fontname="Helvetica"];
  Node1 -> Node23 [color="midnightblue",fontsize="10",style="solid",fontname="Helvetica"];
  Node1 -> Node30 [color="midnightblue",fontsize="10",style="solid",fontname="Helvetica"];
  Node30 [label="coreFrontEndPlugin.h",height=0.2,width=0.4,color="black", fillcolor="white", style="filled",URL="$coreFrontEndPlugin_8h.html"];
  Node30 -> Node20 [color="midnightblue",fontsize="10",style="solid",fontname="Helvetica"];
  Node30 -> Node11 [color="midnightblue",fontsize="10",style="solid",fontname="Helvetica"];
  Node30 -> Node18 [color="midnightblue",fontsize="10",style="solid",fontname="Helvetica"];
  Node30 -> Node31 [color="midnightblue",fontsize="10",style="solid",fontname="Helvetica"];
  Node31 [label="coreBasePlugin.h",height=0.2,width=0.4,color="black", fillcolor="white", style="filled",URL="$coreBasePlugin_8h.html"];
  Node31 -> Node20 [color="midnightblue",fontsize="10",style="solid",fontname="Helvetica"];
  Node31 -> Node11 [color="midnightblue",fontsize="10",style="solid",fontname="Helvetica"];
  Node1 -> Node17 [color="midnightblue",fontsize="10",style="solid",fontname="Helvetica"];
  Node1 -> Node32 [color="midnightblue",fontsize="10",style="solid",fontname="Helvetica"];
  Node32 [label="coreSelectionToolWidget.h",height=0.2,width=0.4,color="black", fillcolor="white", style="filled",URL="$coreSelectionToolWidget_8h.html"];
  Node32 -> Node33 [color="midnightblue",fontsize="10",style="solid",fontname="Helvetica"];
  Node33 [label="gmWidgetsWin32Header.h",height=0.2,width=0.4,color="grey75", fillcolor="white", style="filled"];
  Node32 -> Node34 [color="midnightblue",fontsize="10",style="solid",fontname="Helvetica"];
  Node34 [label="coreBaseWindow.h",height=0.2,width=0.4,color="red", fillcolor="white", style="filled",URL="$coreBaseWindow_8h.html"];
  Node34 -> Node20 [color="midnightblue",fontsize="10",style="solid",fontname="Helvetica"];
  Node34 -> Node23 [color="midnightblue",fontsize="10",style="solid",fontname="Helvetica"];
  Node34 -> Node25 [color="midnightblue",fontsize="10",style="solid",fontname="Helvetica"];
  Node34 -> Node17 [color="midnightblue",fontsize="10",style="solid",fontname="Helvetica"];
  Node1 -> Node35 [color="midnightblue",fontsize="10",style="solid",fontname="Helvetica"];
  Node35 [label="gblWxConnectorOfWidgetChanges\lToSlotFunction.h",height=0.2,width=0.4,color="black", fillcolor="white", style="filled",URL="$gblWxConnectorOfWidgetChangesToSlotFunction_8h.html"];
  Node35 -> Node14 [color="midnightblue",fontsize="10",style="solid",fontname="Helvetica"];
  Node35 -> Node36 [color="midnightblue",fontsize="10",style="solid",fontname="Helvetica"];
  Node36 [label="CILabNamespaceMacros.h",height=0.2,width=0.4,color="black", fillcolor="white", style="filled",URL="$CILabNamespaceMacros_8h.html"];
  Node35 -> Node3 [color="midnightblue",fontsize="10",style="solid",fontname="Helvetica"];
  Node35 -> Node37 [color="midnightblue",fontsize="10",style="solid",fontname="Helvetica"];
  Node37 [label="wx/listctrl.h",height=0.2,width=0.4,color="grey75", fillcolor="white", style="filled"];
  Node35 -> Node38 [color="midnightblue",fontsize="10",style="solid",fontname="Helvetica"];
  Node38 [label="wx/tglbtn.h",height=0.2,width=0.4,color="grey75", fillcolor="white", style="filled"];
  Node35 -> Node39 [color="midnightblue",fontsize="10",style="solid",fontname="Helvetica"];
  Node39 [label="wx/choicebk.h",height=0.2,width=0.4,color="grey75", fillcolor="white", style="filled"];
  Node35 -> Node40 [color="midnightblue",fontsize="10",style="solid",fontname="Helvetica"];
  Node40 [label="boost/shared_ptr.hpp",height=0.2,width=0.4,color="grey75", fillcolor="white", style="filled"];
  Node35 -> Node41 [color="midnightblue",fontsize="10",style="solid",fontname="Helvetica"];
  Node41 [label="boost/function.hpp",height=0.2,width=0.4,color="grey75", fillcolor="white", style="filled"];
  Node35 -> Node21 [color="midnightblue",fontsize="10",style="solid",fontname="Helvetica"];
  Node1 -> Node15 [color="midnightblue",fontsize="10",style="solid",fontname="Helvetica"];
  Node1 -> Node21 [color="midnightblue",fontsize="10",style="solid",fontname="Helvetica"];
  Node1 -> Node42 [color="midnightblue",fontsize="10",style="solid",fontname="Helvetica"];
  Node42 [label="blMITKUtils.h",height=0.2,width=0.4,color="black", fillcolor="white", style="filled",URL="$blMITKUtils_8h.html"];
  Node42 -> Node43 [color="midnightblue",fontsize="10",style="solid",fontname="Helvetica"];
  Node43 [label="TpExtLibMITKWin32Header.h",height=0.2,width=0.4,color="grey75", fillcolor="white", style="filled"];
  Node42 -> Node15 [color="midnightblue",fontsize="10",style="solid",fontname="Helvetica"];
  Node42 -> Node44 [color="midnightblue",fontsize="10",style="solid",fontname="Helvetica"];
  Node44 [label="mitkBaseData.h",height=0.2,width=0.4,color="grey75", fillcolor="white", style="filled"];
  Node42 -> Node45 [color="midnightblue",fontsize="10",style="solid",fontname="Helvetica"];
  Node45 [label="mitkDataTreeNode.h",height=0.2,width=0.4,color="grey75", fillcolor="white", style="filled"];
  Node42 -> Node46 [color="midnightblue",fontsize="10",style="solid",fontname="Helvetica"];
  Node46 [label="mitkSurface.h",height=0.2,width=0.4,color="grey75", fillcolor="white", style="filled"];
  Node42 -> Node47 [color="midnightblue",fontsize="10",style="solid",fontname="Helvetica"];
  Node47 [label="blLookupTables.h",height=0.2,width=0.4,color="red", fillcolor="white", style="filled",URL="$blLookupTables_8h.html"];
  Node47 -> Node15 [color="midnightblue",fontsize="10",style="solid",fontname="Helvetica"];
  Node47 -> Node21 [color="midnightblue",fontsize="10",style="solid",fontname="Helvetica"];
  Node42 -> Node48 [color="midnightblue",fontsize="10",style="solid",fontname="Helvetica"];
  Node48 [label="blShapeUtils.h",height=0.2,width=0.4,color="red", fillcolor="white", style="filled",URL="$blShapeUtils_8h.html"];
  Node48 -> Node49 [color="midnightblue",fontsize="10",style="solid",fontname="Helvetica"];
  Node49 [label="vtkPolyData.h",height=0.2,width=0.4,color="grey75", fillcolor="white", style="filled"];
  Node48 -> Node15 [color="midnightblue",fontsize="10",style="solid",fontname="Helvetica"];
  Node48 -> Node21 [color="midnightblue",fontsize="10",style="solid",fontname="Helvetica"];
  Node42 -> Node49 [color="midnightblue",fontsize="10",style="solid",fontname="Helvetica"];
  Node1 -> Node50 [color="midnightblue",fontsize="10",style="solid",fontname="Helvetica"];
  Node50 [label="mitkSegmentationInterpolation\lController.h",height=0.2,width=0.4,color="grey75", fillcolor="white", style="filled"];
}
