digraph "Modules/TpExtLib/libmodules/tpExtITK/src/itkMeasurementVectorTraits2.h"
{
  edge [fontname="Helvetica",fontsize="10",labelfontname="Helvetica",labelfontsize="10"];
  node [fontname="Helvetica",fontsize="10",shape=record];
  Node1 [label="Modules/TpExtLib/libmodules\l/tpExtITK/src/itkMeasurementVector\lTraits2.h",height=0.2,width=0.4,color="black", fillcolor="grey75", style="filled", fontcolor="black"];
  Node1 -> Node2 [dir="back",color="midnightblue",fontsize="10",style="solid",fontname="Helvetica"];
  Node2 [label="Modules/TpExtLib/libmodules\l/tpExtITK/src/itkDenseFrequency\lContainer2.h",height=0.2,width=0.4,color="black", fillcolor="white", style="filled",URL="$itkDenseFrequencyContainer2_8h.html"];
  Node2 -> Node3 [dir="back",color="midnightblue",fontsize="10",style="solid",fontname="Helvetica"];
  Node3 [label="Modules/TpExtLib/libmodules\l/tpExtITK/src/itkDenseFrequency\lContainer2.cxx",height=0.2,width=0.4,color="black", fillcolor="white", style="filled",URL="$itkDenseFrequencyContainer2_8cxx.html"];
  Node2 -> Node4 [dir="back",color="midnightblue",fontsize="10",style="solid",fontname="Helvetica"];
  Node4 [label="Modules/TpExtLib/libmodules\l/tpExtITK/src/itkHistogram2.h",height=0.2,width=0.4,color="black", fillcolor="white", style="filled",URL="$itkHistogram2_8h.html"];
  Node4 -> Node5 [dir="back",color="midnightblue",fontsize="10",style="solid",fontname="Helvetica"];
  Node5 [label="Modules/TpExtLib/libmodules\l/tpExtITK/src/itkScalarImageToHistogram\lGenerator2.h",height=0.2,width=0.4,color="black", fillcolor="white", style="filled",URL="$itkScalarImageToHistogramGenerator2_8h.html"];
  Node4 -> Node6 [dir="back",color="midnightblue",fontsize="10",style="solid",fontname="Helvetica"];
  Node6 [label="Modules/wxMitk/libmodules\l/wxMitkRendering/include\l/wxMitkHistogramHelper.h",height=0.2,width=0.4,color="black", fillcolor="white", style="filled",URL="$wxMitkHistogramHelper_8h.html"];
  Node6 -> Node7 [dir="back",color="midnightblue",fontsize="10",style="solid",fontname="Helvetica"];
  Node7 [label="Modules/wxMitk/libmodules\l/wxMitkRendering/src/wxMitkHistogram\lHelper.cxx",height=0.2,width=0.4,color="black", fillcolor="white", style="filled",URL="$wxMitkHistogramHelper_8cxx.html"];
  Node6 -> Node8 [dir="back",color="midnightblue",fontsize="10",style="solid",fontname="Helvetica"];
  Node8 [label="Modules/wxMitk/libmodules\l/wxMitkWidgets/src/wxMitkTransfer\lFunctionWidget.cxx",height=0.2,width=0.4,color="black", fillcolor="white", style="filled",URL="$wxMitkTransferFunctionWidget_8cxx.html"];
  Node1 -> Node9 [dir="back",color="midnightblue",fontsize="10",style="solid",fontname="Helvetica"];
  Node9 [label="Modules/TpExtLib/libmodules\l/tpExtITK/src/itkSample2.h",height=0.2,width=0.4,color="black", fillcolor="white", style="filled",URL="$itkSample2_8h.html"];
  Node9 -> Node4 [dir="back",color="midnightblue",fontsize="10",style="solid",fontname="Helvetica"];
  Node9 -> Node10 [dir="back",color="midnightblue",fontsize="10",style="solid",fontname="Helvetica"];
  Node10 [label="Modules/TpExtLib/libmodules\l/tpExtITK/src/itkListSample2.h",height=0.2,width=0.4,color="black", fillcolor="white", style="filled",URL="$itkListSample2_8h.html"];
  Node10 -> Node11 [dir="back",color="midnightblue",fontsize="10",style="solid",fontname="Helvetica"];
  Node11 [label="Modules/TpExtLib/libmodules\l/tpExtITK/src/itkImageToListSample\lAdaptor2.h",height=0.2,width=0.4,color="black", fillcolor="white", style="filled",URL="$itkImageToListSampleAdaptor2_8h.html"];
  Node11 -> Node5 [dir="back",color="midnightblue",fontsize="10",style="solid",fontname="Helvetica"];
  Node9 -> Node12 [dir="back",color="midnightblue",fontsize="10",style="solid",fontname="Helvetica"];
  Node12 [label="Modules/TpExtLib/libmodules\l/tpExtITK/src/itkStatisticsAlgorithm2.h",height=0.2,width=0.4,color="black", fillcolor="white", style="filled",URL="$itkStatisticsAlgorithm2_8h.html"];
  Node1 -> Node13 [dir="back",color="midnightblue",fontsize="10",style="solid",fontname="Helvetica"];
  Node13 [label="Modules/TpExtLib/libmodules\l/tpExtITK/src/itkSparseFrequency\lContainer2.h",height=0.2,width=0.4,color="black", fillcolor="white", style="filled",URL="$itkSparseFrequencyContainer2_8h.html"];
  Node13 -> Node4 [dir="back",color="midnightblue",fontsize="10",style="solid",fontname="Helvetica"];
  Node13 -> Node14 [dir="back",color="midnightblue",fontsize="10",style="solid",fontname="Helvetica"];
  Node14 [label="Modules/TpExtLib/libmodules\l/tpExtITK/src/itkSparseFrequency\lContainer2.cxx",height=0.2,width=0.4,color="black", fillcolor="white", style="filled",URL="$itkSparseFrequencyContainer2_8cxx.html"];
  Node1 -> Node11 [dir="back",color="midnightblue",fontsize="10",style="solid",fontname="Helvetica"];
  Node1 -> Node15 [dir="back",color="midnightblue",fontsize="10",style="solid",fontname="Helvetica"];
  Node15 [label="Modules/TpExtLib/libmodules\l/tpExtITK/src/itkSampleToHistogram\lFilter2.h",height=0.2,width=0.4,color="black", fillcolor="white", style="filled",URL="$itkSampleToHistogramFilter2_8h.html"];
  Node15 -> Node5 [dir="back",color="midnightblue",fontsize="10",style="solid",fontname="Helvetica"];
}
