digraph "Modules/TpExtLib/libmodules/tpExtITK/src/itkSparseFrequencyContainer2.h"
{
  edge [fontname="Helvetica",fontsize="10",labelfontname="Helvetica",labelfontsize="10"];
  node [fontname="Helvetica",fontsize="10",shape=record];
  Node1 [label="Modules/TpExtLib/libmodules\l/tpExtITK/src/itkSparseFrequency\lContainer2.h",height=0.2,width=0.4,color="black", fillcolor="grey75", style="filled", fontcolor="black"];
  Node1 -> Node2 [dir="back",color="midnightblue",fontsize="10",style="solid",fontname="Helvetica"];
  Node2 [label="Modules/TpExtLib/libmodules\l/tpExtITK/src/itkHistogram2.h",height=0.2,width=0.4,color="black", fillcolor="white", style="filled",URL="$itkHistogram2_8h.html"];
  Node2 -> Node3 [dir="back",color="midnightblue",fontsize="10",style="solid",fontname="Helvetica"];
  Node3 [label="Modules/TpExtLib/libmodules\l/tpExtITK/src/itkScalarImageToHistogram\lGenerator2.h",height=0.2,width=0.4,color="black", fillcolor="white", style="filled",URL="$itkScalarImageToHistogramGenerator2_8h.html"];
  Node2 -> Node4 [dir="back",color="midnightblue",fontsize="10",style="solid",fontname="Helvetica"];
  Node4 [label="Modules/wxMitk/libmodules\l/wxMitkRendering/include\l/wxMitkHistogramHelper.h",height=0.2,width=0.4,color="black", fillcolor="white", style="filled",URL="$wxMitkHistogramHelper_8h.html"];
  Node4 -> Node5 [dir="back",color="midnightblue",fontsize="10",style="solid",fontname="Helvetica"];
  Node5 [label="Modules/wxMitk/libmodules\l/wxMitkRendering/src/wxMitkHistogram\lHelper.cxx",height=0.2,width=0.4,color="black", fillcolor="white", style="filled",URL="$wxMitkHistogramHelper_8cxx.html"];
  Node4 -> Node6 [dir="back",color="midnightblue",fontsize="10",style="solid",fontname="Helvetica"];
  Node6 [label="Modules/wxMitk/libmodules\l/wxMitkWidgets/src/wxMitkTransfer\lFunctionWidget.cxx",height=0.2,width=0.4,color="black", fillcolor="white", style="filled",URL="$wxMitkTransferFunctionWidget_8cxx.html"];
  Node1 -> Node7 [dir="back",color="midnightblue",fontsize="10",style="solid",fontname="Helvetica"];
  Node7 [label="Modules/TpExtLib/libmodules\l/tpExtITK/src/itkSparseFrequency\lContainer2.cxx",height=0.2,width=0.4,color="black", fillcolor="white", style="filled",URL="$itkSparseFrequencyContainer2_8cxx.html"];
}
