digraph "Modules/BaseLib/libmodules/blIO/include/itkVTKImageToImageFilter.h"
{
  edge [fontname="Helvetica",fontsize="10",labelfontname="Helvetica",labelfontsize="10"];
  node [fontname="Helvetica",fontsize="10",shape=record];
  Node1 [label="Modules/BaseLib/libmodules\l/blIO/include/itkVTKImageToImage\lFilter.h",height=0.2,width=0.4,color="black", fillcolor="grey75", style="filled", fontcolor="black"];
  Node1 -> Node2 [dir="back",color="midnightblue",fontsize="10",style="solid",fontname="Helvetica"];
  Node2 [label="Apps/Plugins/GenericSegmentation\lPlugin/processors/VtkConnectedThreshold\lProcessor.cpp",height=0.2,width=0.4,color="black", fillcolor="white", style="filled",URL="$VtkConnectedThresholdProcessor_8cpp.html"];
  Node1 -> Node3 [dir="back",color="midnightblue",fontsize="10",style="solid",fontname="Helvetica"];
  Node3 [label="Apps/Plugins/GenericSegmentation\lPlugin/widgets/MoveDataPanelWidget\l/MoveDataPanelWidget.h",height=0.2,width=0.4,color="black", fillcolor="white", style="filled",URL="$MoveDataPanelWidget_8h.html"];
  Node3 -> Node4 [dir="back",color="midnightblue",fontsize="10",style="solid",fontname="Helvetica"];
  Node4 [label="Apps/Plugins/GenericSegmentation\lPlugin/GenericSegmentationPluginWidget\lCollective.cxx",height=0.2,width=0.4,color="black", fillcolor="white", style="filled",URL="$GenericSegmentationPluginWidgetCollective_8cxx.html"];
  Node3 -> Node5 [dir="back",color="midnightblue",fontsize="10",style="solid",fontname="Helvetica"];
  Node5 [label="Apps/Plugins/GenericSegmentation\lPlugin/widgets/MoveDataPanelWidget\l/MoveDataPanelWidget.cpp",height=0.2,width=0.4,color="black", fillcolor="white", style="filled",URL="$MoveDataPanelWidget_8cpp.html"];
  Node1 -> Node6 [dir="back",color="midnightblue",fontsize="10",style="solid",fontname="Helvetica"];
  Node6 [label="Apps/Plugins/ManualSegmentation\lPlugin/ManualSegmentationPluginPCH.h",height=0.2,width=0.4,color="black", fillcolor="white", style="filled",URL="$ManualSegmentationPluginPCH_8h.html"];
  Node1 -> Node7 [dir="back",color="midnightblue",fontsize="10",style="solid",fontname="Helvetica"];
  Node7 [label="Apps/Plugins/MITKPlugin\l/MITKPluginPCH.h",height=0.2,width=0.4,color="black", fillcolor="white", style="filled",URL="$MITKPluginPCH_8h.html"];
  Node1 -> Node8 [dir="back",color="midnightblue",fontsize="10",style="solid",fontname="Helvetica"];
  Node8 [label="Apps/Plugins/MITKPlugin\l/processors/coreImageDataEntity\lMacros.h",height=0.2,width=0.4,color="black", fillcolor="white", style="filled",URL="$coreImageDataEntityMacros_8h.html"];
  Node8 -> Node9 [dir="back",color="midnightblue",fontsize="10",style="solid",fontname="Helvetica"];
  Node9 [label="Apps/Plugins/GenericSegmentation\lPlugin/processors/RegionGrowProcessor.cpp",height=0.2,width=0.4,color="black", fillcolor="white", style="filled",URL="$RegionGrowProcessor_8cpp.html"];
  Node8 -> Node10 [dir="back",color="midnightblue",fontsize="10",style="solid",fontname="Helvetica"];
  Node10 [label="Apps/Plugins/GenericSegmentation\lPlugin/processors/ThresholdProcessor.cpp",height=0.2,width=0.4,color="black", fillcolor="white", style="filled",URL="$ThresholdProcessor_8cpp.html"];
  Node8 -> Node5 [dir="back",color="midnightblue",fontsize="10",style="solid",fontname="Helvetica"];
  Node8 -> Node11 [dir="back",color="midnightblue",fontsize="10",style="solid",fontname="Helvetica"];
  Node11 [label="Apps/Plugins/GenericSegmentation\lPlugin/widgets/ThresholdWidget\l/ThresholdWidget.cpp",height=0.2,width=0.4,color="black", fillcolor="white", style="filled",URL="$ThresholdWidget_8cpp.html"];
  Node8 -> Node12 [dir="back",color="midnightblue",fontsize="10",style="solid",fontname="Helvetica"];
  Node12 [label="Apps/Plugins/ImageToolsPlugin\l/ImageToolsPluginPCH.h",height=0.2,width=0.4,color="black", fillcolor="white", style="filled",URL="$ImageToolsPluginPCH_8h.html"];
  Node8 -> Node13 [dir="back",color="midnightblue",fontsize="10",style="solid",fontname="Helvetica"];
  Node13 [label="Apps/Plugins/ImageToolsPlugin\l/processors/coreJoinImagesProcessor.cxx",height=0.2,width=0.4,color="black", fillcolor="white", style="filled",URL="$coreJoinImagesProcessor_8cxx.html"];
  Node8 -> Node14 [dir="back",color="midnightblue",fontsize="10",style="solid",fontname="Helvetica"];
  Node14 [label="Apps/Plugins/ImageToolsPlugin\l/processors/coreSetSpacingProcessor.cxx",height=0.2,width=0.4,color="black", fillcolor="white", style="filled",URL="$coreSetSpacingProcessor_8cxx.html"];
  Node8 -> Node15 [dir="back",color="midnightblue",fontsize="10",style="solid",fontname="Helvetica"];
  Node15 [label="Apps/Plugins/ImageToolsPlugin\l/processors/coreVolumeClippingProcessor.cxx",height=0.2,width=0.4,color="black", fillcolor="white", style="filled",URL="$coreVolumeClippingProcessor_8cxx.html"];
  Node8 -> Node16 [dir="back",color="midnightblue",fontsize="10",style="solid",fontname="Helvetica"];
  Node16 [label="Apps/Plugins/ImageToolsPlugin\l/processors/PointBasedImageAlignement\lProcessor.cxx",height=0.2,width=0.4,color="black", fillcolor="white", style="filled",URL="$PointBasedImageAlignementProcessor_8cxx.html"];
  Node8 -> Node17 [dir="back",color="midnightblue",fontsize="10",style="solid",fontname="Helvetica"];
  Node17 [label="Apps/Plugins/ManualSegmentation\lPlugin/widgets/MultiLevelROIPanelWidget\l/MultiLevelROIPanelWidget.cpp",height=0.2,width=0.4,color="black", fillcolor="white", style="filled",URL="$MultiLevelROIPanelWidget_8cpp.html"];
  Node8 -> Node18 [dir="back",color="midnightblue",fontsize="10",style="solid",fontname="Helvetica"];
  Node18 [label="Apps/Plugins/MeshEditorPlugin\l/MeshEditorPluginPCH.h",height=0.2,width=0.4,color="black", fillcolor="white", style="filled",URL="$MeshEditorPluginPCH_8h.html"];
  Node8 -> Node19 [dir="back",color="midnightblue",fontsize="10",style="solid",fontname="Helvetica"];
  Node19 [label="Apps/Plugins/MeshEditorPlugin\l/processors/coreSurfaceInteractor\lProcessor.cxx",height=0.2,width=0.4,color="black", fillcolor="white", style="filled",URL="$coreSurfaceInteractorProcessor_8cxx.html"];
  Node8 -> Node20 [dir="back",color="midnightblue",fontsize="10",style="solid",fontname="Helvetica"];
  Node20 [label="Apps/Plugins/MeshEditorPlugin\l/processors/coreTetraGenerationProcessor.cxx",height=0.2,width=0.4,color="black", fillcolor="white", style="filled",URL="$coreTetraGenerationProcessor_8cxx.html"];
  Node8 -> Node21 [dir="back",color="midnightblue",fontsize="10",style="solid",fontname="Helvetica"];
  Node21 [label="Apps/Plugins/MeshEditorPlugin\l/processors/coreThresholdProcessor.cxx",height=0.2,width=0.4,color="black", fillcolor="white", style="filled",URL="$coreThresholdProcessor_8cxx.html"];
  Node8 -> Node7 [dir="back",color="midnightblue",fontsize="10",style="solid",fontname="Helvetica"];
  Node8 -> Node22 [dir="back",color="midnightblue",fontsize="10",style="solid",fontname="Helvetica"];
  Node22 [label="Apps/Plugins/MITKPlugin\l/processors/coreImageDataEntity\lMacros.cxx",height=0.2,width=0.4,color="black", fillcolor="white", style="filled",URL="$coreImageDataEntityMacros_8cxx.html"];
  Node8 -> Node23 [dir="back",color="midnightblue",fontsize="10",style="solid",fontname="Helvetica"];
  Node23 [label="Apps/Plugins/MITKPlugin\l/widgets/BoundingBoxWidget\l/coreBBoxProcessor.cxx",height=0.2,width=0.4,color="black", fillcolor="white", style="filled",URL="$coreBBoxProcessor_8cxx.html"];
  Node8 -> Node24 [dir="back",color="midnightblue",fontsize="10",style="solid",fontname="Helvetica"];
  Node24 [label="Apps/Plugins/MITKPlugin\l/widgets/ImageInfoWidget\l/coreImageInfoMediator.cxx",height=0.2,width=0.4,color="black", fillcolor="white", style="filled",URL="$coreImageInfoMediator_8cxx.html"];
  Node8 -> Node25 [dir="back",color="midnightblue",fontsize="10",style="solid",fontname="Helvetica"];
  Node25 [label="Apps/Plugins/MITKPlugin\l/widgets/ImageInfoWidget\l/coreImageInfoWidget.cxx",height=0.2,width=0.4,color="black", fillcolor="white", style="filled",URL="$coreImageInfoWidget_8cxx.html"];
  Node8 -> Node26 [dir="back",color="midnightblue",fontsize="10",style="solid",fontname="Helvetica"];
  Node26 [label="Apps/Plugins/SceneViewPlugin\l/processors/coreExecuteCommandProcessor.cxx",height=0.2,width=0.4,color="black", fillcolor="white", style="filled",URL="$coreExecuteCommandProcessor_8cxx.html"];
  Node1 -> Node27 [dir="back",color="midnightblue",fontsize="10",style="solid",fontname="Helvetica"];
  Node27 [label="Modules/BaseLib/libmodules\l/blIO/include/blV3DImageFileReader.h",height=0.2,width=0.4,color="black", fillcolor="white", style="filled",URL="$blV3DImageFileReader_8h.html"];
  Node27 -> Node7 [dir="back",color="midnightblue",fontsize="10",style="solid",fontname="Helvetica"];
  Node27 -> Node28 [dir="back",color="midnightblue",fontsize="10",style="solid",fontname="Helvetica"];
  Node28 [label="Apps/Plugins/MITKPlugin\l/processors/VTKImageData\l/coreVTKImageDataReader.cxx",height=0.2,width=0.4,color="black", fillcolor="white", style="filled",URL="$coreVTKImageDataReader_8cxx.html"];
  Node27 -> Node29 [dir="back",color="midnightblue",fontsize="10",style="solid",fontname="Helvetica"];
  Node29 [label="Modules/BaseLib/libmodules\l/blIO/src/blV3DImageFileReader.cpp",height=0.2,width=0.4,color="black", fillcolor="white", style="filled",URL="$blV3DImageFileReader_8cpp.html"];
  Node27 -> Node30 [dir="back",color="midnightblue",fontsize="10",style="solid",fontname="Helvetica"];
  Node30 [label="Modules/BaseLib/libmodules\l/blUtilitiesVTK/src/blImageUtils.cpp",height=0.2,width=0.4,color="black", fillcolor="white", style="filled",URL="$blImageUtils_8cpp.html"];
  Node1 -> Node31 [dir="back",color="midnightblue",fontsize="10",style="solid",fontname="Helvetica"];
  Node31 [label="Modules/BaseLib/libmodules\l/blIO/src/blIDSFileWriter.cpp",height=0.2,width=0.4,color="black", fillcolor="white", style="filled",URL="$blIDSFileWriter_8cpp.html"];
}
