digraph "Modules/MeshLib/libmodules/meTools/include/meCloseHoles.h"
{
  edge [fontname="Helvetica",fontsize="10",labelfontname="Helvetica",labelfontsize="10"];
  node [fontname="Helvetica",fontsize="10",shape=record];
  Node1 [label="Modules/MeshLib/libmodules\l/meTools/include/meCloseHoles.h",height=0.2,width=0.4,color="black", fillcolor="grey75", style="filled", fontcolor="black"];
  Node1 -> Node2 [dir="back",color="midnightblue",fontsize="10",style="solid",fontname="Helvetica"];
  Node2 [label="Apps/Plugins/MeshEditorPlugin\l/processors/coreCloseHolesProcessor.h",height=0.2,width=0.4,color="black", fillcolor="white", style="filled",URL="$coreCloseHolesProcessor_8h.html"];
  Node2 -> Node3 [dir="back",color="midnightblue",fontsize="10",style="solid",fontname="Helvetica"];
  Node3 [label="Apps/Plugins/MeshEditorPlugin\l/processors/coreCloseHolesProcessor.cxx",height=0.2,width=0.4,color="black", fillcolor="white", style="filled",URL="$coreCloseHolesProcessor_8cxx.html"];
  Node2 -> Node4 [dir="back",color="midnightblue",fontsize="10",style="solid",fontname="Helvetica"];
  Node4 [label="Apps/Plugins/MeshEditorPlugin\l/widgets/ToolsProcessorWidget\l/ptVolumeClosingPanelWidget.h",height=0.2,width=0.4,color="black", fillcolor="white", style="filled",URL="$ptVolumeClosingPanelWidget_8h.html"];
  Node4 -> Node5 [dir="back",color="midnightblue",fontsize="10",style="solid",fontname="Helvetica"];
  Node5 [label="Apps/Plugins/MeshEditorPlugin\l/widgets/ToolsProcessorWidget\l/ptVolumeClosingPanelWidget.cpp",height=0.2,width=0.4,color="black", fillcolor="white", style="filled",URL="$ptVolumeClosingPanelWidget_8cpp.html"];
  Node2 -> Node6 [dir="back",color="midnightblue",fontsize="10",style="solid",fontname="Helvetica"];
  Node6 [label="Apps/Plugins/MeshEditorPlugin\l/widgets/VolumeClosingWidget\l/VolumeClosingPanelWidget.h",height=0.2,width=0.4,color="black", fillcolor="white", style="filled",URL="$VolumeClosingPanelWidget_8h.html"];
  Node6 -> Node7 [dir="back",color="midnightblue",fontsize="10",style="solid",fontname="Helvetica"];
  Node7 [label="Apps/Plugins/MeshEditorPlugin\l/medWidgetCollective.cxx",height=0.2,width=0.4,color="black", fillcolor="white", style="filled",URL="$medWidgetCollective_8cxx.html"];
  Node6 -> Node8 [dir="back",color="midnightblue",fontsize="10",style="solid",fontname="Helvetica"];
  Node8 [label="Apps/Plugins/MeshEditorPlugin\l/widgets/ToolbarMeshEditor\l/coreToolbarMeshEditing.cpp",height=0.2,width=0.4,color="black", fillcolor="white", style="filled",URL="$coreToolbarMeshEditing_8cpp.html"];
  Node6 -> Node9 [dir="back",color="midnightblue",fontsize="10",style="solid",fontname="Helvetica"];
  Node9 [label="Apps/Plugins/MeshEditorPlugin\l/widgets/VolumeClosingWidget\l/VolumeClosingPanelWidget.cpp",height=0.2,width=0.4,color="black", fillcolor="white", style="filled",URL="$VolumeClosingPanelWidget_8cpp.html"];
  Node1 -> Node3 [dir="back",color="midnightblue",fontsize="10",style="solid",fontname="Helvetica"];
  Node1 -> Node10 [dir="back",color="midnightblue",fontsize="10",style="solid",fontname="Helvetica"];
  Node10 [label="Modules/MeshLib/applications\l/meAppSegValidationTools\l/ExtractAneurImageFromCutPlane.cxx",height=0.2,width=0.4,color="black", fillcolor="white", style="filled",URL="$ExtractAneurImageFromCutPlane_8cxx.html"];
  Node1 -> Node11 [dir="back",color="midnightblue",fontsize="10",style="solid",fontname="Helvetica"];
  Node11 [label="Modules/MeshLib/applications\l/meAppSegValidationTools\l/ExtractImageFromCutPlane.cxx",height=0.2,width=0.4,color="black", fillcolor="white", style="filled",URL="$ExtractImageFromCutPlane_8cxx.html"];
  Node1 -> Node12 [dir="back",color="midnightblue",fontsize="10",style="solid",fontname="Helvetica"];
  Node12 [label="Modules/MeshLib/applications\l/meAppSegValidationTools\l/ExtractImagesNormal2Centerline2.cxx",height=0.2,width=0.4,color="black", fillcolor="white", style="filled",URL="$ExtractImagesNormal2Centerline2_8cxx.html"];
  Node1 -> Node13 [dir="back",color="midnightblue",fontsize="10",style="solid",fontname="Helvetica"];
  Node13 [label="Modules/MeshLib/applications\l/meAppSegValidationToolsNonWorking\l/ExtractContourDiamFromAneurCutPlane.cxx",height=0.2,width=0.4,color="black", fillcolor="white", style="filled",URL="$ExtractContourDiamFromAneurCutPlane_8cxx.html"];
  Node1 -> Node14 [dir="back",color="midnightblue",fontsize="10",style="solid",fontname="Helvetica"];
  Node14 [label="Modules/MeshLib/applications\l/meAppSegValidationToolsNonWorking\l/ExtractContourDiamFromCutPlane.cxx",height=0.2,width=0.4,color="black", fillcolor="white", style="filled",URL="$ExtractContourDiamFromCutPlane_8cxx.html"];
  Node1 -> Node15 [dir="back",color="midnightblue",fontsize="10",style="solid",fontname="Helvetica"];
  Node15 [label="Modules/MeshLib/applications\l/meAppTools/meCloseHoles.cxx",height=0.2,width=0.4,color="black", fillcolor="white", style="filled",URL="$meCloseHoles_8cxx.html"];
  Node1 -> Node16 [dir="back",color="midnightblue",fontsize="10",style="solid",fontname="Helvetica"];
  Node16 [label="Modules/MeshLib/applications\l/meAppTools/meHoleFiller.cxx",height=0.2,width=0.4,color="black", fillcolor="white", style="filled",URL="$meHoleFiller_8cxx.html"];
  Node1 -> Node17 [dir="back",color="midnightblue",fontsize="10",style="solid",fontname="Helvetica"];
  Node17 [label="Modules/MeshLib/libmodules\l/meTools/src/meCloseHoles.cpp",height=0.2,width=0.4,color="black", fillcolor="white", style="filled",URL="$meCloseHoles_8cpp.html"];
  Node1 -> Node18 [dir="back",color="midnightblue",fontsize="10",style="solid",fontname="Helvetica"];
  Node18 [label="Modules/MeshLib/libmodules\l/meTools/src/meRingCut.cpp",height=0.2,width=0.4,color="black", fillcolor="white", style="filled",URL="$meRingCut_8cpp.html"];
}
