digraph "Modules/MeshLib/libmodules/meTools/include/meSkeletonTypes.h"
{
  edge [fontname="Helvetica",fontsize="10",labelfontname="Helvetica",labelfontsize="10"];
  node [fontname="Helvetica",fontsize="10",shape=record];
  Node1 [label="Modules/MeshLib/libmodules\l/meTools/include/meSkeletonTypes.h",height=0.2,width=0.4,color="black", fillcolor="grey75", style="filled", fontcolor="black"];
  Node1 -> Node2 [dir="back",color="midnightblue",fontsize="10",style="solid",fontname="Helvetica"];
  Node2 [label="Modules/MeshLib/libmodules\l/meTools/include/meVTKSkeleton.h",height=0.2,width=0.4,color="black", fillcolor="white", style="filled",URL="$meVTKSkeleton_8h.html"];
  Node2 -> Node3 [dir="back",color="midnightblue",fontsize="10",style="solid",fontname="Helvetica"];
  Node3 [label="Modules/MeshLib/libmodules\l/meMeshFilters/src/meVTKSkeletonization\lFilter.cpp",height=0.2,width=0.4,color="black", fillcolor="white", style="filled",URL="$meVTKSkeletonizationFilter_8cpp.html"];
  Node2 -> Node4 [dir="back",color="midnightblue",fontsize="10",style="solid",fontname="Helvetica"];
  Node4 [label="Modules/MeshLib/libmodules\l/meTools/src/meVTKSkeleton.cpp",height=0.2,width=0.4,color="black", fillcolor="white", style="filled",URL="$meVTKSkeleton_8cpp.html"];
}
