digraph "Modules/MeshLib/libmodules/mePolyline/include/meVTKPolyLineTopologyAnalysis.h"
{
  edge [fontname="Helvetica",fontsize="10",labelfontname="Helvetica",labelfontsize="10"];
  node [fontname="Helvetica",fontsize="10",shape=record];
  Node1 [label="Modules/MeshLib/libmodules\l/mePolyline/include/meVTKPolyLine\lTopologyAnalysis.h",height=0.2,width=0.4,color="black", fillcolor="grey75", style="filled", fontcolor="black"];
  Node1 -> Node2 [dir="back",color="midnightblue",fontsize="10",style="solid",fontname="Helvetica"];
  Node2 [label="Modules/MeshLib/applications\l/meAppPolyline/meAppPolylineEdit\lTest.cpp",height=0.2,width=0.4,color="black", fillcolor="white", style="filled",URL="$meAppPolylineEditTest_8cpp.html"];
  Node1 -> Node3 [dir="back",color="midnightblue",fontsize="10",style="solid",fontname="Helvetica"];
  Node3 [label="Modules/MeshLib/libmodules\l/mePolyline/src/meVTKPolyLineClean.cxx",height=0.2,width=0.4,color="black", fillcolor="white", style="filled",URL="$meVTKPolyLineClean_8cxx.html"];
  Node1 -> Node4 [dir="back",color="midnightblue",fontsize="10",style="solid",fontname="Helvetica"];
  Node4 [label="Modules/MeshLib/libmodules\l/mePolyline/src/meVTKPolyLineTopology\lAnalysis.cxx",height=0.2,width=0.4,color="black", fillcolor="white", style="filled",URL="$meVTKPolyLineTopologyAnalysis_8cxx.html"];
}
