digraph "Apps/Plugins/ManualSegmentationPlugin/msWidgetCollective.cxx"
{
  edge [fontname="Helvetica",fontsize="10",labelfontname="Helvetica",labelfontsize="10"];
  node [fontname="Helvetica",fontsize="10",shape=record];
  Node1 [label="Apps/Plugins/ManualSegmentation\lPlugin/msWidgetCollective.cxx",height=0.2,width=0.4,color="black", fillcolor="grey75", style="filled", fontcolor="black"];
  Node1 -> Node2 [color="midnightblue",fontsize="10",style="solid",fontname="Helvetica"];
  Node2 [label="wx/wxprec.h",height=0.2,width=0.4,color="grey75", fillcolor="white", style="filled"];
  Node1 -> Node3 [color="midnightblue",fontsize="10",style="solid",fontname="Helvetica"];
  Node3 [label="wx/wx.h",height=0.2,width=0.4,color="grey75", fillcolor="white", style="filled"];
  Node1 -> Node4 [color="midnightblue",fontsize="10",style="solid",fontname="Helvetica"];
  Node4 [label="msWidgetCollective.h",height=0.2,width=0.4,color="black", fillcolor="white", style="filled",URL="$msWidgetCollective_8h.html"];
  Node4 -> Node5 [color="midnightblue",fontsize="10",style="solid",fontname="Helvetica"];
  Node5 [label="coreFrontEndPlugin.h",height=0.2,width=0.4,color="black", fillcolor="white", style="filled",URL="$coreFrontEndPlugin_8h.html"];
  Node5 -> Node6 [color="midnightblue",fontsize="10",style="solid",fontname="Helvetica"];
  Node6 [label="gmKernelWin32Header.h",height=0.2,width=0.4,color="grey75", fillcolor="white", style="filled"];
  Node5 -> Node7 [color="midnightblue",fontsize="10",style="solid",fontname="Helvetica"];
  Node7 [label="coreObject.h",height=0.2,width=0.4,color="red", fillcolor="white", style="filled",URL="$coreObject_8h.html"];
  Node7 -> Node8 [color="midnightblue",fontsize="10",style="solid",fontname="Helvetica"];
  Node8 [label="gmCommonObjectsWin32Header.h",height=0.2,width=0.4,color="grey75", fillcolor="white", style="filled"];
  Node7 -> Node9 [color="midnightblue",fontsize="10",style="solid",fontname="Helvetica"];
  Node9 [label="coreCommonMacros.h",height=0.2,width=0.4,color="black", fillcolor="white", style="filled",URL="$coreCommonMacros_8h.html"];
  Node7 -> Node10 [color="midnightblue",fontsize="10",style="solid",fontname="Helvetica"];
  Node10 [label="coreSmartPointerMacros.h",height=0.2,width=0.4,color="black", fillcolor="white", style="filled",URL="$coreSmartPointerMacros_8h.html"];
  Node10 -> Node9 [color="midnightblue",fontsize="10",style="solid",fontname="Helvetica"];
  Node10 -> Node11 [color="midnightblue",fontsize="10",style="solid",fontname="Helvetica"];
  Node11 [label="itkSmartPointer.h",height=0.2,width=0.4,color="grey75", fillcolor="white", style="filled"];
  Node7 -> Node12 [color="midnightblue",fontsize="10",style="solid",fontname="Helvetica"];
  Node12 [label="blTagMap.h",height=0.2,width=0.4,color="red", fillcolor="white", style="filled",URL="$blTagMap_8h.html"];
  Node12 -> Node13 [color="midnightblue",fontsize="10",style="solid",fontname="Helvetica"];
  Node13 [label="string",height=0.2,width=0.4,color="grey75", fillcolor="white", style="filled"];
  Node12 -> Node14 [color="midnightblue",fontsize="10",style="solid",fontname="Helvetica"];
  Node14 [label="map",height=0.2,width=0.4,color="grey75", fillcolor="white", style="filled"];
  Node5 -> Node15 [color="midnightblue",fontsize="10",style="solid",fontname="Helvetica"];
  Node15 [label="corePluginMacros.h",height=0.2,width=0.4,color="black", fillcolor="white", style="filled",URL="$corePluginMacros_8h.html"];
  Node5 -> Node16 [color="midnightblue",fontsize="10",style="solid",fontname="Helvetica"];
  Node16 [label="coreBasePlugin.h",height=0.2,width=0.4,color="black", fillcolor="white", style="filled",URL="$coreBasePlugin_8h.html"];
  Node16 -> Node6 [color="midnightblue",fontsize="10",style="solid",fontname="Helvetica"];
  Node16 -> Node7 [color="midnightblue",fontsize="10",style="solid",fontname="Helvetica"];
  Node4 -> Node10 [color="midnightblue",fontsize="10",style="solid",fontname="Helvetica"];
  Node4 -> Node7 [color="midnightblue",fontsize="10",style="solid",fontname="Helvetica"];
  Node4 -> Node17 [color="midnightblue",fontsize="10",style="solid",fontname="Helvetica"];
  Node17 [label="coreWidgetCollective.h",height=0.2,width=0.4,color="red", fillcolor="white", style="filled",URL="$coreWidgetCollective_8h.html"];
  Node17 -> Node7 [color="midnightblue",fontsize="10",style="solid",fontname="Helvetica"];
  Node17 -> Node18 [color="midnightblue",fontsize="10",style="solid",fontname="Helvetica"];
  Node18 [label="coreBaseWindow.h",height=0.2,width=0.4,color="red", fillcolor="white", style="filled",URL="$coreBaseWindow_8h.html"];
  Node18 -> Node6 [color="midnightblue",fontsize="10",style="solid",fontname="Helvetica"];
  Node18 -> Node19 [color="midnightblue",fontsize="10",style="solid",fontname="Helvetica"];
  Node19 [label="coreRenderingTree.h",height=0.2,width=0.4,color="red", fillcolor="white", style="filled",URL="$coreRenderingTree_8h.html"];
  Node19 -> Node6 [color="midnightblue",fontsize="10",style="solid",fontname="Helvetica"];
  Node19 -> Node7 [color="midnightblue",fontsize="10",style="solid",fontname="Helvetica"];
  Node19 -> Node14 [color="midnightblue",fontsize="10",style="solid",fontname="Helvetica"];
  Node18 -> Node20 [color="midnightblue",fontsize="10",style="solid",fontname="Helvetica"];
  Node20 [label="coreCommonDataTypes.h",height=0.2,width=0.4,color="red", fillcolor="white", style="filled",URL="$coreCommonDataTypes_8h.html"];
  Node18 -> Node12 [color="midnightblue",fontsize="10",style="solid",fontname="Helvetica"];
  Node18 -> Node21 [color="midnightblue",fontsize="10",style="solid",fontname="Helvetica"];
  Node21 [label="coreWindowConfig.h",height=0.2,width=0.4,color="black", fillcolor="white", style="filled",URL="$coreWindowConfig_8h.html"];
  Node21 -> Node13 [color="midnightblue",fontsize="10",style="solid",fontname="Helvetica"];
  Node21 -> Node6 [color="midnightblue",fontsize="10",style="solid",fontname="Helvetica"];
  Node4 -> Node22 [color="midnightblue",fontsize="10",style="solid",fontname="Helvetica"];
  Node22 [label="msProcessorCollective.h",height=0.2,width=0.4,color="black", fillcolor="white", style="filled",URL="$msProcessorCollective_8h.html"];
  Node22 -> Node10 [color="midnightblue",fontsize="10",style="solid",fontname="Helvetica"];
  Node22 -> Node7 [color="midnightblue",fontsize="10",style="solid",fontname="Helvetica"];
  Node1 -> Node23 [color="midnightblue",fontsize="10",style="solid",fontname="Helvetica"];
  Node23 [label="wxID.h",height=0.2,width=0.4,color="black", fillcolor="white", style="filled",URL="$wxID_8h.html"];
  Node23 -> Node13 [color="midnightblue",fontsize="10",style="solid",fontname="Helvetica"];
  Node23 -> Node24 [color="midnightblue",fontsize="10",style="solid",fontname="Helvetica"];
  Node24 [label="TpExtLibWxWidgetsWin32Header.h",height=0.2,width=0.4,color="grey75", fillcolor="white", style="filled"];
  Node1 -> Node5 [color="midnightblue",fontsize="10",style="solid",fontname="Helvetica"];
  Node1 -> Node25 [color="midnightblue",fontsize="10",style="solid",fontname="Helvetica"];
  Node25 [label="corePluginTabFactory.h",height=0.2,width=0.4,color="black", fillcolor="white", style="filled",URL="$corePluginTabFactory_8h.html"];
  Node25 -> Node26 [color="midnightblue",fontsize="10",style="solid",fontname="Helvetica"];
  Node26 [label="corePluginTab.h",height=0.2,width=0.4,color="red", fillcolor="white", style="filled",URL="$corePluginTab_8h.html"];
  Node26 -> Node7 [color="midnightblue",fontsize="10",style="solid",fontname="Helvetica"];
  Node26 -> Node18 [color="midnightblue",fontsize="10",style="solid",fontname="Helvetica"];
  Node26 -> Node21 [color="midnightblue",fontsize="10",style="solid",fontname="Helvetica"];
  Node25 -> Node7 [color="midnightblue",fontsize="10",style="solid",fontname="Helvetica"];
  Node1 -> Node27 [color="midnightblue",fontsize="10",style="solid",fontname="Helvetica"];
  Node27 [label="coreWxMitkGraphicalInterface.h",height=0.2,width=0.4,color="black", fillcolor="white", style="filled",URL="$coreWxMitkGraphicalInterface_8h.html"];
  Node27 -> Node7 [color="midnightblue",fontsize="10",style="solid",fontname="Helvetica"];
  Node27 -> Node21 [color="midnightblue",fontsize="10",style="solid",fontname="Helvetica"];
  Node27 -> Node28 [color="midnightblue",fontsize="10",style="solid",fontname="Helvetica"];
  Node28 [label="dynModuleExecutionImpl.h",height=0.2,width=0.4,color="red", fillcolor="white", style="filled",URL="$dynModuleExecutionImpl_8h.html"];
  Node28 -> Node14 [color="midnightblue",fontsize="10",style="solid",fontname="Helvetica"];
  Node28 -> Node12 [color="midnightblue",fontsize="10",style="solid",fontname="Helvetica"];
  Node27 -> Node14 [color="midnightblue",fontsize="10",style="solid",fontname="Helvetica"];
  Node27 -> Node13 [color="midnightblue",fontsize="10",style="solid",fontname="Helvetica"];
  Node1 -> Node29 [color="midnightblue",fontsize="10",style="solid",fontname="Helvetica"];
  Node29 [label="coreKernel.h",height=0.2,width=0.4,color="black", fillcolor="white", style="filled",URL="$coreKernel_8h.html"];
  Node29 -> Node7 [color="midnightblue",fontsize="10",style="solid",fontname="Helvetica"];
  Node29 -> Node30 [color="midnightblue",fontsize="10",style="solid",fontname="Helvetica"];
  Node30 [label="coreEnvironment.h",height=0.2,width=0.4,color="red", fillcolor="white", style="filled",URL="$coreEnvironment_8h.html"];
  Node30 -> Node6 [color="midnightblue",fontsize="10",style="solid",fontname="Helvetica"];
  Node30 -> Node7 [color="midnightblue",fontsize="10",style="solid",fontname="Helvetica"];
  Node30 -> Node13 [color="midnightblue",fontsize="10",style="solid",fontname="Helvetica"];
  Node29 -> Node31 [color="midnightblue",fontsize="10",style="solid",fontname="Helvetica"];
  Node31 [label="coreBaseFactory.h",height=0.2,width=0.4,color="black", fillcolor="white", style="filled",URL="$coreBaseFactory_8h.html"];
  Node31 -> Node8 [color="midnightblue",fontsize="10",style="solid",fontname="Helvetica"];
  Node31 -> Node9 [color="midnightblue",fontsize="10",style="solid",fontname="Helvetica"];
  Node31 -> Node10 [color="midnightblue",fontsize="10",style="solid",fontname="Helvetica"];
  Node31 -> Node7 [color="midnightblue",fontsize="10",style="solid",fontname="Helvetica"];
  Node29 -> Node32 [color="midnightblue",fontsize="10",style="solid",fontname="Helvetica"];
  Node32 [label="coreBaseMainWindow.h",height=0.2,width=0.4,color="red", fillcolor="white", style="filled",URL="$coreBaseMainWindow_8h.html"];
  Node32 -> Node13 [color="midnightblue",fontsize="10",style="solid",fontname="Helvetica"];
  Node32 -> Node21 [color="midnightblue",fontsize="10",style="solid",fontname="Helvetica"];
  Node32 -> Node19 [color="midnightblue",fontsize="10",style="solid",fontname="Helvetica"];
  Node1 -> Node33 [color="midnightblue",fontsize="10",style="solid",fontname="Helvetica"];
  Node33 [label="ManualSegmentationPanelWidget.h",height=0.2,width=0.4,color="black", fillcolor="white", style="filled",URL="$ManualSegmentationPanelWidget_8h.html"];
  Node33 -> Node34 [color="midnightblue",fontsize="10",style="solid",fontname="Helvetica"];
  Node34 [label="ManualSegmentationPanelWidgetUI.h",height=0.2,width=0.4,color="red", fillcolor="white", style="filled",URL="$ManualSegmentationPanelWidgetUI_8h.html"];
  Node34 -> Node3 [color="midnightblue",fontsize="10",style="solid",fontname="Helvetica"];
  Node34 -> Node23 [color="midnightblue",fontsize="10",style="solid",fontname="Helvetica"];
  Node33 -> Node35 [color="midnightblue",fontsize="10",style="solid",fontname="Helvetica"];
  Node35 [label="msProcessor.h",height=0.2,width=0.4,color="red", fillcolor="white", style="filled",URL="$msProcessor_8h.html"];
  Node35 -> Node10 [color="midnightblue",fontsize="10",style="solid",fontname="Helvetica"];
  Node35 -> Node7 [color="midnightblue",fontsize="10",style="solid",fontname="Helvetica"];
  Node35 -> Node20 [color="midnightblue",fontsize="10",style="solid",fontname="Helvetica"];
  Node35 -> Node15 [color="midnightblue",fontsize="10",style="solid",fontname="Helvetica"];
  Node35 -> Node19 [color="midnightblue",fontsize="10",style="solid",fontname="Helvetica"];
  Node35 -> Node14 [color="midnightblue",fontsize="10",style="solid",fontname="Helvetica"];
  Node35 -> Node36 [color="midnightblue",fontsize="10",style="solid",fontname="Helvetica"];
  Node36 [label="vector",height=0.2,width=0.4,color="grey75", fillcolor="white", style="filled"];
  Node33 -> Node37 [color="midnightblue",fontsize="10",style="solid",fontname="Helvetica"];
  Node37 [label="coreROIInteractorHelper.h",height=0.2,width=0.4,color="red", fillcolor="white", style="filled",URL="$coreROIInteractorHelper_8h.html"];
  Node37 -> Node7 [color="midnightblue",fontsize="10",style="solid",fontname="Helvetica"];
  Node37 -> Node10 [color="midnightblue",fontsize="10",style="solid",fontname="Helvetica"];
  Node37 -> Node20 [color="midnightblue",fontsize="10",style="solid",fontname="Helvetica"];
  Node33 -> Node19 [color="midnightblue",fontsize="10",style="solid",fontname="Helvetica"];
  Node33 -> Node5 [color="midnightblue",fontsize="10",style="solid",fontname="Helvetica"];
  Node33 -> Node20 [color="midnightblue",fontsize="10",style="solid",fontname="Helvetica"];
  Node33 -> Node38 [color="midnightblue",fontsize="10",style="solid",fontname="Helvetica"];
  Node38 [label="coreSelectionToolWidget.h",height=0.2,width=0.4,color="red", fillcolor="white", style="filled",URL="$coreSelectionToolWidget_8h.html"];
  Node38 -> Node18 [color="midnightblue",fontsize="10",style="solid",fontname="Helvetica"];
  Node33 -> Node39 [color="midnightblue",fontsize="10",style="solid",fontname="Helvetica"];
  Node39 [label="gblWxConnectorOfWidgetChanges\lToSlotFunction.h",height=0.2,width=0.4,color="red", fillcolor="white", style="filled",URL="$gblWxConnectorOfWidgetChangesToSlotFunction_8h.html"];
  Node39 -> Node3 [color="midnightblue",fontsize="10",style="solid",fontname="Helvetica"];
  Node39 -> Node14 [color="midnightblue",fontsize="10",style="solid",fontname="Helvetica"];
  Node33 -> Node36 [color="midnightblue",fontsize="10",style="solid",fontname="Helvetica"];
  Node33 -> Node14 [color="midnightblue",fontsize="10",style="solid",fontname="Helvetica"];
  Node33 -> Node40 [color="midnightblue",fontsize="10",style="solid",fontname="Helvetica"];
  Node40 [label="blMITKUtils.h",height=0.2,width=0.4,color="red", fillcolor="white", style="filled",URL="$blMITKUtils_8h.html"];
  Node40 -> Node36 [color="midnightblue",fontsize="10",style="solid",fontname="Helvetica"];
  Node1 -> Node41 [color="midnightblue",fontsize="10",style="solid",fontname="Helvetica"];
  Node41 [label="MultiLevelROIPanelWidget.h",height=0.2,width=0.4,color="black", fillcolor="white", style="filled",URL="$MultiLevelROIPanelWidget_8h.html"];
  Node41 -> Node42 [color="midnightblue",fontsize="10",style="solid",fontname="Helvetica"];
  Node42 [label="MultiLevelROIPanelWidgetUI.h",height=0.2,width=0.4,color="red", fillcolor="white", style="filled",URL="$MultiLevelROIPanelWidgetUI_8h.html"];
  Node42 -> Node3 [color="midnightblue",fontsize="10",style="solid",fontname="Helvetica"];
  Node42 -> Node23 [color="midnightblue",fontsize="10",style="solid",fontname="Helvetica"];
  Node41 -> Node43 [color="midnightblue",fontsize="10",style="solid",fontname="Helvetica"];
  Node43 [label="mlrProcessor.h",height=0.2,width=0.4,color="red", fillcolor="white", style="filled",URL="$mlrProcessor_8h.html"];
  Node43 -> Node10 [color="midnightblue",fontsize="10",style="solid",fontname="Helvetica"];
  Node43 -> Node7 [color="midnightblue",fontsize="10",style="solid",fontname="Helvetica"];
  Node43 -> Node20 [color="midnightblue",fontsize="10",style="solid",fontname="Helvetica"];
  Node43 -> Node12 [color="midnightblue",fontsize="10",style="solid",fontname="Helvetica"];
  Node43 -> Node14 [color="midnightblue",fontsize="10",style="solid",fontname="Helvetica"];
  Node43 -> Node36 [color="midnightblue",fontsize="10",style="solid",fontname="Helvetica"];
  Node41 -> Node19 [color="midnightblue",fontsize="10",style="solid",fontname="Helvetica"];
  Node41 -> Node5 [color="midnightblue",fontsize="10",style="solid",fontname="Helvetica"];
  Node41 -> Node20 [color="midnightblue",fontsize="10",style="solid",fontname="Helvetica"];
  Node41 -> Node18 [color="midnightblue",fontsize="10",style="solid",fontname="Helvetica"];
  Node1 -> Node44 [color="midnightblue",fontsize="10",style="solid",fontname="Helvetica"];
  Node44 [label="InteractiveSegmPanelWidget.h",height=0.2,width=0.4,color="black", fillcolor="white", style="filled",URL="$InteractiveSegmPanelWidget_8h.html"];
  Node44 -> Node45 [color="midnightblue",fontsize="10",style="solid",fontname="Helvetica"];
  Node45 [label="InteractiveSegmPanelWidgetUI.h",height=0.2,width=0.4,color="red", fillcolor="white", style="filled",URL="$InteractiveSegmPanelWidgetUI_8h.html"];
  Node45 -> Node3 [color="midnightblue",fontsize="10",style="solid",fontname="Helvetica"];
  Node45 -> Node23 [color="midnightblue",fontsize="10",style="solid",fontname="Helvetica"];
  Node44 -> Node46 [color="midnightblue",fontsize="10",style="solid",fontname="Helvetica"];
  Node46 [label="isegProcessor.h",height=0.2,width=0.4,color="red", fillcolor="white", style="filled",URL="$isegProcessor_8h.html"];
  Node46 -> Node10 [color="midnightblue",fontsize="10",style="solid",fontname="Helvetica"];
  Node46 -> Node7 [color="midnightblue",fontsize="10",style="solid",fontname="Helvetica"];
  Node46 -> Node20 [color="midnightblue",fontsize="10",style="solid",fontname="Helvetica"];
  Node46 -> Node15 [color="midnightblue",fontsize="10",style="solid",fontname="Helvetica"];
  Node46 -> Node19 [color="midnightblue",fontsize="10",style="solid",fontname="Helvetica"];
  Node46 -> Node14 [color="midnightblue",fontsize="10",style="solid",fontname="Helvetica"];
  Node46 -> Node36 [color="midnightblue",fontsize="10",style="solid",fontname="Helvetica"];
  Node44 -> Node47 [color="midnightblue",fontsize="10",style="solid",fontname="Helvetica"];
  Node47 [label="InteractiveSegmInteractor\lHelper.h",height=0.2,width=0.4,color="red", fillcolor="white", style="filled",URL="$InteractiveSegmInteractorHelper_8h.html"];
  Node47 -> Node7 [color="midnightblue",fontsize="10",style="solid",fontname="Helvetica"];
  Node47 -> Node10 [color="midnightblue",fontsize="10",style="solid",fontname="Helvetica"];
  Node47 -> Node20 [color="midnightblue",fontsize="10",style="solid",fontname="Helvetica"];
  Node44 -> Node19 [color="midnightblue",fontsize="10",style="solid",fontname="Helvetica"];
  Node44 -> Node5 [color="midnightblue",fontsize="10",style="solid",fontname="Helvetica"];
  Node44 -> Node20 [color="midnightblue",fontsize="10",style="solid",fontname="Helvetica"];
  Node44 -> Node38 [color="midnightblue",fontsize="10",style="solid",fontname="Helvetica"];
  Node44 -> Node39 [color="midnightblue",fontsize="10",style="solid",fontname="Helvetica"];
  Node44 -> Node36 [color="midnightblue",fontsize="10",style="solid",fontname="Helvetica"];
  Node44 -> Node14 [color="midnightblue",fontsize="10",style="solid",fontname="Helvetica"];
  Node44 -> Node40 [color="midnightblue",fontsize="10",style="solid",fontname="Helvetica"];
  Node44 -> Node48 [color="midnightblue",fontsize="10",style="solid",fontname="Helvetica"];
  Node48 [label="mitkSegmentationInterpolation\lController.h",height=0.2,width=0.4,color="grey75", fillcolor="white", style="filled"];
  Node1 -> Node49 [color="midnightblue",fontsize="10",style="solid",fontname="Helvetica"];
  Node49 [label="ContourToolOn.xpm",height=0.2,width=0.4,color="grey75", fillcolor="white", style="filled"];
  Node1 -> Node50 [color="midnightblue",fontsize="10",style="solid",fontname="Helvetica"];
  Node50 [label="mitkRegionGrowingTool.xpm",height=0.2,width=0.4,color="grey75", fillcolor="white", style="filled"];
}
