digraph "Modules/DcmAPI/tests/dcmAPI/MultiSliceReaderTest.cpp"
{
  edge [fontname="Helvetica",fontsize="10",labelfontname="Helvetica",labelfontsize="10"];
  node [fontname="Helvetica",fontsize="10",shape=record];
  Node1 [label="Modules/DcmAPI/tests\l/dcmAPI/MultiSliceReaderTest.cpp",height=0.2,width=0.4,color="black", fillcolor="grey75", style="filled", fontcolor="black"];
  Node1 -> Node2 [color="midnightblue",fontsize="10",style="solid",fontname="Helvetica"];
  Node2 [label="MultiSliceReaderTest.h",height=0.2,width=0.4,color="black", fillcolor="white", style="filled",URL="$MultiSliceReaderTest_8h.html"];
  Node2 -> Node3 [color="midnightblue",fontsize="10",style="solid",fontname="Helvetica"];
  Node3 [label="cxxtest/TestSuite.h",height=0.2,width=0.4,color="grey75", fillcolor="white", style="filled"];
  Node1 -> Node4 [color="midnightblue",fontsize="10",style="solid",fontname="Helvetica"];
  Node4 [label="dcmDataSetReader.h",height=0.2,width=0.4,color="black", fillcolor="white", style="filled",URL="$dcmDataSetReader_8h.html"];
  Node4 -> Node5 [color="midnightblue",fontsize="10",style="solid",fontname="Helvetica"];
  Node5 [label="dcmAPIIOWin32Header.h",height=0.2,width=0.4,color="grey75", fillcolor="white", style="filled"];
  Node4 -> Node6 [color="midnightblue",fontsize="10",style="solid",fontname="Helvetica"];
  Node6 [label="dcmDataSet.h",height=0.2,width=0.4,color="black", fillcolor="white", style="filled",URL="$dcmDataSet_8h.html"];
  Node6 -> Node7 [color="midnightblue",fontsize="10",style="solid",fontname="Helvetica"];
  Node7 [label="dcmAPIDataWin32Header.h",height=0.2,width=0.4,color="grey75", fillcolor="white", style="filled"];
  Node6 -> Node8 [color="midnightblue",fontsize="10",style="solid",fontname="Helvetica"];
  Node8 [label="string",height=0.2,width=0.4,color="grey75", fillcolor="white", style="filled"];
  Node6 -> Node9 [color="midnightblue",fontsize="10",style="solid",fontname="Helvetica"];
  Node9 [label="vector",height=0.2,width=0.4,color="grey75", fillcolor="white", style="filled"];
  Node6 -> Node10 [color="midnightblue",fontsize="10",style="solid",fontname="Helvetica"];
  Node10 [label="map",height=0.2,width=0.4,color="grey75", fillcolor="white", style="filled"];
  Node6 -> Node11 [color="midnightblue",fontsize="10",style="solid",fontname="Helvetica"];
  Node11 [label="boost/foreach.hpp",height=0.2,width=0.4,color="grey75", fillcolor="white", style="filled"];
  Node6 -> Node12 [color="midnightblue",fontsize="10",style="solid",fontname="Helvetica"];
  Node12 [label="dcmSeries.h",height=0.2,width=0.4,color="black", fillcolor="white", style="filled",URL="$dcmSeries_8h.html"];
  Node12 -> Node7 [color="midnightblue",fontsize="10",style="solid",fontname="Helvetica"];
  Node12 -> Node8 [color="midnightblue",fontsize="10",style="solid",fontname="Helvetica"];
  Node12 -> Node9 [color="midnightblue",fontsize="10",style="solid",fontname="Helvetica"];
  Node12 -> Node13 [color="midnightblue",fontsize="10",style="solid",fontname="Helvetica"];
  Node13 [label="dcmTimePoint.h",height=0.2,width=0.4,color="black", fillcolor="white", style="filled",URL="$dcmTimePoint_8h.html"];
  Node13 -> Node7 [color="midnightblue",fontsize="10",style="solid",fontname="Helvetica"];
  Node13 -> Node8 [color="midnightblue",fontsize="10",style="solid",fontname="Helvetica"];
  Node13 -> Node9 [color="midnightblue",fontsize="10",style="solid",fontname="Helvetica"];
  Node13 -> Node14 [color="midnightblue",fontsize="10",style="solid",fontname="Helvetica"];
  Node14 [label="dcmBase.h",height=0.2,width=0.4,color="black", fillcolor="white", style="filled",URL="$dcmBase_8h.html"];
  Node14 -> Node7 [color="midnightblue",fontsize="10",style="solid",fontname="Helvetica"];
  Node14 -> Node15 [color="midnightblue",fontsize="10",style="solid",fontname="Helvetica"];
  Node15 [label="dcmTypes.h",height=0.2,width=0.4,color="black", fillcolor="white", style="filled",URL="$dcmTypes_8h.html"];
  Node15 -> Node16 [color="midnightblue",fontsize="10",style="solid",fontname="Helvetica"];
  Node16 [label="cstdio",height=0.2,width=0.4,color="grey75", fillcolor="white", style="filled"];
  Node15 -> Node9 [color="midnightblue",fontsize="10",style="solid",fontname="Helvetica"];
  Node15 -> Node17 [color="midnightblue",fontsize="10",style="solid",fontname="Helvetica"];
  Node17 [label="string.h",height=0.2,width=0.4,color="grey75", fillcolor="white", style="filled"];
  Node15 -> Node10 [color="midnightblue",fontsize="10",style="solid",fontname="Helvetica"];
  Node15 -> Node18 [color="midnightblue",fontsize="10",style="solid",fontname="Helvetica"];
  Node18 [label="exception",height=0.2,width=0.4,color="grey75", fillcolor="white", style="filled"];
  Node15 -> Node19 [color="midnightblue",fontsize="10",style="solid",fontname="Helvetica"];
  Node19 [label="boost/shared_ptr.hpp",height=0.2,width=0.4,color="grey75", fillcolor="white", style="filled"];
  Node15 -> Node20 [color="midnightblue",fontsize="10",style="solid",fontname="Helvetica"];
  Node20 [label="CILabBoostMacros.h",height=0.2,width=0.4,color="black", fillcolor="white", style="filled",URL="$CILabBoostMacros_8h.html"];
  Node20 -> Node21 [color="midnightblue",fontsize="10",style="solid",fontname="Helvetica"];
  Node21 [label="boost/format.hpp",height=0.2,width=0.4,color="grey75", fillcolor="white", style="filled"];
  Node15 -> Node7 [color="midnightblue",fontsize="10",style="solid",fontname="Helvetica"];
  Node14 -> Node8 [color="midnightblue",fontsize="10",style="solid",fontname="Helvetica"];
  Node14 -> Node9 [color="midnightblue",fontsize="10",style="solid",fontname="Helvetica"];
  Node13 -> Node15 [color="midnightblue",fontsize="10",style="solid",fontname="Helvetica"];
  Node13 -> Node22 [color="midnightblue",fontsize="10",style="solid",fontname="Helvetica"];
  Node22 [label="dcmSlice.h",height=0.2,width=0.4,color="black", fillcolor="white", style="filled",URL="$dcmSlice_8h.html"];
  Node22 -> Node7 [color="midnightblue",fontsize="10",style="solid",fontname="Helvetica"];
  Node22 -> Node15 [color="midnightblue",fontsize="10",style="solid",fontname="Helvetica"];
  Node22 -> Node14 [color="midnightblue",fontsize="10",style="solid",fontname="Helvetica"];
  Node12 -> Node15 [color="midnightblue",fontsize="10",style="solid",fontname="Helvetica"];
  Node12 -> Node14 [color="midnightblue",fontsize="10",style="solid",fontname="Helvetica"];
  Node6 -> Node23 [color="midnightblue",fontsize="10",style="solid",fontname="Helvetica"];
  Node23 [label="dcmPatient.h",height=0.2,width=0.4,color="black", fillcolor="white", style="filled",URL="$dcmPatient_8h.html"];
  Node23 -> Node7 [color="midnightblue",fontsize="10",style="solid",fontname="Helvetica"];
  Node23 -> Node8 [color="midnightblue",fontsize="10",style="solid",fontname="Helvetica"];
  Node23 -> Node9 [color="midnightblue",fontsize="10",style="solid",fontname="Helvetica"];
  Node23 -> Node15 [color="midnightblue",fontsize="10",style="solid",fontname="Helvetica"];
  Node23 -> Node14 [color="midnightblue",fontsize="10",style="solid",fontname="Helvetica"];
  Node23 -> Node24 [color="midnightblue",fontsize="10",style="solid",fontname="Helvetica"];
  Node24 [label="dcmStudy.h",height=0.2,width=0.4,color="black", fillcolor="white", style="filled",URL="$dcmStudy_8h.html"];
  Node24 -> Node7 [color="midnightblue",fontsize="10",style="solid",fontname="Helvetica"];
  Node24 -> Node8 [color="midnightblue",fontsize="10",style="solid",fontname="Helvetica"];
  Node24 -> Node9 [color="midnightblue",fontsize="10",style="solid",fontname="Helvetica"];
  Node24 -> Node15 [color="midnightblue",fontsize="10",style="solid",fontname="Helvetica"];
  Node24 -> Node12 [color="midnightblue",fontsize="10",style="solid",fontname="Helvetica"];
  Node6 -> Node15 [color="midnightblue",fontsize="10",style="solid",fontname="Helvetica"];
  Node4 -> Node15 [color="midnightblue",fontsize="10",style="solid",fontname="Helvetica"];
  Node4 -> Node25 [color="midnightblue",fontsize="10",style="solid",fontname="Helvetica"];
  Node25 [label="dcmAbstractImageReader.h",height=0.2,width=0.4,color="black", fillcolor="white", style="filled",URL="$dcmAbstractImageReader_8h.html"];
  Node25 -> Node26 [color="midnightblue",fontsize="10",style="solid",fontname="Helvetica"];
  Node26 [label="dcmFile.h",height=0.2,width=0.4,color="black", fillcolor="white", style="filled",URL="$dcmFile_8h.html"];
  Node26 -> Node5 [color="midnightblue",fontsize="10",style="solid",fontname="Helvetica"];
  Node26 -> Node15 [color="midnightblue",fontsize="10",style="solid",fontname="Helvetica"];
  Node26 -> Node27 [color="midnightblue",fontsize="10",style="solid",fontname="Helvetica"];
  Node27 [label="gdcmFile.h",height=0.2,width=0.4,color="grey75", fillcolor="white", style="filled"];
  Node26 -> Node28 [color="midnightblue",fontsize="10",style="solid",fontname="Helvetica"];
  Node28 [label="gdcmValEntry.h",height=0.2,width=0.4,color="grey75", fillcolor="white", style="filled"];
  Node25 -> Node15 [color="midnightblue",fontsize="10",style="solid",fontname="Helvetica"];
  Node25 -> Node6 [color="midnightblue",fontsize="10",style="solid",fontname="Helvetica"];
  Node25 -> Node29 [color="midnightblue",fontsize="10",style="solid",fontname="Helvetica"];
  Node29 [label="dcmEcgData.h",height=0.2,width=0.4,color="black", fillcolor="white", style="filled",URL="$dcmEcgData_8h.html"];
  Node29 -> Node9 [color="midnightblue",fontsize="10",style="solid",fontname="Helvetica"];
  Node25 -> Node30 [color="midnightblue",fontsize="10",style="solid",fontname="Helvetica"];
  Node30 [label="vtkImageData.h",height=0.2,width=0.4,color="grey75", fillcolor="white", style="filled"];
  Node25 -> Node31 [color="midnightblue",fontsize="10",style="solid",fontname="Helvetica"];
  Node31 [label="vtkSmartPointer.h",height=0.2,width=0.4,color="grey75", fillcolor="white", style="filled"];
  Node4 -> Node32 [color="midnightblue",fontsize="10",style="solid",fontname="Helvetica"];
  Node32 [label="CILabExceptionMacros.h",height=0.2,width=0.4,color="black", fillcolor="white", style="filled",URL="$CILabExceptionMacros_8h.html"];
  Node32 -> Node18 [color="midnightblue",fontsize="10",style="solid",fontname="Helvetica"];
  Node32 -> Node8 [color="midnightblue",fontsize="10",style="solid",fontname="Helvetica"];
  Node4 -> Node33 [color="midnightblue",fontsize="10",style="solid",fontname="Helvetica"];
  Node33 [label="log4cplus/logger.h",height=0.2,width=0.4,color="grey75", fillcolor="white", style="filled"];
  Node1 -> Node34 [color="midnightblue",fontsize="10",style="solid",fontname="Helvetica"];
  Node34 [label="dcmMultiSliceReader.h",height=0.2,width=0.4,color="black", fillcolor="white", style="filled",URL="$dcmMultiSliceReader_8h.html"];
  Node34 -> Node5 [color="midnightblue",fontsize="10",style="solid",fontname="Helvetica"];
  Node34 -> Node35 [color="midnightblue",fontsize="10",style="solid",fontname="Helvetica"];
  Node35 [label="blLightObject.h",height=0.2,width=0.4,color="black", fillcolor="white", style="filled",URL="$blLightObject_8h.html"];
  Node35 -> Node36 [color="midnightblue",fontsize="10",style="solid",fontname="Helvetica"];
  Node36 [label="blMacro.h",height=0.2,width=0.4,color="black", fillcolor="white", style="filled",URL="$blMacro_8h.html"];
  Node35 -> Node37 [color="midnightblue",fontsize="10",style="solid",fontname="Helvetica"];
  Node37 [label="blSmartPointer.h",height=0.2,width=0.4,color="black", fillcolor="white", style="filled",URL="$blSmartPointer_8h.html"];
  Node35 -> Node38 [color="midnightblue",fontsize="10",style="solid",fontname="Helvetica"];
  Node38 [label="BaseLibWin32Header.h",height=0.2,width=0.4,color="grey75", fillcolor="white", style="filled"];
  Node34 -> Node39 [color="midnightblue",fontsize="10",style="solid",fontname="Helvetica"];
  Node39 [label="blSignalCollective.h",height=0.2,width=0.4,color="black", fillcolor="white", style="filled",URL="$blSignalCollective_8h.html"];
  Node39 -> Node40 [color="midnightblue",fontsize="10",style="solid",fontname="Helvetica"];
  Node40 [label="BaseLibSignalWin32Header.h",height=0.2,width=0.4,color="grey75", fillcolor="white", style="filled"];
  Node39 -> Node41 [color="midnightblue",fontsize="10",style="solid",fontname="Helvetica"];
  Node41 [label="blObject.h",height=0.2,width=0.4,color="black", fillcolor="white", style="filled",URL="$blObject_8h.html"];
  Node41 -> Node36 [color="midnightblue",fontsize="10",style="solid",fontname="Helvetica"];
  Node41 -> Node37 [color="midnightblue",fontsize="10",style="solid",fontname="Helvetica"];
  Node41 -> Node38 [color="midnightblue",fontsize="10",style="solid",fontname="Helvetica"];
  Node41 -> Node35 [color="midnightblue",fontsize="10",style="solid",fontname="Helvetica"];
  Node41 -> Node42 [color="midnightblue",fontsize="10",style="solid",fontname="Helvetica"];
  Node42 [label="blTimeStamp.h",height=0.2,width=0.4,color="black", fillcolor="white", style="filled",URL="$blTimeStamp_8h.html"];
  Node42 -> Node37 [color="midnightblue",fontsize="10",style="solid",fontname="Helvetica"];
  Node42 -> Node36 [color="midnightblue",fontsize="10",style="solid",fontname="Helvetica"];
  Node39 -> Node36 [color="midnightblue",fontsize="10",style="solid",fontname="Helvetica"];
  Node39 -> Node43 [color="midnightblue",fontsize="10",style="solid",fontname="Helvetica"];
  Node43 [label="blSignal.h",height=0.2,width=0.4,color="black", fillcolor="white", style="filled",URL="$blSignal_8h.html"];
  Node43 -> Node44 [color="midnightblue",fontsize="10",style="solid",fontname="Helvetica"];
  Node44 [label="inttypes.h",height=0.2,width=0.4,color="grey75", fillcolor="white", style="filled"];
  Node43 -> Node40 [color="midnightblue",fontsize="10",style="solid",fontname="Helvetica"];
  Node43 -> Node41 [color="midnightblue",fontsize="10",style="solid",fontname="Helvetica"];
  Node43 -> Node36 [color="midnightblue",fontsize="10",style="solid",fontname="Helvetica"];
  Node43 -> Node9 [color="midnightblue",fontsize="10",style="solid",fontname="Helvetica"];
  Node43 -> Node32 [color="midnightblue",fontsize="10",style="solid",fontname="Helvetica"];
  Node43 -> Node45 [color="midnightblue",fontsize="10",style="solid",fontname="Helvetica"];
  Node45 [label="blSignalAnnotation.h",height=0.2,width=0.4,color="black", fillcolor="white", style="filled",URL="$blSignalAnnotation_8h.html"];
  Node45 -> Node40 [color="midnightblue",fontsize="10",style="solid",fontname="Helvetica"];
  Node45 -> Node41 [color="midnightblue",fontsize="10",style="solid",fontname="Helvetica"];
  Node45 -> Node36 [color="midnightblue",fontsize="10",style="solid",fontname="Helvetica"];
  Node45 -> Node9 [color="midnightblue",fontsize="10",style="solid",fontname="Helvetica"];
  Node45 -> Node32 [color="midnightblue",fontsize="10",style="solid",fontname="Helvetica"];
  Node39 -> Node9 [color="midnightblue",fontsize="10",style="solid",fontname="Helvetica"];
  Node39 -> Node32 [color="midnightblue",fontsize="10",style="solid",fontname="Helvetica"];
  Node34 -> Node32 [color="midnightblue",fontsize="10",style="solid",fontname="Helvetica"];
  Node34 -> Node6 [color="midnightblue",fontsize="10",style="solid",fontname="Helvetica"];
  Node34 -> Node15 [color="midnightblue",fontsize="10",style="solid",fontname="Helvetica"];
  Node34 -> Node25 [color="midnightblue",fontsize="10",style="solid",fontname="Helvetica"];
  Node34 -> Node31 [color="midnightblue",fontsize="10",style="solid",fontname="Helvetica"];
  Node34 -> Node30 [color="midnightblue",fontsize="10",style="solid",fontname="Helvetica"];
  Node1 -> Node25 [color="midnightblue",fontsize="10",style="solid",fontname="Helvetica"];
  Node1 -> Node46 [color="midnightblue",fontsize="10",style="solid",fontname="Helvetica"];
  Node46 [label="dcmStandardImageReader.h",height=0.2,width=0.4,color="black", fillcolor="white", style="filled",URL="$dcmStandardImageReader_8h.html"];
  Node46 -> Node5 [color="midnightblue",fontsize="10",style="solid",fontname="Helvetica"];
  Node46 -> Node25 [color="midnightblue",fontsize="10",style="solid",fontname="Helvetica"];
  Node46 -> Node30 [color="midnightblue",fontsize="10",style="solid",fontname="Helvetica"];
  Node46 -> Node31 [color="midnightblue",fontsize="10",style="solid",fontname="Helvetica"];
  Node1 -> Node47 [color="midnightblue",fontsize="10",style="solid",fontname="Helvetica"];
  Node47 [label="CISTIBToolkit.h",height=0.2,width=0.4,color="grey75", fillcolor="white", style="filled"];
}
