digraph "Apps/Plugins/ManualSegmentationPlugin/widgets/MultiLevelROIPanelWidget/MultiLevelROIPanelWidget.h"
{
  edge [fontname="Helvetica",fontsize="10",labelfontname="Helvetica",labelfontsize="10"];
  node [fontname="Helvetica",fontsize="10",shape=record];
  Node1 [label="Apps/Plugins/ManualSegmentation\lPlugin/widgets/MultiLevelROIPanelWidget\l/MultiLevelROIPanelWidget.h",height=0.2,width=0.4,color="black", fillcolor="grey75", style="filled", fontcolor="black"];
  Node1 -> Node2 [dir="back",color="midnightblue",fontsize="10",style="solid",fontname="Helvetica"];
  Node2 [label="Apps/Plugins/ManualSegmentation\lPlugin/msWidgetCollective.cxx",height=0.2,width=0.4,color="black", fillcolor="white", style="filled",URL="$msWidgetCollective_8cxx.html"];
  Node1 -> Node3 [dir="back",color="midnightblue",fontsize="10",style="solid",fontname="Helvetica"];
  Node3 [label="Apps/Plugins/ManualSegmentation\lPlugin/widgets/MultiLevelROIPanelWidget\l/MultiLevelROIPanelWidget.cpp",height=0.2,width=0.4,color="black", fillcolor="white", style="filled",URL="$MultiLevelROIPanelWidget_8cpp.html"];
}
