digraph "Modules/TpExtLib/Applications/PixelIntensity/PixelIntensity.cxx"
{
  edge [fontname="Helvetica",fontsize="10",labelfontname="Helvetica",labelfontsize="10"];
  node [fontname="Helvetica",fontsize="10",shape=record];
  Node1 [label="Modules/TpExtLib/Applications\l/PixelIntensity/PixelIntensity.cxx",height=0.2,width=0.4,color="black", fillcolor="grey75", style="filled", fontcolor="black"];
  Node1 -> Node2 [color="midnightblue",fontsize="10",style="solid",fontname="Helvetica"];
  Node2 [label="itkImage.h",height=0.2,width=0.4,color="grey75", fillcolor="white", style="filled"];
  Node1 -> Node3 [color="midnightblue",fontsize="10",style="solid",fontname="Helvetica"];
  Node3 [label="itkImageFileReader.h",height=0.2,width=0.4,color="grey75", fillcolor="white", style="filled"];
  Node1 -> Node4 [color="midnightblue",fontsize="10",style="solid",fontname="Helvetica"];
  Node4 [label="itkImageFileWriter.h",height=0.2,width=0.4,color="grey75", fillcolor="white", style="filled"];
  Node1 -> Node5 [color="midnightblue",fontsize="10",style="solid",fontname="Helvetica"];
  Node5 [label="itksys/SystemTools.hxx",height=0.2,width=0.4,color="grey75", fillcolor="white", style="filled"];
  Node1 -> Node6 [color="midnightblue",fontsize="10",style="solid",fontname="Helvetica"];
  Node6 [label="itkPluginUtilities.h",height=0.2,width=0.4,color="grey75", fillcolor="white", style="filled"];
  Node1 -> Node7 [color="midnightblue",fontsize="10",style="solid",fontname="Helvetica"];
  Node7 [label="PixelIntensityCLP.h",height=0.2,width=0.4,color="grey75", fillcolor="white", style="filled"];
  Node1 -> Node8 [color="midnightblue",fontsize="10",style="solid",fontname="Helvetica"];
  Node8 [label="blSignalCollective.h",height=0.2,width=0.4,color="black", fillcolor="white", style="filled",URL="$blSignalCollective_8h.html"];
  Node8 -> Node9 [color="midnightblue",fontsize="10",style="solid",fontname="Helvetica"];
  Node9 [label="BaseLibSignalWin32Header.h",height=0.2,width=0.4,color="grey75", fillcolor="white", style="filled"];
  Node8 -> Node10 [color="midnightblue",fontsize="10",style="solid",fontname="Helvetica"];
  Node10 [label="blObject.h",height=0.2,width=0.4,color="black", fillcolor="white", style="filled",URL="$blObject_8h.html"];
  Node10 -> Node11 [color="midnightblue",fontsize="10",style="solid",fontname="Helvetica"];
  Node11 [label="blMacro.h",height=0.2,width=0.4,color="black", fillcolor="white", style="filled",URL="$blMacro_8h.html"];
  Node10 -> Node12 [color="midnightblue",fontsize="10",style="solid",fontname="Helvetica"];
  Node12 [label="blSmartPointer.h",height=0.2,width=0.4,color="black", fillcolor="white", style="filled",URL="$blSmartPointer_8h.html"];
  Node10 -> Node13 [color="midnightblue",fontsize="10",style="solid",fontname="Helvetica"];
  Node13 [label="BaseLibWin32Header.h",height=0.2,width=0.4,color="grey75", fillcolor="white", style="filled"];
  Node10 -> Node14 [color="midnightblue",fontsize="10",style="solid",fontname="Helvetica"];
  Node14 [label="blLightObject.h",height=0.2,width=0.4,color="black", fillcolor="white", style="filled",URL="$blLightObject_8h.html"];
  Node14 -> Node11 [color="midnightblue",fontsize="10",style="solid",fontname="Helvetica"];
  Node14 -> Node12 [color="midnightblue",fontsize="10",style="solid",fontname="Helvetica"];
  Node14 -> Node13 [color="midnightblue",fontsize="10",style="solid",fontname="Helvetica"];
  Node10 -> Node15 [color="midnightblue",fontsize="10",style="solid",fontname="Helvetica"];
  Node15 [label="blTimeStamp.h",height=0.2,width=0.4,color="black", fillcolor="white", style="filled",URL="$blTimeStamp_8h.html"];
  Node15 -> Node12 [color="midnightblue",fontsize="10",style="solid",fontname="Helvetica"];
  Node15 -> Node11 [color="midnightblue",fontsize="10",style="solid",fontname="Helvetica"];
  Node8 -> Node11 [color="midnightblue",fontsize="10",style="solid",fontname="Helvetica"];
  Node8 -> Node16 [color="midnightblue",fontsize="10",style="solid",fontname="Helvetica"];
  Node16 [label="blSignal.h",height=0.2,width=0.4,color="black", fillcolor="white", style="filled",URL="$blSignal_8h.html"];
  Node16 -> Node17 [color="midnightblue",fontsize="10",style="solid",fontname="Helvetica"];
  Node17 [label="inttypes.h",height=0.2,width=0.4,color="grey75", fillcolor="white", style="filled"];
  Node16 -> Node9 [color="midnightblue",fontsize="10",style="solid",fontname="Helvetica"];
  Node16 -> Node10 [color="midnightblue",fontsize="10",style="solid",fontname="Helvetica"];
  Node16 -> Node11 [color="midnightblue",fontsize="10",style="solid",fontname="Helvetica"];
  Node16 -> Node18 [color="midnightblue",fontsize="10",style="solid",fontname="Helvetica"];
  Node18 [label="vector",height=0.2,width=0.4,color="grey75", fillcolor="white", style="filled"];
  Node16 -> Node19 [color="midnightblue",fontsize="10",style="solid",fontname="Helvetica"];
  Node19 [label="CILabExceptionMacros.h",height=0.2,width=0.4,color="black", fillcolor="white", style="filled",URL="$CILabExceptionMacros_8h.html"];
  Node19 -> Node20 [color="midnightblue",fontsize="10",style="solid",fontname="Helvetica"];
  Node20 [label="exception",height=0.2,width=0.4,color="grey75", fillcolor="white", style="filled"];
  Node19 -> Node21 [color="midnightblue",fontsize="10",style="solid",fontname="Helvetica"];
  Node21 [label="string",height=0.2,width=0.4,color="grey75", fillcolor="white", style="filled"];
  Node16 -> Node22 [color="midnightblue",fontsize="10",style="solid",fontname="Helvetica"];
  Node22 [label="blSignalAnnotation.h",height=0.2,width=0.4,color="black", fillcolor="white", style="filled",URL="$blSignalAnnotation_8h.html"];
  Node22 -> Node9 [color="midnightblue",fontsize="10",style="solid",fontname="Helvetica"];
  Node22 -> Node10 [color="midnightblue",fontsize="10",style="solid",fontname="Helvetica"];
  Node22 -> Node11 [color="midnightblue",fontsize="10",style="solid",fontname="Helvetica"];
  Node22 -> Node18 [color="midnightblue",fontsize="10",style="solid",fontname="Helvetica"];
  Node22 -> Node19 [color="midnightblue",fontsize="10",style="solid",fontname="Helvetica"];
  Node8 -> Node18 [color="midnightblue",fontsize="10",style="solid",fontname="Helvetica"];
  Node8 -> Node19 [color="midnightblue",fontsize="10",style="solid",fontname="Helvetica"];
  Node1 -> Node23 [color="midnightblue",fontsize="10",style="solid",fontname="Helvetica"];
  Node23 [label="blSignalWriter.h",height=0.2,width=0.4,color="black", fillcolor="white", style="filled",URL="$blSignalWriter_8h.html"];
  Node23 -> Node9 [color="midnightblue",fontsize="10",style="solid",fontname="Helvetica"];
  Node23 -> Node14 [color="midnightblue",fontsize="10",style="solid",fontname="Helvetica"];
  Node23 -> Node11 [color="midnightblue",fontsize="10",style="solid",fontname="Helvetica"];
  Node23 -> Node8 [color="midnightblue",fontsize="10",style="solid",fontname="Helvetica"];
  Node23 -> Node18 [color="midnightblue",fontsize="10",style="solid",fontname="Helvetica"];
  Node23 -> Node19 [color="midnightblue",fontsize="10",style="solid",fontname="Helvetica"];
}
