digraph "Apps/Plugins/MITKPlugin/widgets/CroppingWidget/ptCroppingWidget.h"
{
  edge [fontname="Helvetica",fontsize="10",labelfontname="Helvetica",labelfontsize="10"];
  node [fontname="Helvetica",fontsize="10",shape=record];
  Node1 [label="Apps/Plugins/MITKPlugin\l/widgets/CroppingWidget\l/ptCroppingWidget.h",height=0.2,width=0.4,color="black", fillcolor="grey75", style="filled", fontcolor="black"];
  Node1 -> Node2 [color="midnightblue",fontsize="10",style="solid",fontname="Helvetica"];
  Node2 [label="corePluginMacros.h",height=0.2,width=0.4,color="black", fillcolor="white", style="filled",URL="$corePluginMacros_8h.html"];
  Node1 -> Node3 [color="midnightblue",fontsize="10",style="solid",fontname="Helvetica"];
  Node3 [label="CILabNamespaceMacros.h",height=0.2,width=0.4,color="black", fillcolor="white", style="filled",URL="$CILabNamespaceMacros_8h.html"];
  Node1 -> Node4 [color="midnightblue",fontsize="10",style="solid",fontname="Helvetica"];
  Node4 [label="coreBBoxWidget.h",height=0.2,width=0.4,color="black", fillcolor="white", style="filled",URL="$coreBBoxWidget_8h.html"];
  Node4 -> Node2 [color="midnightblue",fontsize="10",style="solid",fontname="Helvetica"];
  Node4 -> Node3 [color="midnightblue",fontsize="10",style="solid",fontname="Helvetica"];
  Node4 -> Node5 [color="midnightblue",fontsize="10",style="solid",fontname="Helvetica"];
  Node5 [label="coreBBoxSceneManager.h",height=0.2,width=0.4,color="black", fillcolor="white", style="filled",URL="$coreBBoxSceneManager_8h.html"];
  Node5 -> Node2 [color="midnightblue",fontsize="10",style="solid",fontname="Helvetica"];
  Node5 -> Node6 [color="midnightblue",fontsize="10",style="solid",fontname="Helvetica"];
  Node6 [label="coreRenderingTree.h",height=0.2,width=0.4,color="red", fillcolor="white", style="filled",URL="$coreRenderingTree_8h.html"];
  Node6 -> Node7 [color="midnightblue",fontsize="10",style="solid",fontname="Helvetica"];
  Node7 [label="gmKernelWin32Header.h",height=0.2,width=0.4,color="grey75", fillcolor="white", style="filled"];
  Node6 -> Node8 [color="midnightblue",fontsize="10",style="solid",fontname="Helvetica"];
  Node8 [label="coreObject.h",height=0.2,width=0.4,color="red", fillcolor="white", style="filled",URL="$coreObject_8h.html"];
  Node8 -> Node9 [color="midnightblue",fontsize="10",style="solid",fontname="Helvetica"];
  Node9 [label="coreCommonMacros.h",height=0.2,width=0.4,color="black", fillcolor="white", style="filled",URL="$coreCommonMacros_8h.html"];
  Node8 -> Node10 [color="midnightblue",fontsize="10",style="solid",fontname="Helvetica"];
  Node10 [label="coreSmartPointerMacros.h",height=0.2,width=0.4,color="black", fillcolor="white", style="filled",URL="$coreSmartPointerMacros_8h.html"];
  Node10 -> Node9 [color="midnightblue",fontsize="10",style="solid",fontname="Helvetica"];
  Node10 -> Node11 [color="midnightblue",fontsize="10",style="solid",fontname="Helvetica"];
  Node11 [label="itkSmartPointer.h",height=0.2,width=0.4,color="grey75", fillcolor="white", style="filled"];
  Node8 -> Node12 [color="midnightblue",fontsize="10",style="solid",fontname="Helvetica"];
  Node12 [label="boost/signals.hpp",height=0.2,width=0.4,color="grey75", fillcolor="white", style="filled"];
  Node8 -> Node13 [color="midnightblue",fontsize="10",style="solid",fontname="Helvetica"];
  Node13 [label="boost/bind.hpp",height=0.2,width=0.4,color="grey75", fillcolor="white", style="filled"];
  Node6 -> Node14 [color="midnightblue",fontsize="10",style="solid",fontname="Helvetica"];
  Node14 [label="coreDataEntity.h",height=0.2,width=0.4,color="red", fillcolor="white", style="filled",URL="$coreDataEntity_8h.html"];
  Node14 -> Node15 [color="midnightblue",fontsize="10",style="solid",fontname="Helvetica"];
  Node15 [label="gmDataHandlingWin32Header.h",height=0.2,width=0.4,color="grey75", fillcolor="white", style="filled"];
  Node14 -> Node8 [color="midnightblue",fontsize="10",style="solid",fontname="Helvetica"];
  Node14 -> Node12 [color="midnightblue",fontsize="10",style="solid",fontname="Helvetica"];
  Node14 -> Node16 [color="midnightblue",fontsize="10",style="solid",fontname="Helvetica"];
  Node16 [label="coreDataEntityHolder.h",height=0.2,width=0.4,color="black", fillcolor="white", style="filled",URL="$coreDataEntityHolder_8h.html"];
  Node16 -> Node15 [color="midnightblue",fontsize="10",style="solid",fontname="Helvetica"];
  Node16 -> Node14 [color="midnightblue",fontsize="10",style="solid",fontname="Helvetica"];
  Node16 -> Node17 [color="midnightblue",fontsize="10",style="solid",fontname="Helvetica"];
  Node17 [label="coreDataHolder.h",height=0.2,width=0.4,color="red", fillcolor="white", style="filled",URL="$coreDataHolder_8h.html"];
  Node17 -> Node13 [color="midnightblue",fontsize="10",style="solid",fontname="Helvetica"];
  Node17 -> Node12 [color="midnightblue",fontsize="10",style="solid",fontname="Helvetica"];
  Node17 -> Node17 [color="midnightblue",fontsize="10",style="solid",fontname="Helvetica"];
  Node6 -> Node12 [color="midnightblue",fontsize="10",style="solid",fontname="Helvetica"];
  Node6 -> Node18 [color="midnightblue",fontsize="10",style="solid",fontname="Helvetica"];
  Node18 [label="map",height=0.2,width=0.4,color="grey75", fillcolor="white", style="filled"];
  Node5 -> Node19 [color="midnightblue",fontsize="10",style="solid",fontname="Helvetica"];
  Node19 [label="mitkCuboid.h",height=0.2,width=0.4,color="grey75", fillcolor="white", style="filled"];
  Node5 -> Node20 [color="midnightblue",fontsize="10",style="solid",fontname="Helvetica"];
  Node20 [label="mitkPointSet.h",height=0.2,width=0.4,color="grey75", fillcolor="white", style="filled"];
  Node5 -> Node21 [color="midnightblue",fontsize="10",style="solid",fontname="Helvetica"];
  Node21 [label="boost/shared_ptr.hpp",height=0.2,width=0.4,color="grey75", fillcolor="white", style="filled"];
  Node5 -> Node22 [color="midnightblue",fontsize="10",style="solid",fontname="Helvetica"];
  Node22 [label="coreBBoxSceneManagerHandler.h",height=0.2,width=0.4,color="red", fillcolor="white", style="filled",URL="$coreBBoxSceneManagerHandler_8h.html"];
  Node22 -> Node14 [color="midnightblue",fontsize="10",style="solid",fontname="Helvetica"];
  Node22 -> Node6 [color="midnightblue",fontsize="10",style="solid",fontname="Helvetica"];
  Node22 -> Node23 [color="midnightblue",fontsize="10",style="solid",fontname="Helvetica"];
  Node23 [label="coreBoundingBox.h",height=0.2,width=0.4,color="black", fillcolor="white", style="filled",URL="$coreBoundingBox_8h.html"];
  Node23 -> Node24 [color="midnightblue",fontsize="10",style="solid",fontname="Helvetica"];
  Node24 [label="itkImageBase.h",height=0.2,width=0.4,color="grey75", fillcolor="white", style="filled"];
  Node23 -> Node25 [color="midnightblue",fontsize="10",style="solid",fontname="Helvetica"];
  Node25 [label="itkImageRegion.h",height=0.2,width=0.4,color="grey75", fillcolor="white", style="filled"];
  Node23 -> Node26 [color="midnightblue",fontsize="10",style="solid",fontname="Helvetica"];
  Node26 [label="CILabItkMacros.h",height=0.2,width=0.4,color="black", fillcolor="white", style="filled",URL="$CILabItkMacros_8h.html"];
  Node23 -> Node2 [color="midnightblue",fontsize="10",style="solid",fontname="Helvetica"];
  Node22 -> Node19 [color="midnightblue",fontsize="10",style="solid",fontname="Helvetica"];
  Node22 -> Node20 [color="midnightblue",fontsize="10",style="solid",fontname="Helvetica"];
  Node22 -> Node21 [color="midnightblue",fontsize="10",style="solid",fontname="Helvetica"];
  Node4 -> Node27 [color="midnightblue",fontsize="10",style="solid",fontname="Helvetica"];
  Node27 [label="coreSelectionToolWidget.h",height=0.2,width=0.4,color="black", fillcolor="white", style="filled",URL="$coreSelectionToolWidget_8h.html"];
  Node27 -> Node28 [color="midnightblue",fontsize="10",style="solid",fontname="Helvetica"];
  Node28 [label="gmWidgetsWin32Header.h",height=0.2,width=0.4,color="grey75", fillcolor="white", style="filled"];
  Node27 -> Node29 [color="midnightblue",fontsize="10",style="solid",fontname="Helvetica"];
  Node29 [label="coreBaseWindow.h",height=0.2,width=0.4,color="red", fillcolor="white", style="filled",URL="$coreBaseWindow_8h.html"];
  Node29 -> Node7 [color="midnightblue",fontsize="10",style="solid",fontname="Helvetica"];
  Node29 -> Node6 [color="midnightblue",fontsize="10",style="solid",fontname="Helvetica"];
  Node29 -> Node30 [color="midnightblue",fontsize="10",style="solid",fontname="Helvetica"];
  Node30 [label="coreBaseProcessor.h",height=0.2,width=0.4,color="black", fillcolor="white", style="filled",URL="$coreBaseProcessor_8h.html"];
  Node30 -> Node31 [color="midnightblue",fontsize="10",style="solid",fontname="Helvetica"];
  Node31 [label="gmFilteringWin32Header.h",height=0.2,width=0.4,color="grey75", fillcolor="white", style="filled"];
  Node30 -> Node8 [color="midnightblue",fontsize="10",style="solid",fontname="Helvetica"];
  Node30 -> Node17 [color="midnightblue",fontsize="10",style="solid",fontname="Helvetica"];
  Node30 -> Node14 [color="midnightblue",fontsize="10",style="solid",fontname="Helvetica"];
  Node30 -> Node32 [color="midnightblue",fontsize="10",style="solid",fontname="Helvetica"];
  Node32 [label="coreBaseFilter.h",height=0.2,width=0.4,color="red", fillcolor="white", style="filled",URL="$coreBaseFilter_8h.html"];
  Node32 -> Node8 [color="midnightblue",fontsize="10",style="solid",fontname="Helvetica"];
  Node32 -> Node17 [color="midnightblue",fontsize="10",style="solid",fontname="Helvetica"];
  Node32 -> Node14 [color="midnightblue",fontsize="10",style="solid",fontname="Helvetica"];
  Node30 -> Node33 [color="midnightblue",fontsize="10",style="solid",fontname="Helvetica"];
  Node33 [label="ModuleDescription.h",height=0.2,width=0.4,color="grey75", fillcolor="white", style="filled"];
  Node30 -> Node34 [color="midnightblue",fontsize="10",style="solid",fontname="Helvetica"];
  Node34 [label="coreBaseProcessor.txx",height=0.2,width=0.4,color="grey75", fillcolor="white", style="filled"];
  Node29 -> Node35 [color="midnightblue",fontsize="10",style="solid",fontname="Helvetica"];
  Node35 [label="coreProcessorOutputObserver.h",height=0.2,width=0.4,color="black", fillcolor="white", style="filled",URL="$coreProcessorOutputObserver_8h.html"];
  Node35 -> Node7 [color="midnightblue",fontsize="10",style="solid",fontname="Helvetica"];
  Node35 -> Node8 [color="midnightblue",fontsize="10",style="solid",fontname="Helvetica"];
  Node35 -> Node6 [color="midnightblue",fontsize="10",style="solid",fontname="Helvetica"];
  Node4 -> Node36 [color="midnightblue",fontsize="10",style="solid",fontname="Helvetica"];
  Node36 [label="coreBBoxProcessor.h",height=0.2,width=0.4,color="black", fillcolor="white", style="filled",URL="$coreBBoxProcessor_8h.html"];
  Node36 -> Node16 [color="midnightblue",fontsize="10",style="solid",fontname="Helvetica"];
  Node36 -> Node10 [color="midnightblue",fontsize="10",style="solid",fontname="Helvetica"];
  Node36 -> Node23 [color="midnightblue",fontsize="10",style="solid",fontname="Helvetica"];
  Node36 -> Node30 [color="midnightblue",fontsize="10",style="solid",fontname="Helvetica"];
  Node4 -> Node37 [color="midnightblue",fontsize="10",style="solid",fontname="Helvetica"];
  Node37 [label="wx/wx.h",height=0.2,width=0.4,color="grey75", fillcolor="white", style="filled"];
  Node4 -> Node38 [color="midnightblue",fontsize="10",style="solid",fontname="Helvetica"];
  Node38 [label="wx/tglbtn.h",height=0.2,width=0.4,color="grey75", fillcolor="white", style="filled"];
  Node4 -> Node39 [color="midnightblue",fontsize="10",style="solid",fontname="Helvetica"];
  Node39 [label="gblWxConnectorOfWidgetChanges\lToSlotFunction.h",height=0.2,width=0.4,color="black", fillcolor="white", style="filled",URL="$gblWxConnectorOfWidgetChangesToSlotFunction_8h.html"];
  Node39 -> Node13 [color="midnightblue",fontsize="10",style="solid",fontname="Helvetica"];
  Node39 -> Node3 [color="midnightblue",fontsize="10",style="solid",fontname="Helvetica"];
  Node39 -> Node37 [color="midnightblue",fontsize="10",style="solid",fontname="Helvetica"];
  Node39 -> Node40 [color="midnightblue",fontsize="10",style="solid",fontname="Helvetica"];
  Node40 [label="wx/listctrl.h",height=0.2,width=0.4,color="grey75", fillcolor="white", style="filled"];
  Node39 -> Node38 [color="midnightblue",fontsize="10",style="solid",fontname="Helvetica"];
  Node39 -> Node41 [color="midnightblue",fontsize="10",style="solid",fontname="Helvetica"];
  Node41 [label="wx/choicebk.h",height=0.2,width=0.4,color="grey75", fillcolor="white", style="filled"];
  Node39 -> Node21 [color="midnightblue",fontsize="10",style="solid",fontname="Helvetica"];
  Node39 -> Node42 [color="midnightblue",fontsize="10",style="solid",fontname="Helvetica"];
  Node42 [label="boost/function.hpp",height=0.2,width=0.4,color="grey75", fillcolor="white", style="filled"];
  Node39 -> Node18 [color="midnightblue",fontsize="10",style="solid",fontname="Helvetica"];
  Node1 -> Node43 [color="midnightblue",fontsize="10",style="solid",fontname="Helvetica"];
  Node43 [label="coreCroppingProcessor.h",height=0.2,width=0.4,color="black", fillcolor="white", style="filled",URL="$coreCroppingProcessor_8h.html"];
  Node43 -> Node16 [color="midnightblue",fontsize="10",style="solid",fontname="Helvetica"];
  Node43 -> Node10 [color="midnightblue",fontsize="10",style="solid",fontname="Helvetica"];
  Node43 -> Node23 [color="midnightblue",fontsize="10",style="solid",fontname="Helvetica"];
  Node43 -> Node30 [color="midnightblue",fontsize="10",style="solid",fontname="Helvetica"];
  Node1 -> Node37 [color="midnightblue",fontsize="10",style="solid",fontname="Helvetica"];
  Node1 -> Node38 [color="midnightblue",fontsize="10",style="solid",fontname="Helvetica"];
  Node1 -> Node44 [color="midnightblue",fontsize="10",style="solid",fontname="Helvetica"];
  Node44 [label="coreProcessingWidget.h",height=0.2,width=0.4,color="black", fillcolor="white", style="filled",URL="$coreProcessingWidget_8h.html"];
  Node44 -> Node37 [color="midnightblue",fontsize="10",style="solid",fontname="Helvetica"];
  Node44 -> Node45 [color="midnightblue",fontsize="10",style="solid",fontname="Helvetica"];
  Node45 [label="wx/image.h",height=0.2,width=0.4,color="grey75", fillcolor="white", style="filled"];
  Node44 -> Node16 [color="midnightblue",fontsize="10",style="solid",fontname="Helvetica"];
  Node44 -> Node6 [color="midnightblue",fontsize="10",style="solid",fontname="Helvetica"];
  Node44 -> Node46 [color="midnightblue",fontsize="10",style="solid",fontname="Helvetica"];
  Node46 [label="coreDataEntityListBrowser.h",height=0.2,width=0.4,color="red", fillcolor="white", style="filled",URL="$coreDataEntityListBrowser_8h.html"];
  Node46 -> Node28 [color="midnightblue",fontsize="10",style="solid",fontname="Helvetica"];
  Node46 -> Node8 [color="midnightblue",fontsize="10",style="solid",fontname="Helvetica"];
  Node46 -> Node17 [color="midnightblue",fontsize="10",style="solid",fontname="Helvetica"];
  Node46 -> Node12 [color="midnightblue",fontsize="10",style="solid",fontname="Helvetica"];
  Node46 -> Node6 [color="midnightblue",fontsize="10",style="solid",fontname="Helvetica"];
  Node46 -> Node29 [color="midnightblue",fontsize="10",style="solid",fontname="Helvetica"];
  Node44 -> Node32 [color="midnightblue",fontsize="10",style="solid",fontname="Helvetica"];
  Node44 -> Node35 [color="midnightblue",fontsize="10",style="solid",fontname="Helvetica"];
  Node44 -> Node47 [color="midnightblue",fontsize="10",style="solid",fontname="Helvetica"];
  Node47 [label="coreProcessorOutputsObserver\lBuilder.h",height=0.2,width=0.4,color="black", fillcolor="white", style="filled",URL="$coreProcessorOutputsObserverBuilder_8h.html"];
  Node47 -> Node7 [color="midnightblue",fontsize="10",style="solid",fontname="Helvetica"];
  Node47 -> Node30 [color="midnightblue",fontsize="10",style="solid",fontname="Helvetica"];
  Node47 -> Node35 [color="midnightblue",fontsize="10",style="solid",fontname="Helvetica"];
  Node47 -> Node10 [color="midnightblue",fontsize="10",style="solid",fontname="Helvetica"];
  Node47 -> Node6 [color="midnightblue",fontsize="10",style="solid",fontname="Helvetica"];
  Node47 -> Node8 [color="midnightblue",fontsize="10",style="solid",fontname="Helvetica"];
  Node44 -> Node48 [color="midnightblue",fontsize="10",style="solid",fontname="Helvetica"];
  Node48 [label="coreUserHelperWidget.h",height=0.2,width=0.4,color="red", fillcolor="white", style="filled",URL="$coreUserHelperWidget_8h.html"];
  Node48 -> Node28 [color="midnightblue",fontsize="10",style="solid",fontname="Helvetica"];
  Node48 -> Node29 [color="midnightblue",fontsize="10",style="solid",fontname="Helvetica"];
  Node44 -> Node29 [color="midnightblue",fontsize="10",style="solid",fontname="Helvetica"];
  Node44 -> Node27 [color="midnightblue",fontsize="10",style="solid",fontname="Helvetica"];
  Node44 -> Node49 [color="midnightblue",fontsize="10",style="solid",fontname="Helvetica"];
  Node49 [label="coreSelectionToolboxWidget.h",height=0.2,width=0.4,color="red", fillcolor="white", style="filled",URL="$coreSelectionToolboxWidget_8h.html"];
  Node49 -> Node29 [color="midnightblue",fontsize="10",style="solid",fontname="Helvetica"];
  Node49 -> Node27 [color="midnightblue",fontsize="10",style="solid",fontname="Helvetica"];
  Node44 -> Node50 [color="midnightblue",fontsize="10",style="solid",fontname="Helvetica"];
  Node50 [label="corePluginTabFactory.h",height=0.2,width=0.4,color="red", fillcolor="white", style="filled",URL="$corePluginTabFactory_8h.html"];
  Node50 -> Node8 [color="midnightblue",fontsize="10",style="solid",fontname="Helvetica"];
}
