digraph "Apps/Plugins/SignalViewerPlugin/widgets/SignalTimePropagationPanelWidget/ptSignalTimePropagationPanelWidget.h"
{
  edge [fontname="Helvetica",fontsize="10",labelfontname="Helvetica",labelfontsize="10"];
  node [fontname="Helvetica",fontsize="10",shape=record];
  Node1 [label="Apps/Plugins/SignalViewer\lPlugin/widgets/SignalTimePropagation\lPanelWidget/ptSignalTimePropagationPanel\lWidget.h",height=0.2,width=0.4,color="black", fillcolor="grey75", style="filled", fontcolor="black"];
  Node1 -> Node2 [color="midnightblue",fontsize="10",style="solid",fontname="Helvetica"];
  Node2 [label="wx/wx.h",height=0.2,width=0.4,color="grey75", fillcolor="white", style="filled"];
  Node1 -> Node3 [color="midnightblue",fontsize="10",style="solid",fontname="Helvetica"];
  Node3 [label="wx/image.h",height=0.2,width=0.4,color="grey75", fillcolor="white", style="filled"];
  Node1 -> Node4 [color="midnightblue",fontsize="10",style="solid",fontname="Helvetica"];
  Node4 [label="corePluginMacros.h",height=0.2,width=0.4,color="black", fillcolor="white", style="filled",URL="$corePluginMacros_8h.html"];
  Node1 -> Node5 [color="midnightblue",fontsize="10",style="solid",fontname="Helvetica"];
  Node5 [label="coreProcessingWidget.h",height=0.2,width=0.4,color="black", fillcolor="white", style="filled",URL="$coreProcessingWidget_8h.html"];
  Node5 -> Node2 [color="midnightblue",fontsize="10",style="solid",fontname="Helvetica"];
  Node5 -> Node3 [color="midnightblue",fontsize="10",style="solid",fontname="Helvetica"];
  Node5 -> Node6 [color="midnightblue",fontsize="10",style="solid",fontname="Helvetica"];
  Node6 [label="coreDataEntityHolder.h",height=0.2,width=0.4,color="black", fillcolor="white", style="filled",URL="$coreDataEntityHolder_8h.html"];
  Node6 -> Node7 [color="midnightblue",fontsize="10",style="solid",fontname="Helvetica"];
  Node7 [label="gmDataHandlingWin32Header.h",height=0.2,width=0.4,color="grey75", fillcolor="white", style="filled"];
  Node6 -> Node8 [color="midnightblue",fontsize="10",style="solid",fontname="Helvetica"];
  Node8 [label="coreDataEntity.h",height=0.2,width=0.4,color="red", fillcolor="white", style="filled",URL="$coreDataEntity_8h.html"];
  Node8 -> Node7 [color="midnightblue",fontsize="10",style="solid",fontname="Helvetica"];
  Node8 -> Node9 [color="midnightblue",fontsize="10",style="solid",fontname="Helvetica"];
  Node9 [label="coreObject.h",height=0.2,width=0.4,color="red", fillcolor="white", style="filled",URL="$coreObject_8h.html"];
  Node9 -> Node10 [color="midnightblue",fontsize="10",style="solid",fontname="Helvetica"];
  Node10 [label="coreCommonMacros.h",height=0.2,width=0.4,color="black", fillcolor="white", style="filled",URL="$coreCommonMacros_8h.html"];
  Node9 -> Node11 [color="midnightblue",fontsize="10",style="solid",fontname="Helvetica"];
  Node11 [label="coreSmartPointerMacros.h",height=0.2,width=0.4,color="black", fillcolor="white", style="filled",URL="$coreSmartPointerMacros_8h.html"];
  Node11 -> Node10 [color="midnightblue",fontsize="10",style="solid",fontname="Helvetica"];
  Node11 -> Node12 [color="midnightblue",fontsize="10",style="solid",fontname="Helvetica"];
  Node12 [label="itkSmartPointer.h",height=0.2,width=0.4,color="grey75", fillcolor="white", style="filled"];
  Node9 -> Node13 [color="midnightblue",fontsize="10",style="solid",fontname="Helvetica"];
  Node13 [label="blTagMap.h",height=0.2,width=0.4,color="red", fillcolor="white", style="filled",URL="$blTagMap_8h.html"];
  Node13 -> Node14 [color="midnightblue",fontsize="10",style="solid",fontname="Helvetica"];
  Node14 [label="boost/signals.hpp",height=0.2,width=0.4,color="grey75", fillcolor="white", style="filled"];
  Node13 -> Node15 [color="midnightblue",fontsize="10",style="solid",fontname="Helvetica"];
  Node15 [label="string",height=0.2,width=0.4,color="grey75", fillcolor="white", style="filled"];
  Node13 -> Node16 [color="midnightblue",fontsize="10",style="solid",fontname="Helvetica"];
  Node16 [label="map",height=0.2,width=0.4,color="grey75", fillcolor="white", style="filled"];
  Node9 -> Node14 [color="midnightblue",fontsize="10",style="solid",fontname="Helvetica"];
  Node8 -> Node15 [color="midnightblue",fontsize="10",style="solid",fontname="Helvetica"];
  Node8 -> Node14 [color="midnightblue",fontsize="10",style="solid",fontname="Helvetica"];
  Node8 -> Node6 [color="midnightblue",fontsize="10",style="solid",fontname="Helvetica"];
  Node6 -> Node17 [color="midnightblue",fontsize="10",style="solid",fontname="Helvetica"];
  Node17 [label="coreDataHolder.h",height=0.2,width=0.4,color="red", fillcolor="white", style="filled",URL="$coreDataHolder_8h.html"];
  Node17 -> Node14 [color="midnightblue",fontsize="10",style="solid",fontname="Helvetica"];
  Node17 -> Node17 [color="midnightblue",fontsize="10",style="solid",fontname="Helvetica"];
  Node5 -> Node18 [color="midnightblue",fontsize="10",style="solid",fontname="Helvetica"];
  Node18 [label="coreRenderingTree.h",height=0.2,width=0.4,color="black", fillcolor="white", style="filled",URL="$coreRenderingTree_8h.html"];
  Node18 -> Node19 [color="midnightblue",fontsize="10",style="solid",fontname="Helvetica"];
  Node19 [label="gmKernelWin32Header.h",height=0.2,width=0.4,color="grey75", fillcolor="white", style="filled"];
  Node18 -> Node9 [color="midnightblue",fontsize="10",style="solid",fontname="Helvetica"];
  Node18 -> Node8 [color="midnightblue",fontsize="10",style="solid",fontname="Helvetica"];
  Node18 -> Node14 [color="midnightblue",fontsize="10",style="solid",fontname="Helvetica"];
  Node18 -> Node16 [color="midnightblue",fontsize="10",style="solid",fontname="Helvetica"];
  Node18 -> Node20 [color="midnightblue",fontsize="10",style="solid",fontname="Helvetica"];
  Node20 [label="coreRenderingTree.txx",height=0.2,width=0.4,color="grey75", fillcolor="white", style="filled"];
  Node5 -> Node21 [color="midnightblue",fontsize="10",style="solid",fontname="Helvetica"];
  Node21 [label="coreDataEntityListBrowser.h",height=0.2,width=0.4,color="black", fillcolor="white", style="filled",URL="$coreDataEntityListBrowser_8h.html"];
  Node21 -> Node22 [color="midnightblue",fontsize="10",style="solid",fontname="Helvetica"];
  Node22 [label="gmWidgetsWin32Header.h",height=0.2,width=0.4,color="grey75", fillcolor="white", style="filled"];
  Node21 -> Node9 [color="midnightblue",fontsize="10",style="solid",fontname="Helvetica"];
  Node21 -> Node23 [color="midnightblue",fontsize="10",style="solid",fontname="Helvetica"];
  Node23 [label="coreDataEntityList.h",height=0.2,width=0.4,color="red", fillcolor="white", style="filled",URL="$coreDataEntityList_8h.html"];
  Node23 -> Node19 [color="midnightblue",fontsize="10",style="solid",fontname="Helvetica"];
  Node23 -> Node9 [color="midnightblue",fontsize="10",style="solid",fontname="Helvetica"];
  Node23 -> Node8 [color="midnightblue",fontsize="10",style="solid",fontname="Helvetica"];
  Node23 -> Node6 [color="midnightblue",fontsize="10",style="solid",fontname="Helvetica"];
  Node23 -> Node14 [color="midnightblue",fontsize="10",style="solid",fontname="Helvetica"];
  Node23 -> Node16 [color="midnightblue",fontsize="10",style="solid",fontname="Helvetica"];
  Node21 -> Node17 [color="midnightblue",fontsize="10",style="solid",fontname="Helvetica"];
  Node21 -> Node14 [color="midnightblue",fontsize="10",style="solid",fontname="Helvetica"];
  Node21 -> Node18 [color="midnightblue",fontsize="10",style="solid",fontname="Helvetica"];
  Node21 -> Node24 [color="midnightblue",fontsize="10",style="solid",fontname="Helvetica"];
  Node24 [label="coreBaseWindow.h",height=0.2,width=0.4,color="black", fillcolor="white", style="filled",URL="$coreBaseWindow_8h.html"];
  Node24 -> Node19 [color="midnightblue",fontsize="10",style="solid",fontname="Helvetica"];
  Node24 -> Node18 [color="midnightblue",fontsize="10",style="solid",fontname="Helvetica"];
  Node24 -> Node25 [color="midnightblue",fontsize="10",style="solid",fontname="Helvetica"];
  Node25 [label="coreBaseProcessor.h",height=0.2,width=0.4,color="red", fillcolor="white", style="filled",URL="$coreBaseProcessor_8h.html"];
  Node25 -> Node26 [color="midnightblue",fontsize="10",style="solid",fontname="Helvetica"];
  Node26 [label="gmFilteringWin32Header.h",height=0.2,width=0.4,color="grey75", fillcolor="white", style="filled"];
  Node25 -> Node9 [color="midnightblue",fontsize="10",style="solid",fontname="Helvetica"];
  Node25 -> Node17 [color="midnightblue",fontsize="10",style="solid",fontname="Helvetica"];
  Node25 -> Node8 [color="midnightblue",fontsize="10",style="solid",fontname="Helvetica"];
  Node25 -> Node27 [color="midnightblue",fontsize="10",style="solid",fontname="Helvetica"];
  Node27 [label="coreBaseFilter.h",height=0.2,width=0.4,color="black", fillcolor="white", style="filled",URL="$coreBaseFilter_8h.html"];
  Node27 -> Node9 [color="midnightblue",fontsize="10",style="solid",fontname="Helvetica"];
  Node27 -> Node17 [color="midnightblue",fontsize="10",style="solid",fontname="Helvetica"];
  Node27 -> Node8 [color="midnightblue",fontsize="10",style="solid",fontname="Helvetica"];
  Node27 -> Node28 [color="midnightblue",fontsize="10",style="solid",fontname="Helvetica"];
  Node28 [label="coreBaseFilterInputPort.h",height=0.2,width=0.4,color="red", fillcolor="white", style="filled",URL="$coreBaseFilterInputPort_8h.html"];
  Node28 -> Node9 [color="midnightblue",fontsize="10",style="solid",fontname="Helvetica"];
  Node27 -> Node29 [color="midnightblue",fontsize="10",style="solid",fontname="Helvetica"];
  Node29 [label="coreBaseFilterOutputPort.h",height=0.2,width=0.4,color="red", fillcolor="white", style="filled",URL="$coreBaseFilterOutputPort_8h.html"];
  Node29 -> Node9 [color="midnightblue",fontsize="10",style="solid",fontname="Helvetica"];
  Node29 -> Node13 [color="midnightblue",fontsize="10",style="solid",fontname="Helvetica"];
  Node27 -> Node30 [color="midnightblue",fontsize="10",style="solid",fontname="Helvetica"];
  Node30 [label="coreUpdateCallback.h",height=0.2,width=0.4,color="black", fillcolor="white", style="filled",URL="$coreUpdateCallback_8h.html"];
  Node30 -> Node26 [color="midnightblue",fontsize="10",style="solid",fontname="Helvetica"];
  Node30 -> Node9 [color="midnightblue",fontsize="10",style="solid",fontname="Helvetica"];
  Node27 -> Node31 [color="midnightblue",fontsize="10",style="solid",fontname="Helvetica"];
  Node31 [label="coreBaseFilter.txx",height=0.2,width=0.4,color="grey75", fillcolor="white", style="filled"];
  Node25 -> Node32 [color="midnightblue",fontsize="10",style="solid",fontname="Helvetica"];
  Node32 [label="ModuleDescription.h",height=0.2,width=0.4,color="grey75", fillcolor="white", style="filled"];
  Node24 -> Node33 [color="midnightblue",fontsize="10",style="solid",fontname="Helvetica"];
  Node33 [label="coreProcessorOutputObserver.h",height=0.2,width=0.4,color="black", fillcolor="white", style="filled",URL="$coreProcessorOutputObserver_8h.html"];
  Node33 -> Node19 [color="midnightblue",fontsize="10",style="solid",fontname="Helvetica"];
  Node33 -> Node9 [color="midnightblue",fontsize="10",style="solid",fontname="Helvetica"];
  Node33 -> Node18 [color="midnightblue",fontsize="10",style="solid",fontname="Helvetica"];
  Node24 -> Node34 [color="midnightblue",fontsize="10",style="solid",fontname="Helvetica"];
  Node34 [label="coreCommonDataTypes.h",height=0.2,width=0.4,color="black", fillcolor="white", style="filled",URL="$coreCommonDataTypes_8h.html"];
  Node34 -> Node17 [color="midnightblue",fontsize="10",style="solid",fontname="Helvetica"];
  Node24 -> Node35 [color="midnightblue",fontsize="10",style="solid",fontname="Helvetica"];
  Node35 [label="coreRenderingTreeManager.h",height=0.2,width=0.4,color="black", fillcolor="white", style="filled",URL="$coreRenderingTreeManager_8h.html"];
  Node35 -> Node19 [color="midnightblue",fontsize="10",style="solid",fontname="Helvetica"];
  Node35 -> Node9 [color="midnightblue",fontsize="10",style="solid",fontname="Helvetica"];
  Node35 -> Node8 [color="midnightblue",fontsize="10",style="solid",fontname="Helvetica"];
  Node35 -> Node18 [color="midnightblue",fontsize="10",style="solid",fontname="Helvetica"];
  Node24 -> Node36 [color="midnightblue",fontsize="10",style="solid",fontname="Helvetica"];
  Node36 [label="coreBaseWindowFactory.h",height=0.2,width=0.4,color="red", fillcolor="white", style="filled",URL="$coreBaseWindowFactory_8h.html"];
  Node36 -> Node9 [color="midnightblue",fontsize="10",style="solid",fontname="Helvetica"];
  Node36 -> Node24 [color="midnightblue",fontsize="10",style="solid",fontname="Helvetica"];
  Node36 -> Node37 [color="midnightblue",fontsize="10",style="solid",fontname="Helvetica"];
  Node37 [label="coreWindowConfig.h",height=0.2,width=0.4,color="black", fillcolor="white", style="filled",URL="$coreWindowConfig_8h.html"];
  Node37 -> Node15 [color="midnightblue",fontsize="10",style="solid",fontname="Helvetica"];
  Node37 -> Node19 [color="midnightblue",fontsize="10",style="solid",fontname="Helvetica"];
  Node36 -> Node32 [color="midnightblue",fontsize="10",style="solid",fontname="Helvetica"];
  Node24 -> Node13 [color="midnightblue",fontsize="10",style="solid",fontname="Helvetica"];
  Node24 -> Node37 [color="midnightblue",fontsize="10",style="solid",fontname="Helvetica"];
  Node21 -> Node38 [color="midnightblue",fontsize="10",style="solid",fontname="Helvetica"];
  Node38 [label="wx/treebase.h",height=0.2,width=0.4,color="grey75", fillcolor="white", style="filled"];
  Node21 -> Node39 [color="midnightblue",fontsize="10",style="solid",fontname="Helvetica"];
  Node39 [label="wx/panel.h",height=0.2,width=0.4,color="grey75", fillcolor="white", style="filled"];
  Node21 -> Node40 [color="midnightblue",fontsize="10",style="solid",fontname="Helvetica"];
  Node40 [label="wxID.h",height=0.2,width=0.4,color="red", fillcolor="white", style="filled",URL="$wxID_8h.html"];
  Node40 -> Node15 [color="midnightblue",fontsize="10",style="solid",fontname="Helvetica"];
  Node5 -> Node27 [color="midnightblue",fontsize="10",style="solid",fontname="Helvetica"];
  Node5 -> Node33 [color="midnightblue",fontsize="10",style="solid",fontname="Helvetica"];
  Node5 -> Node41 [color="midnightblue",fontsize="10",style="solid",fontname="Helvetica"];
  Node41 [label="coreProcessorOutputsObserver\lBuilder.h",height=0.2,width=0.4,color="black", fillcolor="white", style="filled",URL="$coreProcessorOutputsObserverBuilder_8h.html"];
  Node41 -> Node19 [color="midnightblue",fontsize="10",style="solid",fontname="Helvetica"];
  Node41 -> Node25 [color="midnightblue",fontsize="10",style="solid",fontname="Helvetica"];
  Node41 -> Node33 [color="midnightblue",fontsize="10",style="solid",fontname="Helvetica"];
  Node41 -> Node11 [color="midnightblue",fontsize="10",style="solid",fontname="Helvetica"];
  Node41 -> Node18 [color="midnightblue",fontsize="10",style="solid",fontname="Helvetica"];
  Node41 -> Node9 [color="midnightblue",fontsize="10",style="solid",fontname="Helvetica"];
  Node5 -> Node42 [color="midnightblue",fontsize="10",style="solid",fontname="Helvetica"];
  Node42 [label="coreUserHelperWidget.h",height=0.2,width=0.4,color="black", fillcolor="white", style="filled",URL="$coreUserHelperWidget_8h.html"];
  Node42 -> Node22 [color="midnightblue",fontsize="10",style="solid",fontname="Helvetica"];
  Node42 -> Node39 [color="midnightblue",fontsize="10",style="solid",fontname="Helvetica"];
  Node42 -> Node15 [color="midnightblue",fontsize="10",style="solid",fontname="Helvetica"];
  Node42 -> Node43 [color="midnightblue",fontsize="10",style="solid",fontname="Helvetica"];
  Node43 [label="coreUserHelperWidgetUI.h",height=0.2,width=0.4,color="black", fillcolor="white", style="filled",URL="$coreUserHelperWidgetUI_8h.html"];
  Node43 -> Node2 [color="midnightblue",fontsize="10",style="solid",fontname="Helvetica"];
  Node43 -> Node3 [color="midnightblue",fontsize="10",style="solid",fontname="Helvetica"];
  Node42 -> Node24 [color="midnightblue",fontsize="10",style="solid",fontname="Helvetica"];
  Node42 -> Node40 [color="midnightblue",fontsize="10",style="solid",fontname="Helvetica"];
  Node5 -> Node24 [color="midnightblue",fontsize="10",style="solid",fontname="Helvetica"];
  Node5 -> Node44 [color="midnightblue",fontsize="10",style="solid",fontname="Helvetica"];
  Node44 [label="coreSelectionToolWidget.h",height=0.2,width=0.4,color="black", fillcolor="white", style="filled",URL="$coreSelectionToolWidget_8h.html"];
  Node44 -> Node22 [color="midnightblue",fontsize="10",style="solid",fontname="Helvetica"];
  Node44 -> Node24 [color="midnightblue",fontsize="10",style="solid",fontname="Helvetica"];
  Node5 -> Node45 [color="midnightblue",fontsize="10",style="solid",fontname="Helvetica"];
  Node45 [label="coreSelectionToolboxWidget.h",height=0.2,width=0.4,color="black", fillcolor="white", style="filled",URL="$coreSelectionToolboxWidget_8h.html"];
  Node45 -> Node24 [color="midnightblue",fontsize="10",style="solid",fontname="Helvetica"];
  Node45 -> Node44 [color="midnightblue",fontsize="10",style="solid",fontname="Helvetica"];
  Node45 -> Node46 [color="midnightblue",fontsize="10",style="solid",fontname="Helvetica"];
  Node46 [label="coreBaseToolboxWidget.h",height=0.2,width=0.4,color="black", fillcolor="white", style="filled",URL="$coreBaseToolboxWidget_8h.html"];
  Node46 -> Node24 [color="midnightblue",fontsize="10",style="solid",fontname="Helvetica"];
  Node5 -> Node47 [color="midnightblue",fontsize="10",style="solid",fontname="Helvetica"];
  Node47 [label="corePluginTabFactory.h",height=0.2,width=0.4,color="black", fillcolor="white", style="filled",URL="$corePluginTabFactory_8h.html"];
  Node47 -> Node48 [color="midnightblue",fontsize="10",style="solid",fontname="Helvetica"];
  Node48 [label="corePluginTab.h",height=0.2,width=0.4,color="red", fillcolor="white", style="filled",URL="$corePluginTab_8h.html"];
  Node48 -> Node9 [color="midnightblue",fontsize="10",style="solid",fontname="Helvetica"];
  Node48 -> Node23 [color="midnightblue",fontsize="10",style="solid",fontname="Helvetica"];
  Node48 -> Node35 [color="midnightblue",fontsize="10",style="solid",fontname="Helvetica"];
  Node48 -> Node17 [color="midnightblue",fontsize="10",style="solid",fontname="Helvetica"];
  Node48 -> Node8 [color="midnightblue",fontsize="10",style="solid",fontname="Helvetica"];
  Node48 -> Node24 [color="midnightblue",fontsize="10",style="solid",fontname="Helvetica"];
  Node48 -> Node37 [color="midnightblue",fontsize="10",style="solid",fontname="Helvetica"];
  Node48 -> Node39 [color="midnightblue",fontsize="10",style="solid",fontname="Helvetica"];
  Node47 -> Node9 [color="midnightblue",fontsize="10",style="solid",fontname="Helvetica"];
  Node1 -> Node49 [color="midnightblue",fontsize="10",style="solid",fontname="Helvetica"];
  Node49 [label="coreSignalTimePropagation\lProcessor.h",height=0.2,width=0.4,color="black", fillcolor="white", style="filled",URL="$coreSignalTimePropagationProcessor_8h.html"];
  Node49 -> Node4 [color="midnightblue",fontsize="10",style="solid",fontname="Helvetica"];
  Node49 -> Node6 [color="midnightblue",fontsize="10",style="solid",fontname="Helvetica"];
  Node49 -> Node11 [color="midnightblue",fontsize="10",style="solid",fontname="Helvetica"];
  Node49 -> Node27 [color="midnightblue",fontsize="10",style="solid",fontname="Helvetica"];
  Node49 -> Node25 [color="midnightblue",fontsize="10",style="solid",fontname="Helvetica"];
  Node1 -> Node50 [color="midnightblue",fontsize="10",style="solid",fontname="Helvetica"];
  Node50 [label="ptSignalTimePropagationPanel\lWidgetUI.h",height=0.2,width=0.4,color="black", fillcolor="white", style="filled",URL="$ptSignalTimePropagationPanelWidgetUI_8h.html"];
  Node50 -> Node2 [color="midnightblue",fontsize="10",style="solid",fontname="Helvetica"];
  Node50 -> Node3 [color="midnightblue",fontsize="10",style="solid",fontname="Helvetica"];
  Node50 -> Node40 [color="midnightblue",fontsize="10",style="solid",fontname="Helvetica"];
}
