digraph "Modules/DcmAPI/tests/dcmAPI/Read4DDataTest.h"
{
  edge [fontname="Helvetica",fontsize="10",labelfontname="Helvetica",labelfontsize="10"];
  node [fontname="Helvetica",fontsize="10",shape=record];
  Node1 [label="Modules/DcmAPI/tests\l/dcmAPI/Read4DDataTest.h",height=0.2,width=0.4,color="black", fillcolor="grey75", style="filled", fontcolor="black"];
  Node1 -> Node2 [color="midnightblue",fontsize="10",style="solid",fontname="Helvetica"];
  Node2 [label="cxxtest/TestSuite.h",height=0.2,width=0.4,color="grey75", fillcolor="white", style="filled"];
  Node1 -> Node3 [color="midnightblue",fontsize="10",style="solid",fontname="Helvetica"];
  Node3 [label="dcmDataSet.h",height=0.2,width=0.4,color="black", fillcolor="white", style="filled",URL="$dcmDataSet_8h.html"];
  Node3 -> Node4 [color="midnightblue",fontsize="10",style="solid",fontname="Helvetica"];
  Node4 [label="dcmAPIDataWin32Header.h",height=0.2,width=0.4,color="grey75", fillcolor="white", style="filled"];
  Node3 -> Node5 [color="midnightblue",fontsize="10",style="solid",fontname="Helvetica"];
  Node5 [label="string",height=0.2,width=0.4,color="grey75", fillcolor="white", style="filled"];
  Node3 -> Node6 [color="midnightblue",fontsize="10",style="solid",fontname="Helvetica"];
  Node6 [label="vector",height=0.2,width=0.4,color="grey75", fillcolor="white", style="filled"];
  Node3 -> Node7 [color="midnightblue",fontsize="10",style="solid",fontname="Helvetica"];
  Node7 [label="map",height=0.2,width=0.4,color="grey75", fillcolor="white", style="filled"];
  Node3 -> Node8 [color="midnightblue",fontsize="10",style="solid",fontname="Helvetica"];
  Node8 [label="boost/foreach.hpp",height=0.2,width=0.4,color="grey75", fillcolor="white", style="filled"];
  Node3 -> Node9 [color="midnightblue",fontsize="10",style="solid",fontname="Helvetica"];
  Node9 [label="dcmSeries.h",height=0.2,width=0.4,color="black", fillcolor="white", style="filled",URL="$dcmSeries_8h.html"];
  Node9 -> Node4 [color="midnightblue",fontsize="10",style="solid",fontname="Helvetica"];
  Node9 -> Node5 [color="midnightblue",fontsize="10",style="solid",fontname="Helvetica"];
  Node9 -> Node6 [color="midnightblue",fontsize="10",style="solid",fontname="Helvetica"];
  Node9 -> Node10 [color="midnightblue",fontsize="10",style="solid",fontname="Helvetica"];
  Node10 [label="dcmTimePoint.h",height=0.2,width=0.4,color="black", fillcolor="white", style="filled",URL="$dcmTimePoint_8h.html"];
  Node10 -> Node4 [color="midnightblue",fontsize="10",style="solid",fontname="Helvetica"];
  Node10 -> Node5 [color="midnightblue",fontsize="10",style="solid",fontname="Helvetica"];
  Node10 -> Node6 [color="midnightblue",fontsize="10",style="solid",fontname="Helvetica"];
  Node10 -> Node11 [color="midnightblue",fontsize="10",style="solid",fontname="Helvetica"];
  Node11 [label="dcmBase.h",height=0.2,width=0.4,color="black", fillcolor="white", style="filled",URL="$dcmBase_8h.html"];
  Node11 -> Node4 [color="midnightblue",fontsize="10",style="solid",fontname="Helvetica"];
  Node11 -> Node12 [color="midnightblue",fontsize="10",style="solid",fontname="Helvetica"];
  Node12 [label="dcmTypes.h",height=0.2,width=0.4,color="black", fillcolor="white", style="filled",URL="$dcmTypes_8h.html"];
  Node12 -> Node13 [color="midnightblue",fontsize="10",style="solid",fontname="Helvetica"];
  Node13 [label="cstdio",height=0.2,width=0.4,color="grey75", fillcolor="white", style="filled"];
  Node12 -> Node6 [color="midnightblue",fontsize="10",style="solid",fontname="Helvetica"];
  Node12 -> Node14 [color="midnightblue",fontsize="10",style="solid",fontname="Helvetica"];
  Node14 [label="string.h",height=0.2,width=0.4,color="grey75", fillcolor="white", style="filled"];
  Node12 -> Node7 [color="midnightblue",fontsize="10",style="solid",fontname="Helvetica"];
  Node12 -> Node15 [color="midnightblue",fontsize="10",style="solid",fontname="Helvetica"];
  Node15 [label="exception",height=0.2,width=0.4,color="grey75", fillcolor="white", style="filled"];
  Node12 -> Node16 [color="midnightblue",fontsize="10",style="solid",fontname="Helvetica"];
  Node16 [label="boost/shared_ptr.hpp",height=0.2,width=0.4,color="grey75", fillcolor="white", style="filled"];
  Node12 -> Node17 [color="midnightblue",fontsize="10",style="solid",fontname="Helvetica"];
  Node17 [label="CILabBoostMacros.h",height=0.2,width=0.4,color="black", fillcolor="white", style="filled",URL="$CILabBoostMacros_8h.html"];
  Node17 -> Node18 [color="midnightblue",fontsize="10",style="solid",fontname="Helvetica"];
  Node18 [label="boost/format.hpp",height=0.2,width=0.4,color="grey75", fillcolor="white", style="filled"];
  Node12 -> Node4 [color="midnightblue",fontsize="10",style="solid",fontname="Helvetica"];
  Node11 -> Node5 [color="midnightblue",fontsize="10",style="solid",fontname="Helvetica"];
  Node11 -> Node6 [color="midnightblue",fontsize="10",style="solid",fontname="Helvetica"];
  Node10 -> Node12 [color="midnightblue",fontsize="10",style="solid",fontname="Helvetica"];
  Node10 -> Node19 [color="midnightblue",fontsize="10",style="solid",fontname="Helvetica"];
  Node19 [label="dcmSlice.h",height=0.2,width=0.4,color="black", fillcolor="white", style="filled",URL="$dcmSlice_8h.html"];
  Node19 -> Node4 [color="midnightblue",fontsize="10",style="solid",fontname="Helvetica"];
  Node19 -> Node12 [color="midnightblue",fontsize="10",style="solid",fontname="Helvetica"];
  Node19 -> Node11 [color="midnightblue",fontsize="10",style="solid",fontname="Helvetica"];
  Node9 -> Node12 [color="midnightblue",fontsize="10",style="solid",fontname="Helvetica"];
  Node9 -> Node11 [color="midnightblue",fontsize="10",style="solid",fontname="Helvetica"];
  Node3 -> Node20 [color="midnightblue",fontsize="10",style="solid",fontname="Helvetica"];
  Node20 [label="dcmPatient.h",height=0.2,width=0.4,color="black", fillcolor="white", style="filled",URL="$dcmPatient_8h.html"];
  Node20 -> Node4 [color="midnightblue",fontsize="10",style="solid",fontname="Helvetica"];
  Node20 -> Node5 [color="midnightblue",fontsize="10",style="solid",fontname="Helvetica"];
  Node20 -> Node6 [color="midnightblue",fontsize="10",style="solid",fontname="Helvetica"];
  Node20 -> Node12 [color="midnightblue",fontsize="10",style="solid",fontname="Helvetica"];
  Node20 -> Node11 [color="midnightblue",fontsize="10",style="solid",fontname="Helvetica"];
  Node20 -> Node21 [color="midnightblue",fontsize="10",style="solid",fontname="Helvetica"];
  Node21 [label="dcmStudy.h",height=0.2,width=0.4,color="black", fillcolor="white", style="filled",URL="$dcmStudy_8h.html"];
  Node21 -> Node4 [color="midnightblue",fontsize="10",style="solid",fontname="Helvetica"];
  Node21 -> Node5 [color="midnightblue",fontsize="10",style="solid",fontname="Helvetica"];
  Node21 -> Node6 [color="midnightblue",fontsize="10",style="solid",fontname="Helvetica"];
  Node21 -> Node12 [color="midnightblue",fontsize="10",style="solid",fontname="Helvetica"];
  Node21 -> Node9 [color="midnightblue",fontsize="10",style="solid",fontname="Helvetica"];
  Node3 -> Node12 [color="midnightblue",fontsize="10",style="solid",fontname="Helvetica"];
}
