digraph "Apps/Plugins/SandboxPlugin/processors/SandboxPluginShapeScaleProcessor.h"
{
  edge [fontname="Helvetica",fontsize="10",labelfontname="Helvetica",labelfontsize="10"];
  node [fontname="Helvetica",fontsize="10",shape=record];
  Node1 [label="Apps/Plugins/SandboxPlugin\l/processors/SandboxPluginShapeScale\lProcessor.h",height=0.2,width=0.4,color="black", fillcolor="grey75", style="filled", fontcolor="black"];
  Node1 -> Node2 [dir="back",color="midnightblue",fontsize="10",style="solid",fontname="Helvetica"];
  Node2 [label="Apps/Plugins/SandboxPlugin\l/processors/SandboxPluginShapeScale\lProcessor.cxx",height=0.2,width=0.4,color="black", fillcolor="white", style="filled",URL="$SandboxPluginShapeScaleProcessor_8cxx.html"];
  Node1 -> Node3 [dir="back",color="midnightblue",fontsize="10",style="solid",fontname="Helvetica"];
  Node3 [label="Apps/Plugins/SandboxPlugin\l/SandboxPluginProcessorCollective.h",height=0.2,width=0.4,color="black", fillcolor="white", style="filled",URL="$SandboxPluginProcessorCollective_8h.html"];
  Node3 -> Node4 [dir="back",color="midnightblue",fontsize="10",style="solid",fontname="Helvetica"];
  Node4 [label="Apps/Plugins/SandboxPlugin\l/SandboxPlugin.h",height=0.2,width=0.4,color="black", fillcolor="white", style="filled",URL="$SandboxPlugin_8h.html"];
  Node4 -> Node5 [dir="back",color="midnightblue",fontsize="10",style="solid",fontname="Helvetica"];
  Node5 [label="Apps/Plugins/SandboxPlugin\l/SandboxPlugin.cxx",height=0.2,width=0.4,color="black", fillcolor="white", style="filled",URL="$SandboxPlugin_8cxx.html"];
  Node3 -> Node6 [dir="back",color="midnightblue",fontsize="10",style="solid",fontname="Helvetica"];
  Node6 [label="Apps/Plugins/SandboxPlugin\l/SandboxPluginWidgetCollective.h",height=0.2,width=0.4,color="black", fillcolor="white", style="filled",URL="$SandboxPluginWidgetCollective_8h.html"];
  Node6 -> Node4 [dir="back",color="midnightblue",fontsize="10",style="solid",fontname="Helvetica"];
  Node6 -> Node7 [dir="back",color="midnightblue",fontsize="10",style="solid",fontname="Helvetica"];
  Node7 [label="Apps/Plugins/SandboxPlugin\l/SandboxPluginWidgetCollective.cxx",height=0.2,width=0.4,color="black", fillcolor="white", style="filled",URL="$SandboxPluginWidgetCollective_8cxx.html"];
  Node3 -> Node8 [dir="back",color="midnightblue",fontsize="10",style="solid",fontname="Helvetica"];
  Node8 [label="Apps/Plugins/SandboxPlugin\l/SandboxPluginProcessorCollective.cxx",height=0.2,width=0.4,color="black", fillcolor="white", style="filled",URL="$SandboxPluginProcessorCollective_8cxx.html"];
  Node1 -> Node9 [dir="back",color="midnightblue",fontsize="10",style="solid",fontname="Helvetica"];
  Node9 [label="Apps/Plugins/SandboxPlugin\l/widgets/SandboxPluginShapeScale\lPanelWidget/SandboxPluginShapeScalePanel\lWidget.h",height=0.2,width=0.4,color="black", fillcolor="white", style="filled",URL="$SandboxPluginShapeScalePanelWidget_8h.html"];
  Node9 -> Node7 [dir="back",color="midnightblue",fontsize="10",style="solid",fontname="Helvetica"];
  Node9 -> Node10 [dir="back",color="midnightblue",fontsize="10",style="solid",fontname="Helvetica"];
  Node10 [label="Apps/Plugins/SandboxPlugin\l/widgets/SandboxPluginShapeScale\lPanelWidget/SandboxPluginShapeScalePanel\lWidget.cpp",height=0.2,width=0.4,color="black", fillcolor="white", style="filled",URL="$SandboxPluginShapeScalePanelWidget_8cpp.html"];
}
