digraph "Apps/Plugins/SandboxPlugin/SandboxPluginWidgetCollective.h"
{
  edge [fontname="Helvetica",fontsize="10",labelfontname="Helvetica",labelfontsize="10"];
  node [fontname="Helvetica",fontsize="10",shape=record];
  Node1 [label="Apps/Plugins/SandboxPlugin\l/SandboxPluginWidgetCollective.h",height=0.2,width=0.4,color="black", fillcolor="grey75", style="filled", fontcolor="black"];
  Node1 -> Node2 [dir="back",color="midnightblue",fontsize="10",style="solid",fontname="Helvetica"];
  Node2 [label="Apps/Plugins/SandboxPlugin\l/SandboxPlugin.h",height=0.2,width=0.4,color="black", fillcolor="white", style="filled",URL="$SandboxPlugin_8h.html"];
  Node2 -> Node3 [dir="back",color="midnightblue",fontsize="10",style="solid",fontname="Helvetica"];
  Node3 [label="Apps/Plugins/SandboxPlugin\l/SandboxPlugin.cxx",height=0.2,width=0.4,color="black", fillcolor="white", style="filled",URL="$SandboxPlugin_8cxx.html"];
  Node1 -> Node4 [dir="back",color="midnightblue",fontsize="10",style="solid",fontname="Helvetica"];
  Node4 [label="Apps/Plugins/SandboxPlugin\l/SandboxPluginWidgetCollective.cxx",height=0.2,width=0.4,color="black", fillcolor="white", style="filled",URL="$SandboxPluginWidgetCollective_8cxx.html"];
}
