digraph "Apps/Plugins/GenericSegmentationPlugin/processors/SurfaceMeshToRoiProcessor.cxx"
{
  edge [fontname="Helvetica",fontsize="10",labelfontname="Helvetica",labelfontsize="10"];
  node [fontname="Helvetica",fontsize="10",shape=record];
  Node1 [label="Apps/Plugins/GenericSegmentation\lPlugin/processors/SurfaceMeshToRoi\lProcessor.cxx",height=0.2,width=0.4,color="black", fillcolor="grey75", style="filled", fontcolor="black"];
  Node1 -> Node2 [color="midnightblue",fontsize="10",style="solid",fontname="Helvetica"];
  Node2 [label="SurfaceMeshToRoiProcessor.h",height=0.2,width=0.4,color="black", fillcolor="white", style="filled",URL="$SurfaceMeshToRoiProcessor_8h.html"];
  Node2 -> Node3 [color="midnightblue",fontsize="10",style="solid",fontname="Helvetica"];
  Node3 [label="corePluginMacros.h",height=0.2,width=0.4,color="black", fillcolor="white", style="filled",URL="$corePluginMacros_8h.html"];
  Node2 -> Node4 [color="midnightblue",fontsize="10",style="solid",fontname="Helvetica"];
  Node4 [label="coreBaseProcessor.h",height=0.2,width=0.4,color="black", fillcolor="white", style="filled",URL="$coreBaseProcessor_8h.html"];
  Node4 -> Node5 [color="midnightblue",fontsize="10",style="solid",fontname="Helvetica"];
  Node5 [label="gmFilteringWin32Header.h",height=0.2,width=0.4,color="grey75", fillcolor="white", style="filled"];
  Node4 -> Node6 [color="midnightblue",fontsize="10",style="solid",fontname="Helvetica"];
  Node6 [label="coreObject.h",height=0.2,width=0.4,color="black", fillcolor="white", style="filled",URL="$coreObject_8h.html"];
  Node6 -> Node7 [color="midnightblue",fontsize="10",style="solid",fontname="Helvetica"];
  Node7 [label="gmCommonObjectsWin32Header.h",height=0.2,width=0.4,color="grey75", fillcolor="white", style="filled"];
  Node6 -> Node8 [color="midnightblue",fontsize="10",style="solid",fontname="Helvetica"];
  Node8 [label="coreCommonMacros.h",height=0.2,width=0.4,color="black", fillcolor="white", style="filled",URL="$coreCommonMacros_8h.html"];
  Node6 -> Node9 [color="midnightblue",fontsize="10",style="solid",fontname="Helvetica"];
  Node9 [label="coreSmartPointerMacros.h",height=0.2,width=0.4,color="black", fillcolor="white", style="filled",URL="$coreSmartPointerMacros_8h.html"];
  Node9 -> Node8 [color="midnightblue",fontsize="10",style="solid",fontname="Helvetica"];
  Node9 -> Node10 [color="midnightblue",fontsize="10",style="solid",fontname="Helvetica"];
  Node10 [label="itkSmartPointer.h",height=0.2,width=0.4,color="grey75", fillcolor="white", style="filled"];
  Node6 -> Node11 [color="midnightblue",fontsize="10",style="solid",fontname="Helvetica"];
  Node11 [label="blTagMap.h",height=0.2,width=0.4,color="red", fillcolor="white", style="filled",URL="$blTagMap_8h.html"];
  Node11 -> Node12 [color="midnightblue",fontsize="10",style="solid",fontname="Helvetica"];
  Node12 [label="blLightObject.h",height=0.2,width=0.4,color="red", fillcolor="white", style="filled",URL="$blLightObject_8h.html"];
  Node11 -> Node13 [color="midnightblue",fontsize="10",style="solid",fontname="Helvetica"];
  Node13 [label="blTag.h",height=0.2,width=0.4,color="black", fillcolor="white", style="filled",URL="$blTag_8h.html"];
  Node13 -> Node12 [color="midnightblue",fontsize="10",style="solid",fontname="Helvetica"];
  Node13 -> Node14 [color="midnightblue",fontsize="10",style="solid",fontname="Helvetica"];
  Node14 [label="CILabExceptionMacros.h",height=0.2,width=0.4,color="red", fillcolor="white", style="filled",URL="$CILabExceptionMacros_8h.html"];
  Node14 -> Node15 [color="midnightblue",fontsize="10",style="solid",fontname="Helvetica"];
  Node15 [label="string",height=0.2,width=0.4,color="grey75", fillcolor="white", style="filled"];
  Node13 -> Node16 [color="midnightblue",fontsize="10",style="solid",fontname="Helvetica"];
  Node16 [label="boost/any.hpp",height=0.2,width=0.4,color="grey75", fillcolor="white", style="filled"];
  Node13 -> Node15 [color="midnightblue",fontsize="10",style="solid",fontname="Helvetica"];
  Node11 -> Node14 [color="midnightblue",fontsize="10",style="solid",fontname="Helvetica"];
  Node11 -> Node17 [color="midnightblue",fontsize="10",style="solid",fontname="Helvetica"];
  Node17 [label="boost/signals.hpp",height=0.2,width=0.4,color="grey75", fillcolor="white", style="filled"];
  Node11 -> Node18 [color="midnightblue",fontsize="10",style="solid",fontname="Helvetica"];
  Node18 [label="boost/bind.hpp",height=0.2,width=0.4,color="grey75", fillcolor="white", style="filled"];
  Node11 -> Node15 [color="midnightblue",fontsize="10",style="solid",fontname="Helvetica"];
  Node6 -> Node19 [color="midnightblue",fontsize="10",style="solid",fontname="Helvetica"];
  Node19 [label="itkLightObject.h",height=0.2,width=0.4,color="grey75", fillcolor="white", style="filled"];
  Node6 -> Node20 [color="midnightblue",fontsize="10",style="solid",fontname="Helvetica"];
  Node20 [label="itkTimeStamp.h",height=0.2,width=0.4,color="grey75", fillcolor="white", style="filled"];
  Node6 -> Node17 [color="midnightblue",fontsize="10",style="solid",fontname="Helvetica"];
  Node6 -> Node18 [color="midnightblue",fontsize="10",style="solid",fontname="Helvetica"];
  Node4 -> Node21 [color="midnightblue",fontsize="10",style="solid",fontname="Helvetica"];
  Node21 [label="coreDataHolder.h",height=0.2,width=0.4,color="black", fillcolor="white", style="filled",URL="$coreDataHolder_8h.html"];
  Node21 -> Node7 [color="midnightblue",fontsize="10",style="solid",fontname="Helvetica"];
  Node21 -> Node22 [color="midnightblue",fontsize="10",style="solid",fontname="Helvetica"];
  Node22 [label="coreDataHolderBase.h",height=0.2,width=0.4,color="black", fillcolor="white", style="filled",URL="$coreDataHolderBase_8h.html"];
  Node22 -> Node7 [color="midnightblue",fontsize="10",style="solid",fontname="Helvetica"];
  Node22 -> Node6 [color="midnightblue",fontsize="10",style="solid",fontname="Helvetica"];
  Node22 -> Node18 [color="midnightblue",fontsize="10",style="solid",fontname="Helvetica"];
  Node22 -> Node17 [color="midnightblue",fontsize="10",style="solid",fontname="Helvetica"];
  Node21 -> Node18 [color="midnightblue",fontsize="10",style="solid",fontname="Helvetica"];
  Node21 -> Node17 [color="midnightblue",fontsize="10",style="solid",fontname="Helvetica"];
  Node21 -> Node23 [color="midnightblue",fontsize="10",style="solid",fontname="Helvetica"];
  Node23 [label="coreDataHolder.txx",height=0.2,width=0.4,color="grey75", fillcolor="white", style="filled"];
  Node21 -> Node21 [color="midnightblue",fontsize="10",style="solid",fontname="Helvetica"];
  Node21 -> Node24 [color="midnightblue",fontsize="10",style="solid",fontname="Helvetica"];
  Node24 [label="/home/el1mc/src/bitbucket\l/cistib/cilab-gimiax/src\l/Apps/Gimias/Core/CommonObjects\l/src/coreAssert.h",height=0.2,width=0.4,color="grey75", fillcolor="white", style="filled"];
  Node4 -> Node25 [color="midnightblue",fontsize="10",style="solid",fontname="Helvetica"];
  Node25 [label="coreDataEntity.h",height=0.2,width=0.4,color="black", fillcolor="white", style="filled",URL="$coreDataEntity_8h.html"];
  Node25 -> Node26 [color="midnightblue",fontsize="10",style="solid",fontname="Helvetica"];
  Node26 [label="gmDataHandlingWin32Header.h",height=0.2,width=0.4,color="grey75", fillcolor="white", style="filled"];
  Node25 -> Node6 [color="midnightblue",fontsize="10",style="solid",fontname="Helvetica"];
  Node25 -> Node27 [color="midnightblue",fontsize="10",style="solid",fontname="Helvetica"];
  Node27 [label="coreDataEntityMetadata.h",height=0.2,width=0.4,color="black", fillcolor="white", style="filled",URL="$coreDataEntityMetadata_8h.html"];
  Node27 -> Node26 [color="midnightblue",fontsize="10",style="solid",fontname="Helvetica"];
  Node27 -> Node6 [color="midnightblue",fontsize="10",style="solid",fontname="Helvetica"];
  Node27 -> Node11 [color="midnightblue",fontsize="10",style="solid",fontname="Helvetica"];
  Node25 -> Node28 [color="midnightblue",fontsize="10",style="solid",fontname="Helvetica"];
  Node28 [label="coreDataEntityImpl.h",height=0.2,width=0.4,color="red", fillcolor="white", style="filled",URL="$coreDataEntityImpl_8h.html"];
  Node28 -> Node26 [color="midnightblue",fontsize="10",style="solid",fontname="Helvetica"];
  Node28 -> Node6 [color="midnightblue",fontsize="10",style="solid",fontname="Helvetica"];
  Node28 -> Node15 [color="midnightblue",fontsize="10",style="solid",fontname="Helvetica"];
  Node28 -> Node29 [color="midnightblue",fontsize="10",style="solid",fontname="Helvetica"];
  Node29 [label="vector",height=0.2,width=0.4,color="grey75", fillcolor="white", style="filled"];
  Node28 -> Node16 [color="midnightblue",fontsize="10",style="solid",fontname="Helvetica"];
  Node28 -> Node11 [color="midnightblue",fontsize="10",style="solid",fontname="Helvetica"];
  Node25 -> Node30 [color="midnightblue",fontsize="10",style="solid",fontname="Helvetica"];
  Node30 [label="coreDataEntityImplFactory.h",height=0.2,width=0.4,color="red", fillcolor="white", style="filled",URL="$coreDataEntityImplFactory_8h.html"];
  Node30 -> Node26 [color="midnightblue",fontsize="10",style="solid",fontname="Helvetica"];
  Node30 -> Node6 [color="midnightblue",fontsize="10",style="solid",fontname="Helvetica"];
  Node30 -> Node15 [color="midnightblue",fontsize="10",style="solid",fontname="Helvetica"];
  Node30 -> Node31 [color="midnightblue",fontsize="10",style="solid",fontname="Helvetica"];
  Node31 [label="typeinfo",height=0.2,width=0.4,color="grey75", fillcolor="white", style="filled"];
  Node30 -> Node29 [color="midnightblue",fontsize="10",style="solid",fontname="Helvetica"];
  Node30 -> Node16 [color="midnightblue",fontsize="10",style="solid",fontname="Helvetica"];
  Node30 -> Node11 [color="midnightblue",fontsize="10",style="solid",fontname="Helvetica"];
  Node30 -> Node28 [color="midnightblue",fontsize="10",style="solid",fontname="Helvetica"];
  Node30 -> Node32 [color="midnightblue",fontsize="10",style="solid",fontname="Helvetica"];
  Node32 [label="coreDataEntityTypes.h",height=0.2,width=0.4,color="black", fillcolor="white", style="filled",URL="$coreDataEntityTypes_8h.html"];
  Node25 -> Node32 [color="midnightblue",fontsize="10",style="solid",fontname="Helvetica"];
  Node25 -> Node33 [color="midnightblue",fontsize="10",style="solid",fontname="Helvetica"];
  Node33 [label="coreDataEntityPreview.h",height=0.2,width=0.4,color="black", fillcolor="white", style="filled",URL="$coreDataEntityPreview_8h.html"];
  Node33 -> Node26 [color="midnightblue",fontsize="10",style="solid",fontname="Helvetica"];
  Node33 -> Node6 [color="midnightblue",fontsize="10",style="solid",fontname="Helvetica"];
  Node25 -> Node15 [color="midnightblue",fontsize="10",style="solid",fontname="Helvetica"];
  Node25 -> Node29 [color="midnightblue",fontsize="10",style="solid",fontname="Helvetica"];
  Node25 -> Node31 [color="midnightblue",fontsize="10",style="solid",fontname="Helvetica"];
  Node25 -> Node17 [color="midnightblue",fontsize="10",style="solid",fontname="Helvetica"];
  Node25 -> Node16 [color="midnightblue",fontsize="10",style="solid",fontname="Helvetica"];
  Node25 -> Node34 [color="midnightblue",fontsize="10",style="solid",fontname="Helvetica"];
  Node34 [label="coreDataEntity.txx",height=0.2,width=0.4,color="grey75", fillcolor="white", style="filled"];
  Node25 -> Node35 [color="midnightblue",fontsize="10",style="solid",fontname="Helvetica"];
  Node35 [label="coreDataEntityHolder.h",height=0.2,width=0.4,color="black", fillcolor="white", style="filled",URL="$coreDataEntityHolder_8h.html"];
  Node35 -> Node26 [color="midnightblue",fontsize="10",style="solid",fontname="Helvetica"];
  Node35 -> Node25 [color="midnightblue",fontsize="10",style="solid",fontname="Helvetica"];
  Node35 -> Node21 [color="midnightblue",fontsize="10",style="solid",fontname="Helvetica"];
  Node4 -> Node36 [color="midnightblue",fontsize="10",style="solid",fontname="Helvetica"];
  Node36 [label="coreBaseFilter.h",height=0.2,width=0.4,color="black", fillcolor="white", style="filled",URL="$coreBaseFilter_8h.html"];
  Node36 -> Node6 [color="midnightblue",fontsize="10",style="solid",fontname="Helvetica"];
  Node36 -> Node21 [color="midnightblue",fontsize="10",style="solid",fontname="Helvetica"];
  Node36 -> Node25 [color="midnightblue",fontsize="10",style="solid",fontname="Helvetica"];
  Node36 -> Node37 [color="midnightblue",fontsize="10",style="solid",fontname="Helvetica"];
  Node37 [label="coreBaseFilterInputPort.h",height=0.2,width=0.4,color="red", fillcolor="white", style="filled",URL="$coreBaseFilterInputPort_8h.html"];
  Node37 -> Node6 [color="midnightblue",fontsize="10",style="solid",fontname="Helvetica"];
  Node36 -> Node38 [color="midnightblue",fontsize="10",style="solid",fontname="Helvetica"];
  Node38 [label="coreBaseFilterOutputPort.h",height=0.2,width=0.4,color="red", fillcolor="white", style="filled",URL="$coreBaseFilterOutputPort_8h.html"];
  Node38 -> Node6 [color="midnightblue",fontsize="10",style="solid",fontname="Helvetica"];
  Node38 -> Node11 [color="midnightblue",fontsize="10",style="solid",fontname="Helvetica"];
  Node36 -> Node39 [color="midnightblue",fontsize="10",style="solid",fontname="Helvetica"];
  Node39 [label="coreUpdateCallback.h",height=0.2,width=0.4,color="black", fillcolor="white", style="filled",URL="$coreUpdateCallback_8h.html"];
  Node39 -> Node5 [color="midnightblue",fontsize="10",style="solid",fontname="Helvetica"];
  Node39 -> Node6 [color="midnightblue",fontsize="10",style="solid",fontname="Helvetica"];
  Node36 -> Node40 [color="midnightblue",fontsize="10",style="solid",fontname="Helvetica"];
  Node40 [label="coreBaseFilter.txx",height=0.2,width=0.4,color="grey75", fillcolor="white", style="filled"];
  Node4 -> Node41 [color="midnightblue",fontsize="10",style="solid",fontname="Helvetica"];
  Node41 [label="ModuleDescription.h",height=0.2,width=0.4,color="grey75", fillcolor="white", style="filled"];
  Node4 -> Node42 [color="midnightblue",fontsize="10",style="solid",fontname="Helvetica"];
  Node42 [label="coreBaseProcessor.txx",height=0.2,width=0.4,color="grey75", fillcolor="white", style="filled"];
  Node1 -> Node43 [color="midnightblue",fontsize="10",style="solid",fontname="Helvetica"];
  Node43 [label="vtkPolyDataToImageStencil.h",height=0.2,width=0.4,color="grey75", fillcolor="white", style="filled"];
  Node1 -> Node44 [color="midnightblue",fontsize="10",style="solid",fontname="Helvetica"];
  Node44 [label="vtkImageStencil.h",height=0.2,width=0.4,color="grey75", fillcolor="white", style="filled"];
  Node1 -> Node45 [color="midnightblue",fontsize="10",style="solid",fontname="Helvetica"];
  Node45 [label="vtkImageMathematics.h",height=0.2,width=0.4,color="grey75", fillcolor="white", style="filled"];
  Node1 -> Node46 [color="midnightblue",fontsize="10",style="solid",fontname="Helvetica"];
  Node46 [label="coreVTKImageDataHolder.h",height=0.2,width=0.4,color="black", fillcolor="white", style="filled",URL="$coreVTKImageDataHolder_8h.html"];
  Node46 -> Node3 [color="midnightblue",fontsize="10",style="solid",fontname="Helvetica"];
  Node46 -> Node21 [color="midnightblue",fontsize="10",style="solid",fontname="Helvetica"];
  Node46 -> Node47 [color="midnightblue",fontsize="10",style="solid",fontname="Helvetica"];
  Node47 [label="vtkImageData.h",height=0.2,width=0.4,color="grey75", fillcolor="white", style="filled"];
  Node46 -> Node48 [color="midnightblue",fontsize="10",style="solid",fontname="Helvetica"];
  Node48 [label="vtkSmartPointer.h",height=0.2,width=0.4,color="grey75", fillcolor="white", style="filled"];
  Node1 -> Node49 [color="midnightblue",fontsize="10",style="solid",fontname="Helvetica"];
  Node49 [label="coreVTKPolyDataHolder.h",height=0.2,width=0.4,color="black", fillcolor="white", style="filled",URL="$coreVTKPolyDataHolder_8h.html"];
  Node49 -> Node3 [color="midnightblue",fontsize="10",style="solid",fontname="Helvetica"];
  Node49 -> Node21 [color="midnightblue",fontsize="10",style="solid",fontname="Helvetica"];
  Node49 -> Node50 [color="midnightblue",fontsize="10",style="solid",fontname="Helvetica"];
  Node50 [label="vtkPolyData.h",height=0.2,width=0.4,color="grey75", fillcolor="white", style="filled"];
  Node49 -> Node48 [color="midnightblue",fontsize="10",style="solid",fontname="Helvetica"];
}
