digraph "Apps/Plugins/SignalViewerPlugin/widgets/PlotWidget/svConfigurationWidgetUI.h"
{
  edge [fontname="Helvetica",fontsize="10",labelfontname="Helvetica",labelfontsize="10"];
  node [fontname="Helvetica",fontsize="10",shape=record];
  Node1 [label="Apps/Plugins/SignalViewer\lPlugin/widgets/PlotWidget\l/svConfigurationWidgetUI.h",height=0.2,width=0.4,color="black", fillcolor="grey75", style="filled", fontcolor="black"];
  Node1 -> Node2 [color="midnightblue",fontsize="10",style="solid",fontname="Helvetica"];
  Node2 [label="wx/wx.h",height=0.2,width=0.4,color="grey75", fillcolor="white", style="filled"];
  Node1 -> Node3 [color="midnightblue",fontsize="10",style="solid",fontname="Helvetica"];
  Node3 [label="wx/image.h",height=0.2,width=0.4,color="grey75", fillcolor="white", style="filled"];
}
