digraph "Apps/Plugins/SignalViewerPlugin/svPluginProcessorCollective.cxx"
{
  edge [fontname="Helvetica",fontsize="10",labelfontname="Helvetica",labelfontsize="10"];
  node [fontname="Helvetica",fontsize="10",shape=record];
  Node1 [label="Apps/Plugins/SignalViewer\lPlugin/svPluginProcessorCollective.cxx",height=0.2,width=0.4,color="black", fillcolor="grey75", style="filled", fontcolor="black"];
  Node1 -> Node2 [color="midnightblue",fontsize="10",style="solid",fontname="Helvetica"];
  Node2 [label="svPluginProcessorCollective.h",height=0.2,width=0.4,color="black", fillcolor="white", style="filled",URL="$svPluginProcessorCollective_8h.html"];
  Node2 -> Node3 [color="midnightblue",fontsize="10",style="solid",fontname="Helvetica"];
  Node3 [label="coreSmartPointerMacros.h",height=0.2,width=0.4,color="black", fillcolor="white", style="filled",URL="$coreSmartPointerMacros_8h.html"];
  Node3 -> Node4 [color="midnightblue",fontsize="10",style="solid",fontname="Helvetica"];
  Node4 [label="coreCommonMacros.h",height=0.2,width=0.4,color="black", fillcolor="white", style="filled",URL="$coreCommonMacros_8h.html"];
  Node3 -> Node5 [color="midnightblue",fontsize="10",style="solid",fontname="Helvetica"];
  Node5 [label="itkSmartPointer.h",height=0.2,width=0.4,color="grey75", fillcolor="white", style="filled"];
  Node2 -> Node6 [color="midnightblue",fontsize="10",style="solid",fontname="Helvetica"];
  Node6 [label="coreObject.h",height=0.2,width=0.4,color="black", fillcolor="white", style="filled",URL="$coreObject_8h.html"];
  Node6 -> Node7 [color="midnightblue",fontsize="10",style="solid",fontname="Helvetica"];
  Node7 [label="gmCommonObjectsWin32Header.h",height=0.2,width=0.4,color="grey75", fillcolor="white", style="filled"];
  Node6 -> Node4 [color="midnightblue",fontsize="10",style="solid",fontname="Helvetica"];
  Node6 -> Node3 [color="midnightblue",fontsize="10",style="solid",fontname="Helvetica"];
  Node6 -> Node8 [color="midnightblue",fontsize="10",style="solid",fontname="Helvetica"];
  Node8 [label="blTagMap.h",height=0.2,width=0.4,color="black", fillcolor="white", style="filled",URL="$blTagMap_8h.html"];
  Node8 -> Node9 [color="midnightblue",fontsize="10",style="solid",fontname="Helvetica"];
  Node9 [label="blLightObject.h",height=0.2,width=0.4,color="red", fillcolor="white", style="filled",URL="$blLightObject_8h.html"];
  Node8 -> Node10 [color="midnightblue",fontsize="10",style="solid",fontname="Helvetica"];
  Node10 [label="blTag.h",height=0.2,width=0.4,color="black", fillcolor="white", style="filled",URL="$blTag_8h.html"];
  Node10 -> Node9 [color="midnightblue",fontsize="10",style="solid",fontname="Helvetica"];
  Node10 -> Node11 [color="midnightblue",fontsize="10",style="solid",fontname="Helvetica"];
  Node11 [label="CILabExceptionMacros.h",height=0.2,width=0.4,color="red", fillcolor="white", style="filled",URL="$CILabExceptionMacros_8h.html"];
  Node11 -> Node12 [color="midnightblue",fontsize="10",style="solid",fontname="Helvetica"];
  Node12 [label="string",height=0.2,width=0.4,color="grey75", fillcolor="white", style="filled"];
  Node10 -> Node13 [color="midnightblue",fontsize="10",style="solid",fontname="Helvetica"];
  Node13 [label="boost/any.hpp",height=0.2,width=0.4,color="grey75", fillcolor="white", style="filled"];
  Node10 -> Node12 [color="midnightblue",fontsize="10",style="solid",fontname="Helvetica"];
  Node8 -> Node11 [color="midnightblue",fontsize="10",style="solid",fontname="Helvetica"];
  Node8 -> Node14 [color="midnightblue",fontsize="10",style="solid",fontname="Helvetica"];
  Node14 [label="boost/signals.hpp",height=0.2,width=0.4,color="grey75", fillcolor="white", style="filled"];
  Node8 -> Node15 [color="midnightblue",fontsize="10",style="solid",fontname="Helvetica"];
  Node15 [label="boost/bind.hpp",height=0.2,width=0.4,color="grey75", fillcolor="white", style="filled"];
  Node8 -> Node12 [color="midnightblue",fontsize="10",style="solid",fontname="Helvetica"];
  Node8 -> Node16 [color="midnightblue",fontsize="10",style="solid",fontname="Helvetica"];
  Node16 [label="map",height=0.2,width=0.4,color="grey75", fillcolor="white", style="filled"];
  Node6 -> Node17 [color="midnightblue",fontsize="10",style="solid",fontname="Helvetica"];
  Node17 [label="itkLightObject.h",height=0.2,width=0.4,color="grey75", fillcolor="white", style="filled"];
  Node6 -> Node18 [color="midnightblue",fontsize="10",style="solid",fontname="Helvetica"];
  Node18 [label="itkTimeStamp.h",height=0.2,width=0.4,color="grey75", fillcolor="white", style="filled"];
  Node6 -> Node14 [color="midnightblue",fontsize="10",style="solid",fontname="Helvetica"];
  Node6 -> Node15 [color="midnightblue",fontsize="10",style="solid",fontname="Helvetica"];
  Node1 -> Node19 [color="midnightblue",fontsize="10",style="solid",fontname="Helvetica"];
  Node19 [label="coreDataEntityReader.h",height=0.2,width=0.4,color="black", fillcolor="white", style="filled",URL="$coreDataEntityReader_8h.html"];
  Node19 -> Node6 [color="midnightblue",fontsize="10",style="solid",fontname="Helvetica"];
  Node19 -> Node20 [color="midnightblue",fontsize="10",style="solid",fontname="Helvetica"];
  Node20 [label="coreDataEntity.h",height=0.2,width=0.4,color="black", fillcolor="white", style="filled",URL="$coreDataEntity_8h.html"];
  Node20 -> Node21 [color="midnightblue",fontsize="10",style="solid",fontname="Helvetica"];
  Node21 [label="gmDataHandlingWin32Header.h",height=0.2,width=0.4,color="grey75", fillcolor="white", style="filled"];
  Node20 -> Node6 [color="midnightblue",fontsize="10",style="solid",fontname="Helvetica"];
  Node20 -> Node22 [color="midnightblue",fontsize="10",style="solid",fontname="Helvetica"];
  Node22 [label="coreDataEntityMetadata.h",height=0.2,width=0.4,color="black", fillcolor="white", style="filled",URL="$coreDataEntityMetadata_8h.html"];
  Node22 -> Node21 [color="midnightblue",fontsize="10",style="solid",fontname="Helvetica"];
  Node22 -> Node6 [color="midnightblue",fontsize="10",style="solid",fontname="Helvetica"];
  Node22 -> Node8 [color="midnightblue",fontsize="10",style="solid",fontname="Helvetica"];
  Node20 -> Node23 [color="midnightblue",fontsize="10",style="solid",fontname="Helvetica"];
  Node23 [label="coreDataEntityImpl.h",height=0.2,width=0.4,color="red", fillcolor="white", style="filled",URL="$coreDataEntityImpl_8h.html"];
  Node23 -> Node21 [color="midnightblue",fontsize="10",style="solid",fontname="Helvetica"];
  Node23 -> Node6 [color="midnightblue",fontsize="10",style="solid",fontname="Helvetica"];
  Node23 -> Node12 [color="midnightblue",fontsize="10",style="solid",fontname="Helvetica"];
  Node23 -> Node24 [color="midnightblue",fontsize="10",style="solid",fontname="Helvetica"];
  Node24 [label="vector",height=0.2,width=0.4,color="grey75", fillcolor="white", style="filled"];
  Node23 -> Node13 [color="midnightblue",fontsize="10",style="solid",fontname="Helvetica"];
  Node23 -> Node8 [color="midnightblue",fontsize="10",style="solid",fontname="Helvetica"];
  Node20 -> Node25 [color="midnightblue",fontsize="10",style="solid",fontname="Helvetica"];
  Node25 [label="coreDataEntityImplFactory.h",height=0.2,width=0.4,color="red", fillcolor="white", style="filled",URL="$coreDataEntityImplFactory_8h.html"];
  Node25 -> Node21 [color="midnightblue",fontsize="10",style="solid",fontname="Helvetica"];
  Node25 -> Node6 [color="midnightblue",fontsize="10",style="solid",fontname="Helvetica"];
  Node25 -> Node12 [color="midnightblue",fontsize="10",style="solid",fontname="Helvetica"];
  Node25 -> Node26 [color="midnightblue",fontsize="10",style="solid",fontname="Helvetica"];
  Node26 [label="typeinfo",height=0.2,width=0.4,color="grey75", fillcolor="white", style="filled"];
  Node25 -> Node24 [color="midnightblue",fontsize="10",style="solid",fontname="Helvetica"];
  Node25 -> Node13 [color="midnightblue",fontsize="10",style="solid",fontname="Helvetica"];
  Node25 -> Node8 [color="midnightblue",fontsize="10",style="solid",fontname="Helvetica"];
  Node25 -> Node23 [color="midnightblue",fontsize="10",style="solid",fontname="Helvetica"];
  Node25 -> Node27 [color="midnightblue",fontsize="10",style="solid",fontname="Helvetica"];
  Node27 [label="coreDataEntityTypes.h",height=0.2,width=0.4,color="black", fillcolor="white", style="filled",URL="$coreDataEntityTypes_8h.html"];
  Node20 -> Node27 [color="midnightblue",fontsize="10",style="solid",fontname="Helvetica"];
  Node20 -> Node28 [color="midnightblue",fontsize="10",style="solid",fontname="Helvetica"];
  Node28 [label="coreDataEntityPreview.h",height=0.2,width=0.4,color="black", fillcolor="white", style="filled",URL="$coreDataEntityPreview_8h.html"];
  Node28 -> Node21 [color="midnightblue",fontsize="10",style="solid",fontname="Helvetica"];
  Node28 -> Node6 [color="midnightblue",fontsize="10",style="solid",fontname="Helvetica"];
  Node20 -> Node12 [color="midnightblue",fontsize="10",style="solid",fontname="Helvetica"];
  Node20 -> Node24 [color="midnightblue",fontsize="10",style="solid",fontname="Helvetica"];
  Node20 -> Node26 [color="midnightblue",fontsize="10",style="solid",fontname="Helvetica"];
  Node20 -> Node14 [color="midnightblue",fontsize="10",style="solid",fontname="Helvetica"];
  Node20 -> Node13 [color="midnightblue",fontsize="10",style="solid",fontname="Helvetica"];
  Node20 -> Node29 [color="midnightblue",fontsize="10",style="solid",fontname="Helvetica"];
  Node29 [label="coreDataEntity.txx",height=0.2,width=0.4,color="grey75", fillcolor="white", style="filled"];
  Node20 -> Node30 [color="midnightblue",fontsize="10",style="solid",fontname="Helvetica"];
  Node30 [label="coreDataEntityHolder.h",height=0.2,width=0.4,color="black", fillcolor="white", style="filled",URL="$coreDataEntityHolder_8h.html"];
  Node30 -> Node21 [color="midnightblue",fontsize="10",style="solid",fontname="Helvetica"];
  Node30 -> Node20 [color="midnightblue",fontsize="10",style="solid",fontname="Helvetica"];
  Node30 -> Node31 [color="midnightblue",fontsize="10",style="solid",fontname="Helvetica"];
  Node31 [label="coreDataHolder.h",height=0.2,width=0.4,color="red", fillcolor="white", style="filled",URL="$coreDataHolder_8h.html"];
  Node31 -> Node7 [color="midnightblue",fontsize="10",style="solid",fontname="Helvetica"];
  Node31 -> Node15 [color="midnightblue",fontsize="10",style="solid",fontname="Helvetica"];
  Node31 -> Node14 [color="midnightblue",fontsize="10",style="solid",fontname="Helvetica"];
  Node31 -> Node31 [color="midnightblue",fontsize="10",style="solid",fontname="Helvetica"];
  Node19 -> Node32 [color="midnightblue",fontsize="10",style="solid",fontname="Helvetica"];
  Node32 [label="coreBaseDataEntityReader.h",height=0.2,width=0.4,color="black", fillcolor="white", style="filled",URL="$coreBaseDataEntityReader_8h.html"];
  Node32 -> Node33 [color="midnightblue",fontsize="10",style="solid",fontname="Helvetica"];
  Node33 [label="gmIOWin32Header.h",height=0.2,width=0.4,color="grey75", fillcolor="white", style="filled"];
  Node32 -> Node6 [color="midnightblue",fontsize="10",style="solid",fontname="Helvetica"];
  Node32 -> Node20 [color="midnightblue",fontsize="10",style="solid",fontname="Helvetica"];
  Node32 -> Node34 [color="midnightblue",fontsize="10",style="solid",fontname="Helvetica"];
  Node34 [label="coreBaseIO.h",height=0.2,width=0.4,color="black", fillcolor="white", style="filled",URL="$coreBaseIO_8h.html"];
  Node34 -> Node33 [color="midnightblue",fontsize="10",style="solid",fontname="Helvetica"];
  Node34 -> Node6 [color="midnightblue",fontsize="10",style="solid",fontname="Helvetica"];
  Node34 -> Node20 [color="midnightblue",fontsize="10",style="solid",fontname="Helvetica"];
  Node34 -> Node35 [color="midnightblue",fontsize="10",style="solid",fontname="Helvetica"];
  Node35 [label="coreBaseProcessor.h",height=0.2,width=0.4,color="black", fillcolor="white", style="filled",URL="$coreBaseProcessor_8h.html"];
  Node35 -> Node36 [color="midnightblue",fontsize="10",style="solid",fontname="Helvetica"];
  Node36 [label="gmFilteringWin32Header.h",height=0.2,width=0.4,color="grey75", fillcolor="white", style="filled"];
  Node35 -> Node6 [color="midnightblue",fontsize="10",style="solid",fontname="Helvetica"];
  Node35 -> Node31 [color="midnightblue",fontsize="10",style="solid",fontname="Helvetica"];
  Node35 -> Node20 [color="midnightblue",fontsize="10",style="solid",fontname="Helvetica"];
  Node35 -> Node37 [color="midnightblue",fontsize="10",style="solid",fontname="Helvetica"];
  Node37 [label="coreBaseFilter.h",height=0.2,width=0.4,color="red", fillcolor="white", style="filled",URL="$coreBaseFilter_8h.html"];
  Node37 -> Node6 [color="midnightblue",fontsize="10",style="solid",fontname="Helvetica"];
  Node37 -> Node31 [color="midnightblue",fontsize="10",style="solid",fontname="Helvetica"];
  Node37 -> Node20 [color="midnightblue",fontsize="10",style="solid",fontname="Helvetica"];
  Node35 -> Node38 [color="midnightblue",fontsize="10",style="solid",fontname="Helvetica"];
  Node38 [label="ModuleDescription.h",height=0.2,width=0.4,color="grey75", fillcolor="white", style="filled"];
  Node35 -> Node39 [color="midnightblue",fontsize="10",style="solid",fontname="Helvetica"];
  Node39 [label="coreBaseProcessor.txx",height=0.2,width=0.4,color="grey75", fillcolor="white", style="filled"];
  Node19 -> Node35 [color="midnightblue",fontsize="10",style="solid",fontname="Helvetica"];
  Node19 -> Node12 [color="midnightblue",fontsize="10",style="solid",fontname="Helvetica"];
  Node19 -> Node16 [color="midnightblue",fontsize="10",style="solid",fontname="Helvetica"];
  Node19 -> Node40 [color="midnightblue",fontsize="10",style="solid",fontname="Helvetica"];
  Node40 [label="list",height=0.2,width=0.4,color="grey75", fillcolor="white", style="filled"];
  Node1 -> Node41 [color="midnightblue",fontsize="10",style="solid",fontname="Helvetica"];
  Node41 [label="coreDataEntityWriter.h",height=0.2,width=0.4,color="black", fillcolor="white", style="filled",URL="$coreDataEntityWriter_8h.html"];
  Node41 -> Node6 [color="midnightblue",fontsize="10",style="solid",fontname="Helvetica"];
  Node41 -> Node20 [color="midnightblue",fontsize="10",style="solid",fontname="Helvetica"];
  Node41 -> Node42 [color="midnightblue",fontsize="10",style="solid",fontname="Helvetica"];
  Node42 [label="coreBaseDataEntityWriter.h",height=0.2,width=0.4,color="black", fillcolor="white", style="filled",URL="$coreBaseDataEntityWriter_8h.html"];
  Node42 -> Node33 [color="midnightblue",fontsize="10",style="solid",fontname="Helvetica"];
  Node42 -> Node6 [color="midnightblue",fontsize="10",style="solid",fontname="Helvetica"];
  Node42 -> Node20 [color="midnightblue",fontsize="10",style="solid",fontname="Helvetica"];
  Node42 -> Node34 [color="midnightblue",fontsize="10",style="solid",fontname="Helvetica"];
  Node41 -> Node35 [color="midnightblue",fontsize="10",style="solid",fontname="Helvetica"];
  Node41 -> Node12 [color="midnightblue",fontsize="10",style="solid",fontname="Helvetica"];
  Node41 -> Node16 [color="midnightblue",fontsize="10",style="solid",fontname="Helvetica"];
  Node41 -> Node40 [color="midnightblue",fontsize="10",style="solid",fontname="Helvetica"];
  Node1 -> Node43 [color="midnightblue",fontsize="10",style="solid",fontname="Helvetica"];
  Node43 [label="coreSignalReader.h",height=0.2,width=0.4,color="black", fillcolor="white", style="filled",URL="$coreSignalReader_8h.html"];
  Node43 -> Node32 [color="midnightblue",fontsize="10",style="solid",fontname="Helvetica"];
  Node1 -> Node44 [color="midnightblue",fontsize="10",style="solid",fontname="Helvetica"];
  Node44 [label="coreSignalWriter.h",height=0.2,width=0.4,color="black", fillcolor="white", style="filled",URL="$coreSignalWriter_8h.html"];
  Node44 -> Node42 [color="midnightblue",fontsize="10",style="solid",fontname="Helvetica"];
  Node1 -> Node45 [color="midnightblue",fontsize="10",style="solid",fontname="Helvetica"];
  Node45 [label="coreWxMitkGraphicalInterface.h",height=0.2,width=0.4,color="black", fillcolor="white", style="filled",URL="$coreWxMitkGraphicalInterface_8h.html"];
  Node45 -> Node6 [color="midnightblue",fontsize="10",style="solid",fontname="Helvetica"];
  Node45 -> Node46 [color="midnightblue",fontsize="10",style="solid",fontname="Helvetica"];
  Node46 [label="coreWindowConfig.h",height=0.2,width=0.4,color="black", fillcolor="white", style="filled",URL="$coreWindowConfig_8h.html"];
  Node46 -> Node12 [color="midnightblue",fontsize="10",style="solid",fontname="Helvetica"];
  Node46 -> Node47 [color="midnightblue",fontsize="10",style="solid",fontname="Helvetica"];
  Node47 [label="gmKernelWin32Header.h",height=0.2,width=0.4,color="grey75", fillcolor="white", style="filled"];
  Node45 -> Node48 [color="midnightblue",fontsize="10",style="solid",fontname="Helvetica"];
  Node48 [label="dynModuleExecutionImpl.h",height=0.2,width=0.4,color="black", fillcolor="white", style="filled",URL="$dynModuleExecutionImpl_8h.html"];
  Node48 -> Node49 [color="midnightblue",fontsize="10",style="solid",fontname="Helvetica"];
  Node49 [label="DynLibWin32Header.h",height=0.2,width=0.4,color="grey75", fillcolor="white", style="filled"];
  Node48 -> Node38 [color="midnightblue",fontsize="10",style="solid",fontname="Helvetica"];
  Node48 -> Node9 [color="midnightblue",fontsize="10",style="solid",fontname="Helvetica"];
  Node48 -> Node40 [color="midnightblue",fontsize="10",style="solid",fontname="Helvetica"];
  Node48 -> Node16 [color="midnightblue",fontsize="10",style="solid",fontname="Helvetica"];
  Node48 -> Node50 [color="midnightblue",fontsize="10",style="solid",fontname="Helvetica"];
  Node50 [label="dynUpdateCallback.h",height=0.2,width=0.4,color="black", fillcolor="white", style="filled",URL="$dynUpdateCallback_8h.html"];
  Node50 -> Node49 [color="midnightblue",fontsize="10",style="solid",fontname="Helvetica"];
  Node50 -> Node17 [color="midnightblue",fontsize="10",style="solid",fontname="Helvetica"];
  Node48 -> Node8 [color="midnightblue",fontsize="10",style="solid",fontname="Helvetica"];
  Node45 -> Node16 [color="midnightblue",fontsize="10",style="solid",fontname="Helvetica"];
  Node45 -> Node12 [color="midnightblue",fontsize="10",style="solid",fontname="Helvetica"];
}
