digraph "Apps/Plugins/SignalViewerPlugin/widgets/PlotWidget/svSignalPlotMapper.h"
{
  edge [fontname="Helvetica",fontsize="10",labelfontname="Helvetica",labelfontsize="10"];
  node [fontname="Helvetica",fontsize="10",shape=record];
  Node1 [label="Apps/Plugins/SignalViewer\lPlugin/widgets/PlotWidget\l/svSignalPlotMapper.h",height=0.2,width=0.4,color="black", fillcolor="grey75", style="filled", fontcolor="black"];
  Node1 -> Node2 [color="midnightblue",fontsize="10",style="solid",fontname="Helvetica"];
  Node2 [label="coreSmartPointerMacros.h",height=0.2,width=0.4,color="black", fillcolor="white", style="filled",URL="$coreSmartPointerMacros_8h.html"];
  Node2 -> Node3 [color="midnightblue",fontsize="10",style="solid",fontname="Helvetica"];
  Node3 [label="coreCommonMacros.h",height=0.2,width=0.4,color="black", fillcolor="white", style="filled",URL="$coreCommonMacros_8h.html"];
  Node2 -> Node4 [color="midnightblue",fontsize="10",style="solid",fontname="Helvetica"];
  Node4 [label="itkSmartPointer.h",height=0.2,width=0.4,color="grey75", fillcolor="white", style="filled"];
  Node1 -> Node5 [color="midnightblue",fontsize="10",style="solid",fontname="Helvetica"];
  Node5 [label="coreObject.h",height=0.2,width=0.4,color="black", fillcolor="white", style="filled",URL="$coreObject_8h.html"];
  Node5 -> Node6 [color="midnightblue",fontsize="10",style="solid",fontname="Helvetica"];
  Node6 [label="gmCommonObjectsWin32Header.h",height=0.2,width=0.4,color="grey75", fillcolor="white", style="filled"];
  Node5 -> Node3 [color="midnightblue",fontsize="10",style="solid",fontname="Helvetica"];
  Node5 -> Node2 [color="midnightblue",fontsize="10",style="solid",fontname="Helvetica"];
  Node5 -> Node7 [color="midnightblue",fontsize="10",style="solid",fontname="Helvetica"];
  Node7 [label="blTagMap.h",height=0.2,width=0.4,color="black", fillcolor="white", style="filled",URL="$blTagMap_8h.html"];
  Node7 -> Node8 [color="midnightblue",fontsize="10",style="solid",fontname="Helvetica"];
  Node8 [label="blLightObject.h",height=0.2,width=0.4,color="black", fillcolor="white", style="filled",URL="$blLightObject_8h.html"];
  Node8 -> Node9 [color="midnightblue",fontsize="10",style="solid",fontname="Helvetica"];
  Node9 [label="blMacro.h",height=0.2,width=0.4,color="black", fillcolor="white", style="filled",URL="$blMacro_8h.html"];
  Node8 -> Node10 [color="midnightblue",fontsize="10",style="solid",fontname="Helvetica"];
  Node10 [label="blSmartPointer.h",height=0.2,width=0.4,color="black", fillcolor="white", style="filled",URL="$blSmartPointer_8h.html"];
  Node8 -> Node11 [color="midnightblue",fontsize="10",style="solid",fontname="Helvetica"];
  Node11 [label="BaseLibWin32Header.h",height=0.2,width=0.4,color="grey75", fillcolor="white", style="filled"];
  Node7 -> Node12 [color="midnightblue",fontsize="10",style="solid",fontname="Helvetica"];
  Node12 [label="blTag.h",height=0.2,width=0.4,color="black", fillcolor="white", style="filled",URL="$blTag_8h.html"];
  Node12 -> Node8 [color="midnightblue",fontsize="10",style="solid",fontname="Helvetica"];
  Node12 -> Node13 [color="midnightblue",fontsize="10",style="solid",fontname="Helvetica"];
  Node13 [label="CILabExceptionMacros.h",height=0.2,width=0.4,color="black", fillcolor="white", style="filled",URL="$CILabExceptionMacros_8h.html"];
  Node13 -> Node14 [color="midnightblue",fontsize="10",style="solid",fontname="Helvetica"];
  Node14 [label="exception",height=0.2,width=0.4,color="grey75", fillcolor="white", style="filled"];
  Node13 -> Node15 [color="midnightblue",fontsize="10",style="solid",fontname="Helvetica"];
  Node15 [label="string",height=0.2,width=0.4,color="grey75", fillcolor="white", style="filled"];
  Node12 -> Node16 [color="midnightblue",fontsize="10",style="solid",fontname="Helvetica"];
  Node16 [label="boost/any.hpp",height=0.2,width=0.4,color="grey75", fillcolor="white", style="filled"];
  Node12 -> Node15 [color="midnightblue",fontsize="10",style="solid",fontname="Helvetica"];
  Node7 -> Node13 [color="midnightblue",fontsize="10",style="solid",fontname="Helvetica"];
  Node7 -> Node17 [color="midnightblue",fontsize="10",style="solid",fontname="Helvetica"];
  Node17 [label="boost/signals.hpp",height=0.2,width=0.4,color="grey75", fillcolor="white", style="filled"];
  Node7 -> Node18 [color="midnightblue",fontsize="10",style="solid",fontname="Helvetica"];
  Node18 [label="boost/bind.hpp",height=0.2,width=0.4,color="grey75", fillcolor="white", style="filled"];
  Node7 -> Node15 [color="midnightblue",fontsize="10",style="solid",fontname="Helvetica"];
  Node7 -> Node19 [color="midnightblue",fontsize="10",style="solid",fontname="Helvetica"];
  Node19 [label="map",height=0.2,width=0.4,color="grey75", fillcolor="white", style="filled"];
  Node5 -> Node20 [color="midnightblue",fontsize="10",style="solid",fontname="Helvetica"];
  Node20 [label="itkLightObject.h",height=0.2,width=0.4,color="grey75", fillcolor="white", style="filled"];
  Node5 -> Node21 [color="midnightblue",fontsize="10",style="solid",fontname="Helvetica"];
  Node21 [label="itkTimeStamp.h",height=0.2,width=0.4,color="grey75", fillcolor="white", style="filled"];
  Node5 -> Node17 [color="midnightblue",fontsize="10",style="solid",fontname="Helvetica"];
  Node5 -> Node18 [color="midnightblue",fontsize="10",style="solid",fontname="Helvetica"];
  Node1 -> Node22 [color="midnightblue",fontsize="10",style="solid",fontname="Helvetica"];
  Node22 [label="coreDataEntity.h",height=0.2,width=0.4,color="black", fillcolor="white", style="filled",URL="$coreDataEntity_8h.html"];
  Node22 -> Node23 [color="midnightblue",fontsize="10",style="solid",fontname="Helvetica"];
  Node23 [label="gmDataHandlingWin32Header.h",height=0.2,width=0.4,color="grey75", fillcolor="white", style="filled"];
  Node22 -> Node5 [color="midnightblue",fontsize="10",style="solid",fontname="Helvetica"];
  Node22 -> Node24 [color="midnightblue",fontsize="10",style="solid",fontname="Helvetica"];
  Node24 [label="coreDataEntityMetadata.h",height=0.2,width=0.4,color="black", fillcolor="white", style="filled",URL="$coreDataEntityMetadata_8h.html"];
  Node24 -> Node23 [color="midnightblue",fontsize="10",style="solid",fontname="Helvetica"];
  Node24 -> Node5 [color="midnightblue",fontsize="10",style="solid",fontname="Helvetica"];
  Node24 -> Node7 [color="midnightblue",fontsize="10",style="solid",fontname="Helvetica"];
  Node22 -> Node25 [color="midnightblue",fontsize="10",style="solid",fontname="Helvetica"];
  Node25 [label="coreDataEntityImpl.h",height=0.2,width=0.4,color="black", fillcolor="white", style="filled",URL="$coreDataEntityImpl_8h.html"];
  Node25 -> Node23 [color="midnightblue",fontsize="10",style="solid",fontname="Helvetica"];
  Node25 -> Node5 [color="midnightblue",fontsize="10",style="solid",fontname="Helvetica"];
  Node25 -> Node15 [color="midnightblue",fontsize="10",style="solid",fontname="Helvetica"];
  Node25 -> Node26 [color="midnightblue",fontsize="10",style="solid",fontname="Helvetica"];
  Node26 [label="vector",height=0.2,width=0.4,color="grey75", fillcolor="white", style="filled"];
  Node25 -> Node16 [color="midnightblue",fontsize="10",style="solid",fontname="Helvetica"];
  Node25 -> Node7 [color="midnightblue",fontsize="10",style="solid",fontname="Helvetica"];
  Node25 -> Node27 [color="midnightblue",fontsize="10",style="solid",fontname="Helvetica"];
  Node27 [label="coreException.h",height=0.2,width=0.4,color="red", fillcolor="white", style="filled",URL="$coreException_8h.html"];
  Node27 -> Node14 [color="midnightblue",fontsize="10",style="solid",fontname="Helvetica"];
  Node27 -> Node15 [color="midnightblue",fontsize="10",style="solid",fontname="Helvetica"];
  Node27 -> Node6 [color="midnightblue",fontsize="10",style="solid",fontname="Helvetica"];
  Node27 -> Node3 [color="midnightblue",fontsize="10",style="solid",fontname="Helvetica"];
  Node27 -> Node28 [color="midnightblue",fontsize="10",style="solid",fontname="Helvetica"];
  Node28 [label="coreBaseExceptions.h",height=0.2,width=0.4,color="red", fillcolor="white", style="filled",URL="$coreBaseExceptions_8h.html"];
  Node25 -> Node28 [color="midnightblue",fontsize="10",style="solid",fontname="Helvetica"];
  Node22 -> Node29 [color="midnightblue",fontsize="10",style="solid",fontname="Helvetica"];
  Node29 [label="coreDataEntityImplFactory.h",height=0.2,width=0.4,color="black", fillcolor="white", style="filled",URL="$coreDataEntityImplFactory_8h.html"];
  Node29 -> Node23 [color="midnightblue",fontsize="10",style="solid",fontname="Helvetica"];
  Node29 -> Node5 [color="midnightblue",fontsize="10",style="solid",fontname="Helvetica"];
  Node29 -> Node15 [color="midnightblue",fontsize="10",style="solid",fontname="Helvetica"];
  Node29 -> Node30 [color="midnightblue",fontsize="10",style="solid",fontname="Helvetica"];
  Node30 [label="typeinfo",height=0.2,width=0.4,color="grey75", fillcolor="white", style="filled"];
  Node29 -> Node26 [color="midnightblue",fontsize="10",style="solid",fontname="Helvetica"];
  Node29 -> Node16 [color="midnightblue",fontsize="10",style="solid",fontname="Helvetica"];
  Node29 -> Node7 [color="midnightblue",fontsize="10",style="solid",fontname="Helvetica"];
  Node29 -> Node25 [color="midnightblue",fontsize="10",style="solid",fontname="Helvetica"];
  Node29 -> Node31 [color="midnightblue",fontsize="10",style="solid",fontname="Helvetica"];
  Node31 [label="coreDataEntityTypes.h",height=0.2,width=0.4,color="black", fillcolor="white", style="filled",URL="$coreDataEntityTypes_8h.html"];
  Node29 -> Node32 [color="midnightblue",fontsize="10",style="solid",fontname="Helvetica"];
  Node32 [label="coreBaseFactory.h",height=0.2,width=0.4,color="black", fillcolor="white", style="filled",URL="$coreBaseFactory_8h.html"];
  Node32 -> Node6 [color="midnightblue",fontsize="10",style="solid",fontname="Helvetica"];
  Node32 -> Node3 [color="midnightblue",fontsize="10",style="solid",fontname="Helvetica"];
  Node32 -> Node2 [color="midnightblue",fontsize="10",style="solid",fontname="Helvetica"];
  Node32 -> Node5 [color="midnightblue",fontsize="10",style="solid",fontname="Helvetica"];
  Node29 -> Node33 [color="midnightblue",fontsize="10",style="solid",fontname="Helvetica"];
  Node33 [label="coreFactoryManager.h",height=0.2,width=0.4,color="red", fillcolor="white", style="filled",URL="$coreFactoryManager_8h.html"];
  Node33 -> Node6 [color="midnightblue",fontsize="10",style="solid",fontname="Helvetica"];
  Node33 -> Node32 [color="midnightblue",fontsize="10",style="solid",fontname="Helvetica"];
  Node33 -> Node27 [color="midnightblue",fontsize="10",style="solid",fontname="Helvetica"];
  Node22 -> Node31 [color="midnightblue",fontsize="10",style="solid",fontname="Helvetica"];
  Node22 -> Node34 [color="midnightblue",fontsize="10",style="solid",fontname="Helvetica"];
  Node34 [label="coreDataEntityPreview.h",height=0.2,width=0.4,color="black", fillcolor="white", style="filled",URL="$coreDataEntityPreview_8h.html"];
  Node34 -> Node23 [color="midnightblue",fontsize="10",style="solid",fontname="Helvetica"];
  Node34 -> Node5 [color="midnightblue",fontsize="10",style="solid",fontname="Helvetica"];
  Node22 -> Node15 [color="midnightblue",fontsize="10",style="solid",fontname="Helvetica"];
  Node22 -> Node26 [color="midnightblue",fontsize="10",style="solid",fontname="Helvetica"];
  Node22 -> Node30 [color="midnightblue",fontsize="10",style="solid",fontname="Helvetica"];
  Node22 -> Node17 [color="midnightblue",fontsize="10",style="solid",fontname="Helvetica"];
  Node22 -> Node16 [color="midnightblue",fontsize="10",style="solid",fontname="Helvetica"];
  Node22 -> Node35 [color="midnightblue",fontsize="10",style="solid",fontname="Helvetica"];
  Node35 [label="coreDataEntity.txx",height=0.2,width=0.4,color="grey75", fillcolor="white", style="filled"];
  Node22 -> Node36 [color="midnightblue",fontsize="10",style="solid",fontname="Helvetica"];
  Node36 [label="coreDataEntityHolder.h",height=0.2,width=0.4,color="black", fillcolor="white", style="filled",URL="$coreDataEntityHolder_8h.html"];
  Node36 -> Node23 [color="midnightblue",fontsize="10",style="solid",fontname="Helvetica"];
  Node36 -> Node22 [color="midnightblue",fontsize="10",style="solid",fontname="Helvetica"];
  Node36 -> Node37 [color="midnightblue",fontsize="10",style="solid",fontname="Helvetica"];
  Node37 [label="coreDataHolder.h",height=0.2,width=0.4,color="black", fillcolor="white", style="filled",URL="$coreDataHolder_8h.html"];
  Node37 -> Node6 [color="midnightblue",fontsize="10",style="solid",fontname="Helvetica"];
  Node37 -> Node38 [color="midnightblue",fontsize="10",style="solid",fontname="Helvetica"];
  Node38 [label="coreDataHolderBase.h",height=0.2,width=0.4,color="black", fillcolor="white", style="filled",URL="$coreDataHolderBase_8h.html"];
  Node38 -> Node6 [color="midnightblue",fontsize="10",style="solid",fontname="Helvetica"];
  Node38 -> Node5 [color="midnightblue",fontsize="10",style="solid",fontname="Helvetica"];
  Node38 -> Node18 [color="midnightblue",fontsize="10",style="solid",fontname="Helvetica"];
  Node38 -> Node17 [color="midnightblue",fontsize="10",style="solid",fontname="Helvetica"];
  Node37 -> Node18 [color="midnightblue",fontsize="10",style="solid",fontname="Helvetica"];
  Node37 -> Node17 [color="midnightblue",fontsize="10",style="solid",fontname="Helvetica"];
  Node37 -> Node39 [color="midnightblue",fontsize="10",style="solid",fontname="Helvetica"];
  Node39 [label="coreDataHolder.txx",height=0.2,width=0.4,color="grey75", fillcolor="white", style="filled"];
  Node37 -> Node37 [color="midnightblue",fontsize="10",style="solid",fontname="Helvetica"];
  Node37 -> Node40 [color="midnightblue",fontsize="10",style="solid",fontname="Helvetica"];
  Node40 [label="/home/el1mc/src/bitbucket\l/cistib/cilab-gimiax/src\l/Apps/Gimias/Core/CommonObjects\l/src/coreAssert.h",height=0.2,width=0.4,color="grey75", fillcolor="white", style="filled"];
  Node1 -> Node36 [color="midnightblue",fontsize="10",style="solid",fontname="Helvetica"];
  Node1 -> Node41 [color="midnightblue",fontsize="10",style="solid",fontname="Helvetica"];
  Node41 [label="coreCommonDataTypes.h",height=0.2,width=0.4,color="black", fillcolor="white", style="filled",URL="$coreCommonDataTypes_8h.html"];
  Node41 -> Node37 [color="midnightblue",fontsize="10",style="solid",fontname="Helvetica"];
  Node1 -> Node42 [color="midnightblue",fontsize="10",style="solid",fontname="Helvetica"];
  Node42 [label="svSignalPlotWindow.h",height=0.2,width=0.4,color="black", fillcolor="white", style="filled",URL="$svSignalPlotWindow_8h.html"];
  Node42 -> Node43 [color="midnightblue",fontsize="10",style="solid",fontname="Helvetica"];
  Node43 [label="mathplot.h",height=0.2,width=0.4,color="grey75", fillcolor="white", style="filled"];
  Node42 -> Node44 [color="midnightblue",fontsize="10",style="solid",fontname="Helvetica"];
  Node44 [label="blSignal.h",height=0.2,width=0.4,color="black", fillcolor="white", style="filled",URL="$blSignal_8h.html"];
  Node44 -> Node45 [color="midnightblue",fontsize="10",style="solid",fontname="Helvetica"];
  Node45 [label="inttypes.h",height=0.2,width=0.4,color="grey75", fillcolor="white", style="filled"];
  Node44 -> Node46 [color="midnightblue",fontsize="10",style="solid",fontname="Helvetica"];
  Node46 [label="BaseLibSignalWin32Header.h",height=0.2,width=0.4,color="grey75", fillcolor="white", style="filled"];
  Node44 -> Node47 [color="midnightblue",fontsize="10",style="solid",fontname="Helvetica"];
  Node47 [label="blObject.h",height=0.2,width=0.4,color="red", fillcolor="white", style="filled",URL="$blObject_8h.html"];
  Node47 -> Node9 [color="midnightblue",fontsize="10",style="solid",fontname="Helvetica"];
  Node47 -> Node10 [color="midnightblue",fontsize="10",style="solid",fontname="Helvetica"];
  Node47 -> Node11 [color="midnightblue",fontsize="10",style="solid",fontname="Helvetica"];
  Node47 -> Node8 [color="midnightblue",fontsize="10",style="solid",fontname="Helvetica"];
  Node44 -> Node9 [color="midnightblue",fontsize="10",style="solid",fontname="Helvetica"];
  Node44 -> Node26 [color="midnightblue",fontsize="10",style="solid",fontname="Helvetica"];
  Node44 -> Node13 [color="midnightblue",fontsize="10",style="solid",fontname="Helvetica"];
  Node44 -> Node48 [color="midnightblue",fontsize="10",style="solid",fontname="Helvetica"];
  Node48 [label="blSignalAnnotation.h",height=0.2,width=0.4,color="black", fillcolor="white", style="filled",URL="$blSignalAnnotation_8h.html"];
  Node48 -> Node46 [color="midnightblue",fontsize="10",style="solid",fontname="Helvetica"];
  Node48 -> Node47 [color="midnightblue",fontsize="10",style="solid",fontname="Helvetica"];
  Node48 -> Node9 [color="midnightblue",fontsize="10",style="solid",fontname="Helvetica"];
  Node48 -> Node26 [color="midnightblue",fontsize="10",style="solid",fontname="Helvetica"];
  Node48 -> Node13 [color="midnightblue",fontsize="10",style="solid",fontname="Helvetica"];
  Node42 -> Node49 [color="midnightblue",fontsize="10",style="solid",fontname="Helvetica"];
  Node49 [label="blSignalEvent.h",height=0.2,width=0.4,color="black", fillcolor="white", style="filled",URL="$blSignalEvent_8h.html"];
  Node49 -> Node46 [color="midnightblue",fontsize="10",style="solid",fontname="Helvetica"];
  Node49 -> Node19 [color="midnightblue",fontsize="10",style="solid",fontname="Helvetica"];
  Node49 -> Node15 [color="midnightblue",fontsize="10",style="solid",fontname="Helvetica"];
  Node49 -> Node26 [color="midnightblue",fontsize="10",style="solid",fontname="Helvetica"];
  Node42 -> Node36 [color="midnightblue",fontsize="10",style="solid",fontname="Helvetica"];
  Node42 -> Node41 [color="midnightblue",fontsize="10",style="solid",fontname="Helvetica"];
  Node42 -> Node50 [color="midnightblue",fontsize="10",style="solid",fontname="Helvetica"];
  Node50 [label="svSignalLayer.h",height=0.2,width=0.4,color="black", fillcolor="white", style="filled",URL="$svSignalLayer_8h.html"];
  Node50 -> Node43 [color="midnightblue",fontsize="10",style="solid",fontname="Helvetica"];
  Node50 -> Node44 [color="midnightblue",fontsize="10",style="solid",fontname="Helvetica"];
  Node1 -> Node43 [color="midnightblue",fontsize="10",style="solid",fontname="Helvetica"];
}
