digraph "Apps/Gimias/Core/Kernel/Tests/TestSettingsManager.h"
{
  edge [fontname="Helvetica",fontsize="10",labelfontname="Helvetica",labelfontsize="10"];
  node [fontname="Helvetica",fontsize="10",shape=record];
  Node1 [label="Apps/Gimias/Core/Kernel\l/Tests/TestSettingsManager.h",height=0.2,width=0.4,color="black", fillcolor="grey75", style="filled", fontcolor="black"];
  Node1 -> Node2 [color="midnightblue",fontsize="10",style="solid",fontname="Helvetica"];
  Node2 [label="cxxtest/TestSuite.h",height=0.2,width=0.4,color="grey75", fillcolor="white", style="filled"];
  Node1 -> Node3 [color="midnightblue",fontsize="10",style="solid",fontname="Helvetica"];
  Node3 [label="coreSettings.h",height=0.2,width=0.4,color="black", fillcolor="white", style="filled",URL="$coreSettings_8h.html"];
  Node3 -> Node4 [color="midnightblue",fontsize="10",style="solid",fontname="Helvetica"];
  Node4 [label="gmKernelWin32Header.h",height=0.2,width=0.4,color="grey75", fillcolor="white", style="filled"];
  Node3 -> Node5 [color="midnightblue",fontsize="10",style="solid",fontname="Helvetica"];
  Node5 [label="coreObject.h",height=0.2,width=0.4,color="black", fillcolor="white", style="filled",URL="$coreObject_8h.html"];
  Node5 -> Node6 [color="midnightblue",fontsize="10",style="solid",fontname="Helvetica"];
  Node6 [label="gmCommonObjectsWin32Header.h",height=0.2,width=0.4,color="grey75", fillcolor="white", style="filled"];
  Node5 -> Node7 [color="midnightblue",fontsize="10",style="solid",fontname="Helvetica"];
  Node7 [label="coreCommonMacros.h",height=0.2,width=0.4,color="black", fillcolor="white", style="filled",URL="$coreCommonMacros_8h.html"];
  Node5 -> Node8 [color="midnightblue",fontsize="10",style="solid",fontname="Helvetica"];
  Node8 [label="coreSmartPointerMacros.h",height=0.2,width=0.4,color="black", fillcolor="white", style="filled",URL="$coreSmartPointerMacros_8h.html"];
  Node8 -> Node7 [color="midnightblue",fontsize="10",style="solid",fontname="Helvetica"];
  Node8 -> Node9 [color="midnightblue",fontsize="10",style="solid",fontname="Helvetica"];
  Node9 [label="itkSmartPointer.h",height=0.2,width=0.4,color="grey75", fillcolor="white", style="filled"];
  Node5 -> Node10 [color="midnightblue",fontsize="10",style="solid",fontname="Helvetica"];
  Node10 [label="blTagMap.h",height=0.2,width=0.4,color="black", fillcolor="white", style="filled",URL="$blTagMap_8h.html"];
  Node10 -> Node11 [color="midnightblue",fontsize="10",style="solid",fontname="Helvetica"];
  Node11 [label="blLightObject.h",height=0.2,width=0.4,color="black", fillcolor="white", style="filled",URL="$blLightObject_8h.html"];
  Node11 -> Node12 [color="midnightblue",fontsize="10",style="solid",fontname="Helvetica"];
  Node12 [label="blMacro.h",height=0.2,width=0.4,color="black", fillcolor="white", style="filled",URL="$blMacro_8h.html"];
  Node11 -> Node13 [color="midnightblue",fontsize="10",style="solid",fontname="Helvetica"];
  Node13 [label="blSmartPointer.h",height=0.2,width=0.4,color="black", fillcolor="white", style="filled",URL="$blSmartPointer_8h.html"];
  Node11 -> Node14 [color="midnightblue",fontsize="10",style="solid",fontname="Helvetica"];
  Node14 [label="BaseLibWin32Header.h",height=0.2,width=0.4,color="grey75", fillcolor="white", style="filled"];
  Node10 -> Node15 [color="midnightblue",fontsize="10",style="solid",fontname="Helvetica"];
  Node15 [label="blTag.h",height=0.2,width=0.4,color="black", fillcolor="white", style="filled",URL="$blTag_8h.html"];
  Node15 -> Node11 [color="midnightblue",fontsize="10",style="solid",fontname="Helvetica"];
  Node15 -> Node16 [color="midnightblue",fontsize="10",style="solid",fontname="Helvetica"];
  Node16 [label="CILabExceptionMacros.h",height=0.2,width=0.4,color="black", fillcolor="white", style="filled",URL="$CILabExceptionMacros_8h.html"];
  Node16 -> Node17 [color="midnightblue",fontsize="10",style="solid",fontname="Helvetica"];
  Node17 [label="exception",height=0.2,width=0.4,color="grey75", fillcolor="white", style="filled"];
  Node16 -> Node18 [color="midnightblue",fontsize="10",style="solid",fontname="Helvetica"];
  Node18 [label="string",height=0.2,width=0.4,color="grey75", fillcolor="white", style="filled"];
  Node15 -> Node19 [color="midnightblue",fontsize="10",style="solid",fontname="Helvetica"];
  Node19 [label="boost/any.hpp",height=0.2,width=0.4,color="grey75", fillcolor="white", style="filled"];
  Node15 -> Node18 [color="midnightblue",fontsize="10",style="solid",fontname="Helvetica"];
  Node10 -> Node16 [color="midnightblue",fontsize="10",style="solid",fontname="Helvetica"];
  Node10 -> Node20 [color="midnightblue",fontsize="10",style="solid",fontname="Helvetica"];
  Node20 [label="boost/signals.hpp",height=0.2,width=0.4,color="grey75", fillcolor="white", style="filled"];
  Node10 -> Node21 [color="midnightblue",fontsize="10",style="solid",fontname="Helvetica"];
  Node21 [label="boost/bind.hpp",height=0.2,width=0.4,color="grey75", fillcolor="white", style="filled"];
  Node10 -> Node18 [color="midnightblue",fontsize="10",style="solid",fontname="Helvetica"];
  Node10 -> Node22 [color="midnightblue",fontsize="10",style="solid",fontname="Helvetica"];
  Node22 [label="map",height=0.2,width=0.4,color="grey75", fillcolor="white", style="filled"];
  Node5 -> Node23 [color="midnightblue",fontsize="10",style="solid",fontname="Helvetica"];
  Node23 [label="itkLightObject.h",height=0.2,width=0.4,color="grey75", fillcolor="white", style="filled"];
  Node5 -> Node24 [color="midnightblue",fontsize="10",style="solid",fontname="Helvetica"];
  Node24 [label="itkTimeStamp.h",height=0.2,width=0.4,color="grey75", fillcolor="white", style="filled"];
  Node5 -> Node20 [color="midnightblue",fontsize="10",style="solid",fontname="Helvetica"];
  Node5 -> Node21 [color="midnightblue",fontsize="10",style="solid",fontname="Helvetica"];
  Node3 -> Node25 [color="midnightblue",fontsize="10",style="solid",fontname="Helvetica"];
  Node25 [label="coreConfigVars.h",height=0.2,width=0.4,color="black", fillcolor="white", style="filled",URL="$coreConfigVars_8h.html"];
  Node25 -> Node26 [color="midnightblue",fontsize="10",style="solid",fontname="Helvetica"];
  Node26 [label="gmIOWin32Header.h",height=0.2,width=0.4,color="grey75", fillcolor="white", style="filled"];
  Node25 -> Node27 [color="midnightblue",fontsize="10",style="solid",fontname="Helvetica"];
  Node27 [label="coreProfile.h",height=0.2,width=0.4,color="black", fillcolor="white", style="filled",URL="$coreProfile_8h.html"];
  Node27 -> Node6 [color="midnightblue",fontsize="10",style="solid",fontname="Helvetica"];
  Node27 -> Node5 [color="midnightblue",fontsize="10",style="solid",fontname="Helvetica"];
  Node27 -> Node28 [color="midnightblue",fontsize="10",style="solid",fontname="Helvetica"];
  Node28 [label="set",height=0.2,width=0.4,color="grey75", fillcolor="white", style="filled"];
  Node25 -> Node29 [color="midnightblue",fontsize="10",style="solid",fontname="Helvetica"];
  Node29 [label="vector",height=0.2,width=0.4,color="grey75", fillcolor="white", style="filled"];
  Node25 -> Node10 [color="midnightblue",fontsize="10",style="solid",fontname="Helvetica"];
  Node3 -> Node30 [color="midnightblue",fontsize="10",style="solid",fontname="Helvetica"];
  Node30 [label="coreSettingsIO.h",height=0.2,width=0.4,color="black", fillcolor="white", style="filled",URL="$coreSettingsIO_8h.html"];
  Node30 -> Node5 [color="midnightblue",fontsize="10",style="solid",fontname="Helvetica"];
  Node30 -> Node25 [color="midnightblue",fontsize="10",style="solid",fontname="Helvetica"];
  Node30 -> Node18 [color="midnightblue",fontsize="10",style="solid",fontname="Helvetica"];
  Node3 -> Node18 [color="midnightblue",fontsize="10",style="solid",fontname="Helvetica"];
  Node3 -> Node31 [color="midnightblue",fontsize="10",style="solid",fontname="Helvetica"];
  Node31 [label="boost/thread/mutex.hpp",height=0.2,width=0.4,color="grey75", fillcolor="white", style="filled"];
  Node1 -> Node32 [color="midnightblue",fontsize="10",style="solid",fontname="Helvetica"];
  Node32 [label="coreException.h",height=0.2,width=0.4,color="black", fillcolor="white", style="filled",URL="$coreException_8h.html"];
  Node32 -> Node17 [color="midnightblue",fontsize="10",style="solid",fontname="Helvetica"];
  Node32 -> Node18 [color="midnightblue",fontsize="10",style="solid",fontname="Helvetica"];
  Node32 -> Node33 [color="midnightblue",fontsize="10",style="solid",fontname="Helvetica"];
  Node33 [label="list",height=0.2,width=0.4,color="grey75", fillcolor="white", style="filled"];
  Node32 -> Node6 [color="midnightblue",fontsize="10",style="solid",fontname="Helvetica"];
  Node32 -> Node7 [color="midnightblue",fontsize="10",style="solid",fontname="Helvetica"];
  Node32 -> Node34 [color="midnightblue",fontsize="10",style="solid",fontname="Helvetica"];
  Node34 [label="coreCreateExceptionMacros.h",height=0.2,width=0.4,color="black", fillcolor="white", style="filled",URL="$coreCreateExceptionMacros_8h.html"];
  Node32 -> Node35 [color="midnightblue",fontsize="10",style="solid",fontname="Helvetica"];
  Node35 [label="coreBaseExceptions.h",height=0.2,width=0.4,color="black", fillcolor="white", style="filled",URL="$coreBaseExceptions_8h.html"];
  Node35 -> Node34 [color="midnightblue",fontsize="10",style="solid",fontname="Helvetica"];
  Node32 -> Node36 [color="midnightblue",fontsize="10",style="solid",fontname="Helvetica"];
  Node36 [label="coreExceptionMacros.h",height=0.2,width=0.4,color="black", fillcolor="white", style="filled",URL="$coreExceptionMacros_8h.html"];
  Node1 -> Node37 [color="midnightblue",fontsize="10",style="solid",fontname="Helvetica"];
  Node37 [label="iostream",height=0.2,width=0.4,color="grey75", fillcolor="white", style="filled"];
  Node1 -> Node38 [color="midnightblue",fontsize="10",style="solid",fontname="Helvetica"];
  Node38 [label="fstream",height=0.2,width=0.4,color="grey75", fillcolor="white", style="filled"];
}
