digraph "Apps/Plugins/GenericSegmentationPlugin/widgets/ThresholdWidget/ThresholdWidget.cpp"
{
  edge [fontname="Helvetica",fontsize="10",labelfontname="Helvetica",labelfontsize="10"];
  node [fontname="Helvetica",fontsize="10",shape=record];
  Node1 [label="Apps/Plugins/GenericSegmentation\lPlugin/widgets/ThresholdWidget\l/ThresholdWidget.cpp",height=0.2,width=0.4,color="black", fillcolor="grey75", style="filled", fontcolor="black"];
  Node1 -> Node2 [color="midnightblue",fontsize="10",style="solid",fontname="Helvetica"];
  Node2 [label="ThresholdWidget.h",height=0.2,width=0.4,color="black", fillcolor="white", style="filled",URL="$ThresholdWidget_8h.html"];
  Node2 -> Node3 [color="midnightblue",fontsize="10",style="solid",fontname="Helvetica"];
  Node3 [label="ThresholdWidgetUI.h",height=0.2,width=0.4,color="red", fillcolor="white", style="filled",URL="$ThresholdWidgetUI_8h.html"];
  Node3 -> Node4 [color="midnightblue",fontsize="10",style="solid",fontname="Helvetica"];
  Node4 [label="wx/wx.h",height=0.2,width=0.4,color="grey75", fillcolor="white", style="filled"];
  Node2 -> Node5 [color="midnightblue",fontsize="10",style="solid",fontname="Helvetica"];
  Node5 [label="ThresholdProcessor.h",height=0.2,width=0.4,color="red", fillcolor="white", style="filled",URL="$ThresholdProcessor_8h.html"];
  Node5 -> Node6 [color="midnightblue",fontsize="10",style="solid",fontname="Helvetica"];
  Node6 [label="coreException.h",height=0.2,width=0.4,color="red", fillcolor="white", style="filled",URL="$coreException_8h.html"];
  Node6 -> Node7 [color="midnightblue",fontsize="10",style="solid",fontname="Helvetica"];
  Node7 [label="coreCreateExceptionMacros.h",height=0.2,width=0.4,color="black", fillcolor="white", style="filled",URL="$coreCreateExceptionMacros_8h.html"];
  Node5 -> Node7 [color="midnightblue",fontsize="10",style="solid",fontname="Helvetica"];
  Node5 -> Node8 [color="midnightblue",fontsize="10",style="solid",fontname="Helvetica"];
  Node8 [label="corePluginMacros.h",height=0.2,width=0.4,color="black", fillcolor="white", style="filled",URL="$corePluginMacros_8h.html"];
  Node2 -> Node9 [color="midnightblue",fontsize="10",style="solid",fontname="Helvetica"];
  Node9 [label="gblWxConnectorOfWidgetChanges\lToSlotFunction.h",height=0.2,width=0.4,color="red", fillcolor="white", style="filled",URL="$gblWxConnectorOfWidgetChangesToSlotFunction_8h.html"];
  Node9 -> Node10 [color="midnightblue",fontsize="10",style="solid",fontname="Helvetica"];
  Node10 [label="CILabNamespaceMacros.h",height=0.2,width=0.4,color="black", fillcolor="white", style="filled",URL="$CILabNamespaceMacros_8h.html"];
  Node9 -> Node4 [color="midnightblue",fontsize="10",style="solid",fontname="Helvetica"];
  Node2 -> Node11 [color="midnightblue",fontsize="10",style="solid",fontname="Helvetica"];
  Node11 [label="coreRenderingTree.h",height=0.2,width=0.4,color="red", fillcolor="white", style="filled",URL="$coreRenderingTree_8h.html"];
  Node11 -> Node12 [color="midnightblue",fontsize="10",style="solid",fontname="Helvetica"];
  Node12 [label="coreObject.h",height=0.2,width=0.4,color="red", fillcolor="white", style="filled",URL="$coreObject_8h.html"];
  Node11 -> Node13 [color="midnightblue",fontsize="10",style="solid",fontname="Helvetica"];
  Node13 [label="coreDataEntity.h",height=0.2,width=0.4,color="red", fillcolor="white", style="filled",URL="$coreDataEntity_8h.html"];
  Node13 -> Node12 [color="midnightblue",fontsize="10",style="solid",fontname="Helvetica"];
  Node2 -> Node14 [color="midnightblue",fontsize="10",style="solid",fontname="Helvetica"];
  Node14 [label="coreDataEntityListBrowser.h",height=0.2,width=0.4,color="red", fillcolor="white", style="filled",URL="$coreDataEntityListBrowser_8h.html"];
  Node14 -> Node15 [color="midnightblue",fontsize="10",style="solid",fontname="Helvetica"];
  Node15 [label="gmWidgetsWin32Header.h",height=0.2,width=0.4,color="grey75", fillcolor="white", style="filled"];
  Node14 -> Node12 [color="midnightblue",fontsize="10",style="solid",fontname="Helvetica"];
  Node14 -> Node11 [color="midnightblue",fontsize="10",style="solid",fontname="Helvetica"];
  Node2 -> Node16 [color="midnightblue",fontsize="10",style="solid",fontname="Helvetica"];
  Node16 [label="coreProcessingWidget.h",height=0.2,width=0.4,color="red", fillcolor="white", style="filled",URL="$coreProcessingWidget_8h.html"];
  Node16 -> Node4 [color="midnightblue",fontsize="10",style="solid",fontname="Helvetica"];
  Node16 -> Node11 [color="midnightblue",fontsize="10",style="solid",fontname="Helvetica"];
  Node16 -> Node14 [color="midnightblue",fontsize="10",style="solid",fontname="Helvetica"];
  Node1 -> Node17 [color="midnightblue",fontsize="10",style="solid",fontname="Helvetica"];
  Node17 [label="gblWxValidate.h",height=0.2,width=0.4,color="black", fillcolor="white", style="filled",URL="$gblWxValidate_8h.html"];
  Node17 -> Node10 [color="midnightblue",fontsize="10",style="solid",fontname="Helvetica"];
  Node17 -> Node18 [color="midnightblue",fontsize="10",style="solid",fontname="Helvetica"];
  Node18 [label="CILabExceptionMacros.h",height=0.2,width=0.4,color="red", fillcolor="white", style="filled",URL="$CILabExceptionMacros_8h.html"];
  Node17 -> Node19 [color="midnightblue",fontsize="10",style="solid",fontname="Helvetica"];
  Node19 [label="gblValidate.h",height=0.2,width=0.4,color="red", fillcolor="white", style="filled",URL="$gblValidate_8h.html"];
  Node19 -> Node20 [color="midnightblue",fontsize="10",style="solid",fontname="Helvetica"];
  Node20 [label="gblBridge.h",height=0.2,width=0.4,color="red", fillcolor="white", style="filled",URL="$gblBridge_8h.html"];
  Node20 -> Node21 [color="midnightblue",fontsize="10",style="solid",fontname="Helvetica"];
  Node21 [label="gblValueProxy.h",height=0.2,width=0.4,color="red", fillcolor="white", style="filled",URL="$gblValueProxy_8h.html"];
  Node21 -> Node10 [color="midnightblue",fontsize="10",style="solid",fontname="Helvetica"];
  Node21 -> Node22 [color="midnightblue",fontsize="10",style="solid",fontname="Helvetica"];
  Node22 [label="limits",height=0.2,width=0.4,color="grey75", fillcolor="white", style="filled"];
  Node20 -> Node10 [color="midnightblue",fontsize="10",style="solid",fontname="Helvetica"];
  Node19 -> Node10 [color="midnightblue",fontsize="10",style="solid",fontname="Helvetica"];
  Node17 -> Node23 [color="midnightblue",fontsize="10",style="solid",fontname="Helvetica"];
  Node23 [label="boost/format.hpp",height=0.2,width=0.4,color="grey75", fillcolor="white", style="filled"];
  Node1 -> Node24 [color="midnightblue",fontsize="10",style="solid",fontname="Helvetica"];
  Node24 [label="gblWxButtonEventProxy.h",height=0.2,width=0.4,color="black", fillcolor="white", style="filled",URL="$gblWxButtonEventProxy_8h.html"];
  Node24 -> Node25 [color="midnightblue",fontsize="10",style="solid",fontname="Helvetica"];
  Node25 [label="wx/button.h",height=0.2,width=0.4,color="grey75", fillcolor="white", style="filled"];
  Node24 -> Node20 [color="midnightblue",fontsize="10",style="solid",fontname="Helvetica"];
  Node1 -> Node26 [color="midnightblue",fontsize="10",style="solid",fontname="Helvetica"];
  Node26 [label="gblWxChoiceValueProxy.h",height=0.2,width=0.4,color="black", fillcolor="white", style="filled",URL="$gblWxChoiceValueProxy_8h.html"];
  Node26 -> Node4 [color="midnightblue",fontsize="10",style="solid",fontname="Helvetica"];
  Node26 -> Node21 [color="midnightblue",fontsize="10",style="solid",fontname="Helvetica"];
  Node26 -> Node27 [color="midnightblue",fontsize="10",style="solid",fontname="Helvetica"];
  Node27 [label="gblWxControlWithItemsValue\lProxy.h",height=0.2,width=0.4,color="black", fillcolor="white", style="filled",URL="$gblWxControlWithItemsValueProxy_8h.html"];
  Node27 -> Node4 [color="midnightblue",fontsize="10",style="solid",fontname="Helvetica"];
  Node27 -> Node21 [color="midnightblue",fontsize="10",style="solid",fontname="Helvetica"];
  Node27 -> Node10 [color="midnightblue",fontsize="10",style="solid",fontname="Helvetica"];
  Node1 -> Node22 [color="midnightblue",fontsize="10",style="solid",fontname="Helvetica"];
  Node1 -> Node28 [color="midnightblue",fontsize="10",style="solid",fontname="Helvetica"];
  Node28 [label="gblWxBridgeLib.h",height=0.2,width=0.4,color="black", fillcolor="white", style="filled",URL="$gblWxBridgeLib_8h.html"];
  Node28 -> Node9 [color="midnightblue",fontsize="10",style="solid",fontname="Helvetica"];
  Node28 -> Node29 [color="midnightblue",fontsize="10",style="solid",fontname="Helvetica"];
  Node29 [label="gblWxTextCtrlValueProxy.h",height=0.2,width=0.4,color="black", fillcolor="white", style="filled",URL="$gblWxTextCtrlValueProxy_8h.html"];
  Node29 -> Node4 [color="midnightblue",fontsize="10",style="solid",fontname="Helvetica"];
  Node29 -> Node21 [color="midnightblue",fontsize="10",style="solid",fontname="Helvetica"];
  Node28 -> Node30 [color="midnightblue",fontsize="10",style="solid",fontname="Helvetica"];
  Node30 [label="gblWxRadioButtonValueProxy.h",height=0.2,width=0.4,color="black", fillcolor="white", style="filled",URL="$gblWxRadioButtonValueProxy_8h.html"];
  Node30 -> Node4 [color="midnightblue",fontsize="10",style="solid",fontname="Helvetica"];
  Node30 -> Node21 [color="midnightblue",fontsize="10",style="solid",fontname="Helvetica"];
  Node28 -> Node31 [color="midnightblue",fontsize="10",style="solid",fontname="Helvetica"];
  Node31 [label="gblWxRadioBoxValueProxy.h",height=0.2,width=0.4,color="red", fillcolor="white", style="filled",URL="$gblWxRadioBoxValueProxy_8h.html"];
  Node31 -> Node4 [color="midnightblue",fontsize="10",style="solid",fontname="Helvetica"];
  Node31 -> Node21 [color="midnightblue",fontsize="10",style="solid",fontname="Helvetica"];
  Node28 -> Node32 [color="midnightblue",fontsize="10",style="solid",fontname="Helvetica"];
  Node32 [label="gblWxToggleButtonValueProxy.h",height=0.2,width=0.4,color="red", fillcolor="white", style="filled",URL="$gblWxToggleButtonValueProxy_8h.html"];
  Node32 -> Node4 [color="midnightblue",fontsize="10",style="solid",fontname="Helvetica"];
  Node32 -> Node21 [color="midnightblue",fontsize="10",style="solid",fontname="Helvetica"];
  Node28 -> Node33 [color="midnightblue",fontsize="10",style="solid",fontname="Helvetica"];
  Node33 [label="gblWxListBoxValueProxy.h",height=0.2,width=0.4,color="black", fillcolor="white", style="filled",URL="$gblWxListBoxValueProxy_8h.html"];
  Node33 -> Node4 [color="midnightblue",fontsize="10",style="solid",fontname="Helvetica"];
  Node33 -> Node21 [color="midnightblue",fontsize="10",style="solid",fontname="Helvetica"];
  Node33 -> Node27 [color="midnightblue",fontsize="10",style="solid",fontname="Helvetica"];
  Node28 -> Node34 [color="midnightblue",fontsize="10",style="solid",fontname="Helvetica"];
  Node34 [label="gblWxComboBoxValueProxy.h",height=0.2,width=0.4,color="black", fillcolor="white", style="filled",URL="$gblWxComboBoxValueProxy_8h.html"];
  Node34 -> Node4 [color="midnightblue",fontsize="10",style="solid",fontname="Helvetica"];
  Node34 -> Node21 [color="midnightblue",fontsize="10",style="solid",fontname="Helvetica"];
  Node34 -> Node27 [color="midnightblue",fontsize="10",style="solid",fontname="Helvetica"];
  Node28 -> Node26 [color="midnightblue",fontsize="10",style="solid",fontname="Helvetica"];
  Node28 -> Node35 [color="midnightblue",fontsize="10",style="solid",fontname="Helvetica"];
  Node35 [label="gblWxCheckBoxValueProxy.h",height=0.2,width=0.4,color="red", fillcolor="white", style="filled",URL="$gblWxCheckBoxValueProxy_8h.html"];
  Node35 -> Node4 [color="midnightblue",fontsize="10",style="solid",fontname="Helvetica"];
  Node35 -> Node21 [color="midnightblue",fontsize="10",style="solid",fontname="Helvetica"];
  Node28 -> Node36 [color="midnightblue",fontsize="10",style="solid",fontname="Helvetica"];
  Node36 [label="gblWxCheckableControlValue\lProxy.h",height=0.2,width=0.4,color="red", fillcolor="white", style="filled",URL="$gblWxCheckableControlValueProxy_8h.html"];
  Node36 -> Node4 [color="midnightblue",fontsize="10",style="solid",fontname="Helvetica"];
  Node36 -> Node21 [color="midnightblue",fontsize="10",style="solid",fontname="Helvetica"];
  Node28 -> Node20 [color="midnightblue",fontsize="10",style="solid",fontname="Helvetica"];
  Node28 -> Node24 [color="midnightblue",fontsize="10",style="solid",fontname="Helvetica"];
  Node28 -> Node37 [color="midnightblue",fontsize="10",style="solid",fontname="Helvetica"];
  Node37 [label="gblWxChoiceBookValueProxy.h",height=0.2,width=0.4,color="red", fillcolor="white", style="filled",URL="$gblWxChoiceBookValueProxy_8h.html"];
  Node37 -> Node4 [color="midnightblue",fontsize="10",style="solid",fontname="Helvetica"];
  Node37 -> Node21 [color="midnightblue",fontsize="10",style="solid",fontname="Helvetica"];
  Node37 -> Node27 [color="midnightblue",fontsize="10",style="solid",fontname="Helvetica"];
  Node37 -> Node23 [color="midnightblue",fontsize="10",style="solid",fontname="Helvetica"];
  Node37 -> Node37 [color="midnightblue",fontsize="10",style="solid",fontname="Helvetica"];
  Node28 -> Node17 [color="midnightblue",fontsize="10",style="solid",fontname="Helvetica"];
  Node28 -> Node38 [color="midnightblue",fontsize="10",style="solid",fontname="Helvetica"];
  Node38 [label="gblWxSliderValueProxy.h",height=0.2,width=0.4,color="black", fillcolor="white", style="filled",URL="$gblWxSliderValueProxy_8h.html"];
  Node38 -> Node4 [color="midnightblue",fontsize="10",style="solid",fontname="Helvetica"];
  Node38 -> Node21 [color="midnightblue",fontsize="10",style="solid",fontname="Helvetica"];
  Node28 -> Node39 [color="midnightblue",fontsize="10",style="solid",fontname="Helvetica"];
  Node39 [label="gblWxFloatSliderValueProxy.h",height=0.2,width=0.4,color="red", fillcolor="white", style="filled",URL="$gblWxFloatSliderValueProxy_8h.html"];
  Node39 -> Node4 [color="midnightblue",fontsize="10",style="solid",fontname="Helvetica"];
  Node39 -> Node21 [color="midnightblue",fontsize="10",style="solid",fontname="Helvetica"];
  Node28 -> Node40 [color="midnightblue",fontsize="10",style="solid",fontname="Helvetica"];
  Node40 [label="gblWxSliderWithTextValue\lProxy.h",height=0.2,width=0.4,color="red", fillcolor="white", style="filled",URL="$gblWxSliderWithTextValueProxy_8h.html"];
  Node40 -> Node4 [color="midnightblue",fontsize="10",style="solid",fontname="Helvetica"];
  Node40 -> Node21 [color="midnightblue",fontsize="10",style="solid",fontname="Helvetica"];
  Node1 -> Node41 [color="midnightblue",fontsize="10",style="solid",fontname="Helvetica"];
  Node41 [label="/home/el1mc/src/bitbucket\l/cistib/cilab-gimiax/src\l/Apps/Gimias/Core/CommonObjects\l/src/coreAssert.h",height=0.2,width=0.4,color="grey75", fillcolor="white", style="filled"];
  Node1 -> Node42 [color="midnightblue",fontsize="10",style="solid",fontname="Helvetica"];
  Node42 [label="coreDataTreeHelper.h",height=0.2,width=0.4,color="black", fillcolor="white", style="filled",URL="$coreDataTreeHelper_8h.html"];
  Node42 -> Node15 [color="midnightblue",fontsize="10",style="solid",fontname="Helvetica"];
  Node42 -> Node12 [color="midnightblue",fontsize="10",style="solid",fontname="Helvetica"];
  Node42 -> Node13 [color="midnightblue",fontsize="10",style="solid",fontname="Helvetica"];
  Node42 -> Node11 [color="midnightblue",fontsize="10",style="solid",fontname="Helvetica"];
  Node1 -> Node43 [color="midnightblue",fontsize="10",style="solid",fontname="Helvetica"];
  Node43 [label="coreImageDataEntityMacros.h",height=0.2,width=0.4,color="red", fillcolor="white", style="filled",URL="$coreImageDataEntityMacros_8h.html"];
  Node43 -> Node8 [color="midnightblue",fontsize="10",style="solid",fontname="Helvetica"];
  Node43 -> Node18 [color="midnightblue",fontsize="10",style="solid",fontname="Helvetica"];
  Node43 -> Node44 [color="midnightblue",fontsize="10",style="solid",fontname="Helvetica"];
  Node44 [label="itkImage.h",height=0.2,width=0.4,color="grey75", fillcolor="white", style="filled"];
  Node43 -> Node10 [color="midnightblue",fontsize="10",style="solid",fontname="Helvetica"];
  Node43 -> Node45 [color="midnightblue",fontsize="10",style="solid",fontname="Helvetica"];
  Node45 [label="CILabAssertMacros.h",height=0.2,width=0.4,color="red", fillcolor="white", style="filled",URL="$CILabAssertMacros_8h.html"];
  Node43 -> Node6 [color="midnightblue",fontsize="10",style="solid",fontname="Helvetica"];
  Node43 -> Node7 [color="midnightblue",fontsize="10",style="solid",fontname="Helvetica"];
  Node43 -> Node46 [color="midnightblue",fontsize="10",style="solid",fontname="Helvetica"];
  Node46 [label="itkSmartPointer.h",height=0.2,width=0.4,color="grey75", fillcolor="white", style="filled"];
  Node43 -> Node47 [color="midnightblue",fontsize="10",style="solid",fontname="Helvetica"];
  Node47 [label="itkVTKImageToImageFilter.h",height=0.2,width=0.4,color="red", fillcolor="white", style="filled",URL="$itkVTKImageToImageFilter_8h.html"];
  Node1 -> Node48 [color="midnightblue",fontsize="10",style="solid",fontname="Helvetica"];
  Node48 [label="coreProcessorInputWidget.h",height=0.2,width=0.4,color="red", fillcolor="white", style="filled",URL="$coreProcessorInputWidget_8h.html"];
  Node48 -> Node15 [color="midnightblue",fontsize="10",style="solid",fontname="Helvetica"];
  Node48 -> Node13 [color="midnightblue",fontsize="10",style="solid",fontname="Helvetica"];
  Node1 -> Node49 [color="midnightblue",fontsize="10",style="solid",fontname="Helvetica"];
  Node49 [label="coreWxMitkGraphicalInterface.h",height=0.2,width=0.4,color="red", fillcolor="white", style="filled",URL="$coreWxMitkGraphicalInterface_8h.html"];
  Node49 -> Node12 [color="midnightblue",fontsize="10",style="solid",fontname="Helvetica"];
  Node1 -> Node50 [color="midnightblue",fontsize="10",style="solid",fontname="Helvetica"];
  Node50 [label="itkOtsuThresholdImageCalculator.h",height=0.2,width=0.4,color="grey75", fillcolor="white", style="filled"];
}
