digraph "Apps/Plugins/GenericSegmentationPlugin/tests/include/ThresholdSegmentationTest.h"
{
  edge [fontname="Helvetica",fontsize="10",labelfontname="Helvetica",labelfontsize="10"];
  node [fontname="Helvetica",fontsize="10",shape=record];
  Node1 [label="Apps/Plugins/GenericSegmentation\lPlugin/tests/include/ThresholdSegmentationTest.h",height=0.2,width=0.4,color="black", fillcolor="grey75", style="filled", fontcolor="black"];
  Node1 -> Node2 [dir="back",color="midnightblue",fontsize="10",style="solid",fontname="Helvetica"];
  Node2 [label="Apps/Plugins/GenericSegmentation\lPlugin/tests/Applications\l/GenericSegmentationTestSuite.h",height=0.2,width=0.4,color="black", fillcolor="white", style="filled",URL="$GenericSegmentationTestSuite_8h.html"];
  Node1 -> Node3 [dir="back",color="midnightblue",fontsize="10",style="solid",fontname="Helvetica"];
  Node3 [label="Apps/Plugins/GenericSegmentation\lPlugin/tests/src/ThresholdSegmentation\lTest.cxx",height=0.2,width=0.4,color="black", fillcolor="white", style="filled",URL="$ThresholdSegmentationTest_8cxx.html"];
}
