digraph "Apps/Plugins/GenericSegmentationPlugin/tests/src/ThresholdSegmentationTest.cxx"
{
  edge [fontname="Helvetica",fontsize="10",labelfontname="Helvetica",labelfontsize="10"];
  node [fontname="Helvetica",fontsize="10",shape=record];
  Node1 [label="Apps/Plugins/GenericSegmentation\lPlugin/tests/src/ThresholdSegmentation\lTest.cxx",height=0.2,width=0.4,color="black", fillcolor="grey75", style="filled", fontcolor="black"];
  Node1 -> Node2 [color="midnightblue",fontsize="10",style="solid",fontname="Helvetica"];
  Node2 [label="ThresholdSegmentationTest.h",height=0.2,width=0.4,color="black", fillcolor="white", style="filled",URL="$ThresholdSegmentationTest_8h.html"];
  Node2 -> Node3 [color="midnightblue",fontsize="10",style="solid",fontname="Helvetica"];
  Node3 [label="coreBaseTest.h",height=0.2,width=0.4,color="black", fillcolor="white", style="filled",URL="$coreBaseTest_8h.html"];
  Node3 -> Node4 [color="midnightblue",fontsize="10",style="solid",fontname="Helvetica"];
  Node4 [label="gmDataHandlingWin32Header.h",height=0.2,width=0.4,color="grey75", fillcolor="white", style="filled"];
  Node3 -> Node5 [color="midnightblue",fontsize="10",style="solid",fontname="Helvetica"];
  Node5 [label="coreBaseTestData.h",height=0.2,width=0.4,color="black", fillcolor="white", style="filled",URL="$coreBaseTestData_8h.html"];
  Node5 -> Node4 [color="midnightblue",fontsize="10",style="solid",fontname="Helvetica"];
  Node5 -> Node6 [color="midnightblue",fontsize="10",style="solid",fontname="Helvetica"];
  Node6 [label="string",height=0.2,width=0.4,color="grey75", fillcolor="white", style="filled"];
  Node5 -> Node7 [color="midnightblue",fontsize="10",style="solid",fontname="Helvetica"];
  Node7 [label="vector",height=0.2,width=0.4,color="grey75", fillcolor="white", style="filled"];
  Node5 -> Node8 [color="midnightblue",fontsize="10",style="solid",fontname="Helvetica"];
  Node8 [label="coreDataEntity.h",height=0.2,width=0.4,color="black", fillcolor="white", style="filled",URL="$coreDataEntity_8h.html"];
  Node8 -> Node4 [color="midnightblue",fontsize="10",style="solid",fontname="Helvetica"];
  Node8 -> Node9 [color="midnightblue",fontsize="10",style="solid",fontname="Helvetica"];
  Node9 [label="coreObject.h",height=0.2,width=0.4,color="black", fillcolor="white", style="filled",URL="$coreObject_8h.html"];
  Node9 -> Node10 [color="midnightblue",fontsize="10",style="solid",fontname="Helvetica"];
  Node10 [label="gmCommonObjectsWin32Header.h",height=0.2,width=0.4,color="grey75", fillcolor="white", style="filled"];
  Node9 -> Node11 [color="midnightblue",fontsize="10",style="solid",fontname="Helvetica"];
  Node11 [label="coreCommonMacros.h",height=0.2,width=0.4,color="black", fillcolor="white", style="filled",URL="$coreCommonMacros_8h.html"];
  Node9 -> Node12 [color="midnightblue",fontsize="10",style="solid",fontname="Helvetica"];
  Node12 [label="coreSmartPointerMacros.h",height=0.2,width=0.4,color="black", fillcolor="white", style="filled",URL="$coreSmartPointerMacros_8h.html"];
  Node12 -> Node11 [color="midnightblue",fontsize="10",style="solid",fontname="Helvetica"];
  Node12 -> Node13 [color="midnightblue",fontsize="10",style="solid",fontname="Helvetica"];
  Node13 [label="itkSmartPointer.h",height=0.2,width=0.4,color="grey75", fillcolor="white", style="filled"];
  Node9 -> Node14 [color="midnightblue",fontsize="10",style="solid",fontname="Helvetica"];
  Node14 [label="blTagMap.h",height=0.2,width=0.4,color="red", fillcolor="white", style="filled",URL="$blTagMap_8h.html"];
  Node14 -> Node15 [color="midnightblue",fontsize="10",style="solid",fontname="Helvetica"];
  Node15 [label="boost/signals.hpp",height=0.2,width=0.4,color="grey75", fillcolor="white", style="filled"];
  Node14 -> Node16 [color="midnightblue",fontsize="10",style="solid",fontname="Helvetica"];
  Node16 [label="boost/bind.hpp",height=0.2,width=0.4,color="grey75", fillcolor="white", style="filled"];
  Node14 -> Node6 [color="midnightblue",fontsize="10",style="solid",fontname="Helvetica"];
  Node14 -> Node17 [color="midnightblue",fontsize="10",style="solid",fontname="Helvetica"];
  Node17 [label="map",height=0.2,width=0.4,color="grey75", fillcolor="white", style="filled"];
  Node9 -> Node18 [color="midnightblue",fontsize="10",style="solid",fontname="Helvetica"];
  Node18 [label="itkLightObject.h",height=0.2,width=0.4,color="grey75", fillcolor="white", style="filled"];
  Node9 -> Node19 [color="midnightblue",fontsize="10",style="solid",fontname="Helvetica"];
  Node19 [label="itkTimeStamp.h",height=0.2,width=0.4,color="grey75", fillcolor="white", style="filled"];
  Node9 -> Node15 [color="midnightblue",fontsize="10",style="solid",fontname="Helvetica"];
  Node9 -> Node16 [color="midnightblue",fontsize="10",style="solid",fontname="Helvetica"];
  Node8 -> Node20 [color="midnightblue",fontsize="10",style="solid",fontname="Helvetica"];
  Node20 [label="coreDataEntityMetadata.h",height=0.2,width=0.4,color="black", fillcolor="white", style="filled",URL="$coreDataEntityMetadata_8h.html"];
  Node20 -> Node4 [color="midnightblue",fontsize="10",style="solid",fontname="Helvetica"];
  Node20 -> Node9 [color="midnightblue",fontsize="10",style="solid",fontname="Helvetica"];
  Node20 -> Node14 [color="midnightblue",fontsize="10",style="solid",fontname="Helvetica"];
  Node8 -> Node21 [color="midnightblue",fontsize="10",style="solid",fontname="Helvetica"];
  Node21 [label="coreDataEntityImpl.h",height=0.2,width=0.4,color="black", fillcolor="white", style="filled",URL="$coreDataEntityImpl_8h.html"];
  Node21 -> Node4 [color="midnightblue",fontsize="10",style="solid",fontname="Helvetica"];
  Node21 -> Node9 [color="midnightblue",fontsize="10",style="solid",fontname="Helvetica"];
  Node21 -> Node6 [color="midnightblue",fontsize="10",style="solid",fontname="Helvetica"];
  Node21 -> Node7 [color="midnightblue",fontsize="10",style="solid",fontname="Helvetica"];
  Node21 -> Node22 [color="midnightblue",fontsize="10",style="solid",fontname="Helvetica"];
  Node22 [label="boost/any.hpp",height=0.2,width=0.4,color="grey75", fillcolor="white", style="filled"];
  Node21 -> Node14 [color="midnightblue",fontsize="10",style="solid",fontname="Helvetica"];
  Node21 -> Node23 [color="midnightblue",fontsize="10",style="solid",fontname="Helvetica"];
  Node23 [label="coreException.h",height=0.2,width=0.4,color="black", fillcolor="white", style="filled",URL="$coreException_8h.html"];
  Node23 -> Node24 [color="midnightblue",fontsize="10",style="solid",fontname="Helvetica"];
  Node24 [label="exception",height=0.2,width=0.4,color="grey75", fillcolor="white", style="filled"];
  Node23 -> Node6 [color="midnightblue",fontsize="10",style="solid",fontname="Helvetica"];
  Node23 -> Node25 [color="midnightblue",fontsize="10",style="solid",fontname="Helvetica"];
  Node25 [label="list",height=0.2,width=0.4,color="grey75", fillcolor="white", style="filled"];
  Node23 -> Node10 [color="midnightblue",fontsize="10",style="solid",fontname="Helvetica"];
  Node23 -> Node11 [color="midnightblue",fontsize="10",style="solid",fontname="Helvetica"];
  Node23 -> Node26 [color="midnightblue",fontsize="10",style="solid",fontname="Helvetica"];
  Node26 [label="coreCreateExceptionMacros.h",height=0.2,width=0.4,color="black", fillcolor="white", style="filled",URL="$coreCreateExceptionMacros_8h.html"];
  Node23 -> Node27 [color="midnightblue",fontsize="10",style="solid",fontname="Helvetica"];
  Node27 [label="coreBaseExceptions.h",height=0.2,width=0.4,color="black", fillcolor="white", style="filled",URL="$coreBaseExceptions_8h.html"];
  Node27 -> Node26 [color="midnightblue",fontsize="10",style="solid",fontname="Helvetica"];
  Node23 -> Node28 [color="midnightblue",fontsize="10",style="solid",fontname="Helvetica"];
  Node28 [label="coreExceptionMacros.h",height=0.2,width=0.4,color="black", fillcolor="white", style="filled",URL="$coreExceptionMacros_8h.html"];
  Node21 -> Node27 [color="midnightblue",fontsize="10",style="solid",fontname="Helvetica"];
  Node8 -> Node29 [color="midnightblue",fontsize="10",style="solid",fontname="Helvetica"];
  Node29 [label="coreDataEntityImplFactory.h",height=0.2,width=0.4,color="red", fillcolor="white", style="filled",URL="$coreDataEntityImplFactory_8h.html"];
  Node29 -> Node4 [color="midnightblue",fontsize="10",style="solid",fontname="Helvetica"];
  Node29 -> Node9 [color="midnightblue",fontsize="10",style="solid",fontname="Helvetica"];
  Node29 -> Node6 [color="midnightblue",fontsize="10",style="solid",fontname="Helvetica"];
  Node29 -> Node30 [color="midnightblue",fontsize="10",style="solid",fontname="Helvetica"];
  Node30 [label="typeinfo",height=0.2,width=0.4,color="grey75", fillcolor="white", style="filled"];
  Node29 -> Node7 [color="midnightblue",fontsize="10",style="solid",fontname="Helvetica"];
  Node29 -> Node22 [color="midnightblue",fontsize="10",style="solid",fontname="Helvetica"];
  Node29 -> Node14 [color="midnightblue",fontsize="10",style="solid",fontname="Helvetica"];
  Node29 -> Node21 [color="midnightblue",fontsize="10",style="solid",fontname="Helvetica"];
  Node29 -> Node31 [color="midnightblue",fontsize="10",style="solid",fontname="Helvetica"];
  Node31 [label="coreDataEntityTypes.h",height=0.2,width=0.4,color="black", fillcolor="white", style="filled",URL="$coreDataEntityTypes_8h.html"];
  Node8 -> Node31 [color="midnightblue",fontsize="10",style="solid",fontname="Helvetica"];
  Node8 -> Node32 [color="midnightblue",fontsize="10",style="solid",fontname="Helvetica"];
  Node32 [label="coreDataEntityPreview.h",height=0.2,width=0.4,color="black", fillcolor="white", style="filled",URL="$coreDataEntityPreview_8h.html"];
  Node32 -> Node4 [color="midnightblue",fontsize="10",style="solid",fontname="Helvetica"];
  Node32 -> Node9 [color="midnightblue",fontsize="10",style="solid",fontname="Helvetica"];
  Node8 -> Node6 [color="midnightblue",fontsize="10",style="solid",fontname="Helvetica"];
  Node8 -> Node7 [color="midnightblue",fontsize="10",style="solid",fontname="Helvetica"];
  Node8 -> Node30 [color="midnightblue",fontsize="10",style="solid",fontname="Helvetica"];
  Node8 -> Node15 [color="midnightblue",fontsize="10",style="solid",fontname="Helvetica"];
  Node8 -> Node22 [color="midnightblue",fontsize="10",style="solid",fontname="Helvetica"];
  Node8 -> Node33 [color="midnightblue",fontsize="10",style="solid",fontname="Helvetica"];
  Node33 [label="coreDataEntity.txx",height=0.2,width=0.4,color="grey75", fillcolor="white", style="filled"];
  Node8 -> Node34 [color="midnightblue",fontsize="10",style="solid",fontname="Helvetica"];
  Node34 [label="coreDataEntityHolder.h",height=0.2,width=0.4,color="black", fillcolor="white", style="filled",URL="$coreDataEntityHolder_8h.html"];
  Node34 -> Node4 [color="midnightblue",fontsize="10",style="solid",fontname="Helvetica"];
  Node34 -> Node8 [color="midnightblue",fontsize="10",style="solid",fontname="Helvetica"];
  Node34 -> Node35 [color="midnightblue",fontsize="10",style="solid",fontname="Helvetica"];
  Node35 [label="coreDataHolder.h",height=0.2,width=0.4,color="red", fillcolor="white", style="filled",URL="$coreDataHolder_8h.html"];
  Node35 -> Node10 [color="midnightblue",fontsize="10",style="solid",fontname="Helvetica"];
  Node35 -> Node16 [color="midnightblue",fontsize="10",style="solid",fontname="Helvetica"];
  Node35 -> Node15 [color="midnightblue",fontsize="10",style="solid",fontname="Helvetica"];
  Node35 -> Node35 [color="midnightblue",fontsize="10",style="solid",fontname="Helvetica"];
  Node3 -> Node6 [color="midnightblue",fontsize="10",style="solid",fontname="Helvetica"];
  Node3 -> Node7 [color="midnightblue",fontsize="10",style="solid",fontname="Helvetica"];
  Node2 -> Node36 [color="midnightblue",fontsize="10",style="solid",fontname="Helvetica"];
  Node36 [label="ThresholdProcessor.h",height=0.2,width=0.4,color="black", fillcolor="white", style="filled",URL="$ThresholdProcessor_8h.html"];
  Node36 -> Node37 [color="midnightblue",fontsize="10",style="solid",fontname="Helvetica"];
  Node37 [label="itkBinaryThresholdImageFilter.h",height=0.2,width=0.4,color="grey75", fillcolor="white", style="filled"];
  Node36 -> Node38 [color="midnightblue",fontsize="10",style="solid",fontname="Helvetica"];
  Node38 [label="coreBaseProcessor.h",height=0.2,width=0.4,color="black", fillcolor="white", style="filled",URL="$coreBaseProcessor_8h.html"];
  Node38 -> Node39 [color="midnightblue",fontsize="10",style="solid",fontname="Helvetica"];
  Node39 [label="gmFilteringWin32Header.h",height=0.2,width=0.4,color="grey75", fillcolor="white", style="filled"];
  Node38 -> Node9 [color="midnightblue",fontsize="10",style="solid",fontname="Helvetica"];
  Node38 -> Node35 [color="midnightblue",fontsize="10",style="solid",fontname="Helvetica"];
  Node38 -> Node8 [color="midnightblue",fontsize="10",style="solid",fontname="Helvetica"];
  Node38 -> Node40 [color="midnightblue",fontsize="10",style="solid",fontname="Helvetica"];
  Node40 [label="coreBaseFilter.h",height=0.2,width=0.4,color="red", fillcolor="white", style="filled",URL="$coreBaseFilter_8h.html"];
  Node40 -> Node9 [color="midnightblue",fontsize="10",style="solid",fontname="Helvetica"];
  Node40 -> Node35 [color="midnightblue",fontsize="10",style="solid",fontname="Helvetica"];
  Node40 -> Node8 [color="midnightblue",fontsize="10",style="solid",fontname="Helvetica"];
  Node38 -> Node41 [color="midnightblue",fontsize="10",style="solid",fontname="Helvetica"];
  Node41 [label="ModuleDescription.h",height=0.2,width=0.4,color="grey75", fillcolor="white", style="filled"];
  Node38 -> Node42 [color="midnightblue",fontsize="10",style="solid",fontname="Helvetica"];
  Node42 [label="coreBaseProcessor.txx",height=0.2,width=0.4,color="grey75", fillcolor="white", style="filled"];
  Node36 -> Node23 [color="midnightblue",fontsize="10",style="solid",fontname="Helvetica"];
  Node36 -> Node26 [color="midnightblue",fontsize="10",style="solid",fontname="Helvetica"];
  Node36 -> Node43 [color="midnightblue",fontsize="10",style="solid",fontname="Helvetica"];
  Node43 [label="corePluginMacros.h",height=0.2,width=0.4,color="black", fillcolor="white", style="filled",URL="$corePluginMacros_8h.html"];
  Node1 -> Node44 [color="midnightblue",fontsize="10",style="solid",fontname="Helvetica"];
  Node44 [label="coreDataEntityReader.h",height=0.2,width=0.4,color="black", fillcolor="white", style="filled",URL="$coreDataEntityReader_8h.html"];
  Node44 -> Node9 [color="midnightblue",fontsize="10",style="solid",fontname="Helvetica"];
  Node44 -> Node8 [color="midnightblue",fontsize="10",style="solid",fontname="Helvetica"];
  Node44 -> Node45 [color="midnightblue",fontsize="10",style="solid",fontname="Helvetica"];
  Node45 [label="coreBaseDataEntityReader.h",height=0.2,width=0.4,color="black", fillcolor="white", style="filled",URL="$coreBaseDataEntityReader_8h.html"];
  Node45 -> Node46 [color="midnightblue",fontsize="10",style="solid",fontname="Helvetica"];
  Node46 [label="gmIOWin32Header.h",height=0.2,width=0.4,color="grey75", fillcolor="white", style="filled"];
  Node45 -> Node9 [color="midnightblue",fontsize="10",style="solid",fontname="Helvetica"];
  Node45 -> Node8 [color="midnightblue",fontsize="10",style="solid",fontname="Helvetica"];
  Node45 -> Node47 [color="midnightblue",fontsize="10",style="solid",fontname="Helvetica"];
  Node47 [label="coreBaseIO.h",height=0.2,width=0.4,color="black", fillcolor="white", style="filled",URL="$coreBaseIO_8h.html"];
  Node47 -> Node46 [color="midnightblue",fontsize="10",style="solid",fontname="Helvetica"];
  Node47 -> Node9 [color="midnightblue",fontsize="10",style="solid",fontname="Helvetica"];
  Node47 -> Node8 [color="midnightblue",fontsize="10",style="solid",fontname="Helvetica"];
  Node47 -> Node38 [color="midnightblue",fontsize="10",style="solid",fontname="Helvetica"];
  Node44 -> Node38 [color="midnightblue",fontsize="10",style="solid",fontname="Helvetica"];
  Node44 -> Node6 [color="midnightblue",fontsize="10",style="solid",fontname="Helvetica"];
  Node44 -> Node17 [color="midnightblue",fontsize="10",style="solid",fontname="Helvetica"];
  Node44 -> Node25 [color="midnightblue",fontsize="10",style="solid",fontname="Helvetica"];
  Node1 -> Node48 [color="midnightblue",fontsize="10",style="solid",fontname="Helvetica"];
  Node48 [label="coreDataEntityWriter.h",height=0.2,width=0.4,color="black", fillcolor="white", style="filled",URL="$coreDataEntityWriter_8h.html"];
  Node48 -> Node9 [color="midnightblue",fontsize="10",style="solid",fontname="Helvetica"];
  Node48 -> Node8 [color="midnightblue",fontsize="10",style="solid",fontname="Helvetica"];
  Node48 -> Node49 [color="midnightblue",fontsize="10",style="solid",fontname="Helvetica"];
  Node49 [label="coreBaseDataEntityWriter.h",height=0.2,width=0.4,color="black", fillcolor="white", style="filled",URL="$coreBaseDataEntityWriter_8h.html"];
  Node49 -> Node46 [color="midnightblue",fontsize="10",style="solid",fontname="Helvetica"];
  Node49 -> Node9 [color="midnightblue",fontsize="10",style="solid",fontname="Helvetica"];
  Node49 -> Node8 [color="midnightblue",fontsize="10",style="solid",fontname="Helvetica"];
  Node49 -> Node47 [color="midnightblue",fontsize="10",style="solid",fontname="Helvetica"];
  Node48 -> Node38 [color="midnightblue",fontsize="10",style="solid",fontname="Helvetica"];
  Node48 -> Node6 [color="midnightblue",fontsize="10",style="solid",fontname="Helvetica"];
  Node48 -> Node17 [color="midnightblue",fontsize="10",style="solid",fontname="Helvetica"];
  Node48 -> Node25 [color="midnightblue",fontsize="10",style="solid",fontname="Helvetica"];
  Node1 -> Node50 [color="midnightblue",fontsize="10",style="solid",fontname="Helvetica"];
  Node50 [label="boost/format.hpp",height=0.2,width=0.4,color="grey75", fillcolor="white", style="filled"];
}
