digraph "Modules/TpExtLib/tpExtLibCmguiPCH.h"
{
  edge [fontname="Helvetica",fontsize="10",labelfontname="Helvetica",labelfontsize="10"];
  node [fontname="Helvetica",fontsize="10",shape=record];
  Node1 [label="Modules/TpExtLib/tpExtLib\lCmguiPCH.h",height=0.2,width=0.4,color="black", fillcolor="grey75", style="filled", fontcolor="black"];
  Node1 -> Node2 [color="midnightblue",fontsize="10",style="solid",fontname="Helvetica"];
  Node2 [label="api/cmiss_command_data.h",height=0.2,width=0.4,color="grey75", fillcolor="white", style="filled"];
  Node1 -> Node3 [color="midnightblue",fontsize="10",style="solid",fontname="Helvetica"];
  Node3 [label="api/cmiss_element.h",height=0.2,width=0.4,color="grey75", fillcolor="white", style="filled"];
  Node1 -> Node4 [color="midnightblue",fontsize="10",style="solid",fontname="Helvetica"];
  Node4 [label="api/cmiss_field.h",height=0.2,width=0.4,color="grey75", fillcolor="white", style="filled"];
  Node1 -> Node5 [color="midnightblue",fontsize="10",style="solid",fontname="Helvetica"];
  Node5 [label="api/cmiss_field_composite.h",height=0.2,width=0.4,color="grey75", fillcolor="white", style="filled"];
  Node1 -> Node6 [color="midnightblue",fontsize="10",style="solid",fontname="Helvetica"];
  Node6 [label="api/cmiss_field_image.h",height=0.2,width=0.4,color="grey75", fillcolor="white", style="filled"];
  Node1 -> Node7 [color="midnightblue",fontsize="10",style="solid",fontname="Helvetica"];
  Node7 [label="api/cmiss_region.h",height=0.2,width=0.4,color="grey75", fillcolor="white", style="filled"];
  Node1 -> Node8 [color="midnightblue",fontsize="10",style="solid",fontname="Helvetica"];
  Node8 [label="api/cmiss_scene_viewer.h",height=0.2,width=0.4,color="grey75", fillcolor="white", style="filled"];
  Node1 -> Node9 [color="midnightblue",fontsize="10",style="solid",fontname="Helvetica"];
  Node9 [label="api/cmiss_texture.h",height=0.2,width=0.4,color="grey75", fillcolor="white", style="filled"];
  Node1 -> Node10 [color="midnightblue",fontsize="10",style="solid",fontname="Helvetica"];
  Node10 [label="command/cmiss.h",height=0.2,width=0.4,color="grey75", fillcolor="white", style="filled"];
  Node1 -> Node11 [color="midnightblue",fontsize="10",style="solid",fontname="Helvetica"];
  Node11 [label="graphics/scene.h",height=0.2,width=0.4,color="grey75", fillcolor="white", style="filled"];
  Node1 -> Node12 [color="midnightblue",fontsize="10",style="solid",fontname="Helvetica"];
  Node12 [label="graphics/scene_viewer.h",height=0.2,width=0.4,color="grey75", fillcolor="white", style="filled"];
  Node1 -> Node13 [color="midnightblue",fontsize="10",style="solid",fontname="Helvetica"];
  Node13 [label="user_interface/message.h",height=0.2,width=0.4,color="grey75", fillcolor="white", style="filled"];
  Node1 -> Node14 [color="midnightblue",fontsize="10",style="solid",fontname="Helvetica"];
  Node14 [label="api/cmiss_material.h",height=0.2,width=0.4,color="grey75", fillcolor="white", style="filled"];
  Node1 -> Node15 [color="midnightblue",fontsize="10",style="solid",fontname="Helvetica"];
  Node15 [label="api/cmiss_graphics\l_module.h",height=0.2,width=0.4,color="grey75", fillcolor="white", style="filled"];
  Node1 -> Node16 [color="midnightblue",fontsize="10",style="solid",fontname="Helvetica"];
  Node16 [label="general/image_utilities.h",height=0.2,width=0.4,color="grey75", fillcolor="white", style="filled"];
  Node1 -> Node17 [color="midnightblue",fontsize="10",style="solid",fontname="Helvetica"];
  Node17 [label="graphics/texture.h",height=0.2,width=0.4,color="grey75", fillcolor="white", style="filled"];
  Node1 -> Node18 [color="midnightblue",fontsize="10",style="solid",fontname="Helvetica"];
  Node18 [label="graphics/material.h",height=0.2,width=0.4,color="grey75", fillcolor="white", style="filled"];
  Node1 -> Node19 [color="midnightblue",fontsize="10",style="solid",fontname="Helvetica"];
  Node19 [label="finite_element/finite\l_element_helper.h",height=0.2,width=0.4,color="grey75", fillcolor="white", style="filled"];
  Node1 -> Node20 [color="midnightblue",fontsize="10",style="solid",fontname="Helvetica"];
  Node20 [label="finite_element/export\l_finite_element.h",height=0.2,width=0.4,color="grey75", fillcolor="white", style="filled"];
  Node1 -> Node21 [color="midnightblue",fontsize="10",style="solid",fontname="Helvetica"];
  Node21 [label="vtkStructuredPoints.h",height=0.2,width=0.4,color="grey75", fillcolor="white", style="filled"];
  Node1 -> Node22 [color="midnightblue",fontsize="10",style="solid",fontname="Helvetica"];
  Node22 [label="vtkStructuredPointsReader.h",height=0.2,width=0.4,color="grey75", fillcolor="white", style="filled"];
  Node1 -> Node23 [color="midnightblue",fontsize="10",style="solid",fontname="Helvetica"];
  Node23 [label="vtkSmartPointer.h",height=0.2,width=0.4,color="grey75", fillcolor="white", style="filled"];
  Node1 -> Node24 [color="midnightblue",fontsize="10",style="solid",fontname="Helvetica"];
  Node24 [label="vtkImageData.h",height=0.2,width=0.4,color="grey75", fillcolor="white", style="filled"];
  Node1 -> Node25 [color="midnightblue",fontsize="10",style="solid",fontname="Helvetica"];
  Node25 [label="wx/app.h",height=0.2,width=0.4,color="grey75", fillcolor="white", style="filled"];
  Node1 -> Node26 [color="midnightblue",fontsize="10",style="solid",fontname="Helvetica"];
  Node26 [label="wx/wxprec.h",height=0.2,width=0.4,color="grey75", fillcolor="white", style="filled"];
  Node1 -> Node27 [color="midnightblue",fontsize="10",style="solid",fontname="Helvetica"];
  Node27 [label="wx/wx.h",height=0.2,width=0.4,color="grey75", fillcolor="white", style="filled"];
}
