digraph "Apps/Plugins/GenericSegmentationPlugin/widgets/TransformationBoxWidget/TransformationBoxPanelWidget.cpp"
{
  edge [fontname="Helvetica",fontsize="10",labelfontname="Helvetica",labelfontsize="10"];
  node [fontname="Helvetica",fontsize="10",shape=record];
  Node1 [label="Apps/Plugins/GenericSegmentation\lPlugin/widgets/TransformationBoxWidget\l/TransformationBoxPanelWidget.cpp",height=0.2,width=0.4,color="black", fillcolor="grey75", style="filled", fontcolor="black"];
  Node1 -> Node2 [color="midnightblue",fontsize="10",style="solid",fontname="Helvetica"];
  Node2 [label="TransformationBoxPanelWidget.h",height=0.2,width=0.4,color="black", fillcolor="white", style="filled",URL="$TransformationBoxPanelWidget_8h.html"];
  Node2 -> Node3 [color="midnightblue",fontsize="10",style="solid",fontname="Helvetica"];
  Node3 [label="TransformationBoxProcessor.h",height=0.2,width=0.4,color="red", fillcolor="white", style="filled",URL="$TransformationBoxProcessor_8h.html"];
  Node2 -> Node4 [color="midnightblue",fontsize="10",style="solid",fontname="Helvetica"];
  Node4 [label="TransformationBoxPanelWidgetUI.h",height=0.2,width=0.4,color="red", fillcolor="white", style="filled",URL="$TransformationBoxPanelWidgetUI_8h.html"];
  Node4 -> Node5 [color="midnightblue",fontsize="10",style="solid",fontname="Helvetica"];
  Node5 [label="wxID.h",height=0.2,width=0.4,color="red", fillcolor="white", style="filled",URL="$wxID_8h.html"];
  Node5 -> Node6 [color="midnightblue",fontsize="10",style="solid",fontname="Helvetica"];
  Node6 [label="string",height=0.2,width=0.4,color="grey75", fillcolor="white", style="filled"];
  Node2 -> Node7 [color="midnightblue",fontsize="10",style="solid",fontname="Helvetica"];
  Node7 [label="coreRenderingTree.h",height=0.2,width=0.4,color="red", fillcolor="white", style="filled",URL="$coreRenderingTree_8h.html"];
  Node7 -> Node8 [color="midnightblue",fontsize="10",style="solid",fontname="Helvetica"];
  Node8 [label="gmKernelWin32Header.h",height=0.2,width=0.4,color="grey75", fillcolor="white", style="filled"];
  Node7 -> Node9 [color="midnightblue",fontsize="10",style="solid",fontname="Helvetica"];
  Node9 [label="coreObject.h",height=0.2,width=0.4,color="red", fillcolor="white", style="filled",URL="$coreObject_8h.html"];
  Node7 -> Node10 [color="midnightblue",fontsize="10",style="solid",fontname="Helvetica"];
  Node10 [label="coreDataEntity.h",height=0.2,width=0.4,color="red", fillcolor="white", style="filled",URL="$coreDataEntity_8h.html"];
  Node10 -> Node9 [color="midnightblue",fontsize="10",style="solid",fontname="Helvetica"];
  Node10 -> Node6 [color="midnightblue",fontsize="10",style="solid",fontname="Helvetica"];
  Node2 -> Node11 [color="midnightblue",fontsize="10",style="solid",fontname="Helvetica"];
  Node11 [label="corePointInteractorPoint\lSet.h",height=0.2,width=0.4,color="red", fillcolor="white", style="filled",URL="$corePointInteractorPointSet_8h.html"];
  Node2 -> Node12 [color="midnightblue",fontsize="10",style="solid",fontname="Helvetica"];
  Node12 [label="coreProcessingWidget.h",height=0.2,width=0.4,color="red", fillcolor="white", style="filled",URL="$coreProcessingWidget_8h.html"];
  Node12 -> Node7 [color="midnightblue",fontsize="10",style="solid",fontname="Helvetica"];
  Node12 -> Node13 [color="midnightblue",fontsize="10",style="solid",fontname="Helvetica"];
  Node13 [label="coreUserHelperWidget.h",height=0.2,width=0.4,color="black", fillcolor="white", style="filled",URL="$coreUserHelperWidget_8h.html"];
  Node13 -> Node14 [color="midnightblue",fontsize="10",style="solid",fontname="Helvetica"];
  Node14 [label="gmWidgetsWin32Header.h",height=0.2,width=0.4,color="grey75", fillcolor="white", style="filled"];
  Node13 -> Node15 [color="midnightblue",fontsize="10",style="solid",fontname="Helvetica"];
  Node15 [label="wx/panel.h",height=0.2,width=0.4,color="grey75", fillcolor="white", style="filled"];
  Node13 -> Node6 [color="midnightblue",fontsize="10",style="solid",fontname="Helvetica"];
  Node13 -> Node16 [color="midnightblue",fontsize="10",style="solid",fontname="Helvetica"];
  Node16 [label="coreUserHelperWidgetUI.h",height=0.2,width=0.4,color="red", fillcolor="white", style="filled",URL="$coreUserHelperWidgetUI_8h.html"];
  Node13 -> Node17 [color="midnightblue",fontsize="10",style="solid",fontname="Helvetica"];
  Node17 [label="coreBaseWindow.h",height=0.2,width=0.4,color="red", fillcolor="white", style="filled",URL="$coreBaseWindow_8h.html"];
  Node17 -> Node8 [color="midnightblue",fontsize="10",style="solid",fontname="Helvetica"];
  Node17 -> Node7 [color="midnightblue",fontsize="10",style="solid",fontname="Helvetica"];
  Node17 -> Node18 [color="midnightblue",fontsize="10",style="solid",fontname="Helvetica"];
  Node18 [label="coreCommonDataTypes.h",height=0.2,width=0.4,color="red", fillcolor="white", style="filled",URL="$coreCommonDataTypes_8h.html"];
  Node13 -> Node5 [color="midnightblue",fontsize="10",style="solid",fontname="Helvetica"];
  Node12 -> Node17 [color="midnightblue",fontsize="10",style="solid",fontname="Helvetica"];
  Node2 -> Node19 [color="midnightblue",fontsize="10",style="solid",fontname="Helvetica"];
  Node19 [label="vtkBoxWidget.h",height=0.2,width=0.4,color="grey75", fillcolor="white", style="filled"];
  Node1 -> Node20 [color="midnightblue",fontsize="10",style="solid",fontname="Helvetica"];
  Node20 [label="gblWxBridgeLib.h",height=0.2,width=0.4,color="black", fillcolor="white", style="filled",URL="$gblWxBridgeLib_8h.html"];
  Node20 -> Node21 [color="midnightblue",fontsize="10",style="solid",fontname="Helvetica"];
  Node21 [label="gblWxConnectorOfWidgetChanges\lToSlotFunction.h",height=0.2,width=0.4,color="red", fillcolor="white", style="filled",URL="$gblWxConnectorOfWidgetChangesToSlotFunction_8h.html"];
  Node21 -> Node22 [color="midnightblue",fontsize="10",style="solid",fontname="Helvetica"];
  Node22 [label="CILabNamespaceMacros.h",height=0.2,width=0.4,color="black", fillcolor="white", style="filled",URL="$CILabNamespaceMacros_8h.html"];
  Node20 -> Node23 [color="midnightblue",fontsize="10",style="solid",fontname="Helvetica"];
  Node23 [label="gblWxTextCtrlValueProxy.h",height=0.2,width=0.4,color="red", fillcolor="white", style="filled",URL="$gblWxTextCtrlValueProxy_8h.html"];
  Node20 -> Node24 [color="midnightblue",fontsize="10",style="solid",fontname="Helvetica"];
  Node24 [label="gblWxRadioButtonValueProxy.h",height=0.2,width=0.4,color="red", fillcolor="white", style="filled",URL="$gblWxRadioButtonValueProxy_8h.html"];
  Node20 -> Node25 [color="midnightblue",fontsize="10",style="solid",fontname="Helvetica"];
  Node25 [label="gblWxRadioBoxValueProxy.h",height=0.2,width=0.4,color="red", fillcolor="white", style="filled",URL="$gblWxRadioBoxValueProxy_8h.html"];
  Node20 -> Node26 [color="midnightblue",fontsize="10",style="solid",fontname="Helvetica"];
  Node26 [label="gblWxToggleButtonValueProxy.h",height=0.2,width=0.4,color="red", fillcolor="white", style="filled",URL="$gblWxToggleButtonValueProxy_8h.html"];
  Node20 -> Node27 [color="midnightblue",fontsize="10",style="solid",fontname="Helvetica"];
  Node27 [label="gblWxListBoxValueProxy.h",height=0.2,width=0.4,color="red", fillcolor="white", style="filled",URL="$gblWxListBoxValueProxy_8h.html"];
  Node20 -> Node28 [color="midnightblue",fontsize="10",style="solid",fontname="Helvetica"];
  Node28 [label="gblWxComboBoxValueProxy.h",height=0.2,width=0.4,color="red", fillcolor="white", style="filled",URL="$gblWxComboBoxValueProxy_8h.html"];
  Node20 -> Node29 [color="midnightblue",fontsize="10",style="solid",fontname="Helvetica"];
  Node29 [label="gblWxChoiceValueProxy.h",height=0.2,width=0.4,color="red", fillcolor="white", style="filled",URL="$gblWxChoiceValueProxy_8h.html"];
  Node20 -> Node30 [color="midnightblue",fontsize="10",style="solid",fontname="Helvetica"];
  Node30 [label="gblWxCheckBoxValueProxy.h",height=0.2,width=0.4,color="red", fillcolor="white", style="filled",URL="$gblWxCheckBoxValueProxy_8h.html"];
  Node20 -> Node31 [color="midnightblue",fontsize="10",style="solid",fontname="Helvetica"];
  Node31 [label="gblWxCheckableControlValue\lProxy.h",height=0.2,width=0.4,color="red", fillcolor="white", style="filled",URL="$gblWxCheckableControlValueProxy_8h.html"];
  Node20 -> Node32 [color="midnightblue",fontsize="10",style="solid",fontname="Helvetica"];
  Node32 [label="gblBridge.h",height=0.2,width=0.4,color="red", fillcolor="white", style="filled",URL="$gblBridge_8h.html"];
  Node32 -> Node6 [color="midnightblue",fontsize="10",style="solid",fontname="Helvetica"];
  Node32 -> Node22 [color="midnightblue",fontsize="10",style="solid",fontname="Helvetica"];
  Node20 -> Node33 [color="midnightblue",fontsize="10",style="solid",fontname="Helvetica"];
  Node33 [label="gblWxButtonEventProxy.h",height=0.2,width=0.4,color="black", fillcolor="white", style="filled",URL="$gblWxButtonEventProxy_8h.html"];
  Node33 -> Node34 [color="midnightblue",fontsize="10",style="solid",fontname="Helvetica"];
  Node34 [label="wx/button.h",height=0.2,width=0.4,color="grey75", fillcolor="white", style="filled"];
  Node33 -> Node32 [color="midnightblue",fontsize="10",style="solid",fontname="Helvetica"];
  Node20 -> Node35 [color="midnightblue",fontsize="10",style="solid",fontname="Helvetica"];
  Node35 [label="gblWxChoiceBookValueProxy.h",height=0.2,width=0.4,color="red", fillcolor="white", style="filled",URL="$gblWxChoiceBookValueProxy_8h.html"];
  Node35 -> Node35 [color="midnightblue",fontsize="10",style="solid",fontname="Helvetica"];
  Node20 -> Node36 [color="midnightblue",fontsize="10",style="solid",fontname="Helvetica"];
  Node36 [label="gblWxValidate.h",height=0.2,width=0.4,color="red", fillcolor="white", style="filled",URL="$gblWxValidate_8h.html"];
  Node36 -> Node22 [color="midnightblue",fontsize="10",style="solid",fontname="Helvetica"];
  Node20 -> Node37 [color="midnightblue",fontsize="10",style="solid",fontname="Helvetica"];
  Node37 [label="gblWxSliderValueProxy.h",height=0.2,width=0.4,color="red", fillcolor="white", style="filled",URL="$gblWxSliderValueProxy_8h.html"];
  Node20 -> Node38 [color="midnightblue",fontsize="10",style="solid",fontname="Helvetica"];
  Node38 [label="gblWxFloatSliderValueProxy.h",height=0.2,width=0.4,color="red", fillcolor="white", style="filled",URL="$gblWxFloatSliderValueProxy_8h.html"];
  Node20 -> Node39 [color="midnightblue",fontsize="10",style="solid",fontname="Helvetica"];
  Node39 [label="gblWxSliderWithTextValue\lProxy.h",height=0.2,width=0.4,color="red", fillcolor="white", style="filled",URL="$gblWxSliderWithTextValueProxy_8h.html"];
  Node1 -> Node33 [color="midnightblue",fontsize="10",style="solid",fontname="Helvetica"];
  Node1 -> Node13 [color="midnightblue",fontsize="10",style="solid",fontname="Helvetica"];
  Node1 -> Node40 [color="midnightblue",fontsize="10",style="solid",fontname="Helvetica"];
  Node40 [label="coreDataTreeHelper.h",height=0.2,width=0.4,color="black", fillcolor="white", style="filled",URL="$coreDataTreeHelper_8h.html"];
  Node40 -> Node14 [color="midnightblue",fontsize="10",style="solid",fontname="Helvetica"];
  Node40 -> Node9 [color="midnightblue",fontsize="10",style="solid",fontname="Helvetica"];
  Node40 -> Node10 [color="midnightblue",fontsize="10",style="solid",fontname="Helvetica"];
  Node40 -> Node7 [color="midnightblue",fontsize="10",style="solid",fontname="Helvetica"];
  Node1 -> Node41 [color="midnightblue",fontsize="10",style="solid",fontname="Helvetica"];
  Node41 [label="coreReportExceptionMacros.h",height=0.2,width=0.4,color="black", fillcolor="white", style="filled",URL="$coreReportExceptionMacros_8h.html"];
  Node41 -> Node8 [color="midnightblue",fontsize="10",style="solid",fontname="Helvetica"];
  Node41 -> Node42 [color="midnightblue",fontsize="10",style="solid",fontname="Helvetica"];
  Node42 [label="coreException.h",height=0.2,width=0.4,color="red", fillcolor="white", style="filled",URL="$coreException_8h.html"];
  Node42 -> Node6 [color="midnightblue",fontsize="10",style="solid",fontname="Helvetica"];
  Node41 -> Node22 [color="midnightblue",fontsize="10",style="solid",fontname="Helvetica"];
  Node1 -> Node43 [color="midnightblue",fontsize="10",style="solid",fontname="Helvetica"];
  Node43 [label="coreMultiRenderWindowMITK.h",height=0.2,width=0.4,color="red", fillcolor="white", style="filled",URL="$coreMultiRenderWindowMITK_8h.html"];
  Node43 -> Node44 [color="midnightblue",fontsize="10",style="solid",fontname="Helvetica"];
  Node44 [label="coreMultiRenderWindow.h",height=0.2,width=0.4,color="red", fillcolor="white", style="filled",URL="$coreMultiRenderWindow_8h.html"];
  Node43 -> Node45 [color="midnightblue",fontsize="10",style="solid",fontname="Helvetica"];
  Node45 [label="coreRenderingTreeMITK.h",height=0.2,width=0.4,color="red", fillcolor="white", style="filled",URL="$coreRenderingTreeMITK_8h.html"];
  Node45 -> Node7 [color="midnightblue",fontsize="10",style="solid",fontname="Helvetica"];
  Node43 -> Node18 [color="midnightblue",fontsize="10",style="solid",fontname="Helvetica"];
  Node43 -> Node46 [color="midnightblue",fontsize="10",style="solid",fontname="Helvetica"];
  Node46 [label="coreMultiRenderWindowOverlay.h",height=0.2,width=0.4,color="red", fillcolor="white", style="filled",URL="$coreMultiRenderWindowOverlay_8h.html"];
  Node46 -> Node9 [color="midnightblue",fontsize="10",style="solid",fontname="Helvetica"];
  Node1 -> Node47 [color="midnightblue",fontsize="10",style="solid",fontname="Helvetica"];
  Node47 [label="mitkBaseVtkMapper3D.h",height=0.2,width=0.4,color="grey75", fillcolor="white", style="filled"];
  Node1 -> Node48 [color="midnightblue",fontsize="10",style="solid",fontname="Helvetica"];
  Node48 [label="mitkBaseRenderer.h",height=0.2,width=0.4,color="grey75", fillcolor="white", style="filled"];
  Node1 -> Node49 [color="midnightblue",fontsize="10",style="solid",fontname="Helvetica"];
  Node49 [label="vtkTransform.h",height=0.2,width=0.4,color="grey75", fillcolor="white", style="filled"];
  Node1 -> Node50 [color="midnightblue",fontsize="10",style="solid",fontname="Helvetica"];
  Node50 [label="vtkProp3D.h",height=0.2,width=0.4,color="grey75", fillcolor="white", style="filled"];
}
