digraph "Apps/Plugins/MeshEditorPlugin/widgets/VolumeClosingWidget/VolumeClosingPanelWidgetUI.cpp"
{
  edge [fontname="Helvetica",fontsize="10",labelfontname="Helvetica",labelfontsize="10"];
  node [fontname="Helvetica",fontsize="10",shape=record];
  Node1 [label="Apps/Plugins/MeshEditorPlugin\l/widgets/VolumeClosingWidget\l/VolumeClosingPanelWidgetUI.cpp",height=0.2,width=0.4,color="black", fillcolor="grey75", style="filled", fontcolor="black"];
  Node1 -> Node2 [color="midnightblue",fontsize="10",style="solid",fontname="Helvetica"];
  Node2 [label="VolumeClosingPanelWidgetUI.h",height=0.2,width=0.4,color="black", fillcolor="white", style="filled",URL="$VolumeClosingPanelWidgetUI_8h.html"];
  Node2 -> Node3 [color="midnightblue",fontsize="10",style="solid",fontname="Helvetica"];
  Node3 [label="wx/wx.h",height=0.2,width=0.4,color="grey75", fillcolor="white", style="filled"];
  Node2 -> Node4 [color="midnightblue",fontsize="10",style="solid",fontname="Helvetica"];
  Node4 [label="wx/image.h",height=0.2,width=0.4,color="grey75", fillcolor="white", style="filled"];
  Node2 -> Node5 [color="midnightblue",fontsize="10",style="solid",fontname="Helvetica"];
  Node5 [label="wx/tglbtn.h",height=0.2,width=0.4,color="grey75", fillcolor="white", style="filled"];
}
