digraph "Modules/WflLib/libmodules/wflIO/src/wflIOBase.h"
{
  edge [fontname="Helvetica",fontsize="10",labelfontname="Helvetica",labelfontsize="10"];
  node [fontname="Helvetica",fontsize="10",shape=record];
  Node1 [label="Modules/WflLib/libmodules\l/wflIO/src/wflIOBase.h",height=0.2,width=0.4,color="black", fillcolor="grey75", style="filled", fontcolor="black"];
  Node1 -> Node2 [dir="back",color="midnightblue",fontsize="10",style="solid",fontname="Helvetica"];
  Node2 [label="Modules/WflLib/libmodules\l/wflIO/src/wflIOBase.cxx",height=0.2,width=0.4,color="black", fillcolor="white", style="filled",URL="$wflIOBase_8cxx.html"];
  Node1 -> Node3 [dir="back",color="midnightblue",fontsize="10",style="solid",fontname="Helvetica"];
  Node3 [label="Modules/WflLib/libmodules\l/wflIO/src/wflT2FlowReader.h",height=0.2,width=0.4,color="black", fillcolor="white", style="filled",URL="$wflT2FlowReader_8h.html"];
  Node3 -> Node4 [dir="back",color="midnightblue",fontsize="10",style="solid",fontname="Helvetica"];
  Node4 [label="Modules/WflLib/libmodules\l/wflIO/src/wflT2FlowReader.cpp",height=0.2,width=0.4,color="black", fillcolor="white", style="filled",URL="$wflT2FlowReader_8cpp.html"];
  Node3 -> Node5 [dir="back",color="midnightblue",fontsize="10",style="solid",fontname="Helvetica"];
  Node5 [label="Modules/WflLib/libmodules\l/wflIO/src/wflWorkflowFactory.cxx",height=0.2,width=0.4,color="black", fillcolor="white", style="filled",URL="$wflWorkflowFactory_8cxx.html"];
}
