digraph "Modules/wxMitk/libmodules/wxMitkWidgets/include/wxMitkScalarOpacityControl.h"
{
  edge [fontname="Helvetica",fontsize="10",labelfontname="Helvetica",labelfontsize="10"];
  node [fontname="Helvetica",fontsize="10",shape=record];
  Node1 [label="Modules/wxMitk/libmodules\l/wxMitkWidgets/include\l/wxMitkScalarOpacityControl.h",height=0.2,width=0.4,color="black", fillcolor="grey75", style="filled", fontcolor="black"];
  Node1 -> Node2 [dir="back",color="midnightblue",fontsize="10",style="solid",fontname="Helvetica"];
  Node2 [label="Modules/wxMitk/libmodules\l/wxMitkWidgets/src/wxMitkScalar\lOpacityControl.cxx",height=0.2,width=0.4,color="black", fillcolor="white", style="filled",URL="$wxMitkScalarOpacityControl_8cxx.html"];
  Node1 -> Node3 [dir="back",color="midnightblue",fontsize="10",style="solid",fontname="Helvetica"];
  Node3 [label="Modules/wxMitk/libmodules\l/wxMitkWidgets/src/wxMitkScalar\lOpacityWidget.cxx",height=0.2,width=0.4,color="black", fillcolor="white", style="filled",URL="$wxMitkScalarOpacityWidget_8cxx.html"];
}
