digraph "Modules/wxMitk/libmodules/wxMitkWidgets/include/wxMitkMultiSliceFactory.h"
{
  edge [fontname="Helvetica",fontsize="10",labelfontname="Helvetica",labelfontsize="10"];
  node [fontname="Helvetica",fontsize="10",shape=record];
  Node1 [label="Modules/wxMitk/libmodules\l/wxMitkWidgets/include\l/wxMitkMultiSliceFactory.h",height=0.2,width=0.4,color="black", fillcolor="grey75", style="filled", fontcolor="black"];
  Node1 -> Node2 [dir="back",color="midnightblue",fontsize="10",style="solid",fontname="Helvetica"];
  Node2 [label="Modules/wxMitk/libmodules\l/wxMitkWidgets/src/wxMitkMulti\lSliceFactory.cxx",height=0.2,width=0.4,color="black", fillcolor="white", style="filled",URL="$wxMitkMultiSliceFactory_8cxx.html"];
  Node1 -> Node3 [dir="back",color="midnightblue",fontsize="10",style="solid",fontname="Helvetica"];
  Node3 [label="Modules/wxMitk/libmodules\l/wxMitkWidgets/src/wxMitkTestRendering\lTreeWidget.cxx",height=0.2,width=0.4,color="black", fillcolor="white", style="filled",URL="$wxMitkTestRenderingTreeWidget_8cxx.html"];
}
