digraph "Modules/wxMitk/libmodules/wxMitkWidgets/include/wxMitkTransformVisualPropWidgetUI.h"
{
  edge [fontname="Helvetica",fontsize="10",labelfontname="Helvetica",labelfontsize="10"];
  node [fontname="Helvetica",fontsize="10",shape=record];
  Node1 [label="Modules/wxMitk/libmodules\l/wxMitkWidgets/include\l/wxMitkTransformVisualPropWidgetUI.h",height=0.2,width=0.4,color="black", fillcolor="grey75", style="filled", fontcolor="black"];
  Node1 -> Node2 [dir="back",color="midnightblue",fontsize="10",style="solid",fontname="Helvetica"];
  Node2 [label="Modules/wxMitk/libmodules\l/wxMitkWidgets/include\l/wxMitkTransformVisualPropWidget.h",height=0.2,width=0.4,color="black", fillcolor="white", style="filled",URL="$wxMitkTransformVisualPropWidget_8h.html"];
  Node2 -> Node3 [dir="back",color="midnightblue",fontsize="10",style="solid",fontname="Helvetica"];
  Node3 [label="Apps/Plugins/MITKPlugin\l/MITKPluginPCH.h",height=0.2,width=0.4,color="black", fillcolor="white", style="filled",URL="$MITKPluginPCH_8h.html"];
  Node2 -> Node4 [dir="back",color="midnightblue",fontsize="10",style="solid",fontname="Helvetica"];
  Node4 [label="Apps/Plugins/MITKPlugin\l/widgets/VisualProps/coreITKTransform\lVisualPropertiesWidget.h",height=0.2,width=0.4,color="black", fillcolor="white", style="filled",URL="$coreITKTransformVisualPropertiesWidget_8h.html"];
  Node4 -> Node5 [dir="back",color="midnightblue",fontsize="10",style="solid",fontname="Helvetica"];
  Node5 [label="Apps/Plugins/MITKPlugin\l/MITKPluginWidgetCollective.cxx",height=0.2,width=0.4,color="black", fillcolor="white", style="filled",URL="$MITKPluginWidgetCollective_8cxx.html"];
  Node4 -> Node6 [dir="back",color="midnightblue",fontsize="10",style="solid",fontname="Helvetica"];
  Node6 [label="Apps/Plugins/MITKPlugin\l/widgets/VisualProps/coreITKTransform\lVisualPropertiesWidget.cxx",height=0.2,width=0.4,color="black", fillcolor="white", style="filled",URL="$coreITKTransformVisualPropertiesWidget_8cxx.html"];
  Node2 -> Node7 [dir="back",color="midnightblue",fontsize="10",style="solid",fontname="Helvetica"];
  Node7 [label="Modules/wxMitk/libmodules\l/wxMitkWidgets/resource\l/wxMitkTransformVisualPropWidget.cpp",height=0.2,width=0.4,color="black", fillcolor="white", style="filled",URL="$resource_2wxMitkTransformVisualPropWidget_8cpp.html"];
  Node2 -> Node8 [dir="back",color="midnightblue",fontsize="10",style="solid",fontname="Helvetica"];
  Node8 [label="Modules/wxMitk/libmodules\l/wxMitkWidgets/src/wxMitkTransform\lVisualPropWidget.cpp",height=0.2,width=0.4,color="black", fillcolor="white", style="filled",URL="$src_2wxMitkTransformVisualPropWidget_8cpp.html"];
  Node1 -> Node9 [dir="back",color="midnightblue",fontsize="10",style="solid",fontname="Helvetica"];
  Node9 [label="Modules/wxMitk/libmodules\l/wxMitkWidgets/src/wxMitkTransform\lVisualPropWidgetUI.cpp",height=0.2,width=0.4,color="black", fillcolor="white", style="filled",URL="$wxMitkTransformVisualPropWidgetUI_8cpp.html"];
}
