digraph "Modules/wxMitk/libmodules/wxMitkWidgets/include/wxMitkSliderLevelWindowControl.h"
{
  edge [fontname="Helvetica",fontsize="10",labelfontname="Helvetica",labelfontsize="10"];
  node [fontname="Helvetica",fontsize="10",shape=record];
  Node1 [label="Modules/wxMitk/libmodules\l/wxMitkWidgets/include\l/wxMitkSliderLevelWindowControl.h",height=0.2,width=0.4,color="black", fillcolor="grey75", style="filled", fontcolor="black"];
  Node1 -> Node2 [color="midnightblue",fontsize="10",style="solid",fontname="Helvetica"];
  Node2 [label="wxMitkWidgetsWin32Header.h",height=0.2,width=0.4,color="grey75", fillcolor="white", style="filled"];
  Node1 -> Node3 [color="midnightblue",fontsize="10",style="solid",fontname="Helvetica"];
  Node3 [label="wxMitkRangeSliderControl.h",height=0.2,width=0.4,color="black", fillcolor="white", style="filled",URL="$wxMitkRangeSliderControl_8h.html"];
  Node3 -> Node2 [color="midnightblue",fontsize="10",style="solid",fontname="Helvetica"];
  Node3 -> Node4 [color="midnightblue",fontsize="10",style="solid",fontname="Helvetica"];
  Node4 [label="mitkVector.h",height=0.2,width=0.4,color="grey75", fillcolor="white", style="filled"];
  Node3 -> Node5 [color="midnightblue",fontsize="10",style="solid",fontname="Helvetica"];
  Node5 [label="wx/event.h",height=0.2,width=0.4,color="grey75", fillcolor="white", style="filled"];
  Node3 -> Node6 [color="midnightblue",fontsize="10",style="solid",fontname="Helvetica"];
  Node6 [label="wx/control.h",height=0.2,width=0.4,color="grey75", fillcolor="white", style="filled"];
  Node1 -> Node7 [color="midnightblue",fontsize="10",style="solid",fontname="Helvetica"];
  Node7 [label="itkSmartPointer.h",height=0.2,width=0.4,color="grey75", fillcolor="white", style="filled"];
}
