digraph "Modules/wxMitk/libmodules/wxMitkWidgets/include/wxMitkColorFunctionControl.h"
{
  edge [fontname="Helvetica",fontsize="10",labelfontname="Helvetica",labelfontsize="10"];
  node [fontname="Helvetica",fontsize="10",shape=record];
  Node1 [label="Modules/wxMitk/libmodules\l/wxMitkWidgets/include\l/wxMitkColorFunctionControl.h",height=0.2,width=0.4,color="black", fillcolor="grey75", style="filled", fontcolor="black"];
  Node1 -> Node2 [color="midnightblue",fontsize="10",style="solid",fontname="Helvetica"];
  Node2 [label="wxMitkWidgetsWin32Header.h",height=0.2,width=0.4,color="grey75", fillcolor="white", style="filled"];
  Node1 -> Node3 [color="midnightblue",fontsize="10",style="solid",fontname="Helvetica"];
  Node3 [label="wxMitkHistogramCanvas.h",height=0.2,width=0.4,color="black", fillcolor="white", style="filled",URL="$wxMitkHistogramCanvas_8h.html"];
  Node3 -> Node2 [color="midnightblue",fontsize="10",style="solid",fontname="Helvetica"];
  Node3 -> Node4 [color="midnightblue",fontsize="10",style="solid",fontname="Helvetica"];
  Node4 [label="wxMitkPaintableInSetCanvas.h",height=0.2,width=0.4,color="black", fillcolor="white", style="filled",URL="$wxMitkPaintableInSetCanvas_8h.html"];
  Node4 -> Node2 [color="midnightblue",fontsize="10",style="solid",fontname="Helvetica"];
  Node3 -> Node5 [color="midnightblue",fontsize="10",style="solid",fontname="Helvetica"];
  Node5 [label="mitkHistogramGenerator.h",height=0.2,width=0.4,color="grey75", fillcolor="white", style="filled"];
  Node1 -> Node6 [color="midnightblue",fontsize="10",style="solid",fontname="Helvetica"];
  Node6 [label="wxMitkVtkColorTransferFunction\lCanvas.h",height=0.2,width=0.4,color="black", fillcolor="white", style="filled",URL="$wxMitkVtkColorTransferFunctionCanvas_8h.html"];
  Node6 -> Node2 [color="midnightblue",fontsize="10",style="solid",fontname="Helvetica"];
  Node6 -> Node4 [color="midnightblue",fontsize="10",style="solid",fontname="Helvetica"];
  Node1 -> Node7 [color="midnightblue",fontsize="10",style="solid",fontname="Helvetica"];
  Node7 [label="wxMitkMouseOverHistogram\lEvent.h",height=0.2,width=0.4,color="black", fillcolor="white", style="filled",URL="$wxMitkMouseOverHistogramEvent_8h.html"];
  Node7 -> Node8 [color="midnightblue",fontsize="10",style="solid",fontname="Helvetica"];
  Node8 [label="wxMitkRenderingWin32Header.h",height=0.2,width=0.4,color="grey75", fillcolor="white", style="filled"];
  Node7 -> Node9 [color="midnightblue",fontsize="10",style="solid",fontname="Helvetica"];
  Node9 [label="wx/event.h",height=0.2,width=0.4,color="grey75", fillcolor="white", style="filled"];
  Node1 -> Node10 [color="midnightblue",fontsize="10",style="solid",fontname="Helvetica"];
  Node10 [label="wx/control.h",height=0.2,width=0.4,color="grey75", fillcolor="white", style="filled"];
  Node1 -> Node9 [color="midnightblue",fontsize="10",style="solid",fontname="Helvetica"];
}
