digraph "Modules/wxMitk/libmodules/wxMitkWidgets/src/wxMitkImagePropertiesWidget.cxx"
{
  edge [fontname="Helvetica",fontsize="10",labelfontname="Helvetica",labelfontsize="10"];
  node [fontname="Helvetica",fontsize="10",shape=record];
  Node1 [label="Modules/wxMitk/libmodules\l/wxMitkWidgets/src/wxMitkImage\lPropertiesWidget.cxx",height=0.2,width=0.4,color="black", fillcolor="grey75", style="filled", fontcolor="black"];
  Node1 -> Node2 [color="midnightblue",fontsize="10",style="solid",fontname="Helvetica"];
  Node2 [label="wx/wxprec.h",height=0.2,width=0.4,color="grey75", fillcolor="white", style="filled"];
  Node1 -> Node3 [color="midnightblue",fontsize="10",style="solid",fontname="Helvetica"];
  Node3 [label="wx/wx.h",height=0.2,width=0.4,color="grey75", fillcolor="white", style="filled"];
  Node1 -> Node4 [color="midnightblue",fontsize="10",style="solid",fontname="Helvetica"];
  Node4 [label="wx/notebook.h",height=0.2,width=0.4,color="grey75", fillcolor="white", style="filled"];
  Node1 -> Node5 [color="midnightblue",fontsize="10",style="solid",fontname="Helvetica"];
  Node5 [label="wx/wupdlock.h",height=0.2,width=0.4,color="grey75", fillcolor="white", style="filled"];
  Node1 -> Node6 [color="midnightblue",fontsize="10",style="solid",fontname="Helvetica"];
  Node6 [label="wxMitkImagePropertiesWidget.h",height=0.2,width=0.4,color="black", fillcolor="white", style="filled",URL="$wxMitkImagePropertiesWidget_8h.html"];
  Node6 -> Node7 [color="midnightblue",fontsize="10",style="solid",fontname="Helvetica"];
  Node7 [label="wxMitkWidgetsWin32Header.h",height=0.2,width=0.4,color="grey75", fillcolor="white", style="filled"];
  Node6 -> Node8 [color="midnightblue",fontsize="10",style="solid",fontname="Helvetica"];
  Node8 [label="mitkProperties.h",height=0.2,width=0.4,color="grey75", fillcolor="white", style="filled"];
  Node6 -> Node9 [color="midnightblue",fontsize="10",style="solid",fontname="Helvetica"];
  Node9 [label="wx/panel.h",height=0.2,width=0.4,color="grey75", fillcolor="white", style="filled"];
  Node1 -> Node10 [color="midnightblue",fontsize="10",style="solid",fontname="Helvetica"];
  Node10 [label="wxMitkTransferFunctionWidget.h",height=0.2,width=0.4,color="black", fillcolor="white", style="filled",URL="$wxMitkTransferFunctionWidget_8h.html"];
  Node10 -> Node7 [color="midnightblue",fontsize="10",style="solid",fontname="Helvetica"];
  Node10 -> Node8 [color="midnightblue",fontsize="10",style="solid",fontname="Helvetica"];
  Node10 -> Node9 [color="midnightblue",fontsize="10",style="solid",fontname="Helvetica"];
  Node10 -> Node11 [color="midnightblue",fontsize="10",style="solid",fontname="Helvetica"];
  Node11 [label="mitkLookupTableProperty.h",height=0.2,width=0.4,color="grey75", fillcolor="white", style="filled"];
  Node10 -> Node12 [color="midnightblue",fontsize="10",style="solid",fontname="Helvetica"];
  Node12 [label="mitkTransferFunction.h",height=0.2,width=0.4,color="grey75", fillcolor="white", style="filled"];
  Node10 -> Node13 [color="midnightblue",fontsize="10",style="solid",fontname="Helvetica"];
  Node13 [label="wxMitkColorSelectorControl.h",height=0.2,width=0.4,color="black", fillcolor="white", style="filled",URL="$wxMitkColorSelectorControl_8h.html"];
  Node13 -> Node7 [color="midnightblue",fontsize="10",style="solid",fontname="Helvetica"];
  Node13 -> Node14 [color="midnightblue",fontsize="10",style="solid",fontname="Helvetica"];
  Node14 [label="wx/clrpicker.h",height=0.2,width=0.4,color="grey75", fillcolor="white", style="filled"];
  Node10 -> Node15 [color="midnightblue",fontsize="10",style="solid",fontname="Helvetica"];
  Node15 [label="wxMitkMouseOverHistogram\lEvent.h",height=0.2,width=0.4,color="black", fillcolor="white", style="filled",URL="$wxMitkMouseOverHistogramEvent_8h.html"];
  Node15 -> Node16 [color="midnightblue",fontsize="10",style="solid",fontname="Helvetica"];
  Node16 [label="wxMitkRenderingWin32Header.h",height=0.2,width=0.4,color="grey75", fillcolor="white", style="filled"];
  Node15 -> Node17 [color="midnightblue",fontsize="10",style="solid",fontname="Helvetica"];
  Node17 [label="wx/event.h",height=0.2,width=0.4,color="grey75", fillcolor="white", style="filled"];
  Node10 -> Node18 [color="midnightblue",fontsize="10",style="solid",fontname="Helvetica"];
  Node18 [label="wx/busyinfo.h",height=0.2,width=0.4,color="grey75", fillcolor="white", style="filled"];
  Node10 -> Node19 [color="midnightblue",fontsize="10",style="solid",fontname="Helvetica"];
  Node19 [label="wx/collpane.h",height=0.2,width=0.4,color="grey75", fillcolor="white", style="filled"];
  Node1 -> Node20 [color="midnightblue",fontsize="10",style="solid",fontname="Helvetica"];
  Node20 [label="wxMitkImageSettingsWidget.h",height=0.2,width=0.4,color="black", fillcolor="white", style="filled",URL="$wxMitkImageSettingsWidget_8h.html"];
  Node20 -> Node7 [color="midnightblue",fontsize="10",style="solid",fontname="Helvetica"];
  Node20 -> Node8 [color="midnightblue",fontsize="10",style="solid",fontname="Helvetica"];
  Node20 -> Node9 [color="midnightblue",fontsize="10",style="solid",fontname="Helvetica"];
  Node20 -> Node11 [color="midnightblue",fontsize="10",style="solid",fontname="Helvetica"];
  Node20 -> Node13 [color="midnightblue",fontsize="10",style="solid",fontname="Helvetica"];
  Node1 -> Node21 [color="midnightblue",fontsize="10",style="solid",fontname="Helvetica"];
  Node21 [label="wxMitkSurfaceLightingControl.h",height=0.2,width=0.4,color="black", fillcolor="white", style="filled",URL="$wxMitkSurfaceLightingControl_8h.html"];
  Node21 -> Node7 [color="midnightblue",fontsize="10",style="solid",fontname="Helvetica"];
  Node21 -> Node22 [color="midnightblue",fontsize="10",style="solid",fontname="Helvetica"];
  Node22 [label="wxMitkWidgetUpdateEvent.h",height=0.2,width=0.4,color="black", fillcolor="white", style="filled",URL="$wxMitkWidgetUpdateEvent_8h.html"];
  Node22 -> Node7 [color="midnightblue",fontsize="10",style="solid",fontname="Helvetica"];
  Node22 -> Node17 [color="midnightblue",fontsize="10",style="solid",fontname="Helvetica"];
  Node21 -> Node23 [color="midnightblue",fontsize="10",style="solid",fontname="Helvetica"];
  Node23 [label="mitkMaterialProperty.h",height=0.2,width=0.4,color="grey75", fillcolor="white", style="filled"];
  Node21 -> Node9 [color="midnightblue",fontsize="10",style="solid",fontname="Helvetica"];
  Node1 -> Node24 [color="midnightblue",fontsize="10",style="solid",fontname="Helvetica"];
  Node24 [label="mitkDataTreeNode.h",height=0.2,width=0.4,color="grey75", fillcolor="white", style="filled"];
  Node1 -> Node25 [color="midnightblue",fontsize="10",style="solid",fontname="Helvetica"];
  Node25 [label="mitkRenderingManager.h",height=0.2,width=0.4,color="grey75", fillcolor="white", style="filled"];
  Node1 -> Node26 [color="midnightblue",fontsize="10",style="solid",fontname="Helvetica"];
  Node26 [label="wxID.h",height=0.2,width=0.4,color="black", fillcolor="white", style="filled",URL="$wxID_8h.html"];
  Node26 -> Node27 [color="midnightblue",fontsize="10",style="solid",fontname="Helvetica"];
  Node27 [label="string",height=0.2,width=0.4,color="grey75", fillcolor="white", style="filled"];
  Node26 -> Node28 [color="midnightblue",fontsize="10",style="solid",fontname="Helvetica"];
  Node28 [label="TpExtLibWxWidgetsWin32Header.h",height=0.2,width=0.4,color="grey75", fillcolor="white", style="filled"];
  Node1 -> Node29 [color="midnightblue",fontsize="10",style="solid",fontname="Helvetica"];
  Node29 [label="blMITKUtils.h",height=0.2,width=0.4,color="black", fillcolor="white", style="filled",URL="$blMITKUtils_8h.html"];
  Node29 -> Node30 [color="midnightblue",fontsize="10",style="solid",fontname="Helvetica"];
  Node30 [label="TpExtLibMITKWin32Header.h",height=0.2,width=0.4,color="grey75", fillcolor="white", style="filled"];
  Node29 -> Node31 [color="midnightblue",fontsize="10",style="solid",fontname="Helvetica"];
  Node31 [label="vector",height=0.2,width=0.4,color="grey75", fillcolor="white", style="filled"];
  Node29 -> Node32 [color="midnightblue",fontsize="10",style="solid",fontname="Helvetica"];
  Node32 [label="mitkBaseData.h",height=0.2,width=0.4,color="grey75", fillcolor="white", style="filled"];
  Node29 -> Node24 [color="midnightblue",fontsize="10",style="solid",fontname="Helvetica"];
  Node29 -> Node33 [color="midnightblue",fontsize="10",style="solid",fontname="Helvetica"];
  Node33 [label="mitkSurface.h",height=0.2,width=0.4,color="grey75", fillcolor="white", style="filled"];
  Node29 -> Node34 [color="midnightblue",fontsize="10",style="solid",fontname="Helvetica"];
  Node34 [label="blLookupTables.h",height=0.2,width=0.4,color="black", fillcolor="white", style="filled",URL="$blLookupTables_8h.html"];
  Node34 -> Node35 [color="midnightblue",fontsize="10",style="solid",fontname="Helvetica"];
  Node35 [label="BaseLibVTKWin32Header.h",height=0.2,width=0.4,color="grey75", fillcolor="white", style="filled"];
  Node34 -> Node36 [color="midnightblue",fontsize="10",style="solid",fontname="Helvetica"];
  Node36 [label="vtkSmartPointer.h",height=0.2,width=0.4,color="grey75", fillcolor="white", style="filled"];
  Node34 -> Node31 [color="midnightblue",fontsize="10",style="solid",fontname="Helvetica"];
  Node34 -> Node37 [color="midnightblue",fontsize="10",style="solid",fontname="Helvetica"];
  Node37 [label="map",height=0.2,width=0.4,color="grey75", fillcolor="white", style="filled"];
  Node29 -> Node38 [color="midnightblue",fontsize="10",style="solid",fontname="Helvetica"];
  Node38 [label="blShapeUtils.h",height=0.2,width=0.4,color="black", fillcolor="white", style="filled",URL="$blShapeUtils_8h.html"];
  Node38 -> Node35 [color="midnightblue",fontsize="10",style="solid",fontname="Helvetica"];
  Node38 -> Node39 [color="midnightblue",fontsize="10",style="solid",fontname="Helvetica"];
  Node39 [label="vnl/vnl_cross_product\l_matrix.h",height=0.2,width=0.4,color="grey75", fillcolor="white", style="filled"];
  Node38 -> Node40 [color="midnightblue",fontsize="10",style="solid",fontname="Helvetica"];
  Node40 [label="vnl/algo/vnl_symmetric\l_eigensystem.h",height=0.2,width=0.4,color="grey75", fillcolor="white", style="filled"];
  Node38 -> Node36 [color="midnightblue",fontsize="10",style="solid",fontname="Helvetica"];
  Node38 -> Node41 [color="midnightblue",fontsize="10",style="solid",fontname="Helvetica"];
  Node41 [label="vtkImageData.h",height=0.2,width=0.4,color="grey75", fillcolor="white", style="filled"];
  Node38 -> Node42 [color="midnightblue",fontsize="10",style="solid",fontname="Helvetica"];
  Node42 [label="vtkShortArray.h",height=0.2,width=0.4,color="grey75", fillcolor="white", style="filled"];
  Node38 -> Node43 [color="midnightblue",fontsize="10",style="solid",fontname="Helvetica"];
  Node43 [label="vtkFloatArray.h",height=0.2,width=0.4,color="grey75", fillcolor="white", style="filled"];
  Node38 -> Node44 [color="midnightblue",fontsize="10",style="solid",fontname="Helvetica"];
  Node44 [label="vtkPlane.h",height=0.2,width=0.4,color="grey75", fillcolor="white", style="filled"];
  Node38 -> Node45 [color="midnightblue",fontsize="10",style="solid",fontname="Helvetica"];
  Node45 [label="vtkPolyData.h",height=0.2,width=0.4,color="grey75", fillcolor="white", style="filled"];
  Node38 -> Node46 [color="midnightblue",fontsize="10",style="solid",fontname="Helvetica"];
  Node46 [label="vtkLookupTable.h",height=0.2,width=0.4,color="grey75", fillcolor="white", style="filled"];
  Node38 -> Node47 [color="midnightblue",fontsize="10",style="solid",fontname="Helvetica"];
  Node47 [label="vtkUnstructuredGrid.h",height=0.2,width=0.4,color="grey75", fillcolor="white", style="filled"];
  Node38 -> Node31 [color="midnightblue",fontsize="10",style="solid",fontname="Helvetica"];
  Node38 -> Node37 [color="midnightblue",fontsize="10",style="solid",fontname="Helvetica"];
  Node38 -> Node48 [color="midnightblue",fontsize="10",style="solid",fontname="Helvetica"];
  Node48 [label="blPDShape.h",height=0.2,width=0.4,color="red", fillcolor="white", style="filled",URL="$blPDShape_8h.html"];
  Node48 -> Node49 [color="midnightblue",fontsize="10",style="solid",fontname="Helvetica"];
  Node49 [label="itkMesh.h",height=0.2,width=0.4,color="grey75", fillcolor="white", style="filled"];
  Node48 -> Node31 [color="midnightblue",fontsize="10",style="solid",fontname="Helvetica"];
  Node38 -> Node50 [color="midnightblue",fontsize="10",style="solid",fontname="Helvetica"];
  Node50 [label="blShapeUtils.txx",height=0.2,width=0.4,color="grey75", fillcolor="white", style="filled"];
  Node29 -> Node45 [color="midnightblue",fontsize="10",style="solid",fontname="Helvetica"];
}
