digraph "Modules/wxMitk/libmodules/wxMitkWidgets/src/wxMitkColorGradientControl.cxx"
{
  edge [fontname="Helvetica",fontsize="10",labelfontname="Helvetica",labelfontsize="10"];
  node [fontname="Helvetica",fontsize="10",shape=record];
  Node1 [label="Modules/wxMitk/libmodules\l/wxMitkWidgets/src/wxMitkColor\lGradientControl.cxx",height=0.2,width=0.4,color="black", fillcolor="grey75", style="filled", fontcolor="black"];
  Node1 -> Node2 [color="midnightblue",fontsize="10",style="solid",fontname="Helvetica"];
  Node2 [label="wx/wxprec.h",height=0.2,width=0.4,color="grey75", fillcolor="white", style="filled"];
  Node1 -> Node3 [color="midnightblue",fontsize="10",style="solid",fontname="Helvetica"];
  Node3 [label="wx/wx.h",height=0.2,width=0.4,color="grey75", fillcolor="white", style="filled"];
  Node1 -> Node4 [color="midnightblue",fontsize="10",style="solid",fontname="Helvetica"];
  Node4 [label="wxMitkColorGradientControl.h",height=0.2,width=0.4,color="black", fillcolor="white", style="filled",URL="$wxMitkColorGradientControl_8h.html"];
  Node4 -> Node5 [color="midnightblue",fontsize="10",style="solid",fontname="Helvetica"];
  Node5 [label="wxMitkWidgetsWin32Header.h",height=0.2,width=0.4,color="grey75", fillcolor="white", style="filled"];
  Node4 -> Node6 [color="midnightblue",fontsize="10",style="solid",fontname="Helvetica"];
  Node6 [label="wxMitkColorGradientCanvas.h",height=0.2,width=0.4,color="black", fillcolor="white", style="filled",URL="$wxMitkColorGradientCanvas_8h.html"];
  Node6 -> Node5 [color="midnightblue",fontsize="10",style="solid",fontname="Helvetica"];
  Node6 -> Node7 [color="midnightblue",fontsize="10",style="solid",fontname="Helvetica"];
  Node7 [label="wxMitkPaintableInSetCanvas.h",height=0.2,width=0.4,color="black", fillcolor="white", style="filled",URL="$wxMitkPaintableInSetCanvas_8h.html"];
  Node7 -> Node5 [color="midnightblue",fontsize="10",style="solid",fontname="Helvetica"];
  Node4 -> Node8 [color="midnightblue",fontsize="10",style="solid",fontname="Helvetica"];
  Node8 [label="wxMitkVtkColorTransferFunction\lCanvas.h",height=0.2,width=0.4,color="black", fillcolor="white", style="filled",URL="$wxMitkVtkColorTransferFunctionCanvas_8h.html"];
  Node8 -> Node5 [color="midnightblue",fontsize="10",style="solid",fontname="Helvetica"];
  Node8 -> Node7 [color="midnightblue",fontsize="10",style="solid",fontname="Helvetica"];
  Node4 -> Node9 [color="midnightblue",fontsize="10",style="solid",fontname="Helvetica"];
  Node9 [label="wxMitkMouseOverHistogram\lEvent.h",height=0.2,width=0.4,color="black", fillcolor="white", style="filled",URL="$wxMitkMouseOverHistogramEvent_8h.html"];
  Node9 -> Node10 [color="midnightblue",fontsize="10",style="solid",fontname="Helvetica"];
  Node10 [label="wxMitkRenderingWin32Header.h",height=0.2,width=0.4,color="grey75", fillcolor="white", style="filled"];
  Node9 -> Node11 [color="midnightblue",fontsize="10",style="solid",fontname="Helvetica"];
  Node11 [label="wx/event.h",height=0.2,width=0.4,color="grey75", fillcolor="white", style="filled"];
  Node4 -> Node12 [color="midnightblue",fontsize="10",style="solid",fontname="Helvetica"];
  Node12 [label="wx/control.h",height=0.2,width=0.4,color="grey75", fillcolor="white", style="filled"];
}
