digraph "Modules/wxMitk/libmodules/wxMitkWidgets/include/wxMitkStringPropertyEditor.h"
{
  edge [fontname="Helvetica",fontsize="10",labelfontname="Helvetica",labelfontsize="10"];
  node [fontname="Helvetica",fontsize="10",shape=record];
  Node1 [label="Modules/wxMitk/libmodules\l/wxMitkWidgets/include\l/wxMitkStringPropertyEditor.h",height=0.2,width=0.4,color="black", fillcolor="grey75", style="filled", fontcolor="black"];
  Node1 -> Node2 [dir="back",color="midnightblue",fontsize="10",style="solid",fontname="Helvetica"];
  Node2 [label="Modules/wxMitk/libmodules\l/wxMitkWidgets/src/wxMitkProperty\lViewFactory.cpp",height=0.2,width=0.4,color="black", fillcolor="white", style="filled",URL="$wxMitkPropertyViewFactory_8cpp.html"];
  Node1 -> Node3 [dir="back",color="midnightblue",fontsize="10",style="solid",fontname="Helvetica"];
  Node3 [label="Modules/wxMitk/libmodules\l/wxMitkWidgets/src/wxMitkString\lPropertyEditor.cpp",height=0.2,width=0.4,color="black", fillcolor="white", style="filled",URL="$wxMitkStringPropertyEditor_8cpp.html"];
}
