digraph "Modules/wxMitk/libmodules/wxMitkWidgets/src/wxMitkHistogramCanvas.cxx"
{
  edge [fontname="Helvetica",fontsize="10",labelfontname="Helvetica",labelfontsize="10"];
  node [fontname="Helvetica",fontsize="10",shape=record];
  Node1 [label="Modules/wxMitk/libmodules\l/wxMitkWidgets/src/wxMitkHistogram\lCanvas.cxx",height=0.2,width=0.4,color="black", fillcolor="grey75", style="filled", fontcolor="black"];
  Node1 -> Node2 [color="midnightblue",fontsize="10",style="solid",fontname="Helvetica"];
  Node2 [label="wx/wxprec.h",height=0.2,width=0.4,color="grey75", fillcolor="white", style="filled"];
  Node1 -> Node3 [color="midnightblue",fontsize="10",style="solid",fontname="Helvetica"];
  Node3 [label="wx/wx.h",height=0.2,width=0.4,color="grey75", fillcolor="white", style="filled"];
  Node1 -> Node4 [color="midnightblue",fontsize="10",style="solid",fontname="Helvetica"];
  Node4 [label="wxMitkHistogramCanvas.h",height=0.2,width=0.4,color="black", fillcolor="white", style="filled",URL="$wxMitkHistogramCanvas_8h.html"];
  Node4 -> Node5 [color="midnightblue",fontsize="10",style="solid",fontname="Helvetica"];
  Node5 [label="wxMitkWidgetsWin32Header.h",height=0.2,width=0.4,color="grey75", fillcolor="white", style="filled"];
  Node4 -> Node6 [color="midnightblue",fontsize="10",style="solid",fontname="Helvetica"];
  Node6 [label="wxMitkPaintableInSetCanvas.h",height=0.2,width=0.4,color="black", fillcolor="white", style="filled",URL="$wxMitkPaintableInSetCanvas_8h.html"];
  Node6 -> Node5 [color="midnightblue",fontsize="10",style="solid",fontname="Helvetica"];
  Node4 -> Node7 [color="midnightblue",fontsize="10",style="solid",fontname="Helvetica"];
  Node7 [label="mitkHistogramGenerator.h",height=0.2,width=0.4,color="grey75", fillcolor="white", style="filled"];
}
