digraph "Modules/TpExtLib/libmodules/tpWebUpdate/src/wxWebUpdateAboutDlgUI.h"
{
  edge [fontname="Helvetica",fontsize="10",labelfontname="Helvetica",labelfontsize="10"];
  node [fontname="Helvetica",fontsize="10",shape=record];
  Node1 [label="Modules/TpExtLib/libmodules\l/tpWebUpdate/src/wxWebUpdateAbout\lDlgUI.h",height=0.2,width=0.4,color="black", fillcolor="grey75", style="filled", fontcolor="black"];
  Node1 -> Node2 [dir="back",color="midnightblue",fontsize="10",style="solid",fontname="Helvetica"];
  Node2 [label="Modules/TpExtLib/libmodules\l/tpWebUpdate/src/wx/webupdateaboutdlg.h",height=0.2,width=0.4,color="black", fillcolor="white", style="filled",URL="$webupdateaboutdlg_8h.html"];
  Node2 -> Node3 [dir="back",color="midnightblue",fontsize="10",style="solid",fontname="Helvetica"];
  Node3 [label="Modules/TpExtLib/libmodules\l/tpWebUpdate/src/webupdateaboutdlg.cpp",height=0.2,width=0.4,color="black", fillcolor="white", style="filled",URL="$webupdateaboutdlg_8cpp.html"];
  Node2 -> Node4 [dir="back",color="midnightblue",fontsize="10",style="solid",fontname="Helvetica"];
  Node4 [label="Modules/TpExtLib/libmodules\l/tpWebUpdate/src/webupdatedlg.cpp",height=0.2,width=0.4,color="black", fillcolor="white", style="filled",URL="$webupdatedlg_8cpp.html"];
  Node1 -> Node5 [dir="back",color="midnightblue",fontsize="10",style="solid",fontname="Helvetica"];
  Node5 [label="Modules/TpExtLib/libmodules\l/tpWebUpdate/src/wxWebUpdateAbout\lDlgUI.cpp",height=0.2,width=0.4,color="black", fillcolor="white", style="filled",URL="$wxWebUpdateAboutDlgUI_8cpp.html"];
}
