digraph "Modules/TpExtLib/libmodules/tpWebUpdate/src/wxWebUpdateDlgUI.h"
{
  edge [fontname="Helvetica",fontsize="10",labelfontname="Helvetica",labelfontsize="10"];
  node [fontname="Helvetica",fontsize="10",shape=record];
  Node1 [label="Modules/TpExtLib/libmodules\l/tpWebUpdate/src/wxWebUpdateDlgUI.h",height=0.2,width=0.4,color="black", fillcolor="grey75", style="filled", fontcolor="black"];
  Node1 -> Node2 [color="midnightblue",fontsize="10",style="solid",fontname="Helvetica"];
  Node2 [label="wx/wx.h",height=0.2,width=0.4,color="grey75", fillcolor="white", style="filled"];
  Node1 -> Node3 [color="midnightblue",fontsize="10",style="solid",fontname="Helvetica"];
  Node3 [label="wx/image.h",height=0.2,width=0.4,color="grey75", fillcolor="white", style="filled"];
  Node1 -> Node4 [color="midnightblue",fontsize="10",style="solid",fontname="Helvetica"];
  Node4 [label="wx/statline.h",height=0.2,width=0.4,color="grey75", fillcolor="white", style="filled"];
  Node1 -> Node5 [color="midnightblue",fontsize="10",style="solid",fontname="Helvetica"];
  Node5 [label="wx/webupdatectrl.h",height=0.2,width=0.4,color="black", fillcolor="white", style="filled",URL="$webupdatectrl_8h.html"];
  Node5 -> Node6 [color="midnightblue",fontsize="10",style="solid",fontname="Helvetica"];
  Node6 [label="wx/webupdate.h",height=0.2,width=0.4,color="black", fillcolor="white", style="filled",URL="$webupdate_8h.html"];
  Node6 -> Node7 [color="midnightblue",fontsize="10",style="solid",fontname="Helvetica"];
  Node7 [label="wx/webupdatedef.h",height=0.2,width=0.4,color="black", fillcolor="white", style="filled",URL="$webupdatedef_8h.html"];
  Node7 -> Node8 [color="midnightblue",fontsize="10",style="solid",fontname="Helvetica"];
  Node8 [label="tpExtLibWxWebUpdateWin32\lHeader.h",height=0.2,width=0.4,color="grey75", fillcolor="white", style="filled"];
  Node6 -> Node9 [color="midnightblue",fontsize="10",style="solid",fontname="Helvetica"];
  Node9 [label="wx/xml/xml.h",height=0.2,width=0.4,color="grey75", fillcolor="white", style="filled"];
  Node6 -> Node10 [color="midnightblue",fontsize="10",style="solid",fontname="Helvetica"];
  Node10 [label="wx/url.h",height=0.2,width=0.4,color="grey75", fillcolor="white", style="filled"];
  Node6 -> Node11 [color="midnightblue",fontsize="10",style="solid",fontname="Helvetica"];
  Node11 [label="wx/log.h",height=0.2,width=0.4,color="grey75", fillcolor="white", style="filled"];
  Node6 -> Node12 [color="midnightblue",fontsize="10",style="solid",fontname="Helvetica"];
  Node12 [label="wx/textfile.h",height=0.2,width=0.4,color="grey75", fillcolor="white", style="filled"];
  Node5 -> Node13 [color="midnightblue",fontsize="10",style="solid",fontname="Helvetica"];
  Node13 [label="wx/download.h",height=0.2,width=0.4,color="black", fillcolor="white", style="filled",URL="$download_8h.html"];
  Node13 -> Node7 [color="midnightblue",fontsize="10",style="solid",fontname="Helvetica"];
  Node13 -> Node10 [color="midnightblue",fontsize="10",style="solid",fontname="Helvetica"];
  Node13 -> Node14 [color="midnightblue",fontsize="10",style="solid",fontname="Helvetica"];
  Node14 [label="wx/datetime.h",height=0.2,width=0.4,color="grey75", fillcolor="white", style="filled"];
  Node5 -> Node15 [color="midnightblue",fontsize="10",style="solid",fontname="Helvetica"];
  Node15 [label="wx/checkedlistctrl.h",height=0.2,width=0.4,color="black", fillcolor="white", style="filled",URL="$checkedlistctrl_8h.html"];
  Node15 -> Node7 [color="midnightblue",fontsize="10",style="solid",fontname="Helvetica"];
  Node15 -> Node16 [color="midnightblue",fontsize="10",style="solid",fontname="Helvetica"];
  Node16 [label="wx/listctrl.h",height=0.2,width=0.4,color="grey75", fillcolor="white", style="filled"];
  Node15 -> Node17 [color="midnightblue",fontsize="10",style="solid",fontname="Helvetica"];
  Node17 [label="wx/imaglist.h",height=0.2,width=0.4,color="grey75", fillcolor="white", style="filled"];
  Node5 -> Node18 [color="midnightblue",fontsize="10",style="solid",fontname="Helvetica"];
  Node18 [label="wx/installer.h",height=0.2,width=0.4,color="black", fillcolor="white", style="filled",URL="$installer_8h.html"];
  Node18 -> Node7 [color="midnightblue",fontsize="10",style="solid",fontname="Helvetica"];
  Node18 -> Node6 [color="midnightblue",fontsize="10",style="solid",fontname="Helvetica"];
  Node5 -> Node19 [color="midnightblue",fontsize="10",style="solid",fontname="Helvetica"];
  Node19 [label="wx/dialog.h",height=0.2,width=0.4,color="grey75", fillcolor="white", style="filled"];
  Node5 -> Node20 [color="midnightblue",fontsize="10",style="solid",fontname="Helvetica"];
  Node20 [label="wx/panel.h",height=0.2,width=0.4,color="grey75", fillcolor="white", style="filled"];
  Node5 -> Node21 [color="midnightblue",fontsize="10",style="solid",fontname="Helvetica"];
  Node21 [label="wx/checkbox.h",height=0.2,width=0.4,color="grey75", fillcolor="white", style="filled"];
  Node5 -> Node22 [color="midnightblue",fontsize="10",style="solid",fontname="Helvetica"];
  Node22 [label="wx/textctrl.h",height=0.2,width=0.4,color="grey75", fillcolor="white", style="filled"];
  Node5 -> Node23 [color="midnightblue",fontsize="10",style="solid",fontname="Helvetica"];
  Node23 [label="wx/xrc/xmlres.h",height=0.2,width=0.4,color="grey75", fillcolor="white", style="filled"];
  Node1 -> Node24 [color="midnightblue",fontsize="10",style="solid",fontname="Helvetica"];
  Node24 [label="wx/webupdateadvpanel.h",height=0.2,width=0.4,color="black", fillcolor="white", style="filled",URL="$webupdateadvpanel_8h.html"];
  Node24 -> Node25 [color="midnightblue",fontsize="10",style="solid",fontname="Helvetica"];
  Node25 [label="wxWebUpdateAdvPanelUI.h",height=0.2,width=0.4,color="black", fillcolor="white", style="filled",URL="$wxWebUpdateAdvPanelUI_8h.html"];
  Node25 -> Node2 [color="midnightblue",fontsize="10",style="solid",fontname="Helvetica"];
  Node25 -> Node3 [color="midnightblue",fontsize="10",style="solid",fontname="Helvetica"];
  Node24 -> Node6 [color="midnightblue",fontsize="10",style="solid",fontname="Helvetica"];
  Node24 -> Node13 [color="midnightblue",fontsize="10",style="solid",fontname="Helvetica"];
  Node24 -> Node5 [color="midnightblue",fontsize="10",style="solid",fontname="Helvetica"];
  Node24 -> Node18 [color="midnightblue",fontsize="10",style="solid",fontname="Helvetica"];
  Node24 -> Node19 [color="midnightblue",fontsize="10",style="solid",fontname="Helvetica"];
  Node24 -> Node20 [color="midnightblue",fontsize="10",style="solid",fontname="Helvetica"];
  Node24 -> Node21 [color="midnightblue",fontsize="10",style="solid",fontname="Helvetica"];
  Node24 -> Node22 [color="midnightblue",fontsize="10",style="solid",fontname="Helvetica"];
}
