/* XPM */
static char * CreateMask_xpm[] = {
"32 32 478 2",
"  	c None",
". 	c #6A4646",
"+ 	c #684444",
"@ 	c #654242",
"# 	c #644141",
"$ 	c #654141",
"% 	c #664141",
"& 	c #664242",
"* 	c #664343",
"= 	c #6A4747",
"- 	c #6B4848",
"; 	c #221616",
"> 	c #2B2020",
", 	c #382F2F",
"' 	c #443A3A",
") 	c #433838",
"! 	c #423737",
"~ 	c #413737",
"{ 	c #403737",
"] 	c #403535",
"^ 	c #3F3435",
"/ 	c #3F3334",
"( 	c #3D3232",
"_ 	c #3B3131",
": 	c #3A3030",
"< 	c #3A2F2F",
"[ 	c #3C3232",
"} 	c #3E3333",
"| 	c #3E3434",
"1 	c #3F3535",
"2 	c #413636",
"3 	c #2E2424",
"4 	c #231818",
"5 	c #000000",
"6 	c #323535",
"7 	c #6C7070",
"8 	c #858989",
"9 	c #818585",
"0 	c #808484",
"a 	c #7F8383",
"b 	c #7E8282",
"c 	c #7D8181",
"d 	c #7B8080",
"e 	c #787C7C",
"f 	c #747978",
"g 	c #707474",
"h 	c #666969",
"i 	c #616565",
"j 	c #616464",
"k 	c #646868",
"l 	c #696D6D",
"m 	c #6D7170",
"n 	c #6F7373",
"o 	c #727676",
"p 	c #757979",
"q 	c #777B7B",
"r 	c #797E7E",
"s 	c #3D4242",
"t 	c #060A0A",
"u 	c #7B7B7B",
"v 	c #EAEAEA",
"w 	c #FFFFFF",
"x 	c #FEFFFF",
"y 	c #FBFCFC",
"z 	c #F6F6F7",
"A 	c #EDF0EE",
"B 	c #E3E8E4",
"C 	c #DDDFDE",
"D 	c #D2D2D3",
"E 	c #CACBCB",
"F 	c #CFD0D0",
"G 	c #D8D9D9",
"H 	c #DFE0E0",
"I 	c #E4E5E5",
"J 	c #E9E9E9",
"K 	c #EEEEEE",
"L 	c #F2F1F1",
"M 	c #F7F7F7",
"N 	c #8F8F8F",
"O 	c #232323",
"P 	c #7C7C7C",
"Q 	c #E8E8E8",
"R 	c #FDFFFF",
"S 	c #FBFFFF",
"T 	c #FAFFFF",
"U 	c #F7FFFF",
"V 	c #F2FAFB",
"W 	c #E9F3F1",
"X 	c #DEEBE6",
"Y 	c #D9E1E2",
"Z 	c #CDD5D7",
"` 	c #C5CECF",
" .	c #C4CECE",
"..	c #CAD2D4",
"+.	c #D3DBDC",
"@.	c #DAE2E3",
"#.	c #DFE7E8",
"$.	c #E3E8E8",
"%.	c #E8E9E9",
"&.	c #ECECEC",
"*.	c #F2F2F2",
"=.	c #8C8C8C",
"-.	c #E7E7E7",
";.	c #FFFDFD",
">.	c #FEE7E4",
",.	c #FCCEC7",
"'.	c #FBC2BA",
").	c #FBC5BD",
"!.	c #F8C3BA",
"~.	c #F5BEB6",
"{.	c #EDBAB0",
"].	c #E5B7A9",
"^.	c #E3AEA5",
"/.	c #DBA49D",
"(.	c #D59F97",
"_.	c #D49E96",
":.	c #D8A29A",
"<.	c #DDA79F",
"[.	c #E2AAA2",
"}.	c #E6B1A9",
"|.	c #E6C9C4",
"1.	c #E6E1E1",
"2.	c #E9EDEE",
"3.	c #FDFDFD",
"4.	c #898989",
"5.	c #222222",
"6.	c #FEFAFA",
"7.	c #FECEC6",
"8.	c #FC9D8E",
"9.	c #FC8775",
"0.	c #FC8C7B",
"a.	c #FA8B7A",
"b.	c #F88777",
"c.	c #F38674",
"d.	c #EC8671",
"e.	c #ED7E6C",
"f.	c #E87867",
"g.	c #E47464",
"h.	c #E47463",
"i.	c #E67665",
"j.	c #E87868",
"k.	c #EB7867",
"l.	c #ED7F6F",
"m.	c #E9A9A0",
"n.	c #E5D6D4",
"o.	c #E5EBEC",
"p.	c #EAEBEB",
"q.	c #F8F8F8",
"r.	c #878787",
"s.	c #FFFAF9",
"t.	c #FEE6E1",
"u.	c #FEB3A7",
"v.	c #FD8472",
"w.	c #FC705B",
"x.	c #FC7460",
"y.	c #FA715D",
"z.	c #F5725C",
"A.	c #EF735B",
"B.	c #F16A55",
"C.	c #EE6652",
"D.	c #EB6450",
"E.	c #EA634F",
"F.	c #EC6550",
"G.	c #ED6652",
"H.	c #EF6450",
"I.	c #F06957",
"J.	c #EB9082",
"K.	c #E6BEB7",
"L.	c #E4DCDA",
"M.	c #F6F6F6",
"N.	c #868686",
"O.	c #FFFEFE",
"P.	c #FFFCFC",
"Q.	c #FED8D2",
"R.	c #FE9A8A",
"S.	c #FE7A67",
"T.	c #FD7662",
"U.	c #FC7763",
"V.	c #FC7662",
"W.	c #FA7460",
"X.	c #F5745E",
"Y.	c #EF755D",
"Z.	c #F06D58",
"`.	c #EF6855",
" +	c #EC6653",
".+	c #EB6652",
"++	c #ED6753",
"@+	c #ED6854",
"#+	c #EF6955",
"$+	c #F16954",
"%+	c #EF7E6D",
"&+	c #EAACA3",
"*+	c #E8E2E0",
"=+	c #F7F6F6",
"-+	c #212222",
";+	c #E7E7E8",
">+	c #FFF9F8",
",+	c #FFC4BB",
"'+	c #FE9685",
")+	c #FE7F6C",
"!+	c #FF7460",
"~+	c #FC7864",
"{+	c #FB7662",
"]+	c #FB7561",
"^+	c #F6755F",
"/+	c #F0765D",
"(+	c #F26D59",
"_+	c #EF6A56",
":+	c #ED6754",
"<+	c #EC6753",
"[+	c #EE6954",
"}+	c #F16752",
"|+	c #F26E5A",
"1+	c #F1806E",
"2+	c #F1A297",
"3+	c #FBEBE9",
"4+	c #888889",
"5+	c #222323",
"6+	c #E7E8E8",
"7+	c #FFF6F4",
"8+	c #FE9F91",
"9+	c #FF6F59",
"0+	c #FF7A65",
"a+	c #FF7965",
"b+	c #FD7864",
"c+	c #FB7562",
"d+	c #FC7663",
"e+	c #F77660",
"f+	c #F1775F",
"g+	c #F36E5B",
"h+	c #F16B57",
"i+	c #EE6955",
"j+	c #EE6855",
"k+	c #F06C58",
"l+	c #F56A55",
"m+	c #F87A68",
"n+	c #FFE5E2",
"o+	c #8A8B8B",
"p+	c #232425",
"q+	c #FF9F91",
"r+	c #FF6F5A",
"s+	c #FF7966",
"t+	c #FC7562",
"u+	c #F87761",
"v+	c #F37860",
"w+	c #F5715C",
"x+	c #F06B57",
"y+	c #F16C58",
"z+	c #F46F5B",
"A+	c #F66B56",
"B+	c #F97C69",
"C+	c #FFE8E5",
"D+	c #8D8E8E",
"E+	c #242626",
"F+	c #FFA091",
"G+	c #F97863",
"H+	c #F47A62",
"I+	c #F7735F",
"J+	c #F56F5B",
"K+	c #F36D5A",
"L+	c #F5705C",
"M+	c #F6725D",
"N+	c #F86D58",
"O+	c #FB7E6B",
"P+	c #FFEBE8",
"Q+	c #8E8F8F",
"R+	c #232526",
"S+	c #FFA092",
"T+	c #FF705A",
"U+	c #FF7A66",
"V+	c #FE7865",
"W+	c #FD7764",
"X+	c #FD7763",
"Y+	c #FA7963",
"Z+	c #F67B63",
"`+	c #F97460",
" @	c #F7715E",
".@	c #F36E5A",
"+@	c #F6705D",
"@@	c #F7725E",
"#@	c #F8735F",
"$@	c #F96E59",
"%@	c #FC7F6C",
"&@	c #FFEDEA",
"*@	c #8F9090",
"=@	c #FE7864",
"-@	c #FE7763",
";@	c #FB7A63",
">@	c #F77D63",
",@	c #FA7561",
"'@	c #F8735E",
")@	c #F7725D",
"!@	c #F6715D",
"~@	c #F8725E",
"{@	c #FB705A",
"]@	c #FD816D",
"^@	c #FFEFEB",
"/@	c #8F9191",
"(@	c #FEF5F4",
"_@	c #FEA091",
":@	c #FE6F5A",
"<@	c #FE7965",
"[@	c #FE7765",
"}@	c #FA7A65",
"|@	c #F77D65",
"1@	c #FB7763",
"2@	c #F87461",
"3@	c #F97561",
"4@	c #F97562",
"5@	c #FA7662",
"6@	c #FB7663",
"7@	c #FC715C",
"8@	c #FD816E",
"9@	c #FFF1ED",
"0@	c #7A7A7E",
"a@	c #E3E4EA",
"b@	c #FDFEFF",
"c@	c #F8F0F5",
"d@	c #F89E97",
"e@	c #F87162",
"f@	c #F87A6D",
"g@	c #F8796D",
"h@	c #F8786C",
"i@	c #F7786B",
"j@	c #F7786C",
"k@	c #F77A6B",
"l@	c #F77C69",
"m@	c #F7796B",
"n@	c #F6776A",
"o@	c #F57669",
"p@	c #F5766A",
"q@	c #F6766A",
"r@	c #F67264",
"s@	c #F98276",
"t@	c #FFEFF0",
"u@	c #909192",
"v@	c #252626",
"w@	c #7B7B7D",
"x@	c #E5E6E9",
"y@	c #FCF4F4",
"z@	c #FC9F93",
"A@	c #FC705D",
"B@	c #FC7968",
"C@	c #FC7867",
"D@	c #FB7867",
"E@	c #FA7A67",
"F@	c #F87E68",
"G@	c #FB7967",
"H@	c #FB7766",
"I@	c #FA7766",
"J@	c #FA7765",
"K@	c #FA7665",
"L@	c #FA7666",
"M@	c #FA725F",
"N@	c #FC8272",
"O@	c #FFF2EF",
"P@	c #909393",
"Q@	c #252627",
"R@	c #FF7964",
"S@	c #FF7864",
"T@	c #FE7964",
"U@	c #FF7863",
"V@	c #FC7A65",
"W@	c #F97E66",
"X@	c #FD7863",
"Y@	c #FD7762",
"Z@	c #FD7862",
"`@	c #FE725D",
" #	c #FF836F",
".#	c #FFF5F0",
"+#	c #909494",
"@#	c #FF6E59",
"##	c #FE7A65",
"$#	c #FE7A66",
"%#	c #FF7866",
"&#	c #FC7B66",
"*#	c #FB7762",
"=#	c #FE715D",
"-#	c #FF816F",
";#	c #FFF5F4",
">#	c #FF9889",
",#	c #FF664F",
"'#	c #FF7762",
")#	c #FF7865",
"!#	c #FC7B65",
"~#	c #FD7865",
"{#	c #FD7663",
"]#	c #FE6C56",
"^#	c #FFF3EE",
"/#	c #FFD0C8",
"(#	c #FFA395",
"_#	c #FF8573",
":#	c #FE7863",
"<#	c #F97F66",
"[#	c #FE7966",
"}#	c #FD7965",
"|#	c #FE7460",
"1#	c #FE7E6B",
"2#	c #FE9788",
"3#	c #FFC0B6",
"4#	c #FFFFFD",
"5#	c #FFFEFD",
"6#	c #FFFBFA",
"7#	c #FFDCD6",
"8#	c #FFA699",
"9#	c #FF8572",
"0#	c #FF7763",
"a#	c #FF7F6B",
"b#	c #FF9A8A",
"c#	c #FFC8C0",
"d#	c #FFF8F6",
"e#	c #909191",
"f#	c #252525",
"g#	c #FFD3CC",
"h#	c #FFA598",
"i#	c #FF826F",
"j#	c #FF7661",
"k#	c #FEC4BB",
"l#	c #909090",
"m#	c #FFF6F5",
"n#	c #FFC6BD",
"o#	c #FF9080",
"p#	c #FF806D",
"q#	c #FF7764",
"r#	c #FF7D69",
"s#	c #FFB5AA",
"t#	c #FEE9E5",
"u#	c #FFEFEC",
"v#	c #FFDCD7",
"w#	c #FFD7D1",
"x#	c #FFCFC8",
"y#	c #FF8674",
"z#	c #FF7561",
"A#	c #FC7963",
"B#	c #F97D64",
"C#	c #FFB8AE",
"D#	c #FFDBD6",
"E#	c #FFD6D0",
"F#	c #FFE9E6",
"G#	c #FFB4A8",
"H#	c #FFA295",
"I#	c #FCA595",
"J#	c #F9A895",
"K#	c #FEA496",
"L#	c #FFA496",
"M#	c #FFA799",
"N#	c #FFE8E4",
"O#	c #FFF1EE",
"P#	c #FFEEEC",
"Q#	c #FDEEEA",
"R#	c #F9EEE7",
"S#	c #FEEEEB",
"T#	c #FFEEEB",
"U#	c #7E7E7E",
"V#	c #FFFFFE",
"W#	c #FCFFFA",
"X#	c #929292",
"Y#	c #656565",
"Z#	c #C3C3C3",
"`#	c #E3E3E3",
" $	c #DEDEDE",
".$	c #DEDFDF",
"+$	c #DCE0DD",
"@$	c #DAE1DB",
"#$	c #DDDFDF",
"$$	c #DFDFDF",
"%$	c #1E1E1E",
"&$	c #323232",
"*$	c #7A7A7A",
"=$	c #777777",
"-$	c #767676",
";$	c #767876",
">$	c #767A76",
",$	c #767776",
"'$	c #414141",
")$	c #0E0E0E",
"!$	c #000100",
"~$	c #010301",
". + @ # $ $ $ $ $ $ $ $ $ $ % % % & * * * & % % % % $ $ $ + = - ",
"; > , ' ) ) ) ) ! ! ~ ~ { ] ^ / ( _ : < _ [ ( } | 1 ] ] 2 3 4 4 ",
"5 6 7 8 9 9 9 9 0 a b c d e f g 7 h i j k l m n o p q r 0 s t 5 ",
"5 u v w w w w w w w w x y z A B C D E E F G H I J K L M w N O 5 ",
"5 P Q w w w w w w R S T U V W X Y Z `  ...+.@.#.$.%.&.*.w =.O 5 ",
"5 P -.w w w w ;.>.,.'.).!.~.{.].^./.(._.:.<.[.}.|.1.2.K 3.4.5.5 ",
"5 P -.w w x w 6.7.8.9.0.a.b.c.d.e.f.g.h.i.j.k.l.m.n.o.p.q.r.5.5 ",
"5 P -.w w w s.t.u.v.w.x.x.y.z.A.B.C.D.E.F.G.H.I.J.K.L.-.M.N.5.5 ",
"5 P -.w O.P.Q.R.S.T.U.V.V.W.X.Y.Z.`. +.+ +++@+#+$+%+&+*+=+r.-+5 ",
"5 P ;+w >+,+'+)+!+T.~+{+U.]+^+/+(+_+@+:+ +<+@+[+}+|+1+2+3+4+5+5 ",
"5 P 6+w 7+8+9+0+a+b+U.c+d+c+e+f+g+h+i+j+<+@+@+_+k+|+l+m+n+o+p+5 ",
"5 P 6+w 7+q+r+s+s+b+U.c+d+t+u+v+w+(+x+_+_+_+x+y+(+z+A+B+C+D+E+5 ",
"5 P 6+w 7+F+r+s+s+b+U.{+{+V.G+H+I+J+(+y+y+(+(+K+L+M+N+O+P+Q+R+5 ",
"5 P 6+w 7+S+T+U+s+V+W+U.U.X+Y+Z+`+ @L+z+.@z+L++@@@#@$@%@&@*@E+5 ",
"5 P 6+w 7+F+9+a+a+=@=@=@=@-@;@>@,@W.'@)@!@)@~@'@`+]+{@]@^@/@E+5 ",
"5 P ;+w (@_@:@<@<@<@<@V+V+[@}@|@1@{+,@`+2@3@3@4@5@6@7@8@9@/@E+5 ",
"5 0@a@b@c@d@e@f@g@f@g@h@i@j@k@l@m@i@n@o@o@p@q@q@q@n@r@s@t@u@v@5 ",
"5 w@x@w y@z@A@B@B@B@B@C@D@D@E@F@G@H@I@J@K@L@I@I@L@I@M@N@O@P@Q@5 ",
"5 P 6+w 7+F+9+R@R@S@R@R@T@U@V@W@X@T.V.T.T.T.Y@Z@Y@X+`@ #.#+#Q@5 ",
"5 P 6+w 7+q+@#a+U+s+<@##$#%#&#W@~+U.*#U.1@U.W+b+b+W+=#-#.#+#Q@5 ",
"5 P 6+w ;#>#,#'#a+U+<@##$#)#!#W@~#W+U.U.U.W+W+W+~#{#]#a+^#+#Q@5 ",
"5 P -.w s./#(#_#'#:#U+U+U+)#!#<#<@<@<@<@<@<@[#}#|#1#2#3#4#P@v@5 ",
"5 P -.w 5#6#7#8#9#a+0#S@a+)#!#<###a+U+U+a+R@:#T@a#b#c#d#w e#f#5 ",
"5 P -.w w w ;#g#h#i#!+S@S@S@!#<#<@a+U+a+a+=@j#s+>#k#P+w w l#f#5 ",
"5 P -.w w O.w m#n#o#s+p#s+q#!#<#T@)#a+a+)#1#r#-#s#t#w w w l#f#5 ",
"5 P -.w w O.w O.u#v#w#x#y#z#A#B#:#0#'#0#U+C#D#E#F#s.w w w l#f#5 ",
"5 P -.w w w O.O.w w w w G#H#I#J#K#L#L#L#M#N#w w w w O.w w l#f#5 ",
"5 P -.w w w w w w w w 5#O#P#Q#R#S#P#P#P#T#s.w w w w w w w l#f#5 ",
"5 U#v w w w w w w w w w w w V#W#w w w w w w w w w w w w w X#f#5 ",
"5 Y#Z#`# $ $ $ $ $ $ $ $.$.$+$@$#$.$.$.$.$ $ $ $ $ $ $$$-.P %$5 ",
"5 &$Y#*$=$-$-$-$-$-$-$-$-$-$;$>$,$-$-$-$-$-$-$-$-$-$-$=$P '$)$5 ",
"5 5 5 5 5 5 5 5 5 5 5 5 5 5 !$~$5 5 5 5 5 5 5 5 5 5 5 5 5 5 5 5 "};
