/* XPM */
static char * Deformation_xpm[] = {
"32 32 112 2",
"  	c #000000",
". 	c #060600",
"+ 	c #FFFF00",
"@ 	c #090900",
"# 	c #FBFF00",
"$ 	c #F8FF00",
"% 	c #DB0000",
"& 	c #FF0000",
"* 	c #B20000",
"= 	c #BB1700",
"- 	c #FF1E00",
"; 	c #FB0F00",
"> 	c #CF0000",
", 	c #EF0E00",
"' 	c #FF1C00",
") 	c #991200",
"! 	c #020100",
"~ 	c #B62100",
"{ 	c #F12000",
"] 	c #C01100",
"^ 	c #090100",
"/ 	c #240300",
"( 	c #BC0F00",
"_ 	c #FF2500",
": 	c #992000",
"< 	c #B63A00",
"[ 	c #FB3800",
"} 	c #2A0400",
"| 	c #400900",
"1 	c #FF3F00",
"2 	c #9A2F00",
"3 	c #C05300",
"4 	c #FF5A00",
"5 	c #2B0900",
"6 	c #BC4800",
"7 	c #FF7800",
"8 	c #D27A00",
"9 	c #FF9300",
"0 	c #1F0800",
"a 	c #241000",
"b 	c #FF8900",
"c 	c #D17300",
"d 	c #CC9000",
"e 	c #FFCE00",
"f 	c #090400",
"g 	c #FFC300",
"h 	c #CC8900",
"i 	c #C8A400",
"j 	c #FFEB00",
"k 	c #CFA200",
"l 	c #C6BE00",
"m 	c #DDCD00",
"n 	c #000100",
"o 	c #C5C800",
"p 	c #F3F400",
"q 	c #020200",
"r 	c #BDBF00",
"s 	c #0A0C00",
"t 	c #C2CF00",
"u 	c #DFEB00",
"v 	c #040500",
"w 	c #C8D800",
"x 	c #C9DD00",
"y 	c #131500",
"z 	c #151800",
"A 	c #B3C600",
"B 	c #B0CB00",
"C 	c #BADB00",
"D 	c #1E2400",
"E 	c #394200",
"F 	c #576D00",
"G 	c #354500",
"H 	c #F7FF00",
"I 	c #556800",
"J 	c #0F1900",
"K 	c #96E300",
"L 	c #83BE00",
"M 	c #0F1300",
"N 	c #090B00",
"O 	c #77A500",
"P 	c #A4EE00",
"Q 	c #213000",
"R 	c #0E1300",
"S 	c #A6FF00",
"T 	c #509C00",
"U 	c #407400",
"V 	c #B2FF00",
"W 	c #253B00",
"X 	c #70FF00",
"Y 	c #4CCE00",
"Z 	c #419900",
"` 	c #7CFF00",
" .	c #102400",
"..	c #43FF00",
"+.	c #2DD800",
"@.	c #268B00",
"#.	c #53FF00",
"$.	c #0D3100",
"%.	c #30FF02",
"&.	c #20AF01",
"*.	c #18B200",
"=.	c #32FF00",
"-.	c #22FF05",
";.	c #097701",
">.	c #14FF08",
",.	c #054D04",
"'.	c #0E9103",
").	c #0FE019",
"!.	c #13FF1C",
"~.	c #044D0A",
"{.	c #0FFF31",
"].	c #034A0F",
"                                .                               ",
"                                +                               ",
"                                +                               ",
"                                +                               ",
"                                +                               ",
"                                +                               ",
"                                +                               ",
"                @ + + + + + + # + $ + + + + + @                 ",
"                            % & + & *                           ",
"                        = - ;   + > , ' )                       ",
"                    ! ~ { ] ^   +   / ( _ :                     ",
"                    < [ }       +       | 1 2                   ",
"                  3 4 5         +         6 7                   ",
"                8 9 0           +         a b c                 ",
"              d e f             +           f g h               ",
"            i +                 @               j k             ",
"          l +                                   + m             ",
"        n o p q                                   + r           ",
"      s t u v                                   n w x y         ",
"    z A x y                                       n B C D       ",
"    E + F                                           G H I       ",
"  J K L M                                           N O P Q     ",
"  R S T                                               U V W     ",
"  X Y                                                   Z `  .  ",
"..+.                                                    @.#.$.  ",
"%.&.                                                      *.=.  ",
"-.                                                        ;.>.,.",
"'.                                                          ).!.",
"                                                            ~.{.",
"                                                              ].",
"                                                                ",
"                                                                "};
