/* XPM */
static char * History_xpm[] = {
"18 18 38 1",
" 	c None",
".	c #FFFFFF",
"+	c #404C7C",
"@	c #3E4A7A",
"#	c #3A4677",
"$	c #364172",
"%	c #F9FAFC",
"&	c #6874A1",
"*	c #323D6E",
"=	c #BAC1D8",
"-	c #66729F",
";	c #2C3767",
">	c #A1AAC9",
",	c #F2F3F8",
"'	c #626E9B",
")	c #252F5E",
"!	c #333E6F",
"~	c #2F3A6B",
"{	c #2A3565",
"]	c #232D5B",
"^	c #1D2652",
"/	c #273160",
"(	c #FDFDFE",
"_	c #4D5989",
":	c #465283",
"<	c #F4F5F9",
"[	c #0E1438",
"}	c #394576",
"|	c #374374",
"1	c #374273",
"2	c #354071",
"3	c #E2E5EF",
"4	c #D8DCE9",
"5	c #FEFEFE",
"6	c #384475",
"7	c #343F70",
"8	c #F7F8FB",
"9	c #313C6D",
".++@#@#@#@#@#$%...",
".&...........*=%..",
".-...........;>,..",
".'...........)>,..",
".!~{]{]{]{]{]^>,..",
".%=>>>>>>>>>>>=%..",
"./@#@#@#@#@@#$%.(.",
"._...........*=%%.",
".:...........;>,<.",
".+...........)>,,.",
".[{]{]{]{]{{]^>,<.",
".%>>>>>>>>>>>>=%%.",
".}|12|12|1|12!345.",
".612712712127*=8..",
".|$7!$7!$7$7!*>...",
".127*27*2727*9>...",
".$2!*2!*2!2!*9>...",
".%=>>=>>=>=>>>=..."};
