/* XPM */
static char * SearchIcon_xpm[] = {
"19 18 75 1",
" 	c #F7F9FC",
".	c #F4F6F9",
"+	c #EBEDF0",
"@	c #F6F9FC",
"#	c #F8FAFD",
"$	c #F9FBFD",
"%	c #F6F8FB",
"&	c #F7F9FB",
"*	c #E0EBF4",
"=	c #9CC3DD",
"-	c #62A0CB",
";	c #3B87BD",
">	c #F7F8FB",
",	c #7BADD2",
"'	c #3683BA",
")	c #F8F9FC",
"!	c #9CC0DA",
"~	c #3580B7",
"{	c #83B0D2",
"]	c #E0EAF3",
"^	c #F9FAFC",
"/	c #6299C4",
"(	c #357DB4",
"_	c #E0EAF2",
":	c #397DB2",
"<	c #3479B0",
"[	c #F5F8FB",
"}	c #F8FAFC",
"|	c #5F93BE",
"1	c #3375AC",
"2	c #DEE8F1",
"3	c #F6F9FB",
"4	c #94B5D2",
"5	c #3271A7",
"6	c #81A7C9",
"7	c #DEE8F0",
"8	c #99B9D3",
"9	c #EBF1F6",
"0	c #5686B3",
"a	c #497DAD",
"b	c #326CA3",
"c	c #799FC3",
"d	c #DFE8F1",
"e	c #F5F7FB",
"f	c #EBF0F6",
"g	c #5886B1",
"h	c #31689E",
"i	c #4677A8",
"j	c #90ADCB",
"k	c #5D89B3",
"l	c #366CA0",
"m	c #99B4CF",
"n	c #DFE8F0",
"o	c #EBF0F5",
"p	c #5782AE",
"q	c #30649A",
"r	c #4876A5",
"s	c #E3E9F1",
"t	c #F7F8FC",
"u	c #EBEFF5",
"v	c #577FAA",
"w	c #2F6096",
"x	c #4772A2",
"y	c #E1E8F0",
"z	c #F6F8FC",
"A	c #F4F7FB",
"B	c #F3F7FA",
"C	c #5C80AB",
"D	c #2F5D93",
"E	c #4770A0",
"F	c #E1E7F0",
"G	c #F5F8FC",
"H	c #C0CDDE",
"I	c #4B719F",
"J	c #F4F6FB",
"                 .+",
"                   ",
"@@@@@@@ #$$$# @@@@@",
"%%%%%%&*=-;-=*&%%%%",
"%%%%%>*,''''',*>%%%",
"%%%%%)!~{]^]{~!)%%%",
"%%%%%^/(_&%&_(/^%%%",
"%%%%%^:<^%%%^<:^%%%",
"[[[[[}|123[321|}[[[",
"[[[[[}4567}7658 [[[",
"[[[[390abbbbbcd%[[[",
"eee%fghijklkmn%eeee",
"ee%opqrs))})t%eeeee",
"e%uvwxyzeeeeeeeeeee",
"ABCDEFGAAAAAAAAAAAA",
"AGHIFGAAAAAAAAAAAAA",
"AAGB[AAAAAAAAAAAAAA",
"JJJJJJJJJJJJJJJJJJJ"};
