/* XPM */
static char * mitkCorrectorTool2DOn_xpm[] = {
"24 24 10 1",
" 	c None",
".	c #D20000",
"+	c #D2CDCD",
"@	c #00ABD2",
"#	c #00ABD3",
"$	c #00A9D3",
"%	c #00AAD3",
"&	c #00AAD4",
"*	c #00ABD5",
"=	c #00AAD2",
"........................",
".++++++++++++++++++++++.",
".++++++++++++++++++++++.",
".+++++++++++++++++++@++.",
".++#$%%%%%#+++++++++%++.",
".++++++++++++++++++%+++.",
".+++++++++++++++++%++++.",
".++++++++++++++++%+++++.",
".++++++++++++++$%%+++++.",
".++++++++++++%%%+++++++.",
".++++++++++&%$+++++++++.",
".+++++++%%&++++++++++++.",
".+++++%%+++++++++++++++.",
".+++++++++++++++++%++++.",
".+++%++++++++++++*%++++.",
".++%+++++++++++++*%++++.",
".++%+++++++++++$$%%&$&+.",
".+%+++++++++++=%=%%%==+.",
".+%++++++++++++++*%++++.",
".++++++++++++++++*%++++.",
".+%++++++++++++++#$++++.",
".++++++++++++++++++++++.",
".++++++++++++++++++++++.",
"........................"};
