/* XPM */
static char * mitkPolygonToolOn_xpm[] = {
"24 24 33 1",
" 	c None",
".	c #D20000",
"+	c #017995",
"@	c #018FB1",
"#	c #01A9D1",
"$	c #01AAD2",
"%	c #018DAF",
"&	c #017D9B",
"*	c #017D9A",
"=	c #0189A9",
"-	c #018CAC",
";	c #0185A4",
">	c #018CAD",
",	c #01A4CA",
"'	c #019EC3",
")	c #018AAA",
"!	c #017B97",
"~	c #0182A1",
"{	c #0197BB",
"]	c #0195B8",
"^	c #01A2C9",
"/	c #01A0C6",
"(	c #0188A8",
"_	c #017F9C",
":	c #0197BA",
"<	c #01A3CA",
"[	c #01A7CF",
"}	c #019BBF",
"|	c #0196B9",
"1	c #0190B2",
"2	c #0183A2",
"3	c #017B98",
"4	c #0181A0",
"........................",
".                      .",
".                      .",
".                      .",
".                      .",
".   ++@#$$$$$$%&       .",
".   +++$$$$$$$*+*      .",
".   =+-       ;+>$     .",
".   $$          ,$$    .",
".   $$           $$$   .",
".   $$            '>)  .",
".   $$            *!!> .",
".   $$             ~~  .",
".   {]             ^/  .",
".  (__            $$   .",
".  -__:$          $$   .",
".   @]<$$$$$     $$    .",
".       $$$$$$$  ^[    .",
".          $$$$}~~|    .",
".              1!!2    .",
".               34     .",
".                      .",
".                      .",
"........................"};
