/* XPM */
static char * mitkSubtractContourToolOff_xpm[] = {
"24 24 5 1",
" 	c #D20000",
".	c #D2CDCD",
"+	c #771515",
"@	c #67282D",
"#	c #564A54",
"                        ",
" ............++++++.... ",
" ..........++++++++++.. ",
" ........++++.....+++.. ",
" .......+@+.........++. ",
" ......++...........++. ",
" .....+++...........++. ",
" .....++............++. ",
" .....++............++. ",
" .....++++.........++.. ",
" .....+++++.......++... ",
" .....++++++....#+++... ",
" ......+++++++++++..... ",
" ......+++++++++....... ",
" ........++............ ",
" ........++............ ",
" ........++............ ",
" .......++............. ",
" .......++............. ",
" ......+++............. ",
" ...+++++.............. ",
" ...++++............... ",
" ...................... ",
"                        "};
